{"totalResults": 177, "page": 1, "total_pages": 8, "more_pages": true, "data": [{"restaurant_name": "Louise's Trattoria", "restaurant_phone": "(323) 962-9510", "restaurant_website": "", "hours": "Mon-Thu: 11am-10pm Fri-Sat: 11am-10:30pm Sun: 12pm-9:30pm", "price_range": "$$$", "price_range_num": 3, "restaurant_id": 34075642118323470, "cuisines": ["Italian"], "address": {"city": "Los Angeles", "state": "CA", "postal_code": "90004", "street": "232 N Larchmont Blvd", "formatted": "232 N Larchmont Blvd Los Angeles, CA 90004"}, "geo": {"lat": 34.075642, "lon": -118.323471}, "menus": [], "last_updated": "2020-12-29T06:50:34.113Z"}, {"restaurant_name": "Sermmith Thai", "restaurant_phone": "(323) 663-7079", "restaurant_website": "", "hours": "", "price_range": "$", "price_range_num": 1, "restaurant_id": 34083528118305190, "cuisines": ["Asian", "Healthy", "Thai"], "address": {"city": "Los Angeles", "state": "CA", "postal_code": "90004", "street": "4814 Melrose Ave.", "formatted": "4814 Melrose Ave. Los Angeles, CA 90004"}, "geo": {"lat": 34.083528, "lon": -118.305194}, "menus": [], "last_updated": "2020-12-29T06:50:34.530Z"}, {"restaurant_name": "Mexican Village", "restaurant_phone": "(213) 385-0479", "restaurant_website": "", "hours": "Mon-Fri:11am-2am Sat: 6pm-2am ", "price_range": "$$", "price_range_num": 2, "restaurant_id": 34076199118288400, "cuisines": ["Mexican"], "address": {"city": "Los Angeles", "state": "CA", "postal_code": "90004", "street": "3668 Beverly Blvd", "formatted": "3668 Beverly Blvd Los Angeles, CA 90004"}, "geo": {"lat": 34.076199, "lon": -118.2884}, "menus": [], "last_updated": "2020-12-29T06:50:33.251Z"}, {"restaurant_name": "Domino's Pizza", "restaurant_phone": "(213) 385-3888", "restaurant_website": "http://www.dominos.com", "hours": "", "price_range": "", "price_range_num": 0, "restaurant_id": 34070156118307884, "cuisines": ["American", "Pizza", "Wings"], "address": {"city": "Los Angeles", "state": "CA", "postal_code": "90004", "street": "244 S Oxford Ave", "formatted": "244 S Oxford Ave Los Angeles, CA 90004"}, "geo": {"lat": 34.070156, "lon": -118.307884}, "menus": [], "last_updated": "2020-12-29T06:46:06.864Z"}, {"restaurant_name": "Valerie Confections Boutique", "restaurant_phone": "(213) 739-8149", "restaurant_website": "http:///ca/los-angeles/722820-valerie-confections-boutique/", "hours": "", "price_range": "", "price_range_num": 0, "restaurant_id": 34073322118286132, "cuisines": [""], "address": {"city": "Los Angeles", "state": "CA", "postal_code": "90004", "street": "3364 West 1st Street", "formatted": "3364 West 1st Street Los Angeles, CA 90004"}, "geo": {"lat": 34.073322, "lon": -118.286133}, "menus": [], "last_updated": "2020-12-29T06:46:07.205Z"}, {"restaurant_name": "Ohmy Sushi & Hawaiian BBQ", "restaurant_phone": "(213) 480-7779", "restaurant_website": "http:///ca/los-angeles/722750-ohmy-sushi-hawaiian-bbq/", "hours": "", "price_range": "", "price_range_num": 0, "restaurant_id": 34070789118291190, "cuisines": [""], "address": {"city": "Los Angeles", "state": "CA", "postal_code": "90004", "street": "186 South Vermont Avenue", "formatted": "186 South Vermont Avenue Los Angeles, CA 90004"}, "geo": {"lat": 34.070789, "lon": -118.291191}, "menus": [], "last_updated": "2020-12-29T06:46:07.495Z"}, {"restaurant_name": "Virgil & Clinton Taco Stand", "restaurant_phone": "(877) 585-1085", "restaurant_website": "http:///ca/los-angeles/722726-virgil-clinton-taco-stand/", "hours": "", "price_range": "", "price_range_num": 0, "restaurant_id": 34081917118287030, "cuisines": [""], "address": {"city": "Los Angeles", "state": "CA", "postal_code": "90004", "street": "601 North Virgil Avenue", "formatted": "601 North Virgil Avenue Los Angeles, CA 90004"}, "geo": {"lat": 34.081917, "lon": -118.287033}, "menus": [], "last_updated": "2020-12-29T06:46:07.541Z"}, {"restaurant_name": "Qpasta", "restaurant_phone": "(765) 371-9392", "restaurant_website": "http:///ca/los-angeles/722664-qpasta/", "hours": "", "price_range": "", "price_range_num": 0, "restaurant_id": 34074936118323950, "cuisines": [""], "address": {"city": "Los Angeles", "state": "CA", "postal_code": "90004", "street": "209 N Larchmont Blvd", "formatted": "209 N Larchmont Blvd Los Angeles, CA 90004"}, "geo": {"lat": 34.074936, "lon": -118.323952}, "menus": [], "last_updated": "2020-12-29T06:46:07.949Z"}, {"restaurant_name": "Salt & Straw", "restaurant_phone": "(323) 466-0485", "restaurant_website": "http:///ca/los-angeles/722578-salt-straw/", "hours": "", "price_range": "", "price_range_num": 0, "restaurant_id": 34075821118323440, "cuisines": [""], "address": {"city": "Los Angeles", "state": "CA", "postal_code": "90004", "street": "240 North Larchmont Boulevard", "formatted": "240 North Larchmont Boulevard Los Angeles, CA 90004"}, "geo": {"lat": 34.075821, "lon": -118.323441}, "menus": [], "last_updated": "2020-12-29T06:46:08.223Z"}, {"restaurant_name": "Antico Restaurant", "restaurant_phone": "(323) 510-3093", "restaurant_website": "http:///ca/los-angeles/722590-antico-restaurant/", "hours": "", "price_range": "", "price_range_num": 0, "restaurant_id": 34076569118311028, "cuisines": [""], "address": {"city": "Los Angeles", "state": "CA", "postal_code": "90004", "street": "4653 Beverly Boulevard", "formatted": "4653 Beverly Boulevard Los Angeles, CA 90004"}, "geo": {"lat": 34.076569, "lon": -118.311028}, "menus": [], "last_updated": "2020-12-29T06:46:08.250Z"}, {"restaurant_name": "Sea Dragon Chinese Restaurant", "restaurant_phone": "(877) 585-1085", "restaurant_website": "http:///ca/los-angeles/719874-sea-dragon-chinese-restaurant/", "hours": "", "price_range": "", "price_range_num": 0, "restaurant_id": 34072575118292210, "cuisines": [""], "address": {"city": "Los Angeles", "state": "CA", "postal_code": "90004", "street": "101 South Vermont Avenue", "formatted": "101 South Vermont Avenue Los Angeles, CA 90004"}, "geo": {"lat": 34.072575, "lon": -118.292206}, "menus": [], "last_updated": "2020-12-29T06:46:08.821Z"}, {"restaurant_name": "Sweetfin Poke", "restaurant_phone": "(323) 465-6040", "restaurant_website": "http:///ca/los-angeles/719693-sweetfin-poke/", "hours": "", "price_range": "", "price_range_num": 0, "restaurant_id": 34074043118323984, "cuisines": [""], "address": {"city": "Los Angeles", "state": "CA", "postal_code": "90004", "street": "135 North Larchmont Boulevard", "formatted": "135 North Larchmont Boulevard Los Angeles, CA 90004"}, "geo": {"lat": 34.074043, "lon": -118.323982}, "menus": [], "last_updated": "2020-12-29T06:46:09.102Z"}, {"restaurant_name": "Vernetti", "restaurant_phone": "(877) 585-1085", "restaurant_website": "http:///ca/los-angeles/719698-vernetti/", "hours": "", "price_range": "", "price_range_num": 0, "restaurant_id": 34075375118323936, "cuisines": [""], "address": {"city": "Los Angeles", "state": "CA", "postal_code": "90004", "street": "225 North Larchmont Boulevard", "formatted": "225 North Larchmont Boulevard Los Angeles, CA 90004"}, "geo": {"lat": 34.075375, "lon": -118.323936}, "menus": [], "last_updated": "2020-12-29T06:46:09.117Z"}, {"restaurant_name": "Groundwork Coffee Co.", "restaurant_phone": "(877) 585-1085", "restaurant_website": "http:///ca/los-angeles/719680-groundwork-coffee-co/", "hours": "", "price_range": "", "price_range_num": 0, "restaurant_id": 34074593118323388, "cuisines": [""], "address": {"city": "Los Angeles", "state": "CA", "postal_code": "90004", "street": "150 North Larchmont Boulevard", "formatted": "150 North Larchmont Boulevard Los Angeles, CA 90004"}, "geo": {"lat": 34.074593, "lon": -118.323387}, "menus": [], "last_updated": "2020-12-29T06:46:09.130Z"}, {"restaurant_name": "Full House Barbeque", "restaurant_phone": "(323) 250-0550", "restaurant_website": "http:///ca/los-angeles/719625-full-house-barbeque/", "hours": "", "price_range": "", "price_range_num": 0, "restaurant_id": 34076546118293680, "cuisines": [""], "address": {"city": "Los Angeles", "state": "CA", "postal_code": "90004", "street": "3909 Beverly Boulevard", "formatted": "3909 Beverly Boulevard Los Angeles, CA 90004"}, "geo": {"lat": 34.076546, "lon": -118.293678}, "menus": [], "last_updated": "2020-12-29T06:46:09.433Z"}, {"restaurant_name": "La Casa Chapina Restaurant", "restaurant_phone": "(323) 246-1997", "restaurant_website": "http:///ca/los-angeles/573232-la-casa-chapina-restaurant/", "hours": "", "price_range": "", "price_range_num": 0, "restaurant_id": 34080467118309404, "cuisines": [""], "address": {"city": "Los Angeles", "state": "CA", "postal_code": "90004", "street": "501 N Western Ave", "formatted": "501 N Western Ave Los Angeles, CA 90004"}, "geo": {"lat": 34.080467, "lon": -118.309403}, "menus": [], "last_updated": "2020-12-28T19:25:12.160Z"}, {"restaurant_name": "Sool O Bang", "restaurant_phone": "(323) 407-6470", "restaurant_website": "http:///ca/los-angeles/572770-sool-o-bang/", "hours": "", "price_range": "", "price_range_num": 0, "restaurant_id": 34076443118299864, "cuisines": [""], "address": {"city": "Los Angeles", "state": "CA", "postal_code": "90004", "street": "4161 Beverly Blvd", "formatted": "4161 Beverly Blvd Los Angeles, CA 90004"}, "geo": {"lat": 34.076443, "lon": -118.299866}, "menus": [], "last_updated": "2020-12-28T19:25:12.049Z"}, {"restaurant_name": "Gail's Rolls N' Grill", "restaurant_phone": "(323) 522-6996", "restaurant_website": "http:///ca/los-angeles/579234-gails-rolls-n-grill/", "hours": "", "price_range": "", "price_range_num": 0, "restaurant_id": 34081028118284624, "cuisines": [""], "address": {"city": "Los Angeles", "state": "CA", "postal_code": "90004", "street": "557 N Hoover St", "formatted": "557 N Hoover St Los Angeles, CA 90004"}, "geo": {"lat": 34.081028, "lon": -118.284622}, "menus": [], "last_updated": "2020-12-28T19:25:13.130Z"}, {"restaurant_name": "Thai Original BBQ Restaurant", "restaurant_phone": "(323) 463-8499", "restaurant_website": "", "hours": "Sun-Thu: 11am-10pm Fri-Sat: 11am-11pm", "price_range": "$$", "price_range_num": 2, "restaurant_id": 34079737118309120, "cuisines": ["Barbecue", "Thai"], "address": {"city": "Los Angeles", "state": "CA", "postal_code": "90004", "street": "484 N Western Ave", "formatted": "484 N Western Ave Los Angeles, CA 90004"}, "geo": {"lat": 34.079737, "lon": -118.309118}, "menus": [], "last_updated": "2020-12-29T06:50:08.985Z"}, {"restaurant_name": "El Carbonero", "restaurant_phone": "(213) 380-4305", "restaurant_website": "", "hours": "Daily: 10am-10pm", "price_range": "$", "price_range_num": 1, "restaurant_id": 34076196118300256, "cuisines": ["Central American"], "address": {"city": "Los Angeles", "state": "CA", "postal_code": "90004", "street": "4281 Beverly Blvd", "formatted": "4281 Beverly Blvd Los Angeles, CA 90004"}, "geo": {"lat": 34.076196, "lon": -118.300257}, "menus": [], "last_updated": "2020-12-29T06:50:29.665Z"}, {"restaurant_name": "Prado Restaurant", "restaurant_phone": "(323) 467-3871", "restaurant_website": "", "hours": "Lunch Mon-Sat: 11:30am-3pm Dinner Mon-Sat: 5:30pm-10pm Sun: 4:30pm-10pm", "price_range": "$$$", "price_range_num": 3, "restaurant_id": 34075882118323480, "cuisines": ["Caribbean", "Jamaican"], "address": {"city": "Los Angeles", "state": "CA", "postal_code": "90004", "street": "244 N Larchmont Blvd", "formatted": "244 N Larchmont Blvd Los Angeles, CA 90004"}, "geo": {"lat": 34.075882, "lon": -118.323478}, "menus": [], "last_updated": "2020-12-29T06:50:29.807Z"}, {"restaurant_name": "Mecko Restaurant", "restaurant_phone": "(323) 660-8200", "restaurant_website": "", "hours": "", "price_range": "$", "price_range_num": 1, "restaurant_id": 34076304118293796, "cuisines": ["Asian", "Chicken", "Korean", "Latin American"], "address": {"city": "LOS ANGELES", "state": "CA", "postal_code": "90004", "street": "3909 W Beverly Blvd", "formatted": "3909 W Beverly Blvd LOS ANGELES, CA 90004"}, "geo": {"lat": 34.076304, "lon": -118.293795}, "menus": [], "last_updated": "2020-12-29T06:50:29.919Z"}, {"restaurant_name": "zpizza", "restaurant_phone": "(323) 466-6969", "restaurant_website": "http://www.zpizza.com", "hours": "Daily: 11am-10pm", "price_range": "$", "price_range_num": 1, "restaurant_id": 34073408118323776, "cuisines": ["Local/Organic", "Pizza"], "address": {"city": "Los Angeles", "state": "CA", "postal_code": "90004", "street": "123 N Larchmont Blvd", "formatted": "123 N Larchmont Blvd Los Angeles, CA 90004"}, "geo": {"lat": 34.073408, "lon": -118.323777}, "menus": [], "last_updated": "2020-12-29T06:50:30.827Z"}, {"restaurant_name": "Chan Dara", "restaurant_phone": "(323) 467-1052", "restaurant_website": "http://www.chandararestaurants.com", "hours": "Mon-Fri: 11:30am-10pm Sat-Sun: 12:30pm-10pm", "price_range": "$$", "price_range_num": 2, "restaurant_id": 34076588118323320, "cuisines": ["Asian", "Thai"], "address": {"city": "Los Angeles", "state": "CA", "postal_code": "90004", "street": "310 N Larchmont Blvd", "formatted": "310 N Larchmont Blvd Los Angeles, CA 90004"}, "geo": {"lat": 34.076588, "lon": -118.323318}, "menus": [], "last_updated": "2020-12-29T06:50:31.242Z"}, {"restaurant_name": "Taurat Tandoori", "restaurant_phone": "(213) 383-6780", "restaurant_website": "", "hours": "Daily: 11am-11pm", "price_range": "$$", "price_range_num": 2, "restaurant_id": 34072733118291704, "cuisines": ["Healthy", "Indian", "Lunch Specials", "Vegetarian"], "address": {"city": "Los Angeles", "state": "CA", "postal_code": "90004", "street": "101 S. Vermont Ave", "formatted": "101 S. Vermont Ave Los Angeles, CA 90004"}, "geo": {"lat": 34.072733, "lon": -118.291702}, "menus": [], "last_updated": "2020-12-29T06:50:31.863Z"}], "numResults": 25}