{"totalResults": 132, "page": 1, "total_pages": 6, "more_pages": true, "data": [{"restaurant_name": "El Paraiso", "restaurant_phone": "(323) 721-3632", "restaurant_website": "http:///ca/commerce/816393-el-paraiso/", "hours": "", "price_range": "", "price_range_num": 0, "restaurant_id": 34014042118146930, "cuisines": [""], "address": {"city": "Commerce", "state": "CA", "postal_code": "90022", "street": "5737 East Olympic Boulevard", "formatted": "5737 East Olympic Boulevard Commerce, CA 90022"}, "geo": {"lat": 34.014042, "lon": -118.146927}, "menus": [], "last_updated": "2021-01-05T08:32:08.110Z"}, {"restaurant_name": "EGI Chinatown Express #19 INC.", "restaurant_phone": "(323) 726-7908", "restaurant_website": "http:///ca/commerce/778030-egi-chinatown-express-19-inc/", "hours": "", "price_range": "", "price_range_num": 0, "restaurant_id": 34013728118147096, "cuisines": [""], "address": {"city": "Commerce", "state": "CA", "postal_code": "90022", "street": "5736 E Olympic Blvd", "formatted": "5736 E Olympic Blvd Commerce, CA 90022"}, "geo": {"lat": 34.013728, "lon": -118.147095}, "menus": [], "last_updated": "2021-01-05T08:32:08.121Z"}, {"restaurant_name": "N2 Lab", "restaurant_phone": "(323) 888-8668", "restaurant_website": "http:///ca/commerce/718266-n2-lab/", "hours": "", "price_range": "", "price_range_num": 0, "restaurant_id": 34019005118151560, "cuisines": [""], "address": {"city": "Commerce", "state": "CA", "postal_code": "90022", "street": "5530 Whittier Boulevard", "formatted": "5530 Whittier Boulevard Commerce, CA 90022"}, "geo": {"lat": 34.019005, "lon": -118.151558}, "menus": [], "last_updated": "2021-01-05T08:32:08.221Z"}, {"restaurant_name": "Panda Wok", "restaurant_phone": "(323) 724-5761", "restaurant_website": "http:///ca/commerce/718252-panda-wok/", "hours": "", "price_range": "", "price_range_num": 0, "restaurant_id": 34017597118148770, "cuisines": [""], "address": {"city": "Commerce", "state": "CA", "postal_code": "90022", "street": "5652 Whittier Boulevard", "formatted": "5652 Whittier Boulevard Commerce, CA 90022"}, "geo": {"lat": 34.017597, "lon": -118.148766}, "menus": [], "last_updated": "2021-01-05T08:32:08.228Z"}, {"restaurant_name": "Dona Marta's", "restaurant_phone": "(323) 720-4154", "restaurant_website": "http:///ca/commerce/718025-dona-martas/", "hours": "", "price_range": "", "price_range_num": 0, "restaurant_id": 34018925118151276, "cuisines": [""], "address": {"city": "Commerce", "state": "CA", "postal_code": "90022", "street": "5538 Whittier Boulevard", "formatted": "5538 Whittier Boulevard Commerce, CA 90022"}, "geo": {"lat": 34.018925, "lon": -118.151276}, "menus": [], "last_updated": "2021-01-05T08:32:08.244Z"}, {"restaurant_name": "Corners Express", "restaurant_phone": "(323) 490-7552", "restaurant_website": "http:///ca/commerce/717657-corners-express/", "hours": "", "price_range": "", "price_range_num": 0, "restaurant_id": 34017868118146690, "cuisines": [""], "address": {"city": "Commerce", "state": "CA", "postal_code": "90022", "street": "5750 Whittier Boulevard", "formatted": "5750 Whittier Boulevard Commerce, CA 90022"}, "geo": {"lat": 34.017868, "lon": -118.14669}, "menus": [], "last_updated": "2021-01-05T08:32:08.372Z"}, {"restaurant_name": "La Michocana Supreme", "restaurant_phone": "(323) 490-7233", "restaurant_website": "http:///ca/commerce/717076-la-michocana-supreme/", "hours": "", "price_range": "", "price_range_num": 0, "restaurant_id": 34018101118147450, "cuisines": [""], "address": {"city": "Commerce", "state": "CA", "postal_code": "90022", "street": "5714 Whittier Blvd", "formatted": "5714 Whittier Blvd Commerce, CA 90022"}, "geo": {"lat": 34.018101, "lon": -118.147446}, "menus": [], "last_updated": "2021-01-05T08:32:08.376Z"}, {"restaurant_name": "Sakura Sushi New Generation", "restaurant_phone": "(323) 617-2569", "restaurant_website": "http:///ca/commerce/602567-sakura-sushi-new-generation/", "hours": "", "price_range": "", "price_range_num": 0, "restaurant_id": 34018322118148500, "cuisines": [""], "address": {"city": "Commerce", "state": "CA", "postal_code": "90022", "street": "5686 Whittier Blvd", "formatted": "5686 Whittier Blvd Commerce, CA 90022"}, "geo": {"lat": 34.018322, "lon": -118.148499}, "menus": [], "last_updated": "2021-01-05T08:32:08.415Z"}, {"restaurant_name": "Rincon Poblano Angelita #1", "restaurant_phone": "(323) 821-2051", "restaurant_website": "http:///ca/commerce/606087-rincon-poblano-angelita-1/", "hours": "", "price_range": "", "price_range_num": 0, "restaurant_id": 34019180118149804, "cuisines": [""], "address": {"city": "Commerce", "state": "CA", "postal_code": "90022", "street": "5615 Whittier Blvd", "formatted": "5615 Whittier Blvd Commerce, CA 90022"}, "geo": {"lat": 34.01918, "lon": -118.149803}, "menus": [], "last_updated": "2021-01-05T08:32:08.434Z"}, {"restaurant_name": "Starbucks", "restaurant_phone": "(323) 725-1402", "restaurant_website": "http:///ca/commerce/717790-starbucks/", "hours": "", "price_range": "", "price_range_num": 0, "restaurant_id": 34019096118153616, "cuisines": [""], "address": {"city": "Commerce", "state": "CA", "postal_code": "90022", "street": "906 Goodrich Boulevard", "formatted": "906 Goodrich Boulevard Commerce, CA 90022"}, "geo": {"lat": 34.019096, "lon": -118.153618}, "menus": [], "last_updated": "2021-01-05T08:32:08.499Z"}, {"restaurant_name": "La Monarca Bakery", "restaurant_phone": "(323) 869-8800", "restaurant_website": "", "hours": "Daily: 6am-9pm", "price_range": "$", "price_range_num": 1, "restaurant_id": 34018185118147770, "cuisines": ["Bakery & Pastries", "Coffee & Tea", "Desserts"], "address": {"city": "Commerce", "state": "CA", "postal_code": "90022", "street": "5700 Whittier Boulevard", "formatted": "5700 Whittier Boulevard Commerce, CA 90022"}, "geo": {"lat": 34.018185, "lon": -118.147766}, "menus": [], "last_updated": "2021-01-05T08:32:08.571Z"}, {"restaurant_name": "Chalio Mexican Restaurant", "restaurant_phone": "(323) 262-3456", "restaurant_website": "http:///ca/east-los-angeles/832487-chalio-mexican-restaurant/", "hours": "", "price_range": "", "price_range_num": 0, "restaurant_id": 34020947118156816, "cuisines": [""], "address": {"city": "East Los Angeles", "state": "CA", "postal_code": "90022", "street": "760 South Atlantic Boulevard", "formatted": "760 South Atlantic Boulevard East Los Angeles, CA 90022"}, "geo": {"lat": 34.020947, "lon": -118.156815}, "menus": [], "last_updated": "2021-01-05T08:30:38.718Z"}, {"restaurant_name": "La Farfala Coffee Shop & Deli", "restaurant_phone": "(323) 526-4999", "restaurant_website": "http:///ca/east-los-angeles/821625-la-farfala-coffee-shop-deli/", "hours": "", "price_range": "", "price_range_num": 0, "restaurant_id": 34040058118169068, "cuisines": [""], "address": {"city": "East Los Angeles", "state": "CA", "postal_code": "90022", "street": "346 North Ford Boulevard", "formatted": "346 North Ford Boulevard East Los Angeles, CA 90022"}, "geo": {"lat": 34.040058, "lon": -118.169067}, "menus": [], "last_updated": "2021-01-05T08:30:38.760Z"}, {"restaurant_name": "Olympic Donuts 7", "restaurant_phone": "(323) 263-4670", "restaurant_website": "http:///ca/east-los-angeles/821533-olympic-donuts-7/", "hours": "", "price_range": "", "price_range_num": 0, "restaurant_id": 34040760118162344, "cuisines": [""], "address": {"city": "East Los Angeles", "state": "CA", "postal_code": "90022", "street": "4773 East Cesar E Chavez Avenue", "formatted": "4773 East Cesar E Chavez Avenue East Los Angeles, CA 90022"}, "geo": {"lat": 34.04076, "lon": -118.162346}, "menus": [], "last_updated": "2021-01-05T08:30:38.764Z"}, {"restaurant_name": "Mi Tierra Restaurant", "restaurant_phone": "(323) 726-9152", "restaurant_website": "http:///ca/east-los-angeles/999206-mi-tierra-restaurant/", "hours": "", "price_range": "", "price_range_num": 0, "restaurant_id": 34017471118142556, "cuisines": [""], "address": {"city": "East Los Angeles", "state": "CA", "postal_code": "90022", "street": "5949 Whittier Boulevard", "formatted": "5949 Whittier Boulevard East Los Angeles, CA 90022"}, "geo": {"lat": 34.017471, "lon": -118.142555}, "menus": [], "last_updated": "2021-01-05T08:30:38.802Z"}, {"restaurant_name": "Alex Hamburgers", "restaurant_phone": "(323) 268-8156", "restaurant_website": "http:///ca/east-los-angeles/790989-alex-hamburgers/", "hours": "", "price_range": "", "price_range_num": 0, "restaurant_id": 34018059118165864, "cuisines": [""], "address": {"city": "East Los Angeles", "state": "CA", "postal_code": "90022", "street": "4767 East Olympic Boulevard", "formatted": "4767 East Olympic Boulevard East Los Angeles, CA 90022"}, "geo": {"lat": 34.018059, "lon": -118.165863}, "menus": [], "last_updated": "2021-01-05T08:30:38.810Z"}, {"restaurant_name": "Fat Burrito", "restaurant_phone": "(323) 266-3514", "restaurant_website": "http:///ca/east-los-angeles/796522-fat-burrito/", "hours": "", "price_range": "", "price_range_num": 0, "restaurant_id": 34044064118169010, "cuisines": [""], "address": {"city": "East Los Angeles", "state": "CA", "postal_code": "90022", "street": "4504 Floral Drive", "formatted": "4504 Floral Drive East Los Angeles, CA 90022"}, "geo": {"lat": 34.044064, "lon": -118.169006}, "menus": [], "last_updated": "2021-01-05T08:30:38.814Z"}, {"restaurant_name": "El Rincon De Guayabitos Mariscos", "restaurant_phone": "(323) 262-3630", "restaurant_website": "http:///ca/east-los-angeles/806117-el-rincon-de-guayabitos-mariscos/", "hours": "", "price_range": "", "price_range_num": 0, "restaurant_id": 34021702118157070, "cuisines": [""], "address": {"city": "East Los Angeles", "state": "CA", "postal_code": "90022", "street": "735 South Atlantic Boulevard", "formatted": "735 South Atlantic Boulevard East Los Angeles, CA 90022"}, "geo": {"lat": 34.021702, "lon": -118.157074}, "menus": [], "last_updated": "2021-01-05T08:30:38.822Z"}, {"restaurant_name": "Taqueria El Atacor", "restaurant_phone": "(323) 832-9263", "restaurant_website": "http:///ca/east-los-angeles/789990-taqueria-el-atacor/", "hours": "", "price_range": "", "price_range_num": 0, "restaurant_id": 34014957118132370, "cuisines": [""], "address": {"city": "East Los Angeles", "state": "CA", "postal_code": "90022", "street": "6506 Whittier Boulevard", "formatted": "6506 Whittier Boulevard East Los Angeles, CA 90022"}, "geo": {"lat": 34.014957, "lon": -118.13237}, "menus": [], "last_updated": "2021-01-05T08:30:38.829Z"}, {"restaurant_name": "Rincon De Guayabitos", "restaurant_phone": "(323) 724-4540", "restaurant_website": "http:///ca/east-los-angeles/789862-rincon-de-guayabitos/", "hours": "", "price_range": "", "price_range_num": 0, "restaurant_id": 34017090118140504, "cuisines": [""], "address": {"city": "East Los Angeles", "state": "CA", "postal_code": "90022", "street": "6049 Whittier Boulevard", "formatted": "6049 Whittier Boulevard East Los Angeles, CA 90022"}, "geo": {"lat": 34.01709, "lon": -118.140503}, "menus": [], "last_updated": "2021-01-05T08:30:38.836Z"}, {"restaurant_name": "Mancora Peruvian Cuisine", "restaurant_phone": "(323) 604-9342", "restaurant_website": "http:///ca/east-los-angeles/814863-mancora-peruvian-cuisine/", "hours": "", "price_range": "", "price_range_num": 0, "restaurant_id": 34032635118153900, "cuisines": [""], "address": {"city": "East Los Angeles", "state": "CA", "postal_code": "90022", "street": "283 South Atlantic Boulevard", "formatted": "283 South Atlantic Boulevard East Los Angeles, CA 90022"}, "geo": {"lat": 34.032635, "lon": -118.1539}, "menus": [], "last_updated": "2021-01-05T08:30:38.856Z"}, {"restaurant_name": "Winchell's Donut House", "restaurant_phone": "(323) 267-8540", "restaurant_website": "http:///ca/east-los-angeles/779903-winchells-donut-house/", "hours": "", "price_range": "", "price_range_num": 0, "restaurant_id": 34011261118159516, "cuisines": [""], "address": {"city": "East Los Angeles", "state": "CA", "postal_code": "90022", "street": "1455 South Atlantic Boulevard", "formatted": "1455 South Atlantic Boulevard East Los Angeles, CA 90022"}, "geo": {"lat": 34.011261, "lon": -118.159515}, "menus": [], "last_updated": "2021-01-05T08:30:38.874Z"}, {"restaurant_name": "Tamales Los Angeles", "restaurant_phone": "(323) 263-2020", "restaurant_website": "http:///ca/east-los-angeles/755904-tamales-los-angeles/", "hours": "", "price_range": "", "price_range_num": 0, "restaurant_id": 34044395118173570, "cuisines": [""], "address": {"city": "East Los Angeles", "state": "CA", "postal_code": "90022", "street": "710 North Eastern Avenue", "formatted": "710 North Eastern Avenue East Los Angeles, CA 90022"}, "geo": {"lat": 34.044395, "lon": -118.173569}, "menus": [], "last_updated": "2021-01-05T08:30:38.880Z"}, {"restaurant_name": "Krispy Krunchy Chicken", "restaurant_phone": "(323) 264-9226", "restaurant_website": "http:///ca/east-los-angeles/724001-krispy-krunchy-chicken/", "hours": "", "price_range": "", "price_range_num": 0, "restaurant_id": 34031723118153470, "cuisines": [""], "address": {"city": "East Los Angeles", "state": "CA", "postal_code": "90022", "street": "300 S Atlantic Blvd", "formatted": "300 S Atlantic Blvd East Los Angeles, CA 90022"}, "geo": {"lat": 34.031723, "lon": -118.153473}, "menus": [], "last_updated": "2021-01-05T08:30:38.883Z"}, {"restaurant_name": "Starbucks", "restaurant_phone": "(877) 585-1085", "restaurant_website": "http:///ca/east-los-angeles/832425-starbucks/", "hours": "", "price_range": "", "price_range_num": 0, "restaurant_id": 34019039118153664, "cuisines": [""], "address": {"city": "East Los Angeles", "state": "CA", "postal_code": "90022", "street": "920 Goodrich Boulevard", "formatted": "920 Goodrich Boulevard East Los Angeles, CA 90022"}, "geo": {"lat": 34.019039, "lon": -118.153664}, "menus": [], "last_updated": "2021-01-05T08:30:38.895Z"}], "numResults": 25}