{"totalResults": 57, "page": 1, "total_pages": 3, "more_pages": true, "data": [{"restaurant_name": "L & V's Wings & Things", "restaurant_phone": "(323) 332-2230", "restaurant_website": "", "hours": "Daily: 11am-8pm", "price_range": "$", "price_range_num": 1, "restaurant_id": 34078690118178024, "cuisines": ["Barbecue", "Hot Dogs", "Wings"], "address": {"city": "East Los Angeles", "state": "CA", "postal_code": "90032", "street": "2734 N Eastern Ave", "formatted": "2734 N Eastern Ave East Los Angeles, CA 90032"}, "geo": {"lat": 34.07869, "lon": -118.178025}, "menus": [], "last_updated": "2021-01-05T08:30:39.181Z"}, {"restaurant_name": "Thai Beam Cuisine", "restaurant_phone": "(323) 441-2111", "restaurant_website": "", "hours": "Daily: 10:30am-10:30pm", "price_range": "$$", "price_range_num": 2, "restaurant_id": 34085993118178370, "cuisines": ["Thai"], "address": {"city": "Los Angeles", "state": "CA", "postal_code": "90032", "street": "4854 Huntington Dr", "formatted": "4854 Huntington Dr Los Angeles, CA 90032"}, "geo": {"lat": 34.085993, "lon": -118.178367}, "menus": [], "last_updated": "2020-12-29T06:50:32.827Z"}, {"restaurant_name": "Domino's Pizza", "restaurant_phone": "(323) 222-7722", "restaurant_website": "http://www.dominos.com", "hours": "", "price_range": "", "price_range_num": 0, "restaurant_id": 34066208118179900, "cuisines": ["American", "Pizza", "Wings"], "address": {"city": "Los Angeles", "state": "CA", "postal_code": "90032", "street": "4815 Valley Blvd", "formatted": "4815 Valley Blvd Los Angeles, CA 90032"}, "geo": {"lat": 34.066208, "lon": -118.1799}, "menus": [], "last_updated": "2020-12-29T06:46:06.831Z"}, {"restaurant_name": "Yum Yum Donuts", "restaurant_phone": "(323) 226-0344", "restaurant_website": "http:///ca/los-angeles/780155-yum-yum-donuts/", "hours": "", "price_range": "", "price_range_num": 0, "restaurant_id": 34066841118179788, "cuisines": [""], "address": {"city": "Los Angeles", "state": "CA", "postal_code": "90032", "street": "4815 Valley Boulevard", "formatted": "4815 Valley Boulevard Los Angeles, CA 90032"}, "geo": {"lat": 34.066841, "lon": -118.179787}, "menus": [], "last_updated": "2020-12-28T19:27:17.594Z"}, {"restaurant_name": "Pisces", "restaurant_phone": "(323) 612-6340", "restaurant_website": "http:///ca/los-angeles/575030-pisces/", "hours": "", "price_range": "", "price_range_num": 0, "restaurant_id": 34095326118158532, "cuisines": [""], "address": {"city": "Los Angeles", "state": "CA", "postal_code": "90032", "street": "5587 Huntington Dr N", "formatted": "5587 Huntington Dr N Los Angeles, CA 90032"}, "geo": {"lat": 34.095326, "lon": -118.158531}, "menus": [], "last_updated": "2020-12-28T19:25:12.514Z"}, {"restaurant_name": "Hecho en Mexico", "restaurant_phone": "(323) 226-0010", "restaurant_website": "http:///ca/los-angeles/578730-hecho-en-mexico/", "hours": "", "price_range": "", "price_range_num": 0, "restaurant_id": 34087547118174120, "cuisines": [""], "address": {"city": "Los Angeles", "state": "CA", "postal_code": "90032", "street": "4976 Huntington Dr S", "formatted": "4976 Huntington Dr S Los Angeles, CA 90032"}, "geo": {"lat": 34.087547, "lon": -118.174118}, "menus": [], "last_updated": "2020-12-28T19:25:13.148Z"}, {"restaurant_name": "El Puerto Escondido", "restaurant_phone": "(323) 909-1008", "restaurant_website": "", "hours": "", "price_range": "$$", "price_range_num": 2, "restaurant_id": 34084965118178080, "cuisines": ["Breakfast", "Lunch Specials", "Mexican", "Seafood"], "address": {"city": "Los Angeles", "state": "CA", "postal_code": "90032", "street": "3345 N Eastern Ave", "formatted": "3345 N Eastern Ave Los Angeles, CA 90032"}, "geo": {"lat": 34.084965, "lon": -118.178078}, "menus": [], "last_updated": "2020-12-29T06:50:31.699Z"}, {"restaurant_name": "Jack in the Box", "restaurant_phone": "(323) 227-9759", "restaurant_website": "", "hours": "", "price_range": "", "price_range_num": 0, "restaurant_id": 34087681118174920, "cuisines": ["American", "Burgers"], "address": {"city": "Los Angeles", "state": "CA", "postal_code": "90032", "street": "4965 Huntington Dr N", "formatted": "4965 Huntington Dr N Los Angeles, CA 90032"}, "geo": {"lat": 34.087681, "lon": -118.174919}, "menus": [], "last_updated": "2020-12-29T06:51:33.492Z"}, {"restaurant_name": "El Pollo Loco", "restaurant_phone": "(323) 343-6728", "restaurant_website": "http://www.elpolloloco.com", "hours": "", "price_range": "", "price_range_num": 0, "restaurant_id": 34062340118171584, "cuisines": ["Chicken", "Mexican"], "address": {"city": "LOS ANGELES", "state": "CA", "postal_code": "90032", "street": "5151 State University Dr", "formatted": "5151 State University Dr LOS ANGELES, CA 90032"}, "geo": {"lat": 34.06234, "lon": -118.171585}, "menus": [], "last_updated": "2020-12-29T06:51:34.846Z"}, {"restaurant_name": "King Torta", "restaurant_phone": "(323) 222-7006", "restaurant_website": "", "hours": "", "price_range": "", "price_range_num": 0, "restaurant_id": 34062721118186316, "cuisines": ["Mexican"], "address": {"city": "LOS ANGELES", "state": "CA", "postal_code": "90032", "street": "4521 Valley Blvd", "formatted": "4521 Valley Blvd LOS ANGELES, CA 90032"}, "geo": {"lat": 34.062721, "lon": -118.186317}, "menus": [], "last_updated": "2020-12-29T06:50:36.745Z"}, {"restaurant_name": "El Taquito", "restaurant_phone": "(323) 223-1649", "restaurant_website": "", "hours": "Daily: 7am-9pm", "price_range": "$", "price_range_num": 1, "restaurant_id": 34096208118156830, "cuisines": ["Mexican"], "address": {"city": "Los Angeles", "state": "CA", "postal_code": "90032", "street": "5047 N Huntington Dr", "formatted": "5047 N Huntington Dr Los Angeles, CA 90032"}, "geo": {"lat": 34.096208, "lon": -118.156833}, "menus": [], "last_updated": "2020-12-29T06:50:01.305Z"}, {"restaurant_name": "Taco Room", "restaurant_phone": "(323) 227-0284", "restaurant_website": "", "hours": "Mon-Sat: 9am-10pm", "price_range": "$", "price_range_num": 1, "restaurant_id": 34073400118163656, "cuisines": ["Mexican"], "address": {"city": "Los Angeles", "state": "CA", "postal_code": "90032", "street": "5472 Valley Blvd", "formatted": "5472 Valley Blvd Los Angeles, CA 90032"}, "geo": {"lat": 34.0734, "lon": -118.163656}, "menus": [], "last_updated": "2020-12-29T06:50:01.398Z"}, {"restaurant_name": "El Chalateco Pupuseria", "restaurant_phone": "(323) 221-9857", "restaurant_website": "http:///ca/los-angeles/704580-el-chalateco-pupuseria/", "hours": "", "price_range": "", "price_range_num": 0, "restaurant_id": 34084606118178292, "cuisines": [""], "address": {"city": "Los Angeles", "state": "CA", "postal_code": "90032", "street": "3333 North Eastern Avenue", "formatted": "3333 North Eastern Avenue Los Angeles, CA 90032"}, "geo": {"lat": 34.084606, "lon": -118.178291}, "menus": [], "last_updated": "2020-12-29T06:46:32.537Z"}, {"restaurant_name": "Mariscos Los Lechugas", "restaurant_phone": "(323) 537-3234", "restaurant_website": "http:///ca/los-angeles/704595-mariscos-los-lechugas/", "hours": "", "price_range": "", "price_range_num": 0, "restaurant_id": 34089371118168060, "cuisines": [""], "address": {"city": "Los Angeles", "state": "CA", "postal_code": "90032", "street": "5244 Huntington Drive South", "formatted": "5244 Huntington Drive South Los Angeles, CA 90032"}, "geo": {"lat": 34.089371, "lon": -118.16806}, "menus": [], "last_updated": "2020-12-29T06:46:32.568Z"}, {"restaurant_name": "El Pescado Loco", "restaurant_phone": "(877) 585-1085", "restaurant_website": "http:///ca/los-angeles/704581-el-pescado-loco/", "hours": "", "price_range": "", "price_range_num": 0, "restaurant_id": 34084961118178376, "cuisines": [""], "address": {"city": "Los Angeles", "state": "CA", "postal_code": "90032", "street": "3345 North Eastern Avenue", "formatted": "3345 North Eastern Avenue Los Angeles, CA 90032"}, "geo": {"lat": 34.084961, "lon": -118.178375}, "menus": [], "last_updated": "2020-12-29T06:46:32.570Z"}, {"restaurant_name": "Los Pinos Market", "restaurant_phone": "(877) 585-1085", "restaurant_website": "http:///ca/los-angeles/704564-los-pinos-market/", "hours": "", "price_range": "", "price_range_num": 0, "restaurant_id": 34085381118179216, "cuisines": [""], "address": {"city": "Los Angeles", "state": "CA", "postal_code": "90032", "street": "4822 Huntington Drive South", "formatted": "4822 Huntington Drive South Los Angeles, CA 90032"}, "geo": {"lat": 34.085381, "lon": -118.179215}, "menus": [], "last_updated": "2020-12-29T06:46:32.588Z"}, {"restaurant_name": "La Cocina del Sereno", "restaurant_phone": "(323) 332-2230", "restaurant_website": "http:///ca/los-angeles/704570-la-cocina-del-sereno/", "hours": "", "price_range": "", "price_range_num": 0, "restaurant_id": 34088215118174520, "cuisines": [""], "address": {"city": "Los Angeles", "state": "CA", "postal_code": "90032", "street": "4989 Huntington Drive", "formatted": "4989 Huntington Drive Los Angeles, CA 90032"}, "geo": {"lat": 34.088215, "lon": -118.174522}, "menus": [], "last_updated": "2020-12-29T06:46:32.592Z"}, {"restaurant_name": "Antigua Bread", "restaurant_phone": "(323) 276-7820", "restaurant_website": "http:///ca/los-angeles/704568-antigua-bread/", "hours": "", "price_range": "", "price_range_num": 0, "restaurant_id": 34095528118158390, "cuisines": [""], "address": {"city": "Los Angeles", "state": "CA", "postal_code": "90032", "street": "5597 Huntington Drive North", "formatted": "5597 Huntington Drive North Los Angeles, CA 90032"}, "geo": {"lat": 34.095528, "lon": -118.158394}, "menus": [], "last_updated": "2020-12-29T06:46:32.596Z"}, {"restaurant_name": "Blazing Stone Pizza", "restaurant_phone": "(323) 276-3939", "restaurant_website": "http:///ca/los-angeles/704573-blazing-stone-pizza/", "hours": "", "price_range": "", "price_range_num": 0, "restaurant_id": 34086483118187770, "cuisines": [""], "address": {"city": "Los Angeles", "state": "CA", "postal_code": "90032", "street": "3501 Monterey Road", "formatted": "3501 Monterey Road Los Angeles, CA 90032"}, "geo": {"lat": 34.086483, "lon": -118.187767}, "menus": [], "last_updated": "2020-12-29T06:46:32.614Z"}, {"restaurant_name": "El Taquito Restaurant", "restaurant_phone": "(323) 223-1649", "restaurant_website": "http:///ca/los-angeles/704598-el-taquito/", "hours": "", "price_range": "", "price_range_num": 0, "restaurant_id": 34088982118172324, "cuisines": [""], "address": {"city": "Los Angeles", "state": "CA", "postal_code": "90032", "street": "5053 Huntington Dr N", "formatted": "5053 Huntington Dr N Los Angeles, CA 90032"}, "geo": {"lat": 34.088982, "lon": -118.172325}, "menus": [], "last_updated": "2020-12-29T06:46:32.629Z"}, {"restaurant_name": "Don Pedros Palenque", "restaurant_phone": "(323) 276-7882", "restaurant_website": "http:///ca/los-angeles/704563-el-palenque-restaurant/", "hours": "", "price_range": "", "price_range_num": 0, "restaurant_id": 34083515118190796, "cuisines": [""], "address": {"city": "Los Angeles", "state": "CA", "postal_code": "90032", "street": "4501 Huntington Dr N", "formatted": "4501 Huntington Dr N Los Angeles, CA 90032"}, "geo": {"lat": 34.083515, "lon": -118.190796}, "menus": [], "last_updated": "2020-12-29T06:46:32.655Z"}, {"restaurant_name": "Charlie's Trio", "restaurant_phone": "(323) 223-3871", "restaurant_website": "http:///ca/los-angeles/704561-charlies-trio/", "hours": "", "price_range": "", "price_range_num": 0, "restaurant_id": 34098381118155650, "cuisines": [""], "address": {"city": "Los Angeles", "state": "CA", "postal_code": "90032", "street": "5769 Huntington Drive North", "formatted": "5769 Huntington Drive North Los Angeles, CA 90032"}, "geo": {"lat": 34.098381, "lon": -118.155647}, "menus": [], "last_updated": "2020-12-29T06:46:32.662Z"}, {"restaurant_name": "Subway", "restaurant_phone": "(323) 221-5200", "restaurant_website": "https://restaurants.subway.com/united-states/ca/los-angeles/5593-e-huntington-dr-north?utm_source=yext-other&utm_medium=local&utm_term=acq&utm_content=42410&utm_campaign=evergreen-2020&y_source=1_MTQ5", "hours": "", "price_range": "", "price_range_num": 0, "restaurant_id": 34095500118158400, "cuisines": [""], "address": {"city": "Los Angeles", "state": "CA", "postal_code": "90032", "street": "5593 E Huntington Dr North", "formatted": "5593 E Huntington Dr North Los Angeles, CA 90032"}, "geo": {"lat": 34.0955, "lon": -118.1584}, "menus": [], "last_updated": "2020-12-29T06:46:32.724Z"}, {"restaurant_name": "Holy Grounds Coffee and Tea", "restaurant_phone": "(323) 222-8884", "restaurant_website": "http:///ca/los-angeles/718377-holy-grounds-coffee-and-tea/", "hours": "", "price_range": "", "price_range_num": 0, "restaurant_id": 34076881118168790, "cuisines": [""], "address": {"city": "Los Angeles", "state": "CA", "postal_code": "90032", "street": "5371 Alhambra Avenue", "formatted": "5371 Alhambra Avenue Los Angeles, CA 90032"}, "geo": {"lat": 34.076881, "lon": -118.168793}, "menus": [], "last_updated": "2020-12-29T06:46:11.904Z"}, {"restaurant_name": "The Village Mart & Deli", "restaurant_phone": "(323) 227-1665", "restaurant_website": "http:///ca/los-angeles/717875-the-village-mart-deli/", "hours": "", "price_range": "", "price_range_num": 0, "restaurant_id": 34069309118194764, "cuisines": [""], "address": {"city": "Los Angeles", "state": "CA", "postal_code": "90032", "street": "2200 North Soto Street", "formatted": "2200 North Soto Street Los Angeles, CA 90032"}, "geo": {"lat": 34.069309, "lon": -118.194763}, "menus": [], "last_updated": "2020-12-29T06:46:28.299Z"}], "numResults": 25}