{"totalResults": 283, "page": 1, "total_pages": 12, "more_pages": true, "data": [{"restaurant_name": "Slow Fish", "restaurant_phone": "(323) 930-0170", "restaurant_website": "", "hours": "Mon-Thu: 11:30am-2:30pm+5pm-10:30pm Fri: 11:30am-2:30pm+5pm-11:30pm Sat: 5pm-11:30pm Sun: 5pm-9:30pm", "price_range": "$$", "price_range_num": 2, "restaurant_id": 34062113118346650, "cuisines": ["Japanese", "Sushi"], "address": {"city": "Los Angeles", "state": "CA", "postal_code": "90036", "street": "5406 Wilshire Blvd", "formatted": "5406 Wilshire Blvd Los Angeles, CA 90036"}, "geo": {"lat": 34.062113, "lon": -118.34665}, "menus": [], "last_updated": "2020-12-29T06:50:32.378Z"}, {"restaurant_name": "88 Chinese & Sushi (Fairfax Ave)", "restaurant_phone": "(323) 852-1638", "restaurant_website": "", "hours": "", "price_range": "$$$", "price_range_num": 3, "restaurant_id": 34078687118361412, "cuisines": ["Asian", "Japanese"], "address": {"city": "Los Angeles", "state": "CA", "postal_code": "90036", "street": "418 1/2 N Fairfax Ave", "formatted": "418 1/2 N Fairfax Ave Los Angeles, CA 90036"}, "geo": {"lat": 34.078687, "lon": -118.361413}, "menus": [], "last_updated": "2020-12-29T06:50:34.148Z"}, {"restaurant_name": "Schwartz Bakery & Deli", "restaurant_phone": "(323) 653-1683", "restaurant_website": "", "hours": "Daily: 7am-7pm", "price_range": "$$", "price_range_num": 2, "restaurant_id": 34079198118361464, "cuisines": ["Desserts", "Kosher"], "address": {"city": "Los Angeles", "state": "CA", "postal_code": "90036", "street": "433 N Fairfax Ave", "formatted": "433 N Fairfax Ave Los Angeles, CA 90036"}, "geo": {"lat": 34.079198, "lon": -118.361464}, "menus": [], "last_updated": "2020-12-29T06:50:32.701Z"}, {"restaurant_name": "Hot Wings Cafe", "restaurant_phone": "(323) 930-1233", "restaurant_website": "", "hours": "Mon-Thu: 11am-12am Fri-Sat: 11am-2am Sun: 4pm-12am", "price_range": "$$", "price_range_num": 2, "restaurant_id": 34083439118343164, "cuisines": ["Cheesesteaks", "Sandwiches", "Wings"], "address": {"city": "Los Angeles", "state": "CA", "postal_code": "90036", "street": "7011 Melrose Ave", "formatted": "7011 Melrose Ave Los Angeles, CA 90036"}, "geo": {"lat": 34.083439, "lon": -118.343163}, "menus": [], "last_updated": "2020-12-29T06:50:32.741Z"}, {"restaurant_name": "Nakkara On Beverly", "restaurant_phone": "(323) 937-3100", "restaurant_website": "", "hours": "Sun: 12pm-10pm Mon-Fri: 11am-4pm+5pm-10pm Sat: 12pm-10:30pm", "price_range": "$$", "price_range_num": 2, "restaurant_id": 34076121118357044, "cuisines": ["Asian Fusion", "Thai"], "address": {"city": "Los Angeles", "state": "CA", "postal_code": "90036", "street": "7669 Beverly Blvd", "formatted": "7669 Beverly Blvd Los Angeles, CA 90036"}, "geo": {"lat": 34.076121, "lon": -118.357043}, "menus": [], "last_updated": "2020-12-29T06:50:34.950Z"}, {"restaurant_name": "Lulu's Cafe", "restaurant_phone": "(323) 938-6095", "restaurant_website": "", "hours": "Daily: 7:30am-9pm", "price_range": "$$", "price_range_num": 2, "restaurant_id": 34076370118345336, "cuisines": ["Diner"], "address": {"city": "Los Angeles", "state": "CA", "postal_code": "90036", "street": "7149 Beverly Blvd", "formatted": "7149 Beverly Blvd Los Angeles, CA 90036"}, "geo": {"lat": 34.07637, "lon": -118.345337}, "menus": [], "last_updated": "2020-12-29T06:50:35.233Z"}, {"restaurant_name": "Domino's Pizza", "restaurant_phone": "(323) 936-1140", "restaurant_website": "http://www.dominos.com", "hours": "", "price_range": "", "price_range_num": 0, "restaurant_id": 34076200118345000, "cuisines": ["American", "Pizza", "Wings"], "address": {"city": "Los Angeles", "state": "CA", "postal_code": "90036", "street": "7125 Beverly Blvd", "formatted": "7125 Beverly Blvd Los Angeles, CA 90036"}, "geo": {"lat": 34.0762, "lon": -118.345}, "menus": [], "last_updated": "2020-12-29T06:46:06.787Z"}, {"restaurant_name": "La Tropezienne Bakery Los Angeles", "restaurant_phone": "(323) 413-2972", "restaurant_website": "http:///ca/los-angeles/780167-la-tropezienne-bakery-los-angeles/", "hours": "", "price_range": "", "price_range_num": 0, "restaurant_id": 34070610118344320, "cuisines": [""], "address": {"city": "Los Angeles", "state": "CA", "postal_code": "90036", "street": "211 South La Brea Avenue", "formatted": "211 South La Brea Avenue Los Angeles, CA 90036"}, "geo": {"lat": 34.07061, "lon": -118.344322}, "menus": [], "last_updated": "2020-12-28T19:27:17.586Z"}, {"restaurant_name": "Mensch Bakery and Kitchen", "restaurant_phone": "(323) 954-1250", "restaurant_website": "http:///ca/los-angeles/780067-mensch-bakery-and-kitchen/", "hours": "", "price_range": "", "price_range_num": 0, "restaurant_id": 34075890118344824, "cuisines": [""], "address": {"city": "Los Angeles", "state": "CA", "postal_code": "90036", "street": "7122 Beverly Boulevard", "formatted": "7122 Beverly Boulevard Los Angeles, CA 90036"}, "geo": {"lat": 34.07589, "lon": -118.344826}, "menus": [], "last_updated": "2020-12-28T19:27:19.541Z"}, {"restaurant_name": "Singapore?s Banana Leaf", "restaurant_phone": "(323) 933-4627", "restaurant_website": "http:///ca/los-angeles/571547-singapores-banana-leaf/", "hours": "", "price_range": "", "price_range_num": 0, "restaurant_id": 34071926118360284, "cuisines": [""], "address": {"city": "Los Angeles", "state": "CA", "postal_code": "90036", "street": "6333 W 3rd St Ste 310", "formatted": "6333 W 3rd St Ste 310 Los Angeles, CA 90036"}, "geo": {"lat": 34.071926, "lon": -118.360283}, "menus": [], "last_updated": "2020-12-28T19:25:11.810Z"}, {"restaurant_name": "Tsujita & Co. Noodle Production", "restaurant_phone": "(323) 591-0470", "restaurant_website": "http:///ca/los-angeles/578669-tsujita-co-noodle-production/", "hours": "", "price_range": "", "price_range_num": 0, "restaurant_id": 34074684118361690, "cuisines": [""], "address": {"city": "Los Angeles", "state": "CA", "postal_code": "90036", "street": "109 N Fairfax Ave", "formatted": "109 N Fairfax Ave Los Angeles, CA 90036"}, "geo": {"lat": 34.074684, "lon": -118.361687}, "menus": [], "last_updated": "2020-12-28T19:25:13.039Z"}, {"restaurant_name": "Supremo", "restaurant_phone": "(323) 852-3192", "restaurant_website": "http:///ca/los-angeles/585618-supremo/", "hours": "", "price_range": "", "price_range_num": 0, "restaurant_id": 34058605118345970, "cuisines": [""], "address": {"city": "Los Angeles", "state": "CA", "postal_code": "90036", "street": "901 S La Brea Ave Ste 2", "formatted": "901 S La Brea Ave Ste 2 Los Angeles, CA 90036"}, "geo": {"lat": 34.058605, "lon": -118.34597}, "menus": [], "last_updated": "2020-12-28T19:25:13.940Z"}, {"restaurant_name": "SK Donuts & Croissant", "restaurant_phone": "(323) 935-2409", "restaurant_website": "http:///ca/los-angeles/586658-sk-donuts-croissant/", "hours": "", "price_range": "", "price_range_num": 0, "restaurant_id": 34068951118347544, "cuisines": [""], "address": {"city": "Los Angeles", "state": "CA", "postal_code": "90036", "street": "5850 W 3rd St Ste A", "formatted": "5850 W 3rd St Ste A Los Angeles, CA 90036"}, "geo": {"lat": 34.068951, "lon": -118.347542}, "menus": [], "last_updated": "2020-12-28T19:25:14.063Z"}, {"restaurant_name": "Canter's", "restaurant_phone": "(323) 782-0659", "restaurant_website": "", "hours": "", "price_range": "$$", "price_range_num": 2, "restaurant_id": 34078988118361584, "cuisines": ["American", "Breakfast", "Burgers", "Deli Food", "Healthy", "Kosher", "Late Night", "Salads", "Sandwiches"], "address": {"city": "Los Angeles", "state": "CA", "postal_code": "90036", "street": "419 N Fairfax Ave", "formatted": "419 N Fairfax Ave Los Angeles, CA 90036"}, "geo": {"lat": 34.078988, "lon": -118.361582}, "menus": [], "last_updated": "2020-12-29T06:50:09.659Z"}, {"restaurant_name": "Food Fair by Diego", "restaurant_phone": "(323) 933-9314", "restaurant_website": "", "hours": "Mon-Thu: 11am-3pm+6pm-9pm Fri: 11am-3pm+6pm-10pm Sat: 12pm-3pm+6pm-10pm Sun: 10am-2pm", "price_range": "$$", "price_range_num": 2, "restaurant_id": 34076392118360736, "cuisines": ["American (New)", "Californian"], "address": {"city": "Los Angeles", "state": "CA", "postal_code": "90036", "street": "7825 Beverly Blvd Ste 1", "formatted": "7825 Beverly Blvd Ste 1 Los Angeles, CA 90036"}, "geo": {"lat": 34.076392, "lon": -118.360737}, "menus": [], "last_updated": "2020-12-29T06:50:29.686Z"}, {"restaurant_name": "Ngoma Restaurant", "restaurant_phone": "(323) 934-1595", "restaurant_website": "", "hours": "Tue-Thu: 11am-10pm Fri: 11am-11pm Sat: 12pm-11pm Sun: 12pm-7pm", "price_range": "$", "price_range_num": 1, "restaurant_id": 34062124118345656, "cuisines": ["African", "South African"], "address": {"city": "LOS ANGELES", "state": "CA", "postal_code": "90036", "street": "5358 Wilshire Blvd", "formatted": "5358 Wilshire Blvd LOS ANGELES, CA 90036"}, "geo": {"lat": 34.062124, "lon": -118.345658}, "menus": [], "last_updated": "2020-12-29T06:50:30.146Z"}, {"restaurant_name": "Ta-eem Grill", "restaurant_phone": "(323) 944-0013", "restaurant_website": "", "hours": "Sun-Thu: 11am-10:30pm Fri: 11am-5pm", "price_range": "$", "price_range_num": 1, "restaurant_id": 34083488118351856, "cuisines": ["Middle Eastern"], "address": {"city": "Los Angeles", "state": "CA", "postal_code": "90036", "street": "7422 Melrose Ave", "formatted": "7422 Melrose Ave Los Angeles, CA 90036"}, "geo": {"lat": 34.083488, "lon": -118.351856}, "menus": [], "last_updated": "2020-12-29T06:50:30.431Z"}, {"restaurant_name": "Panini Grill", "restaurant_phone": "(323) 935-0237", "restaurant_website": "http://www.paninirestaurant.net", "hours": "Mon-Tue: 9am-9pm Wed-Sat: 9:30am-10pm", "price_range": "$$$", "price_range_num": 3, "restaurant_id": 34062112118345520, "cuisines": ["Californian", "Italian", "Salads", "Sandwiches"], "address": {"city": "Los Angeles", "state": "CA", "postal_code": "90036", "street": "5354 Wilshire Blvd", "formatted": "5354 Wilshire Blvd Los Angeles, CA 90036"}, "geo": {"lat": 34.062112, "lon": -118.34552}, "menus": [], "last_updated": "2020-12-29T06:50:30.602Z"}, {"restaurant_name": "Mixt Greens", "restaurant_phone": "(213) 290-3718", "restaurant_website": "http://www.mixtgreens.com", "hours": "Mon-Fri: 11am-9pm", "price_range": "$$", "price_range_num": 2, "restaurant_id": 34062574118354076, "cuisines": ["Healthy", "Local/Organic", "Salads"], "address": {"city": "Los Angeles", "state": "CA", "postal_code": "90036", "street": "5757 Wilshire Blvd", "formatted": "5757 Wilshire Blvd Los Angeles, CA 90036"}, "geo": {"lat": 34.062574, "lon": -118.354077}, "menus": [], "last_updated": "2020-12-29T06:50:30.814Z"}, {"restaurant_name": "Chao Krung", "restaurant_phone": "(323) 939-8361", "restaurant_website": "http://www.chaokrungrestaurant.com", "hours": "Daily: 11:30am-10:30pm", "price_range": "$", "price_range_num": 1, "restaurant_id": 34074756118361584, "cuisines": ["Thai"], "address": {"city": "Los Angeles", "state": "CA", "postal_code": "90036", "street": "111 N Fairfax Ave", "formatted": "111 N Fairfax Ave Los Angeles, CA 90036"}, "geo": {"lat": 34.074756, "lon": -118.361583}, "menus": [], "last_updated": "2020-12-29T06:50:30.868Z"}, {"restaurant_name": "Fiddler's Bistro", "restaurant_phone": "(323) 931-8167", "restaurant_website": "http://www.fiddlersbistro.com/", "hours": "Mon-Sat: 7:30am-10pm Sun: 7:30am-9pm", "price_range": "$", "price_range_num": 1, "restaurant_id": 34070174118351656, "cuisines": ["American", "Mediterranean"], "address": {"city": "Los Angeles", "state": "CA", "postal_code": "90036", "street": "6009 W 3rd St", "formatted": "6009 W 3rd St Los Angeles, CA 90036"}, "geo": {"lat": 34.070174, "lon": -118.351658}, "menus": [], "last_updated": "2020-12-29T06:50:30.900Z"}, {"restaurant_name": "Veggie Grill", "restaurant_phone": "(323) 933-3997", "restaurant_website": "https://www.veggiegrill.com/", "hours": "Sun-Thu: 11am-10:30pm Fri-Sat: 11am-11pm", "price_range": "$$", "price_range_num": 2, "restaurant_id": 34073700118360800, "cuisines": ["Sandwiches", "Vegan", "Vegetarian"], "address": {"city": "Los Angeles", "state": "CA", "postal_code": "90036", "street": "110 S. Fairfax Ave.", "formatted": "110 S. Fairfax Ave. Los Angeles, CA 90036"}, "geo": {"lat": 34.0737, "lon": -118.3608}, "menus": [], "last_updated": "2020-12-29T06:50:31.090Z"}, {"restaurant_name": "Yuko Kitchen", "restaurant_phone": "(323) 933-4020", "restaurant_website": "http://www.yukokitchen.com", "hours": "Mon-Sat: 11am-9:30pm", "price_range": "$", "price_range_num": 1, "restaurant_id": 34062246118348172, "cuisines": ["Japanese"], "address": {"city": "Los Angeles", "state": "CA", "postal_code": "90036", "street": "5484 Wilshire Blvd", "formatted": "5484 Wilshire Blvd Los Angeles, CA 90036"}, "geo": {"lat": 34.062246, "lon": -118.348171}, "menus": [], "last_updated": "2020-12-29T06:50:31.169Z"}, {"restaurant_name": "Tinga", "restaurant_phone": "(323) 954-9566", "restaurant_website": "http://www.tingabuena.com", "hours": "Sun-Thu: 12pm-9pm Fri-Sat: 12pm-10pm ", "price_range": "$$$", "price_range_num": 3, "restaurant_id": 34072284118343880, "cuisines": ["Coffee & Tea", "Mexican", "Vegetarian"], "address": {"city": "Los Angeles", "state": "CA", "postal_code": "90036", "street": "142 S La Brea Ave", "formatted": "142 S La Brea Ave Los Angeles, CA 90036"}, "geo": {"lat": 34.072284, "lon": -118.343882}, "menus": [], "last_updated": "2020-12-29T06:50:31.203Z"}, {"restaurant_name": "Sushi Eyaki", "restaurant_phone": "(323) 930-2636", "restaurant_website": "http://www.sushieyaki.com", "hours": "Mon-Sat: 11am-10:30pm Sun: 4pm-10pm", "price_range": "$", "price_range_num": 1, "restaurant_id": 34061817118339156, "cuisines": ["Japanese", "Sushi"], "address": {"city": "Los Angeles", "state": "CA", "postal_code": "90036", "street": "5040 Wilshire Blvd", "formatted": "5040 Wilshire Blvd Los Angeles, CA 90036"}, "geo": {"lat": 34.061817, "lon": -118.339157}, "menus": [], "last_updated": "2020-12-29T06:50:31.310Z"}], "numResults": 25}