{"totalResults": 172, "page": 1, "total_pages": 7, "more_pages": true, "data": [{"restaurant_name": "Chadolpoong", "restaurant_phone": "(323) 313-2797", "restaurant_website": "http:///ca/la-crescenta-montrose/707203-chadolpoong/", "hours": "", "price_range": "", "price_range_num": 0, "restaurant_id": 34063129118297470, "cuisines": [""], "address": {"city": "La Crescenta-Montrose", "state": "CA", "postal_code": "90020", "street": "3470 W 6th St", "formatted": "3470 W 6th St La Crescenta-Montrose, CA 90020"}, "geo": {"lat": 34.063129, "lon": -118.29747}, "menus": [], "last_updated": "2021-01-05T08:19:47.196Z"}, {"restaurant_name": "Kasturi", "restaurant_phone": "(213) 302-2848", "restaurant_website": "http:///ca/los-angeles/762252-kasturi/", "hours": "", "price_range": "", "price_range_num": 0, "restaurant_id": 34068874118294016, "cuisines": [""], "address": {"city": "Los Angeles", "state": "CA", "postal_code": "90020", "street": "3580 W 3rd St", "formatted": "3580 W 3rd St Los Angeles, CA 90020"}, "geo": {"lat": 34.068874, "lon": -118.294014}, "menus": [], "last_updated": "2020-12-29T06:46:06.297Z"}, {"restaurant_name": "Las Cabanas De San Pedro Restaurant", "restaurant_phone": "(213) 632-0144", "restaurant_website": "http:///ca/los-angeles/756446-las-cabanas-de-san-pedro-restaurant/", "hours": "", "price_range": "", "price_range_num": 0, "restaurant_id": 34069229118297150, "cuisines": [""], "address": {"city": "Los Angeles", "state": "CA", "postal_code": "90020", "street": "3713 West 3rd Street", "formatted": "3713 West 3rd Street Los Angeles, CA 90020"}, "geo": {"lat": 34.069229, "lon": -118.29715}, "menus": [], "last_updated": "2020-12-29T06:46:06.464Z"}, {"restaurant_name": "Cafe Bora", "restaurant_phone": "(213) 336-1705", "restaurant_website": "http:///ca/los-angeles/736125-cafe-bora/", "hours": "", "price_range": "", "price_range_num": 0, "restaurant_id": 34063545118305748, "cuisines": [""], "address": {"city": "Los Angeles", "state": "CA", "postal_code": "90020", "street": "3807 6th St", "formatted": "3807 6th St Los Angeles, CA 90020"}, "geo": {"lat": 34.063545, "lon": -118.305748}, "menus": [], "last_updated": "2020-12-29T06:46:06.887Z"}, {"restaurant_name": "K-POP BBQ Chicken", "restaurant_phone": "(213) 999-9060", "restaurant_website": "http:///ca/los-angeles/736052-k-pop-bbq-chicken/", "hours": "", "price_range": "", "price_range_num": 0, "restaurant_id": 34064037118294590, "cuisines": [""], "address": {"city": "Los Angeles", "state": "CA", "postal_code": "90020", "street": "3309 W 6th St", "formatted": "3309 W 6th St Los Angeles, CA 90020"}, "geo": {"lat": 34.064037, "lon": -118.294594}, "menus": [], "last_updated": "2020-12-29T06:46:06.895Z"}, {"restaurant_name": "Moobongri Soondae BBQ", "restaurant_phone": "(213) 908-5187", "restaurant_website": "http:///ca/los-angeles/722740-moobongri-soondae-bbq/", "hours": "", "price_range": "", "price_range_num": 0, "restaurant_id": 34064064118309670, "cuisines": [""], "address": {"city": "Los Angeles", "state": "CA", "postal_code": "90020", "street": "545 South Western Avenue", "formatted": "545 South Western Avenue Los Angeles, CA 90020"}, "geo": {"lat": 34.064064, "lon": -118.30967}, "menus": [], "last_updated": "2020-12-29T06:46:07.511Z"}, {"restaurant_name": "Here's Looking At You", "restaurant_phone": "(213) 568-3573", "restaurant_website": "http:///ca/los-angeles/722735-heres-looking-at-you/", "hours": "", "price_range": "", "price_range_num": 0, "restaurant_id": 34063694118308052, "cuisines": [""], "address": {"city": "Los Angeles", "state": "CA", "postal_code": "90020", "street": "3901 West 6th Street", "formatted": "3901 West 6th Street Los Angeles, CA 90020"}, "geo": {"lat": 34.063694, "lon": -118.308052}, "menus": [], "last_updated": "2020-12-29T06:46:07.573Z"}, {"restaurant_name": "Dumpling House", "restaurant_phone": "(213) 389-3899", "restaurant_website": "http:///ca/los-angeles/722486-dumpling-house/", "hours": "", "price_range": "", "price_range_num": 0, "restaurant_id": 34069290118292380, "cuisines": [""], "address": {"city": "Los Angeles", "state": "CA", "postal_code": "90020", "street": "3525 West 3rd Street", "formatted": "3525 West 3rd Street Los Angeles, CA 90020"}, "geo": {"lat": 34.06929, "lon": -118.292381}, "menus": [], "last_updated": "2020-12-29T06:46:08.680Z"}, {"restaurant_name": "URBAN cate", "restaurant_phone": "(877) 585-1085", "restaurant_website": "http:///ca/los-angeles/719653-urban-cate/", "hours": "", "price_range": "", "price_range_num": 0, "restaurant_id": 34068829118298828, "cuisines": [""], "address": {"city": "Los Angeles", "state": "CA", "postal_code": "90020", "street": "300 South Mariposa Avenue", "formatted": "300 South Mariposa Avenue Los Angeles, CA 90020"}, "geo": {"lat": 34.068829, "lon": -118.298828}, "menus": [], "last_updated": "2020-12-29T06:46:09.298Z"}, {"restaurant_name": "The Real 3rd Street Chicken House", "restaurant_phone": "(877) 585-1085", "restaurant_website": "http:///ca/los-angeles/719636-the-real-3rd-street-chicken-house/", "hours": "", "price_range": "", "price_range_num": 0, "restaurant_id": 34068798118307036, "cuisines": [""], "address": {"city": "Los Angeles", "state": "CA", "postal_code": "90020", "street": "4254 West 3rd Street", "formatted": "4254 West 3rd Street Los Angeles, CA 90020"}, "geo": {"lat": 34.068798, "lon": -118.307037}, "menus": [], "last_updated": "2020-12-29T06:46:09.340Z"}, {"restaurant_name": "Mari Kimbap Shop", "restaurant_phone": "(877) 585-1085", "restaurant_website": "http:///ca/los-angeles/719630-mari-kimbap-shop/", "hours": "", "price_range": "", "price_range_num": 0, "restaurant_id": 34063786118296212, "cuisines": [""], "address": {"city": "Los Angeles", "state": "CA", "postal_code": "90020", "street": "3417 West 6th Street", "formatted": "3417 West 6th Street Los Angeles, CA 90020"}, "geo": {"lat": 34.063786, "lon": -118.296211}, "menus": [], "last_updated": "2020-12-29T06:46:09.383Z"}, {"restaurant_name": "Le Cafe Noir", "restaurant_phone": "(877) 585-1085", "restaurant_website": "http:///ca/los-angeles/719617-le-cafe-noir/", "hours": "", "price_range": "", "price_range_num": 0, "restaurant_id": 34064995118286710, "cuisines": [""], "address": {"city": "Los Angeles", "state": "CA", "postal_code": "90020", "street": "500 South Virgil Avenue", "formatted": "500 South Virgil Avenue Los Angeles, CA 90020"}, "geo": {"lat": 34.064995, "lon": -118.286713}, "menus": [], "last_updated": "2020-12-29T06:46:09.439Z"}, {"restaurant_name": "Bia Coffee", "restaurant_phone": "(877) 585-1085", "restaurant_website": "http:///ca/los-angeles/719618-bia-coffee/", "hours": "", "price_range": "", "price_range_num": 0, "restaurant_id": 34063694118308212, "cuisines": [""], "address": {"city": "Los Angeles", "state": "CA", "postal_code": "90020", "street": "3907 West 6th Street", "formatted": "3907 West 6th Street Los Angeles, CA 90020"}, "geo": {"lat": 34.063694, "lon": -118.308212}, "menus": [], "last_updated": "2020-12-29T06:46:09.499Z"}, {"restaurant_name": "Starbucks", "restaurant_phone": "(213) 384-6552", "restaurant_website": "http:///ca/los-angeles/719642-starbucks/", "hours": "", "price_range": "", "price_range_num": 0, "restaurant_id": 34070000118290940, "cuisines": [""], "address": {"city": "Los Angeles", "state": "CA", "postal_code": "90020", "street": "3461 West 3rd Street", "formatted": "3461 West 3rd Street Los Angeles, CA 90020"}, "geo": {"lat": 34.07, "lon": -118.290939}, "menus": [], "last_updated": "2020-12-29T06:46:09.576Z"}, {"restaurant_name": "Yup Dduk La", "restaurant_phone": "(213) 263-2355", "restaurant_website": "http:///ca/los-angeles/719592-yup-dduk-la/", "hours": "", "price_range": "", "price_range_num": 0, "restaurant_id": 34063988118300760, "cuisines": [""], "address": {"city": "Los Angeles", "state": "CA", "postal_code": "90020", "street": "3603 West 6th Street", "formatted": "3603 West 6th Street Los Angeles, CA 90020"}, "geo": {"lat": 34.063988, "lon": -118.300758}, "menus": [], "last_updated": "2020-12-29T06:46:09.598Z"}, {"restaurant_name": "Michin Dak", "restaurant_phone": "(213) 263-2700", "restaurant_website": "http:///ca/los-angeles/719568-michin-dak/", "hours": "", "price_range": "", "price_range_num": 0, "restaurant_id": 34063210118294984, "cuisines": [""], "address": {"city": "Los Angeles", "state": "CA", "postal_code": "90020", "street": "3324 West 6th Street", "formatted": "3324 West 6th Street Los Angeles, CA 90020"}, "geo": {"lat": 34.06321, "lon": -118.294983}, "menus": [], "last_updated": "2020-12-29T06:46:09.669Z"}, {"restaurant_name": "Eva's Lechon & Deli", "restaurant_phone": "(213) 383-3179", "restaurant_website": "http:///ca/los-angeles/780165-evas-lechon-deli/", "hours": "", "price_range": "", "price_range_num": 0, "restaurant_id": 34068806118306892, "cuisines": [""], "address": {"city": "Los Angeles", "state": "CA", "postal_code": "90020", "street": "4252 West 3rd Street", "formatted": "4252 West 3rd Street Los Angeles, CA 90020"}, "geo": {"lat": 34.068806, "lon": -118.306892}, "menus": [], "last_updated": "2020-12-28T19:27:17.562Z"}, {"restaurant_name": "The Dolly Llama", "restaurant_phone": "(213) 908-5353", "restaurant_website": "http:///ca/los-angeles/583802-the-dolly-llama/", "hours": "", "price_range": "", "price_range_num": 0, "restaurant_id": 34069107118309304, "cuisines": [""], "address": {"city": "Los Angeles", "state": "CA", "postal_code": "90020", "street": "273 S Western Ave", "formatted": "273 S Western Ave Los Angeles, CA 90020"}, "geo": {"lat": 34.069107, "lon": -118.309303}, "menus": [], "last_updated": "2020-12-28T19:25:13.687Z"}, {"restaurant_name": "Souffle's", "restaurant_phone": "(213) 318-5332", "restaurant_website": "http:///ca/los-angeles/587619-souffles/", "hours": "", "price_range": "", "price_range_num": 0, "restaurant_id": 34063896118305536, "cuisines": [""], "address": {"city": "Los Angeles", "state": "CA", "postal_code": "90020", "street": "3801 W 6th St", "formatted": "3801 W 6th St Los Angeles, CA 90020"}, "geo": {"lat": 34.063896, "lon": -118.305534}, "menus": [], "last_updated": "2020-12-28T19:25:14.218Z"}, {"restaurant_name": "Fratelli's Pizza", "restaurant_phone": "(213) 382-1005", "restaurant_website": "", "hours": "Mon-Fri: 11am-11pm Sat: 2pm-11pm Sun: 2pm-10pm", "price_range": "$$", "price_range_num": 2, "restaurant_id": 34069302118293388, "cuisines": ["Italian", "Pizza"], "address": {"city": "Los Angeles", "state": "CA", "postal_code": "90020", "street": "3557 W 3rd St", "formatted": "3557 W 3rd St Los Angeles, CA 90020"}, "geo": {"lat": 34.069302, "lon": -118.293388}, "menus": [], "last_updated": "2020-12-29T06:50:09.574Z"}, {"restaurant_name": "Pizza Go", "restaurant_phone": "(213) 381-5131", "restaurant_website": "http://www.pizzagola.com", "hours": "Mon-Sat: 11am-9pm", "price_range": "$$$", "price_range_num": 3, "restaurant_id": 34068779118305564, "cuisines": ["Pizza"], "address": {"city": "Los Angeles", "state": "CA", "postal_code": "90020", "street": "4200 W 3rd St", "formatted": "4200 W 3rd St Los Angeles, CA 90020"}, "geo": {"lat": 34.068779, "lon": -118.305565}, "menus": [], "last_updated": "2020-12-29T06:50:30.101Z"}, {"restaurant_name": "Makkah", "restaurant_phone": "(213) 383-9976", "restaurant_website": "", "hours": "Lunch Daily: 11:30am-2:30pm Dinner Daily: 5pm-10:30pm", "price_range": "$$$", "price_range_num": 3, "restaurant_id": 34066956118292060, "cuisines": ["Indian"], "address": {"city": "Los Angeles", "state": "CA", "postal_code": "90020", "street": "401 S Vermont Ave", "formatted": "401 S Vermont Ave Los Angeles, CA 90020"}, "geo": {"lat": 34.066956, "lon": -118.29206}, "menus": [], "last_updated": "2020-12-29T06:50:30.877Z"}, {"restaurant_name": "KyoChon", "restaurant_phone": "(213) 739-9292", "restaurant_website": "http://www.kyochon.us", "hours": "Sun-Thu: 11am-11pm Fri-Sat: 11am-2am ", "price_range": "$$$", "price_range_num": 3, "restaurant_id": 34063552118306584, "cuisines": ["Chicken", "Korean", "Wings"], "address": {"city": "Los Angeles", "state": "CA", "postal_code": "90020", "street": "3833 W 6th St", "formatted": "3833 W 6th St Los Angeles, CA 90020"}, "geo": {"lat": 34.063552, "lon": -118.306585}, "menus": [], "last_updated": "2020-12-29T06:50:31.510Z"}, {"restaurant_name": "Ten-Raku", "restaurant_phone": "(213) 380-8382", "restaurant_website": "", "hours": "Mon-Sat: 11am-12am Sun: 12pm-10pm", "price_range": "$$$$$", "price_range_num": 5, "restaurant_id": 34069108118305020, "cuisines": ["Barbecue", "Korean"], "address": {"city": "Los Angeles", "state": "CA", "postal_code": "90020", "street": "4177 W 3rd St", "formatted": "4177 W 3rd St Los Angeles, CA 90020"}, "geo": {"lat": 34.069108, "lon": -118.30502}, "menus": [], "last_updated": "2020-12-29T06:49:38.809Z"}, {"restaurant_name": "Dan Sung Sa", "restaurant_phone": "(213) 487-9100", "restaurant_website": "", "hours": "Daily: 4pm-2am", "price_range": "$$", "price_range_num": 2, "restaurant_id": 34063964118294424, "cuisines": ["Korean"], "address": {"city": "Los Angeles", "state": "CA", "postal_code": "90020", "street": "3317 W 6th St", "formatted": "3317 W 6th St Los Angeles, CA 90020"}, "geo": {"lat": 34.063964, "lon": -118.294422}, "menus": [], "last_updated": "2020-12-29T06:49:39.265Z"}], "numResults": 25}