{"totalResults": 270, "page": 1, "total_pages": 11, "more_pages": true, "data": [{"restaurant_name": "Pi on Sunset", "restaurant_phone": "(310) 657-1774", "restaurant_website": "", "hours": "", "price_range": "$$", "price_range_num": 2, "restaurant_id": 34090420118383930, "cuisines": ["Lebanese", "Mediterranean", "Pasta", "Pizza"], "address": {"city": "Los Angeles", "state": "CA", "postal_code": "90069", "street": "8828 Sunset Blvd", "formatted": "8828 Sunset Blvd Los Angeles, CA 90069"}, "geo": {"lat": 34.09042, "lon": -118.383926}, "menus": [], "last_updated": "2020-12-29T06:50:34.299Z"}, {"restaurant_name": "Tenmasa Japanese Restaurant", "restaurant_phone": "(310) 275-7808", "restaurant_website": "", "hours": "Mon-Fri: 11am-2:30pm &amp; 6pm-8pmSat: 6pm-8pmSun:Closed", "price_range": "$", "price_range_num": 1, "restaurant_id": 34090398118388308, "cuisines": ["Japanese", "Sushi"], "address": {"city": "Los Angeles", "state": "CA", "postal_code": "90069", "street": "9016 W Sunset Blvd", "formatted": "9016 W Sunset Blvd Los Angeles, CA 90069"}, "geo": {"lat": 34.090398, "lon": -118.388309}, "menus": [], "last_updated": "2020-12-29T06:50:34.441Z"}, {"restaurant_name": "Mel & Rose", "restaurant_phone": "(323) 655-5557", "restaurant_website": "", "hours": "Mon-Fri: 9am-10pm Sat: 10am-10pm Sun: 12pm-7pm", "price_range": "$$", "price_range_num": 2, "restaurant_id": 34083463118371868, "cuisines": ["Deli Food", "Italian", "Sandwiches"], "address": {"city": "Los Angeles", "state": "CA", "postal_code": "90069", "street": "8344 Melrose Ave", "formatted": "8344 Melrose Ave Los Angeles, CA 90069"}, "geo": {"lat": 34.083463, "lon": -118.371867}, "menus": [], "last_updated": "2020-12-29T06:50:34.924Z"}, {"restaurant_name": "Hedley's Restaurant", "restaurant_phone": "(310) 659-2009", "restaurant_website": "", "hours": "Tue-Fri: 11am-10pm Sat: 9am-10pm ", "price_range": "$$", "price_range_num": 2, "restaurant_id": 34081967118385504, "cuisines": ["American (New)", "Californian"], "address": {"city": "Los Angeles", "state": "CA", "postal_code": "90069", "street": "640 N Robertson Blvd", "formatted": "640 N Robertson Blvd Los Angeles, CA 90069"}, "geo": {"lat": 34.081967, "lon": -118.385504}, "menus": [], "last_updated": "2020-12-29T06:50:34.930Z"}, {"restaurant_name": "Marinate", "restaurant_phone": "(323) 325-3237", "restaurant_website": "http://www.marinateyourlife.com", "hours": "", "price_range": "", "price_range_num": 0, "restaurant_id": 34084200118385600, "cuisines": [""], "address": {"city": "West Hollywood", "state": "CA", "postal_code": "90069", "street": "8943 Santa Monica Blvd", "formatted": "8943 Santa Monica Blvd West Hollywood, CA 90069"}, "geo": {"lat": 34.0842, "lon": -118.3856}, "menus": [], "last_updated": "2021-01-05T07:26:11.796Z"}, {"restaurant_name": "Krispy Rice", "restaurant_phone": "(424) 600-9683", "restaurant_website": "http:///ca/west-hollywood/845383-krispy-rice/", "hours": "", "price_range": "", "price_range_num": 0, "restaurant_id": 34083279118376868, "cuisines": [""], "address": {"city": "West Hollywood", "state": "CA", "postal_code": "90069", "street": "643 N La Cienega Blvd", "formatted": "643 N La Cienega Blvd West Hollywood, CA 90069"}, "geo": {"lat": 34.083279, "lon": -118.376869}, "menus": [], "last_updated": "2021-01-05T07:26:11.852Z"}, {"restaurant_name": "Toku Unagi and Sushi", "restaurant_phone": "(310) 854-7285", "restaurant_website": "http:///ca/west-hollywood/842827-toku-unagi-and-sushi/", "hours": "", "price_range": "", "price_range_num": 0, "restaurant_id": 34091000118375960, "cuisines": [""], "address": {"city": "West Hollywood", "state": "CA", "postal_code": "90069", "street": "1106 N La Cienega Blvd", "formatted": "1106 N La Cienega Blvd West Hollywood, CA 90069"}, "geo": {"lat": 34.091, "lon": -118.375961}, "menus": [], "last_updated": "2021-01-05T07:26:11.867Z"}, {"restaurant_name": "Z Pizza (West Hollywood)", "restaurant_phone": "(310) 360-1414", "restaurant_website": "http://www.zpizza.com", "hours": "Mon-Tue: 11am-10pm Wed-Sun: 11am-2am ", "price_range": "", "price_range_num": 0, "restaurant_id": 34085237118384030, "cuisines": ["Pizza"], "address": {"city": "West Hollywood", "state": "CA", "postal_code": "90069", "street": "8869 Santa Monica Blvd", "formatted": "8869 Santa Monica Blvd West Hollywood, CA 90069"}, "geo": {"lat": 34.085237, "lon": -118.384032}, "menus": [], "last_updated": "2021-01-05T07:26:11.871Z"}, {"restaurant_name": "The Bayou", "restaurant_phone": "(310) 273-3303", "restaurant_website": "http:///ca/west-hollywood/842534-the-bayou/", "hours": "", "price_range": "", "price_range_num": 0, "restaurant_id": 34084393118385360, "cuisines": [""], "address": {"city": "West Hollywood", "state": "CA", "postal_code": "90069", "street": "8939 Santa Monica Blvd", "formatted": "8939 Santa Monica Blvd West Hollywood, CA 90069"}, "geo": {"lat": 34.084393, "lon": -118.385361}, "menus": [], "last_updated": "2021-01-05T07:26:11.874Z"}, {"restaurant_name": "IHOP #733", "restaurant_phone": "(323) 656-5468", "restaurant_website": "http://ihop.com", "hours": "Sun-Thur: 7am-10pm Fri-Sat: 7am-12am", "price_range": "", "price_range_num": 0, "restaurant_id": 34090350118374976, "cuisines": ["American", "Diner"], "address": {"city": "West Hollywood", "state": "CA", "postal_code": "90069", "street": "8461 Santa Monica Blvd", "formatted": "8461 Santa Monica Blvd West Hollywood, CA 90069"}, "geo": {"lat": 34.09035, "lon": -118.374975}, "menus": [], "last_updated": "2021-01-05T07:26:11.943Z"}, {"restaurant_name": "Insomnia Cookies", "restaurant_phone": "(424) 528-0204", "restaurant_website": "http:///ca/west-hollywood/837036-insomnia-cookies/", "hours": "", "price_range": "", "price_range_num": 0, "restaurant_id": 34083908118386050, "cuisines": [""], "address": {"city": "West Hollywood", "state": "CA", "postal_code": "90069", "street": "8951 Santa Monica Blvd", "formatted": "8951 Santa Monica Blvd West Hollywood, CA 90069"}, "geo": {"lat": 34.083908, "lon": -118.386047}, "menus": [], "last_updated": "2021-01-05T07:26:11.951Z"}, {"restaurant_name": "The Classic Cat", "restaurant_phone": "(424) 377-4078", "restaurant_website": "http:///ca/west-hollywood/835990-the-classic-cat/", "hours": "", "price_range": "", "price_range_num": 0, "restaurant_id": 34090469118383964, "cuisines": [""], "address": {"city": "West Hollywood", "state": "CA", "postal_code": "90069", "street": "8830 Sunset Blvd", "formatted": "8830 Sunset Blvd West Hollywood, CA 90069"}, "geo": {"lat": 34.090469, "lon": -118.383965}, "menus": [], "last_updated": "2021-01-05T07:26:11.958Z"}, {"restaurant_name": "Rocco's WeHo", "restaurant_phone": "(424) 343-0123", "restaurant_website": "http:///ca/west-hollywood/836063-roccos-weho/", "hours": "", "price_range": "", "price_range_num": 0, "restaurant_id": 34084534118384164, "cuisines": [""], "address": {"city": "West Hollywood", "state": "CA", "postal_code": "90069", "street": "8900 Santa Monica Blvd", "formatted": "8900 Santa Monica Blvd West Hollywood, CA 90069"}, "geo": {"lat": 34.084534, "lon": -118.384163}, "menus": [], "last_updated": "2021-01-05T07:26:11.967Z"}, {"restaurant_name": "Crackin' Yolks", "restaurant_phone": "(310) 730-8843", "restaurant_website": "http:///ca/west-hollywood/835882-broken-yolk/", "hours": "", "price_range": "", "price_range_num": 0, "restaurant_id": 34091684118381820, "cuisines": [""], "address": {"city": "West Hollywood", "state": "CA", "postal_code": "90069", "street": "8741 Sunset Blvd", "formatted": "8741 Sunset Blvd West Hollywood, CA 90069"}, "geo": {"lat": 34.091684, "lon": -118.381819}, "menus": [], "last_updated": "2021-01-05T07:26:11.987Z"}, {"restaurant_name": "Tom Tom", "restaurant_phone": "(310) 543-8152", "restaurant_website": "http:///ca/west-hollywood/824644-tom-tom/", "hours": "", "price_range": "", "price_range_num": 0, "restaurant_id": 34084038118384890, "cuisines": [""], "address": {"city": "West Hollywood", "state": "CA", "postal_code": "90069", "street": "8932 Santa Monica Boulevard", "formatted": "8932 Santa Monica Boulevard West Hollywood, CA 90069"}, "geo": {"lat": 34.084038, "lon": -118.384888}, "menus": [], "last_updated": "2021-01-05T07:26:12.005Z"}, {"restaurant_name": "The Grilled Cheese Parlor", "restaurant_phone": "(310) 854-1114", "restaurant_website": "http:///ca/west-hollywood/841849-petit-ermitage/", "hours": "", "price_range": "", "price_range_num": 0, "restaurant_id": 34087097118383856, "cuisines": [""], "address": {"city": "West Hollywood", "state": "CA", "postal_code": "90069", "street": "8822 Cynthia St", "formatted": "8822 Cynthia St West Hollywood, CA 90069"}, "geo": {"lat": 34.087097, "lon": -118.383858}, "menus": [], "last_updated": "2021-01-05T07:26:12.055Z"}, {"restaurant_name": "IPPUDO West Hollywood", "restaurant_phone": "(310) 986-2717", "restaurant_website": "http:///ca/west-hollywood/821257-ippudo-west-hollywood/", "hours": "", "price_range": "", "price_range_num": 0, "restaurant_id": 34090515118371940, "cuisines": [""], "address": {"city": "West Hollywood", "state": "CA", "postal_code": "90069", "street": "8352 Santa Monica Blvd", "formatted": "8352 Santa Monica Blvd West Hollywood, CA 90069"}, "geo": {"lat": 34.090515, "lon": -118.371941}, "menus": [], "last_updated": "2021-01-05T07:26:12.058Z"}, {"restaurant_name": "Izakaya Tora", "restaurant_phone": "(424) 777-0745", "restaurant_website": "http:///ca/west-hollywood/796168-izakaya-tora/", "hours": "", "price_range": "", "price_range_num": 0, "restaurant_id": 34084473118384264, "cuisines": [""], "address": {"city": "West Hollywood", "state": "CA", "postal_code": "90069", "street": "8908 Santa Monica Blvd", "formatted": "8908 Santa Monica Blvd West Hollywood, CA 90069"}, "geo": {"lat": 34.084473, "lon": -118.384262}, "menus": [], "last_updated": "2021-01-05T07:26:12.092Z"}, {"restaurant_name": "Fresh", "restaurant_phone": "(310) 432-5199", "restaurant_website": "http:///ca/west-hollywood/791201-fresh/", "hours": "", "price_range": "", "price_range_num": 0, "restaurant_id": 34091049118382376, "cuisines": [""], "address": {"city": "West Hollywood", "state": "CA", "postal_code": "90069", "street": "8768 Sunset Boulevard", "formatted": "8768 Sunset Boulevard West Hollywood, CA 90069"}, "geo": {"lat": 34.091049, "lon": -118.382378}, "menus": [], "last_updated": "2021-01-05T07:26:12.133Z"}, {"restaurant_name": "Rage", "restaurant_phone": "(310) 652-7055", "restaurant_website": "http:///ca/west-hollywood/790591-rage/", "hours": "", "price_range": "", "price_range_num": 0, "restaurant_id": 34084980118384590, "cuisines": [""], "address": {"city": "West Hollywood", "state": "CA", "postal_code": "90069", "street": "8911 Santa Monica Boulevard", "formatted": "8911 Santa Monica Boulevard West Hollywood, CA 90069"}, "geo": {"lat": 34.08498, "lon": -118.38459}, "menus": [], "last_updated": "2021-01-05T07:26:12.142Z"}, {"restaurant_name": "KITH Treats", "restaurant_phone": "(424) 512-2800", "restaurant_website": "http:///ca/west-hollywood/779858-kith-treats/", "hours": "", "price_range": "", "price_range_num": 0, "restaurant_id": 34093704118376650, "cuisines": [""], "address": {"city": "West Hollywood", "state": "CA", "postal_code": "90069", "street": "8500 Sunset Boulevard", "formatted": "8500 Sunset Boulevard West Hollywood, CA 90069"}, "geo": {"lat": 34.093704, "lon": -118.376648}, "menus": [], "last_updated": "2021-01-05T07:26:12.147Z"}, {"restaurant_name": "BodyFactory", "restaurant_phone": "(888) 263-9324", "restaurant_website": "http:///ca/west-hollywood/790092-bodyfactory/", "hours": "", "price_range": "", "price_range_num": 0, "restaurant_id": 34088387118378930, "cuisines": [""], "address": {"city": "West Hollywood", "state": "CA", "postal_code": "90069", "street": "8591 Santa Monica Boulevard", "formatted": "8591 Santa Monica Boulevard West Hollywood, CA 90069"}, "geo": {"lat": 34.088387, "lon": -118.378929}, "menus": [], "last_updated": "2021-01-05T07:26:12.151Z"}, {"restaurant_name": "Blackship", "restaurant_phone": "(310) 734-7553", "restaurant_website": "http:///ca/west-hollywood/722687-blackship/", "hours": "", "price_range": "", "price_range_num": 0, "restaurant_id": 34088734118376944, "cuisines": [""], "address": {"city": "West Hollywood", "state": "CA", "postal_code": "90069", "street": "8512 Santa Monica Boulevard", "formatted": "8512 Santa Monica Boulevard West Hollywood, CA 90069"}, "geo": {"lat": 34.088734, "lon": -118.376946}, "menus": [], "last_updated": "2021-01-05T07:26:12.217Z"}, {"restaurant_name": "Rosaline", "restaurant_phone": "(323) 297-9500", "restaurant_website": "http:///ca/west-hollywood/722724-rosaline/", "hours": "", "price_range": "", "price_range_num": 0, "restaurant_id": 34082558118375892, "cuisines": [""], "address": {"city": "West Hollywood", "state": "CA", "postal_code": "90069", "street": "8479 Melrose Avenue", "formatted": "8479 Melrose Avenue West Hollywood, CA 90069"}, "geo": {"lat": 34.082558, "lon": -118.375893}, "menus": [], "last_updated": "2021-01-05T07:26:12.223Z"}, {"restaurant_name": "Sushi Ginza Onodera", "restaurant_phone": "(323) 433-4817", "restaurant_website": "http:///ca/west-hollywood/722676-sushi-ginza-onodera/", "hours": "", "price_range": "", "price_range_num": 0, "restaurant_id": 34082333118376916, "cuisines": [""], "address": {"city": "West Hollywood", "state": "CA", "postal_code": "90069", "street": "609 North La Cienega Boulevard", "formatted": "609 North La Cienega Boulevard West Hollywood, CA 90069"}, "geo": {"lat": 34.082333, "lon": -118.376915}, "menus": [], "last_updated": "2021-01-05T07:26:12.233Z"}], "numResults": 25}