{"totalResults": 115, "page": 1, "total_pages": 5, "more_pages": true, "data": [{"restaurant_name": "BITE ME Gourm-Asian", "restaurant_phone": "(323) 274-4434", "restaurant_website": "http:///ca/eagle-rock/596123-bite-me-gourm-asian/", "hours": "", "price_range": "", "price_range_num": 0, "restaurant_id": 34138886118212400, "cuisines": [""], "address": {"city": "Eagle Rock", "state": "CA", "postal_code": "90041", "street": "2108 Colorado Blvd", "formatted": "2108 Colorado Blvd Eagle Rock, CA 90041"}, "geo": {"lat": 34.138886, "lon": -118.212402}, "menus": [], "last_updated": "2021-01-05T08:30:39.218Z"}, {"restaurant_name": "Corner Pizzeria Restaurant", "restaurant_phone": "(323) 255-8500", "restaurant_website": "", "hours": "Mon-Thu: 10am-10pm Fri-Sat: 9am-11pm Sun: 9am-10pm", "price_range": "$$$", "price_range_num": 3, "restaurant_id": 34138775118213280, "cuisines": ["American", "Breakfast", "Chicken", "Desserts", "Healthy", "Italian", "Low Carb", "Low Fat", "Pasta", "Pizza", "Salads", "Sandwiches"], "address": {"city": "Eagle Rock", "state": "CA", "postal_code": "90041", "street": "2136 Colorado Blvd Unit B", "formatted": "2136 Colorado Blvd Unit B Eagle Rock, CA 90041"}, "geo": {"lat": 34.138775, "lon": -118.213281}, "menus": [], "last_updated": "2021-01-05T08:30:39.292Z"}, {"restaurant_name": "The Coffee Table", "restaurant_phone": "(323) 255-2200", "restaurant_website": "", "hours": "Daily: 7am-10pm", "price_range": "$$", "price_range_num": 2, "restaurant_id": 34139261118210380, "cuisines": ["American", "Sandwiches"], "address": {"city": "Eagle Rock", "state": "CA", "postal_code": "90041", "street": "1958 Colorado Blvd", "formatted": "1958 Colorado Blvd Eagle Rock, CA 90041"}, "geo": {"lat": 34.139261, "lon": -118.210381}, "menus": [], "last_updated": "2021-01-05T08:30:39.365Z"}, {"restaurant_name": "Pizza Man", "restaurant_phone": "(323) 254-2581", "restaurant_website": "", "hours": "Sun-Thu: 11am-9:30pm Fri-Sat: 11am-10:30pm", "price_range": "$$", "price_range_num": 2, "restaurant_id": 34139288118200828, "cuisines": ["Chicken", "Pizza"], "address": {"city": "Los Angeles", "state": "CA", "postal_code": "90041", "street": "1578 Colorado Blvd, Ste 5", "formatted": "1578 Colorado Blvd, Ste 5 Los Angeles, CA 90041"}, "geo": {"lat": 34.139288, "lon": -118.200829}, "menus": [], "last_updated": "2020-12-29T06:50:32.373Z"}, {"restaurant_name": "Thai Eagle Rox", "restaurant_phone": "(323) 349-0508", "restaurant_website": "", "hours": "Mon-Thu: 11am-10pm Fri-Sat: 11am-11pm Sun: 11am-10pm", "price_range": "$$", "price_range_num": 2, "restaurant_id": 34123311118215850, "cuisines": ["Thai"], "address": {"city": "Los Angeles", "state": "CA", "postal_code": "90041", "street": "4601 York Blvd", "formatted": "4601 York Blvd Los Angeles, CA 90041"}, "geo": {"lat": 34.123311, "lon": -118.215847}, "menus": [], "last_updated": "2020-12-29T06:50:34.171Z"}, {"restaurant_name": "Panang Restaurant", "restaurant_phone": "(323) 344-3796", "restaurant_website": "", "hours": "Sun-Thu: 11am-10pm Fri-Sat: 11am-11pm ", "price_range": "$$", "price_range_num": 2, "restaurant_id": 34140900118181572, "cuisines": ["Chinese", "Japanese", "Malaysian", "Thai", "Vietnamese"], "address": {"city": "Los Angeles", "state": "CA", "postal_code": "90041", "street": "1801 Colorado Blvd", "formatted": "1801 Colorado Blvd Los Angeles, CA 90041"}, "geo": {"lat": 34.1409, "lon": -118.181572}, "menus": [], "last_updated": "2020-12-29T06:50:34.264Z"}, {"restaurant_name": "senor fish", "restaurant_phone": "(323) 257-7167", "restaurant_website": "http:///ca/los-angeles/763342-senor-fish/", "hours": "", "price_range": "", "price_range_num": 0, "restaurant_id": 34132771118216324, "cuisines": [""], "address": {"city": "Los Angeles", "state": "CA", "postal_code": "90041", "street": "4803 Eagle Rock Blvd", "formatted": "4803 Eagle Rock Blvd Los Angeles, CA 90041"}, "geo": {"lat": 34.132771, "lon": -118.216324}, "menus": [], "last_updated": "2020-12-29T06:46:06.384Z"}, {"restaurant_name": "Domino's Pizza", "restaurant_phone": "(323) 256-5991", "restaurant_website": "http://www.dominos.com", "hours": "", "price_range": "", "price_range_num": 0, "restaurant_id": 34139435118206080, "cuisines": ["American", "Pizza", "Wings"], "address": {"city": "Los Angeles", "state": "CA", "postal_code": "90041", "street": "1759 Colorado Blvd", "formatted": "1759 Colorado Blvd Los Angeles, CA 90041"}, "geo": {"lat": 34.139435, "lon": -118.206078}, "menus": [], "last_updated": "2020-12-29T06:46:06.774Z"}, {"restaurant_name": "Sunny Side Up Cafe", "restaurant_phone": "(323) 739-0818", "restaurant_website": "http:///ca/los-angeles/720668-sunny-side-up-cafe/", "hours": "", "price_range": "", "price_range_num": 0, "restaurant_id": 34138859118212464, "cuisines": [""], "address": {"city": "Los Angeles", "state": "CA", "postal_code": "90041", "street": "2114 Colorado Boulevard", "formatted": "2114 Colorado Boulevard Los Angeles, CA 90041"}, "geo": {"lat": 34.138859, "lon": -118.212463}, "menus": [], "last_updated": "2020-12-29T06:46:08.784Z"}, {"restaurant_name": "Chuck E. Cheese", "restaurant_phone": "(323) 551-5994", "restaurant_website": "http:///ca/los-angeles/571838-chuck-e-cheese/", "hours": "", "price_range": "", "price_range_num": 0, "restaurant_id": 34141316118226080, "cuisines": [""], "address": {"city": "Los Angeles", "state": "CA", "postal_code": "90041", "street": "2700 Colorado Blvd Ste 224", "formatted": "2700 Colorado Blvd Ste 224 Los Angeles, CA 90041"}, "geo": {"lat": 34.141316, "lon": -118.226082}, "menus": [], "last_updated": "2020-12-28T19:25:11.919Z"}, {"restaurant_name": "Rock'n Egg Cafe", "restaurant_phone": "(323) 474-6420", "restaurant_website": "http:///ca/los-angeles/585009-rockn-egg-cafe/", "hours": "", "price_range": "", "price_range_num": 0, "restaurant_id": 34127739118217370, "cuisines": [""], "address": {"city": "Los Angeles", "state": "CA", "postal_code": "90041", "street": "4616 Eaglerock Blvd", "formatted": "4616 Eaglerock Blvd Los Angeles, CA 90041"}, "geo": {"lat": 34.127739, "lon": -118.217369}, "menus": [], "last_updated": "2020-12-28T19:25:14.020Z"}, {"restaurant_name": "The Bucket", "restaurant_phone": "(323) 739-0660", "restaurant_website": "http:///ca/los-angeles/579995-the-bucket/", "hours": "", "price_range": "", "price_range_num": 0, "restaurant_id": 34127216118218544, "cuisines": [""], "address": {"city": "Los Angeles", "state": "CA", "postal_code": "90041", "street": "4541 N Eagle Rock Blvd", "formatted": "4541 N Eagle Rock Blvd Los Angeles, CA 90041"}, "geo": {"lat": 34.127216, "lon": -118.218544}, "menus": [], "last_updated": "2020-12-28T19:25:13.193Z"}, {"restaurant_name": "Sicha Siam Thai", "restaurant_phone": "(323) 344-8285", "restaurant_website": "", "hours": "Mon-Sat: 11am-9:30pm Sun: 12pm-9:30pm", "price_range": "$", "price_range_num": 1, "restaurant_id": 34124581118220880, "cuisines": ["Thai"], "address": {"city": "Los Angeles", "state": "CA", "postal_code": "90041", "street": "4403 Eagle Rock Blvd", "formatted": "4403 Eagle Rock Blvd Los Angeles, CA 90041"}, "geo": {"lat": 34.124581, "lon": -118.22088}, "menus": [], "last_updated": "2020-12-29T06:50:09.174Z"}, {"restaurant_name": "Fu-Shing Chinese Szechwan Restaurant", "restaurant_phone": "(626) 792-8898", "restaurant_website": "http://www.fushingrestaurant.com", "hours": "", "price_range": "$$$", "price_range_num": 3, "restaurant_id": 34142776118228096, "cuisines": ["Asian", "Chinese"], "address": {"city": "LOS ANGELES", "state": "CA", "postal_code": "90041", "street": "2960 Colorado Blvd", "formatted": "2960 Colorado Blvd LOS ANGELES, CA 90041"}, "geo": {"lat": 34.142776, "lon": -118.228098}, "menus": [], "last_updated": "2020-12-29T06:50:31.066Z"}, {"restaurant_name": "Brownstone Pizzeria", "restaurant_phone": "(323) 257-4992", "restaurant_website": "", "hours": "Mon-Sun: 11:30am-9pm", "price_range": "$", "price_range_num": 1, "restaurant_id": 34138801118212424, "cuisines": ["Italian", "Pizza"], "address": {"city": "Los Angeles", "state": "CA", "postal_code": "90041", "street": "2108 Colorado Blvd", "formatted": "2108 Colorado Blvd Los Angeles, CA 90041"}, "geo": {"lat": 34.138801, "lon": -118.212422}, "menus": [], "last_updated": "2020-12-29T06:50:31.271Z"}, {"restaurant_name": "The Pot Thai Cafe", "restaurant_phone": "(323) 344-1845", "restaurant_website": "", "hours": "Daily: 11am-10pm", "price_range": "$$", "price_range_num": 2, "restaurant_id": 34136242118216316, "cuisines": ["Thai"], "address": {"city": "Los Angeles", "state": "CA", "postal_code": "90041", "street": "2242 Fair Park Ave", "formatted": "2242 Fair Park Ave Los Angeles, CA 90041"}, "geo": {"lat": 34.136242, "lon": -118.216316}, "menus": [], "last_updated": "2020-12-29T06:50:33.962Z"}, {"restaurant_name": "Thai Spirit", "restaurant_phone": "(323) 256-1644", "restaurant_website": "", "hours": "Daily: 11am-10:30pm", "price_range": "$$", "price_range_num": 2, "restaurant_id": 34142272118223270, "cuisines": ["Thai"], "address": {"city": "Los Angeles", "state": "CA", "postal_code": "90041", "street": "2617 Colorado Blvd", "formatted": "2617 Colorado Blvd Los Angeles, CA 90041"}, "geo": {"lat": 34.142272, "lon": -118.22327}, "menus": [], "last_updated": "2020-12-29T06:50:34.093Z"}, {"restaurant_name": "The Capri", "restaurant_phone": "(323) 257-3225", "restaurant_website": "", "hours": "Wed-Sat: 11am-10pm Sun: 10am-10pm", "price_range": "$$", "price_range_num": 2, "restaurant_id": 34127579118217596, "cuisines": ["American", "Healthy", "Italian", "Pasta", "Pizza", "Salads"], "address": {"city": "Los Angeles", "state": "CA", "postal_code": "90041", "street": "4604 Eagle Rock Blvd", "formatted": "4604 Eagle Rock Blvd Los Angeles, CA 90041"}, "geo": {"lat": 34.127579, "lon": -118.217596}, "menus": [], "last_updated": "2020-12-29T06:50:32.711Z"}, {"restaurant_name": "Starbucks Coffee", "restaurant_phone": "(323) 349-0671", "restaurant_website": "http://www.starbucks.com", "hours": "", "price_range": "", "price_range_num": 0, "restaurant_id": 34139237118214836, "cuisines": ["American", "Coffee & Tea"], "address": {"city": "LOS ANGELES", "state": "CA", "postal_code": "90041", "street": "2218 Colorado Blvd", "formatted": "2218 Colorado Blvd LOS ANGELES, CA 90041"}, "geo": {"lat": 34.139237, "lon": -118.214837}, "menus": [], "last_updated": "2020-12-29T06:51:37.177Z"}, {"restaurant_name": "Foster's Freeze", "restaurant_phone": "(323) 256-2525", "restaurant_website": "", "hours": "", "price_range": "$", "price_range_num": 1, "restaurant_id": 34136803118215190, "cuisines": ["Burgers", "Desserts"], "address": {"city": "Los Angeles", "state": "CA", "postal_code": "90041", "street": "4967 Eagle Rock Blvd", "formatted": "4967 Eagle Rock Blvd Los Angeles, CA 90041"}, "geo": {"lat": 34.136803, "lon": -118.215193}, "menus": [], "last_updated": "2020-12-29T06:50:00.140Z"}, {"restaurant_name": "Auntie Em's Kitchen", "restaurant_phone": "(323) 255-0800", "restaurant_website": "", "hours": "Mon-Fri: 8am-7pm Sat-Sun: 8am-4pm", "price_range": "$$", "price_range_num": 2, "restaurant_id": 34127680118217224, "cuisines": ["American", "Bakery & Pastries", "Local/Organic"], "address": {"city": "Los Angeles", "state": "CA", "postal_code": "90041", "street": "4616 Eagle Rock Blvd", "formatted": "4616 Eagle Rock Blvd Los Angeles, CA 90041"}, "geo": {"lat": 34.12768, "lon": -118.217224}, "menus": [], "last_updated": "2020-12-29T06:50:00.330Z"}, {"restaurant_name": "Swork", "restaurant_phone": "(323) 258-5600", "restaurant_website": "", "hours": "Daily: 6am-9pm", "price_range": "$", "price_range_num": 1, "restaurant_id": 34138814118213840, "cuisines": ["Coffee & Tea"], "address": {"city": "Los Angeles", "state": "CA", "postal_code": "90041", "street": "2160 Colorado Blvd", "formatted": "2160 Colorado Blvd Los Angeles, CA 90041"}, "geo": {"lat": 34.138814, "lon": -118.213838}, "menus": [], "last_updated": "2020-12-29T06:50:00.406Z"}, {"restaurant_name": "CAMILO'S Bistro", "restaurant_phone": "(323) 478-2644", "restaurant_website": "", "hours": "Breakfast &amp; Lunch Tue-Sun: 8am-3pm Dinner Tue-Thu: 5pm-9pm Fri-Sat: 5pm-10pm", "price_range": "$", "price_range_num": 1, "restaurant_id": 34138795118212708, "cuisines": ["Bistro", "Californian", "French"], "address": {"city": "Los Angeles", "state": "CA", "postal_code": "90041", "street": "2128 W Colorado Blvd", "formatted": "2128 W Colorado Blvd Los Angeles, CA 90041"}, "geo": {"lat": 34.138795, "lon": -118.212707}, "menus": [], "last_updated": "2020-12-29T06:50:00.469Z"}, {"restaurant_name": "Le Petit Beaujolais", "restaurant_phone": "(323) 255-5133", "restaurant_website": "", "hours": "Tue-Fri: 7am-4pm Sat-Sun: 8am-4pm", "price_range": "$$", "price_range_num": 2, "restaurant_id": 34139648118202556, "cuisines": ["Bistro", "French"], "address": {"city": "Los Angeles", "state": "CA", "postal_code": "90041", "street": "1661 Colorado Blvd", "formatted": "1661 Colorado Blvd Los Angeles, CA 90041"}, "geo": {"lat": 34.139648, "lon": -118.202556}, "menus": [], "last_updated": "2020-12-29T06:50:00.614Z"}, {"restaurant_name": "Casa Bianca", "restaurant_phone": "(323) 256-9617", "restaurant_website": "", "hours": "Tue-Thu: 4pm-12am Fri-Sat: 4pm-1am ", "price_range": "$$$", "price_range_num": 3, "restaurant_id": 34139088118202810, "cuisines": ["Italian", "Pizza"], "address": {"city": "Los Angeles", "state": "CA", "postal_code": "90041", "street": "1650 Colorado Blvd", "formatted": "1650 Colorado Blvd Los Angeles, CA 90041"}, "geo": {"lat": 34.139088, "lon": -118.202806}, "menus": [], "last_updated": "2020-12-29T06:50:00.716Z"}], "numResults": 25}