{"totalResults": 74, "page": 1, "total_pages": 3, "more_pages": true, "data": [{"restaurant_name": "EL GARABATO mexican food fusion", "restaurant_phone": "(323) 565-3474", "restaurant_website": "http:///ca/los-angeles/756468-el-garabato-mexican-food-fusion/", "hours": "", "price_range": "", "price_range_num": 0, "restaurant_id": 33988659118305480, "cuisines": [""], "address": {"city": "Los Angeles", "state": "CA", "postal_code": "90047", "street": "1600 West Slauson Avenue", "formatted": "1600 West Slauson Avenue Los Angeles, CA 90047"}, "geo": {"lat": 33.988659, "lon": -118.305481}, "menus": [], "last_updated": "2020-12-29T06:46:06.478Z"}, {"restaurant_name": "Best Burger", "restaurant_phone": "(323) 752-2205", "restaurant_website": "http:///ca/los-angeles/780196-best-burger/", "hours": "", "price_range": "", "price_range_num": 0, "restaurant_id": 33969185118308776, "cuisines": [""], "address": {"city": "Los Angeles", "state": "CA", "postal_code": "90047", "street": "7730 South Western Avenue", "formatted": "7730 South Western Avenue Los Angeles, CA 90047"}, "geo": {"lat": 33.969185, "lon": -118.308777}, "menus": [], "last_updated": "2020-12-28T19:27:17.653Z"}, {"restaurant_name": "Delicious Kitchen", "restaurant_phone": "(213) 214-4846", "restaurant_website": "http:///ca/los-angeles/575367-delicious-kitchen/", "hours": "", "price_range": "", "price_range_num": 0, "restaurant_id": 33960373118315920, "cuisines": [""], "address": {"city": "Los Angeles", "state": "CA", "postal_code": "90047", "street": "2107 W Manchester Ave Ste 201", "formatted": "2107 W Manchester Ave Ste 201 Los Angeles, CA 90047"}, "geo": {"lat": 33.960373, "lon": -118.315918}, "menus": [], "last_updated": "2020-12-28T19:25:12.592Z"}, {"restaurant_name": "Urban Bakked Cookies", "restaurant_phone": "(720) 985-0751", "restaurant_website": "http:///ca/los-angeles/573114-urban-bakked-cookies/", "hours": "", "price_range": "", "price_range_num": 0, "restaurant_id": 33982067118309280, "cuisines": [""], "address": {"city": "Los Angeles", "state": "CA", "postal_code": "90047", "street": "6301 S Western Ave", "formatted": "6301 S Western Ave Los Angeles, CA 90047"}, "geo": {"lat": 33.982067, "lon": -118.30928}, "menus": [], "last_updated": "2020-12-28T19:25:12.112Z"}, {"restaurant_name": "Jino's Pizza", "restaurant_phone": "(323) 759-9600", "restaurant_website": "", "hours": "Mon-Fri: 11am-9pm Sat: 11am-10:30pm Sun: 11am-8:30pm", "price_range": "$$", "price_range_num": 2, "restaurant_id": 33960188118309000, "cuisines": ["Pizza", "Sandwiches"], "address": {"city": "Los Angeles", "state": "CA", "postal_code": "90047", "street": "8522 S Western Ave Unit C", "formatted": "8522 S Western Ave Unit C Los Angeles, CA 90047"}, "geo": {"lat": 33.960188, "lon": -118.309002}, "menus": [], "last_updated": "2020-12-29T06:50:09.241Z"}, {"restaurant_name": "Starbucks Coffee", "restaurant_phone": "(323) 292-4429", "restaurant_website": "http://www.starbucks.com", "hours": "", "price_range": "", "price_range_num": 0, "restaurant_id": 33989112118312150, "cuisines": ["American", "Coffee & Tea"], "address": {"city": "LOS ANGELES", "state": "CA", "postal_code": "90047", "street": "1850 W Slauson Ave", "formatted": "1850 W Slauson Ave LOS ANGELES, CA 90047"}, "geo": {"lat": 33.989112, "lon": -118.312154}, "menus": [], "last_updated": "2020-12-29T06:51:36.595Z"}, {"restaurant_name": "Subway", "restaurant_phone": "(323) 292-8788", "restaurant_website": "https://restaurants.subway.com/united-states/ca/los-angeles/1810-w-slauson-ave?utm_source=yext-other&utm_medium=local&utm_term=acq&utm_content=23130&utm_campaign=evergreen-2020&y_source=1_MTQ5MDYyODYt", "hours": "", "price_range": "", "price_range_num": 0, "restaurant_id": 33988100118310000, "cuisines": ["Sandwiches"], "address": {"city": "Los Angeles", "state": "CA", "postal_code": "90047", "street": "1810 W Slauson Ave", "formatted": "1810 W Slauson Ave Los Angeles, CA 90047"}, "geo": {"lat": 33.9881, "lon": -118.31}, "menus": [], "last_updated": "2020-12-29T06:48:15.594Z"}, {"restaurant_name": "Woody's BBQ", "restaurant_phone": "(323) 758-8303", "restaurant_website": "", "hours": "Tue-Sat: 11am-9pm Sun: 11am-6pm", "price_range": "$$", "price_range_num": 2, "restaurant_id": 33974365118313200, "cuisines": ["Barbecue"], "address": {"city": "Los Angeles", "state": "CA", "postal_code": "90047", "street": "1958 W Florence Ave", "formatted": "1958 W Florence Ave Los Angeles, CA 90047"}, "geo": {"lat": 33.974365, "lon": -118.313202}, "menus": [], "last_updated": "2020-12-29T06:49:38.637Z"}, {"restaurant_name": "The Burger Palace No 3", "restaurant_phone": "(323) 750-8379", "restaurant_website": "", "hours": "", "price_range": "$", "price_range_num": 1, "restaurant_id": 33974677118308690, "cuisines": ["American", "Burgers", "Mexican"], "address": {"city": "Los Angeles", "state": "CA", "postal_code": "90047", "street": "7126 S Western Ave", "formatted": "7126 S Western Ave Los Angeles, CA 90047"}, "geo": {"lat": 33.974677, "lon": -118.308689}, "menus": [], "last_updated": "2020-12-29T06:49:38.822Z"}, {"restaurant_name": "D's Original Take Out Grill", "restaurant_phone": "(323) 971-3663", "restaurant_website": "", "hours": "Tue-Sat: 11am-8pm Sun: 11:30am-7pm", "price_range": "$$", "price_range_num": 2, "restaurant_id": 33967484118309228, "cuisines": ["Barbecue", "Soul Food"], "address": {"city": "Los Angeles", "state": "CA", "postal_code": "90047", "street": "7873 S Western Ave", "formatted": "7873 S Western Ave Los Angeles, CA 90047"}, "geo": {"lat": 33.967484, "lon": -118.309227}, "menus": [], "last_updated": "2020-12-29T06:49:39.345Z"}, {"restaurant_name": "Caribbean Sea", "restaurant_phone": "(323) 755-7888", "restaurant_website": "", "hours": "", "price_range": "$$", "price_range_num": 2, "restaurant_id": 33942270118309040, "cuisines": ["Caribbean"], "address": {"city": "Los Angeles", "state": "CA", "postal_code": "90047", "street": "10337 S Western Ave", "formatted": "10337 S Western Ave Los Angeles, CA 90047"}, "geo": {"lat": 33.94227, "lon": -118.309038}, "menus": [], "last_updated": "2020-12-29T06:50:00.932Z"}, {"restaurant_name": "China Bowl", "restaurant_phone": "(323) 299-3288", "restaurant_website": "", "hours": "Mon-Sat: 9am-9pm", "price_range": "$$", "price_range_num": 2, "restaurant_id": 33987557118310144, "cuisines": ["Chinese"], "address": {"city": "Los Angeles", "state": "CA", "postal_code": "90047", "street": "1810 W Slauson Ave", "formatted": "1810 W Slauson Ave Los Angeles, CA 90047"}, "geo": {"lat": 33.987557, "lon": -118.310146}, "menus": [], "last_updated": "2020-12-29T06:50:01.007Z"}, {"restaurant_name": "M' Dears", "restaurant_phone": "(323) 759-2020", "restaurant_website": "", "hours": "Mon-Sat: 7:30am-9pm", "price_range": "$$", "price_range_num": 2, "restaurant_id": 33969406118309290, "cuisines": ["Cajun & Creole", "Desserts", "Soul Food"], "address": {"city": "Los Angeles", "state": "CA", "postal_code": "90047", "street": "7717 South Western Avenue", "formatted": "7717 South Western Avenue Los Angeles, CA 90047"}, "geo": {"lat": 33.969406, "lon": -118.309288}, "menus": [], "last_updated": "2020-12-29T06:50:01.414Z"}, {"restaurant_name": "McDonald's", "restaurant_phone": "", "restaurant_website": "http://www.mcdonalds.com", "hours": "", "price_range": "", "price_range_num": 0, "restaurant_id": 33989111118312360, "cuisines": ["American", "Burgers"], "address": {"city": "LOS ANGELES", "state": "CA", "postal_code": "90047", "street": "1900 W Slauson Ave", "formatted": "1900 W Slauson Ave LOS ANGELES, CA 90047"}, "geo": {"lat": 33.989111, "lon": -118.31236}, "menus": [], "last_updated": "2020-12-29T06:51:31.676Z"}, {"restaurant_name": "McDonald's", "restaurant_phone": "", "restaurant_website": "http://www.mcdonalds.com", "hours": "", "price_range": "", "price_range_num": 0, "restaurant_id": 33945705118308572, "cuisines": ["American", "Burgers"], "address": {"city": "LOS ANGELES", "state": "CA", "postal_code": "90047", "street": "1763 W Century Blvd", "formatted": "1763 W Century Blvd LOS ANGELES, CA 90047"}, "geo": {"lat": 33.945705, "lon": -118.308573}, "menus": [], "last_updated": "2020-12-29T06:51:31.734Z"}, {"restaurant_name": "McDonald's", "restaurant_phone": "", "restaurant_website": "http://www.mcdonalds.com", "hours": "", "price_range": "", "price_range_num": 0, "restaurant_id": 33959715118301056, "cuisines": ["American", "Burgers"], "address": {"city": "LOS ANGELES", "state": "CA", "postal_code": "90047", "street": "1420 W Manchester Ave", "formatted": "1420 W Manchester Ave LOS ANGELES, CA 90047"}, "geo": {"lat": 33.959715, "lon": -118.301057}, "menus": [], "last_updated": "2020-12-29T06:51:31.777Z"}, {"restaurant_name": "Taco Bell", "restaurant_phone": "(323) 777-7379", "restaurant_website": "http://www.tacobell.com", "hours": "", "price_range": "", "price_range_num": 0, "restaurant_id": 33945471118300532, "cuisines": ["Mexican"], "address": {"city": "LOS ANGELES", "state": "CA", "postal_code": "90047", "street": "1408 W Century Blvd", "formatted": "1408 W Century Blvd LOS ANGELES, CA 90047"}, "geo": {"lat": 33.945471, "lon": -118.300532}, "menus": [], "last_updated": "2020-12-29T06:51:31.993Z"}, {"restaurant_name": "Taco Bell", "restaurant_phone": "(323) 758-9181", "restaurant_website": "http://www.tacobell.com", "hours": "", "price_range": "", "price_range_num": 0, "restaurant_id": 33959717118314620, "cuisines": ["Mexican"], "address": {"city": "Los Angeles", "state": "CA", "postal_code": "90047", "street": "2046 W Manchester Ave", "formatted": "2046 W Manchester Ave Los Angeles, CA 90047"}, "geo": {"lat": 33.959717, "lon": -118.314621}, "menus": [], "last_updated": "2020-12-29T06:51:32.090Z"}, {"restaurant_name": "Jack in the Box", "restaurant_phone": "(323) 971-2114", "restaurant_website": "", "hours": "", "price_range": "", "price_range_num": 0, "restaurant_id": 33974287118309270, "cuisines": ["American", "Burgers"], "address": {"city": "Los Angeles", "state": "CA", "postal_code": "90047", "street": "7201 S Western Ave", "formatted": "7201 S Western Ave Los Angeles, CA 90047"}, "geo": {"lat": 33.974287, "lon": -118.309271}, "menus": [], "last_updated": "2020-12-29T06:51:33.379Z"}, {"restaurant_name": "Burger King", "restaurant_phone": "(323) 751-6292", "restaurant_website": "", "hours": "", "price_range": "", "price_range_num": 0, "restaurant_id": 33960243118301990, "cuisines": ["American", "Burgers"], "address": {"city": "Los Angeles", "state": "CA", "postal_code": "90047", "street": "1453 W Manchester Ave", "formatted": "1453 W Manchester Ave Los Angeles, CA 90047"}, "geo": {"lat": 33.960243, "lon": -118.301994}, "menus": [], "last_updated": "2020-12-29T06:51:34.386Z"}, {"restaurant_name": "Burger King", "restaurant_phone": "(323) 757-2770", "restaurant_website": "", "hours": "", "price_range": "", "price_range_num": 0, "restaurant_id": 33931430118309224, "cuisines": ["American", "Burgers"], "address": {"city": "LOS ANGELES", "state": "CA", "postal_code": "90047", "street": "11239 S Western Ave", "formatted": "11239 S Western Ave LOS ANGELES, CA 90047"}, "geo": {"lat": 33.93143, "lon": -118.309225}, "menus": [], "last_updated": "2020-12-29T06:51:34.462Z"}, {"restaurant_name": "Carl's Jr.", "restaurant_phone": "(323) 242-0011", "restaurant_website": "", "hours": "", "price_range": "", "price_range_num": 0, "restaurant_id": 33931535118308990, "cuisines": ["American", "Burgers"], "address": {"city": "LOS ANGELES", "state": "CA", "postal_code": "90047", "street": "11224 S Western Ave", "formatted": "11224 S Western Ave LOS ANGELES, CA 90047"}, "geo": {"lat": 33.931535, "lon": -118.308993}, "menus": [], "last_updated": "2020-12-29T06:51:34.559Z"}, {"restaurant_name": "Del Taco", "restaurant_phone": "(323) 754-8063", "restaurant_website": "http://www.deltaco.com", "hours": "", "price_range": "", "price_range_num": 0, "restaurant_id": 33930654118310170, "cuisines": ["American", "Mexican", "Tex-Mex"], "address": {"city": "LOS ANGELES", "state": "CA", "postal_code": "90047", "street": "1816 W Imperial Hwy", "formatted": "1816 W Imperial Hwy LOS ANGELES, CA 90047"}, "geo": {"lat": 33.930654, "lon": -118.310168}, "menus": [], "last_updated": "2020-12-29T06:51:35.000Z"}, {"restaurant_name": "Pollo Campero", "restaurant_phone": "(323) 290-1130", "restaurant_website": "http://www.campero.com", "hours": "", "price_range": "", "price_range_num": 0, "restaurant_id": 33988873118311070, "cuisines": ["Chicken"], "address": {"city": "Los Angeles", "state": "CA", "postal_code": "90047", "street": "1890 W Slauson Ave", "formatted": "1890 W Slauson Ave Los Angeles, CA 90047"}, "geo": {"lat": 33.988873, "lon": -118.311073}, "menus": [], "last_updated": "2020-12-29T06:51:35.189Z"}, {"restaurant_name": "Baskin-Robbins", "restaurant_phone": "(323) 294-1131", "restaurant_website": "https://www.baskinrobbins.com?utm_source=Yext&utm_medium=organic&utm_campaign=Yext", "hours": "", "price_range": "", "price_range_num": 0, "restaurant_id": 33988800118312800, "cuisines": ["American", "Ice Cream"], "address": {"city": "Los Angeles", "state": "CA", "postal_code": "90047", "street": "1950 W. Slauson Ave", "formatted": "1950 W. Slauson Ave Los Angeles, CA 90047"}, "geo": {"lat": 33.9888, "lon": -118.3128}, "menus": [], "last_updated": "2020-12-29T06:50:38.532Z"}], "numResults": 25}