{"totalResults": 220, "page": 1, "total_pages": 9, "more_pages": true, "data": [{"restaurant_name": "Domino's Pizza", "restaurant_phone": "(323) 667-2323", "restaurant_website": "http://www.dominos.com", "hours": "", "price_range": "", "price_range_num": 0, "restaurant_id": 34088800118277000, "cuisines": ["American", "Pizza", "Wings"], "address": {"city": "Los Angeles", "state": "CA", "postal_code": "90026", "street": "3502 W Sunset Blvd", "formatted": "3502 W Sunset Blvd Los Angeles, CA 90026"}, "geo": {"lat": 34.0888, "lon": -118.277}, "menus": [], "last_updated": "2020-12-29T06:46:06.800Z"}, {"restaurant_name": "United bread and pastry", "restaurant_phone": "(323) 661-0037", "restaurant_website": "http:///ca/los-angeles/780087-united-bread-and-pastry/", "hours": "", "price_range": "", "price_range_num": 0, "restaurant_id": 34090519118277010, "cuisines": [""], "address": {"city": "Los Angeles", "state": "CA", "postal_code": "90026", "street": "1515 Griffith Park Boulevard", "formatted": "1515 Griffith Park Boulevard Los Angeles, CA 90026"}, "geo": {"lat": 34.090519, "lon": -118.277008}, "menus": [], "last_updated": "2020-12-28T19:27:17.522Z"}, {"restaurant_name": "Diablo", "restaurant_phone": "(323) 666-4666", "restaurant_website": "", "hours": "Tue-Fri: 12pm-11pm Sat: 9am-11pm Sun: 9am-10pm ", "price_range": "$$", "price_range_num": 2, "restaurant_id": 34085213118274468, "cuisines": ["Mexican", "Nuevo Latino"], "address": {"city": "Los Angeles", "state": "CA", "postal_code": "90026", "street": "3129 W Sunset Blvd", "formatted": "3129 W Sunset Blvd Los Angeles, CA 90026"}, "geo": {"lat": 34.085213, "lon": -118.274467}, "menus": [], "last_updated": "2020-12-29T06:50:08.921Z"}, {"restaurant_name": "Bangkok Palace Thai", "restaurant_phone": "(213) 483-6913", "restaurant_website": "", "hours": "Daily: 11am-10pm", "price_range": "$$", "price_range_num": 2, "restaurant_id": 34078067118266430, "cuisines": ["Thai", "Vegetarian"], "address": {"city": "Los Angeles", "state": "CA", "postal_code": "90026", "street": "2202 W Sunset Blvd", "formatted": "2202 W Sunset Blvd Los Angeles, CA 90026"}, "geo": {"lat": 34.078067, "lon": -118.266433}, "menus": [], "last_updated": "2020-12-29T06:50:09.141Z"}, {"restaurant_name": "Los Angeles Pizza", "restaurant_phone": "(213) 626-5272", "restaurant_website": "", "hours": "", "price_range": "$$$$", "price_range_num": 4, "restaurant_id": 34075538118255344, "cuisines": ["American", "Pizza", "Sandwiches"], "address": {"city": "Los Angeles", "state": "CA", "postal_code": "90026", "street": "1498 W. Sunset Blvd., #2", "formatted": "1498 W. Sunset Blvd., #2 Los Angeles, CA 90026"}, "geo": {"lat": 34.075538, "lon": -118.255344}, "menus": [], "last_updated": "2020-12-29T06:50:29.670Z"}, {"restaurant_name": "Pupuseria Menchita", "restaurant_phone": "(213) 258-8203", "restaurant_website": "", "hours": "Mon: 8am-8:30pm Tue-Thu, Sun: 8am-8pm Fri-Sat: 8am-9pm ", "price_range": "$", "price_range_num": 1, "restaurant_id": 34063290118263490, "cuisines": ["Central American", "Latin American"], "address": {"city": "Los Angeles", "state": "CA", "postal_code": "90026", "street": "1606 Beverly Boulevard", "formatted": "1606 Beverly Boulevard Los Angeles, CA 90026"}, "geo": {"lat": 34.06329, "lon": -118.263489}, "menus": [], "last_updated": "2020-12-29T06:50:29.962Z"}, {"restaurant_name": "The Silver Lake House", "restaurant_phone": "(323) 660-6622", "restaurant_website": "http://www.leelathaila.com", "hours": "Sun-Thu: 11:30am-10pm Fri-Sat: 11am-11pm ", "price_range": "$", "price_range_num": 1, "restaurant_id": 34090267118267852, "cuisines": ["Thai"], "address": {"city": "Los Angeles", "state": "CA", "postal_code": "90026", "street": "1737 Silver Lake Blvd", "formatted": "1737 Silver Lake Blvd Los Angeles, CA 90026"}, "geo": {"lat": 34.090267, "lon": -118.267853}, "menus": [], "last_updated": "2020-12-29T06:50:31.140Z"}, {"restaurant_name": "Pizza Buona", "restaurant_phone": "(213) 413-0800", "restaurant_website": "", "hours": "Mon-Sat: 11am-11pm Sun: 1pm-11pm", "price_range": "$$$", "price_range_num": 3, "restaurant_id": 34077613118263470, "cuisines": ["Pizza"], "address": {"city": "Los Angeles", "state": "CA", "postal_code": "90026", "street": "2100 W Sunset Blvd", "formatted": "2100 W Sunset Blvd Los Angeles, CA 90026"}, "geo": {"lat": 34.077613, "lon": -118.26347}, "menus": [], "last_updated": "2020-12-29T06:50:31.284Z"}, {"restaurant_name": "Mae Ploy Restaurant", "restaurant_phone": "(213) 353-9635", "restaurant_website": "http://www.maeployrestaurant.com", "hours": "Daily: 10am-10pm", "price_range": "$", "price_range_num": 1, "restaurant_id": 34079967118270110, "cuisines": ["Thai", "Vegetarian"], "address": {"city": "Los Angeles", "state": "CA", "postal_code": "90026", "street": "2606 W Sunset Blvd", "formatted": "2606 W Sunset Blvd Los Angeles, CA 90026"}, "geo": {"lat": 34.079967, "lon": -118.270111}, "menus": [], "last_updated": "2020-12-29T06:50:31.317Z"}, {"restaurant_name": "Flore Vegan Cuisine", "restaurant_phone": "(323) 953-0611", "restaurant_website": "http://www.florevegan.com/", "hours": "Mon: 11am-4pm Tue-Fri: 11am-10pm Sat-Sun: 10am-10pm", "price_range": "$$", "price_range_num": 2, "restaurant_id": 34091226118279416, "cuisines": ["Healthy", "Vegan", "Vegetarian"], "address": {"city": "Los Angeles", "state": "CA", "postal_code": "90026", "street": "3818 W Sunset Blvd", "formatted": "3818 W Sunset Blvd Los Angeles, CA 90026"}, "geo": {"lat": 34.091226, "lon": -118.279414}, "menus": [], "last_updated": "2020-12-29T06:50:31.543Z"}, {"restaurant_name": "Masa of Echo Park", "restaurant_phone": "(213) 989-1558", "restaurant_website": "http://www.masaofechopark.com", "hours": "Mon-Thu: 11am-11pm Fri: 11am-12am Sat: 10am-12am Sun: 10am-11pm", "price_range": "$", "price_range_num": 1, "restaurant_id": 34077507118259744, "cuisines": ["Bakery & Pastries", "Pizza", "Sandwiches", "Vegan", "Vegetarian"], "address": {"city": "Los Angeles", "state": "CA", "postal_code": "90026", "street": "1800 W Sunset Blvd", "formatted": "1800 W Sunset Blvd Los Angeles, CA 90026"}, "geo": {"lat": 34.077507, "lon": -118.259743}, "menus": [], "last_updated": "2020-12-29T06:50:31.588Z"}, {"restaurant_name": "Cru Vegan", "restaurant_phone": "(323) 667-1551", "restaurant_website": "", "hours": "Lunch Fri-Sat: 12pm-4pm Dinner Wed-Mon: 5:30pm-10pm", "price_range": "$$", "price_range_num": 2, "restaurant_id": 34090554118277092, "cuisines": ["American", "Eclectic & International", "Healthy", "Vegan"], "address": {"city": "Los Angeles", "state": "CA", "postal_code": "90026", "street": "1521 Griffith Park Blvd", "formatted": "1521 Griffith Park Blvd Los Angeles, CA 90026"}, "geo": {"lat": 34.090554, "lon": -118.277092}, "menus": [], "last_updated": "2020-12-29T06:50:31.774Z"}, {"restaurant_name": "Miyako", "restaurant_phone": "(213) 483-4939", "restaurant_website": "", "hours": "Mon-Fri: 11:30am-10pm Sat: 5pm-10pm", "price_range": "$$", "price_range_num": 2, "restaurant_id": 34078173118266336, "cuisines": ["Japanese", "Sushi"], "address": {"city": "Los Angeles", "state": "CA", "postal_code": "90026", "street": "2212 W Sunset Blvd", "formatted": "2212 W Sunset Blvd Los Angeles, CA 90026"}, "geo": {"lat": 34.078173, "lon": -118.266337}, "menus": [], "last_updated": "2020-12-29T06:50:31.786Z"}, {"restaurant_name": "Sib Song", "restaurant_phone": "(213) 413-6316", "restaurant_website": "", "hours": "Mon-Thu: 11am-10pm Fri-Sun: 11am-12am", "price_range": "$$", "price_range_num": 2, "restaurant_id": 34078067118266420, "cuisines": ["Barbecue", "Thai"], "address": {"city": "Los Angeles", "state": "CA", "postal_code": "90026", "street": "2202 W Sunset Blvd", "formatted": "2202 W Sunset Blvd Los Angeles, CA 90026"}, "geo": {"lat": 34.078067, "lon": -118.266421}, "menus": [], "last_updated": "2020-12-29T06:50:32.466Z"}, {"restaurant_name": "Two Boots (EP)", "restaurant_phone": "(213) 413-2668", "restaurant_website": "", "hours": "", "price_range": "$$$$", "price_range_num": 4, "restaurant_id": 34077841118259800, "cuisines": ["American", "Italian"], "address": {"city": "Los Angeles", "state": "CA", "postal_code": "90026", "street": "1818 Sunset Blvd", "formatted": "1818 Sunset Blvd Los Angeles, CA 90026"}, "geo": {"lat": 34.077841, "lon": -118.259798}, "menus": [], "last_updated": "2020-12-29T06:50:34.392Z"}, {"restaurant_name": "Cowboys & Turbans", "restaurant_phone": "(213) 483-7778", "restaurant_website": "", "hours": "Mon-Fri: 1pm-2am Sat-Sun: 12pm-2am", "price_range": "$$", "price_range_num": 2, "restaurant_id": 34082182118272056, "cuisines": ["Indian", "Vegetarian"], "address": {"city": "Los Angeles", "state": "CA", "postal_code": "90026", "street": "2815 W Sunset Blvd", "formatted": "2815 W Sunset Blvd Los Angeles, CA 90026"}, "geo": {"lat": 34.082182, "lon": -118.272055}, "menus": [], "last_updated": "2020-12-29T06:50:32.839Z"}, {"restaurant_name": "Gobi Mongolian BBQ", "restaurant_phone": "(213) 989-0711", "restaurant_website": "", "hours": "Sun-Thu: 11:30am-10pm Fri-Sat: 11:30am-11pm", "price_range": "$", "price_range_num": 1, "restaurant_id": 34082320118272228, "cuisines": ["Asian (other)", "Barbecue", "Chinese"], "address": {"city": "Los Angeles", "state": "CA", "postal_code": "90026", "street": "2827 W Sunset Blvd", "formatted": "2827 W Sunset Blvd Los Angeles, CA 90026"}, "geo": {"lat": 34.08232, "lon": -118.272227}, "menus": [], "last_updated": "2020-12-29T06:50:32.918Z"}, {"restaurant_name": "El Majahual Pupuseria", "restaurant_phone": "(213) 484-6060", "restaurant_website": "", "hours": "", "price_range": "$$", "price_range_num": 2, "restaurant_id": 34069861118265828, "cuisines": ["Central American", "Sandwiches"], "address": {"city": "Los Angeles", "state": "CA", "postal_code": "90026", "street": "1925 W Temple St", "formatted": "1925 W Temple St Los Angeles, CA 90026"}, "geo": {"lat": 34.069861, "lon": -118.265829}, "menus": [], "last_updated": "2020-12-29T06:49:38.383Z"}, {"restaurant_name": "Alberto Tamales", "restaurant_phone": "(213) 484-4485", "restaurant_website": "", "hours": "Mon-Fri: 7am-7pm Sat-Sun: 7am-2pm", "price_range": "$", "price_range_num": 1, "restaurant_id": 34068356118262510, "cuisines": ["Mexican"], "address": {"city": "Los Angeles", "state": "CA", "postal_code": "90026", "street": "1644 W Temple St", "formatted": "1644 W Temple St Los Angeles, CA 90026"}, "geo": {"lat": 34.068356, "lon": -118.262511}, "menus": [], "last_updated": "2020-12-29T06:49:38.385Z"}, {"restaurant_name": "Ostioneria Colima No 2", "restaurant_phone": "(213) 484-8276", "restaurant_website": "", "hours": "", "price_range": "$$", "price_range_num": 2, "restaurant_id": 34071169118267324, "cuisines": ["Mexican", "Seafood"], "address": {"city": "Los Angeles", "state": "CA", "postal_code": "90026", "street": "434 N Alvarado St", "formatted": "434 N Alvarado St Los Angeles, CA 90026"}, "geo": {"lat": 34.071169, "lon": -118.267323}, "menus": [], "last_updated": "2020-12-29T06:49:38.400Z"}, {"restaurant_name": "La Caridad", "restaurant_phone": "(213) 484-0099", "restaurant_website": "", "hours": "Mon-Sat: 7am-7pm", "price_range": "$", "price_range_num": 1, "restaurant_id": 34080576118269756, "cuisines": ["Cuban", "Latin American"], "address": {"city": "Los Angeles", "state": "CA", "postal_code": "90026", "street": "2619 W Sunset Blvd", "formatted": "2619 W Sunset Blvd Los Angeles, CA 90026"}, "geo": {"lat": 34.080576, "lon": -118.269756}, "menus": [], "last_updated": "2020-12-29T06:49:38.408Z"}, {"restaurant_name": "Little Ongpin", "restaurant_phone": "(213) 483-4280", "restaurant_website": "", "hours": "Mon-Sat: 10am-7:30pm Sun: 10am-5pm", "price_range": "$$$$$", "price_range_num": 5, "restaurant_id": 34064612118265724, "cuisines": ["Chinese", "Filipino"], "address": {"city": "Los Angeles", "state": "CA", "postal_code": "90026", "street": "1700 Beverly Blvd", "formatted": "1700 Beverly Blvd Los Angeles, CA 90026"}, "geo": {"lat": 34.064612, "lon": -118.265725}, "menus": [], "last_updated": "2020-12-29T06:49:38.414Z"}, {"restaurant_name": "Marielas Taco", "restaurant_phone": "(213) 413-0484", "restaurant_website": "", "hours": "Sun-Thu: 7am-12am Fri-Sat: 7am-2am", "price_range": "$", "price_range_num": 1, "restaurant_id": 34079928118269050, "cuisines": ["Mexican"], "address": {"city": "Los Angeles", "state": "CA", "postal_code": "90026", "street": "2501 W Sunset Blvd", "formatted": "2501 W Sunset Blvd Los Angeles, CA 90026"}, "geo": {"lat": 34.079928, "lon": -118.269049}, "menus": [], "last_updated": "2020-12-29T06:49:38.444Z"}, {"restaurant_name": "Tribal Cafe", "restaurant_phone": "(213) 483-4458", "restaurant_website": "", "hours": "Mon-Fri: 7am-11pm Sat-Sun: 9am-11pm", "price_range": "$", "price_range_num": 1, "restaurant_id": 34068617118262676, "cuisines": ["Coffee & Tea", "Healthy", "Vegan", "Vegetarian"], "address": {"city": "Los Angeles", "state": "CA", "postal_code": "90026", "street": "1651 W Temple St", "formatted": "1651 W Temple St Los Angeles, CA 90026"}, "geo": {"lat": 34.068617, "lon": -118.262675}, "menus": [], "last_updated": "2020-12-29T06:49:38.767Z"}, {"restaurant_name": "Taco Zone Truck", "restaurant_phone": "(818) 763-4085", "restaurant_website": "", "hours": "Sun-Thu: 8:30pm-12am Fri-Sat: 8:30pm-3am", "price_range": "$$$$$", "price_range_num": 5, "restaurant_id": 34080759118261400, "cuisines": ["Mexican"], "address": {"city": "Los Angeles", "state": "CA", "postal_code": "90026", "street": "At Alvarado &amp; Montana St", "formatted": "At Alvarado &amp; Montana St Los Angeles, CA 90026"}, "geo": {"lat": 34.080759, "lon": -118.261399}, "menus": [], "last_updated": "2020-12-29T06:49:39.304Z"}], "numResults": 25}