{"totalResults": 93, "page": 1, "total_pages": 4, "more_pages": true, "data": [{"restaurant_name": "California Pizza Kitchen", "restaurant_phone": "(310) 826-3573", "restaurant_website": "http://cpk.com", "hours": "Mon-Thu: 11am-10pm Fri-Sat: 11am-11pm Sun: 11am-10pm", "price_range": "", "price_range_num": 0, "restaurant_id": 34054118118465110, "cuisines": ["Californian", "Pizza"], "address": {"city": "Brentwood", "state": "CA", "postal_code": "90049", "street": "11677 San Vicente Blvd", "formatted": "11677 San Vicente Blvd Brentwood, CA 90049"}, "geo": {"lat": 34.054118, "lon": -118.46511}, "menus": [], "last_updated": "2021-01-05T08:34:23.500Z"}, {"restaurant_name": "Osteria Latini", "restaurant_phone": "(310) 826-9222", "restaurant_website": "", "hours": "Lunch Mon-Fri: 11:30am-2:30pm Dinner Mon-Sat: 5:30pm-10:30pm Sun: 5pm-10pm ", "price_range": "$$$", "price_range_num": 3, "restaurant_id": 34053428118466084, "cuisines": [""], "address": {"city": "Brentwood", "state": "CA", "postal_code": "90049", "street": "11712 San Vicente Blvd", "formatted": "11712 San Vicente Blvd Brentwood, CA 90049"}, "geo": {"lat": 34.053428, "lon": -118.466083}, "menus": [], "last_updated": "2021-01-05T08:34:23.881Z"}, {"restaurant_name": "Chin Chin", "restaurant_phone": "(310) 856-2525", "restaurant_website": "http://www.chinchin.com/menu.html", "hours": "Daily 11am-10pm", "price_range": "$$$", "price_range_num": 3, "restaurant_id": 34052803118466920, "cuisines": ["Chinese", "Dim Sum"], "address": {"city": "Brentwood", "state": "CA", "postal_code": "90049", "street": "11740 San Vicente Blvd", "formatted": "11740 San Vicente Blvd Brentwood, CA 90049"}, "geo": {"lat": 34.052803, "lon": -118.466919}, "menus": [], "last_updated": "2021-01-05T08:34:24.030Z"}, {"restaurant_name": "Maria's Italian Kitchen (Brentwood)", "restaurant_phone": "(310) 476-6112", "restaurant_website": "http://www.mariasitaliankitchen.com", "hours": "Daily: 11am-10pm", "price_range": "$", "price_range_num": 1, "restaurant_id": 34064429118469784, "cuisines": ["Italian", "Pizza"], "address": {"city": "Brentwood", "state": "CA", "postal_code": "90049", "street": "11723 Barrington Court", "formatted": "11723 Barrington Court Brentwood, CA 90049"}, "geo": {"lat": 34.064429, "lon": -118.469785}, "menus": [], "last_updated": "2021-01-05T08:34:24.045Z"}, {"restaurant_name": "BVM Deli", "restaurant_phone": "(310) 476-3006", "restaurant_website": "", "hours": "Mon-Sat: 10am-8pm", "price_range": "$$", "price_range_num": 2, "restaurant_id": 34064364118469644, "cuisines": ["Deli Food", "Sandwiches"], "address": {"city": "Los Angeles", "state": "CA", "postal_code": "90049", "street": "11725 Barrington Ct", "formatted": "11725 Barrington Ct Los Angeles, CA 90049"}, "geo": {"lat": 34.064364, "lon": -118.469643}, "menus": [], "last_updated": "2020-12-29T06:50:32.225Z"}, {"restaurant_name": "San Gennaro Cafe", "restaurant_phone": "(310) 476-9696", "restaurant_website": "", "hours": "", "price_range": "$$$", "price_range_num": 3, "restaurant_id": 34066161118469096, "cuisines": ["Healthy", "Italian", "Pasta", "Pizza", "Salads"], "address": {"city": "Los Angeles", "state": "CA", "postal_code": "90049", "street": "140 Barrington Place", "formatted": "140 Barrington Place Los Angeles, CA 90049"}, "geo": {"lat": 34.066161, "lon": -118.469097}, "menus": [], "last_updated": "2020-12-29T06:50:34.240Z"}, {"restaurant_name": "Cafe Rivva", "restaurant_phone": "(310) 826-6866", "restaurant_website": "", "hours": "Daily: 10am-10pm", "price_range": "$$$$$", "price_range_num": 5, "restaurant_id": 34053868118465276, "cuisines": ["Salads", "Smoothies & Juices", "Vegan", "Vegetarian"], "address": {"city": "Los Angeles", "state": "CA", "postal_code": "90049", "street": "11677 San Vicente Blvd", "formatted": "11677 San Vicente Blvd Los Angeles, CA 90049"}, "geo": {"lat": 34.053868, "lon": -118.465276}, "menus": [], "last_updated": "2020-12-29T06:50:32.687Z"}, {"restaurant_name": "La Strada Deli Pizzeria", "restaurant_phone": "(310) 476-1100", "restaurant_website": "", "hours": "Daily: 11am-9pm", "price_range": "$$", "price_range_num": 2, "restaurant_id": 34064966118469890, "cuisines": ["American", "Breakfast", "Burgers", "Healthy", "Italian", "Pizza", "Salads", "Sandwiches"], "address": {"city": "Los Angeles", "state": "CA", "postal_code": "90049", "street": "147 S Barrington Ave", "formatted": "147 S Barrington Ave Los Angeles, CA 90049"}, "geo": {"lat": 34.064966, "lon": -118.469886}, "menus": [], "last_updated": "2020-12-29T06:50:34.959Z"}, {"restaurant_name": "Belwood Bakery", "restaurant_phone": "(310) 471-6855", "restaurant_website": "", "hours": "Mon-Fri: 7am-6pm Sat: 7am-5pm Sun: 8am-3pm", "price_range": "$", "price_range_num": 1, "restaurant_id": 34065248118469296, "cuisines": ["Bakery & Pastries", "Coffee & Tea", "Desserts", "Sandwiches"], "address": {"city": "Los Angeles", "state": "CA", "postal_code": "90049", "street": "11625 Barrington Ct", "formatted": "11625 Barrington Ct Los Angeles, CA 90049"}, "geo": {"lat": 34.065248, "lon": -118.469297}, "menus": [], "last_updated": "2020-12-29T06:50:33.291Z"}, {"restaurant_name": "Baltaire", "restaurant_phone": "(424) 273-1660", "restaurant_website": "http:///ca/los-angeles/719719-baltaire/", "hours": "", "price_range": "", "price_range_num": 0, "restaurant_id": 34054218118463996, "cuisines": [""], "address": {"city": "Los Angeles", "state": "CA", "postal_code": "90049", "street": "11647 San Vicente Blvd", "formatted": "11647 San Vicente Blvd Los Angeles, CA 90049"}, "geo": {"lat": 34.054218, "lon": -118.463997}, "menus": [], "last_updated": "2020-12-29T06:46:09.008Z"}, {"restaurant_name": "Tobi Tobin", "restaurant_phone": "(310) 207-0902", "restaurant_website": "http:///ca/los-angeles/719629-tobi-tobin/", "hours": "", "price_range": "", "price_range_num": 0, "restaurant_id": 34053967118465500, "cuisines": [""], "address": {"city": "Los Angeles", "state": "CA", "postal_code": "90049", "street": "11695 San Vicente Boulevard", "formatted": "11695 San Vicente Boulevard Los Angeles, CA 90049"}, "geo": {"lat": 34.053967, "lon": -118.4655}, "menus": [], "last_updated": "2020-12-29T06:46:09.419Z"}, {"restaurant_name": "Soom Soom Fresh Mediterranean", "restaurant_phone": "(424) 331-0911", "restaurant_website": "http:///ca/los-angeles/571551-soom-soom-fresh-mediterranean/", "hours": "", "price_range": "", "price_range_num": 0, "restaurant_id": 34064350118469400, "cuisines": [""], "address": {"city": "Los Angeles", "state": "CA", "postal_code": "90049", "street": "11704 Barrington Ct", "formatted": "11704 Barrington Ct Los Angeles, CA 90049"}, "geo": {"lat": 34.06435, "lon": -118.469399}, "menus": [], "last_updated": "2020-12-28T19:25:11.892Z"}, {"restaurant_name": "Casa De Campo", "restaurant_phone": "(310) 208-2100", "restaurant_website": "http:///ca/los-angeles/587085-casa-de-campo/", "hours": "", "price_range": "", "price_range_num": 0, "restaurant_id": 34064243118468980, "cuisines": [""], "address": {"city": "Los Angeles", "state": "CA", "postal_code": "90049", "street": "147 S Barrington Ave", "formatted": "147 S Barrington Ave Los Angeles, CA 90049"}, "geo": {"lat": 34.064243, "lon": -118.468979}, "menus": [], "last_updated": "2020-12-28T19:25:14.100Z"}, {"restaurant_name": "Kreation Organic", "restaurant_phone": "(310) 476-9300", "restaurant_website": "http:///ca/los-angeles/589252-kreation-organic-juicery-kafe/", "hours": "", "price_range": "", "price_range_num": 0, "restaurant_id": 34052998118467680, "cuisines": [""], "address": {"city": "Los Angeles", "state": "CA", "postal_code": "90049", "street": "11754 San Vicente Blvd", "formatted": "11754 San Vicente Blvd Los Angeles, CA 90049"}, "geo": {"lat": 34.052998, "lon": -118.467682}, "menus": [], "last_updated": "2020-12-28T19:25:14.507Z"}, {"restaurant_name": "Kreation Kafe", "restaurant_phone": "(310) 458-4880", "restaurant_website": "", "hours": "", "price_range": "$$", "price_range_num": 2, "restaurant_id": 34070320118455010, "cuisines": ["Breakfast", "Healthy", "Organic", "Salads", "Sandwiches", "Vegetarian"], "address": {"city": "Los Angeles", "state": "CA", "postal_code": "90049", "street": "1023 Montana Ave Ste B", "formatted": "1023 Montana Ave Ste B Los Angeles, CA 90049"}, "geo": {"lat": 34.07032, "lon": -118.455009}, "menus": [], "last_updated": "2020-12-29T06:50:08.884Z"}, {"restaurant_name": "Brew-N-Beans", "restaurant_phone": "(310) 471-0240", "restaurant_website": "", "hours": "Mon-Fri: 7am-6pm Sat: 8am-4pm", "price_range": "$$", "price_range_num": 2, "restaurant_id": 34052832118470148, "cuisines": ["Coffee & Tea", "Sandwiches"], "address": {"city": "Los Angeles", "state": "CA", "postal_code": "90049", "street": "11911 San Vicente Blvd", "formatted": "11911 San Vicente Blvd Los Angeles, CA 90049"}, "geo": {"lat": 34.052832, "lon": -118.470147}, "menus": [], "last_updated": "2020-12-29T06:50:32.267Z"}, {"restaurant_name": "Gaucho Grill Brentwood", "restaurant_phone": "(310) 447-7898", "restaurant_website": "", "hours": "Daily: 11:30am-10pm", "price_range": "$$$", "price_range_num": 3, "restaurant_id": 34053186118467180, "cuisines": ["Argentinean", "South American", "Steak"], "address": {"city": "Los Angeles", "state": "CA", "postal_code": "90049", "street": "11754 San Vicente Blvd", "formatted": "11754 San Vicente Blvd Los Angeles, CA 90049"}, "geo": {"lat": 34.053186, "lon": -118.46718}, "menus": [], "last_updated": "2020-12-29T06:50:34.035Z"}, {"restaurant_name": "Fresh Brothers", "restaurant_phone": "(310) 826-5833", "restaurant_website": "", "hours": "", "price_range": "$$", "price_range_num": 2, "restaurant_id": 34052871118466956, "cuisines": ["Pizza", "Salads", "Wings"], "address": {"city": "Los Angeles", "state": "CA", "postal_code": "90049", "street": "11740 San Vicente Blvd", "formatted": "11740 San Vicente Blvd Los Angeles, CA 90049"}, "geo": {"lat": 34.052871, "lon": -118.466957}, "menus": [], "last_updated": "2020-12-29T06:50:32.346Z"}, {"restaurant_name": "SanSai Japanese Grill", "restaurant_phone": "(310) 442-6070", "restaurant_website": "", "hours": "Mon-Sat: 11am-9pm Sun: 11:30am-9pm", "price_range": "$$", "price_range_num": 2, "restaurant_id": 33946877118199270, "cuisines": ["Asian", "Healthy", "Japanese", "Sushi"], "address": {"city": "Los Angeles", "state": "CA", "postal_code": "90049", "street": "11678 San Vincente Boulevard", "formatted": "11678 San Vincente Boulevard Los Angeles, CA 90049"}, "geo": {"lat": 33.946877, "lon": -118.199272}, "menus": [], "last_updated": "2020-12-29T06:50:34.219Z"}, {"restaurant_name": "Starbucks Coffee", "restaurant_phone": "(310) 395-8212", "restaurant_website": "http://www.starbucks.com", "hours": "", "price_range": "", "price_range_num": 0, "restaurant_id": 34048456118491068, "cuisines": ["American", "Coffee & Tea"], "address": {"city": "LOS ANGELES", "state": "CA", "postal_code": "90049", "street": "13050 San Vicente Blvd", "formatted": "13050 San Vicente Blvd LOS ANGELES, CA 90049"}, "geo": {"lat": 34.048456, "lon": -118.491069}, "menus": [], "last_updated": "2020-12-29T06:51:36.224Z"}, {"restaurant_name": "Starbucks Coffee", "restaurant_phone": "(310) 472-7119", "restaurant_website": "http://www.starbucks.com", "hours": "", "price_range": "", "price_range_num": 0, "restaurant_id": 34064694118469436, "cuisines": ["American", "Coffee & Tea"], "address": {"city": "LOS ANGELES", "state": "CA", "postal_code": "90049", "street": "11700 Barrington Ct", "formatted": "11700 Barrington Ct LOS ANGELES, CA 90049"}, "geo": {"lat": 34.064694, "lon": -118.469435}, "menus": [], "last_updated": "2020-12-29T06:51:37.185Z"}, {"restaurant_name": "Starbucks Coffee", "restaurant_phone": "(310) 207-4202", "restaurant_website": "http://www.starbucks.com", "hours": "", "price_range": "", "price_range_num": 0, "restaurant_id": 34053605118466210, "cuisines": ["American", "Coffee & Tea"], "address": {"city": "LOS ANGELES", "state": "CA", "postal_code": "90049", "street": "11707 San Vicente Blvd", "formatted": "11707 San Vicente Blvd LOS ANGELES, CA 90049"}, "geo": {"lat": 34.053605, "lon": -118.466206}, "menus": [], "last_updated": "2020-12-29T06:51:37.274Z"}, {"restaurant_name": "Sushi Sasabune", "restaurant_phone": "(310) 478-3596", "restaurant_website": "", "hours": "Lunch Mon-Fri: 12pm-2pm Dinner Mon-Sat: 5:30pm-10pm ", "price_range": "$", "price_range_num": 1, "restaurant_id": 34046725118464500, "cuisines": ["Japanese", "Sushi"], "address": {"city": "Los Angeles", "state": "CA", "postal_code": "90049", "street": "11917 Wilshire Blvd", "formatted": "11917 Wilshire Blvd Los Angeles, CA 90049"}, "geo": {"lat": 34.046725, "lon": -118.464501}, "menus": [], "last_updated": "2020-12-29T06:49:39.544Z"}, {"restaurant_name": "Susie Cakes", "restaurant_phone": "(310) 442-2253", "restaurant_website": "", "hours": "Mon-Sat: 10am-7pm", "price_range": "$", "price_range_num": 1, "restaurant_id": 34053412118465996, "cuisines": ["Bakery & Pastries", "Desserts"], "address": {"city": "Los Angeles", "state": "CA", "postal_code": "90049", "street": "11708 San Vicente Blvd", "formatted": "11708 San Vicente Blvd Los Angeles, CA 90049"}, "geo": {"lat": 34.053412, "lon": -118.465996}, "menus": [], "last_updated": "2020-12-29T06:49:59.798Z"}, {"restaurant_name": "Palmeri", "restaurant_phone": "(310) 442-8446", "restaurant_website": "", "hours": "Mon-Sat: 11:30am-10pm Sun: 5pm-10pm", "price_range": "$$$$$", "price_range_num": 5, "restaurant_id": 34053502118463824, "cuisines": ["Italian"], "address": {"city": "Los Angeles", "state": "CA", "postal_code": "90049", "street": "11650 San Vicente Blvd", "formatted": "11650 San Vicente Blvd Los Angeles, CA 90049"}, "geo": {"lat": 34.053502, "lon": -118.463824}, "menus": [], "last_updated": "2020-12-29T06:50:00.217Z"}], "numResults": 25}