{"totalResults": 86, "page": 1, "total_pages": 4, "more_pages": true, "data": [{"restaurant_name": "Rappahannock Oyster Bar", "restaurant_phone": "(323) 435-4004", "restaurant_website": "http:///ca/los-angeles/722803-rappahannock-oyster-bar/", "hours": "", "price_range": "", "price_range_num": 0, "restaurant_id": 34030941118238884, "cuisines": [""], "address": {"city": "Los Angeles", "state": "CA", "postal_code": "90021", "street": "787 Alameda Street", "formatted": "787 Alameda Street Los Angeles, CA 90021"}, "geo": {"lat": 34.030941, "lon": -118.238884}, "menus": [], "last_updated": "2020-12-29T06:46:07.259Z"}, {"restaurant_name": "Stoked California Bbq", "restaurant_phone": "(626) 223-7506", "restaurant_website": "http:///ca/los-angeles/722801-stoked-california-bbq/", "hours": "", "price_range": "", "price_range_num": 0, "restaurant_id": 34034775118241668, "cuisines": [""], "address": {"city": "Los Angeles", "state": "CA", "postal_code": "90021", "street": "746 Market Court", "formatted": "746 Market Court Los Angeles, CA 90021"}, "geo": {"lat": 34.034775, "lon": -118.241669}, "menus": [], "last_updated": "2020-12-29T06:46:07.293Z"}, {"restaurant_name": "Maru Coffee", "restaurant_phone": "(213) 372-5755", "restaurant_website": "http:///ca/los-angeles/722799-maru-coffee/", "hours": "", "price_range": "", "price_range_num": 0, "restaurant_id": 34030956118230348, "cuisines": [""], "address": {"city": "Los Angeles", "state": "CA", "postal_code": "90021", "street": "1019 South Santa Fe Avenue", "formatted": "1019 South Santa Fe Avenue Los Angeles, CA 90021"}, "geo": {"lat": 34.030956, "lon": -118.230347}, "menus": [], "last_updated": "2020-12-29T06:46:07.301Z"}, {"restaurant_name": "Peoples Sausage Company", "restaurant_phone": "(213) 627-8633", "restaurant_website": "http:///ca/los-angeles/722800-peoples-sausage-company/", "hours": "", "price_range": "", "price_range_num": 0, "restaurant_id": 34029690118247428, "cuisines": [""], "address": {"city": "Los Angeles", "state": "CA", "postal_code": "90021", "street": "1132 East Pico Boulevard", "formatted": "1132 East Pico Boulevard Los Angeles, CA 90021"}, "geo": {"lat": 34.02969, "lon": -118.247429}, "menus": [], "last_updated": "2020-12-29T06:46:07.306Z"}, {"restaurant_name": "Pcp La", "restaurant_phone": "(213) 372-5305", "restaurant_website": "http:///ca/los-angeles/722767-pcp-la/", "hours": "", "price_range": "", "price_range_num": 0, "restaurant_id": 34035988118240388, "cuisines": [""], "address": {"city": "Los Angeles", "state": "CA", "postal_code": "90021", "street": "1320 East 7th Street", "formatted": "1320 East 7th Street Los Angeles, CA 90021"}, "geo": {"lat": 34.035988, "lon": -118.240387}, "menus": [], "last_updated": "2020-12-29T06:46:07.446Z"}, {"restaurant_name": "El Gueros Truck", "restaurant_phone": "(323) 420-3280", "restaurant_website": "http:///ca/los-angeles/722730-el-gueros-truck/", "hours": "", "price_range": "", "price_range_num": 0, "restaurant_id": 34034649118250810, "cuisines": [""], "address": {"city": "Los Angeles", "state": "CA", "postal_code": "90021", "street": "1013 Crocker Street", "formatted": "1013 Crocker Street Los Angeles, CA 90021"}, "geo": {"lat": 34.034649, "lon": -118.250809}, "menus": [], "last_updated": "2020-12-29T06:46:07.544Z"}, {"restaurant_name": "Taqueria La Papa Loca", "restaurant_phone": "(323) 422-0798", "restaurant_website": "http:///ca/los-angeles/722594-taqueria-la-papa-loca/", "hours": "", "price_range": "", "price_range_num": 0, "restaurant_id": 34035446118244820, "cuisines": [""], "address": {"city": "Los Angeles", "state": "CA", "postal_code": "90021", "street": "1119 East 8th Street", "formatted": "1119 East 8th Street Los Angeles, CA 90021"}, "geo": {"lat": 34.035446, "lon": -118.24482}, "menus": [], "last_updated": "2020-12-29T06:46:08.257Z"}, {"restaurant_name": "The Porter Junction Cafe", "restaurant_phone": "(213) 489-4430", "restaurant_website": "http:///ca/los-angeles/722506-the-porter-junction-cafe/", "hours": "", "price_range": "", "price_range_num": 0, "restaurant_id": 34026413118230610, "cuisines": [""], "address": {"city": "Los Angeles", "state": "CA", "postal_code": "90021", "street": "2350 Porter Street", "formatted": "2350 Porter Street Los Angeles, CA 90021"}, "geo": {"lat": 34.026413, "lon": -118.230606}, "menus": [], "last_updated": "2020-12-29T06:46:08.443Z"}, {"restaurant_name": "Alameda Supper Club", "restaurant_phone": "(213) 375-3315", "restaurant_website": "http:///ca/los-angeles/722490-alameda-supper-club/", "hours": "", "price_range": "", "price_range_num": 0, "restaurant_id": 34034828118240150, "cuisines": [""], "address": {"city": "Los Angeles", "state": "CA", "postal_code": "90021", "street": "757 South Alameda Street", "formatted": "757 South Alameda Street Los Angeles, CA 90021"}, "geo": {"lat": 34.034828, "lon": -118.240151}, "menus": [], "last_updated": "2020-12-29T06:46:08.474Z"}, {"restaurant_name": "Sub-Grub", "restaurant_phone": "(213) 688-8844", "restaurant_website": "http:///ca/los-angeles/719712-sub-grub/", "hours": "", "price_range": "", "price_range_num": 0, "restaurant_id": 34026711118248788, "cuisines": [""], "address": {"city": "Los Angeles", "state": "CA", "postal_code": "90021", "street": "1541 South Central Avenue", "formatted": "1541 South Central Avenue Los Angeles, CA 90021"}, "geo": {"lat": 34.026711, "lon": -118.248787}, "menus": [], "last_updated": "2020-12-29T06:46:09.026Z"}, {"restaurant_name": "Dulce", "restaurant_phone": "(213) 536-9633", "restaurant_website": "http:///ca/los-angeles/719703-dulce/", "hours": "", "price_range": "", "price_range_num": 0, "restaurant_id": 34033546118240508, "cuisines": [""], "address": {"city": "Los Angeles", "state": "CA", "postal_code": "90021", "street": "777 South Alameda Street", "formatted": "777 South Alameda Street Los Angeles, CA 90021"}, "geo": {"lat": 34.033546, "lon": -118.240509}, "menus": [], "last_updated": "2020-12-29T06:46:09.090Z"}, {"restaurant_name": "Toki Cafe", "restaurant_phone": "(213) 372-5254", "restaurant_website": "http:///ca/los-angeles/719615-toki-cafe/", "hours": "", "price_range": "", "price_range_num": 0, "restaurant_id": 34034588118249784, "cuisines": [""], "address": {"city": "Los Angeles", "state": "CA", "postal_code": "90021", "street": "777 East 10th Street", "formatted": "777 East 10th Street Los Angeles, CA 90021"}, "geo": {"lat": 34.034588, "lon": -118.249786}, "menus": [], "last_updated": "2020-12-29T06:46:09.441Z"}, {"restaurant_name": "City Club Restaurant", "restaurant_phone": "(213) 891-1562", "restaurant_website": "http:///ca/los-angeles/719595-city-club-restaurant/", "hours": "", "price_range": "", "price_range_num": 0, "restaurant_id": 34030705118230390, "cuisines": [""], "address": {"city": "Los Angeles", "state": "CA", "postal_code": "90021", "street": "1029 South Santa Fe Avenue", "formatted": "1029 South Santa Fe Avenue Los Angeles, CA 90021"}, "geo": {"lat": 34.030705, "lon": -118.230393}, "menus": [], "last_updated": "2020-12-29T06:46:09.609Z"}, {"restaurant_name": "Es Todo Vegan Street Food", "restaurant_phone": "(213) 935-8415", "restaurant_website": "http:///ca/los-angeles/566882-es-todo-vegan-street-food/", "hours": "", "price_range": "", "price_range_num": 0, "restaurant_id": 34034981118234176, "cuisines": [""], "address": {"city": "Los Angeles", "state": "CA", "postal_code": "90021", "street": "1809 E 7th St", "formatted": "1809 E 7th St Los Angeles, CA 90021"}, "geo": {"lat": 34.034981, "lon": -118.234177}, "menus": [], "last_updated": "2020-12-28T19:25:11.226Z"}, {"restaurant_name": "Cafe Anzio", "restaurant_phone": "(213) 745-5006", "restaurant_website": "http:///ca/los-angeles/588790-cafe-anzio/", "hours": "", "price_range": "", "price_range_num": 0, "restaurant_id": 34032463118250200, "cuisines": [""], "address": {"city": "Los Angeles", "state": "CA", "postal_code": "90021", "street": "807 E 12th St., Ste 249", "formatted": "807 E 12th St., Ste 249 Los Angeles, CA 90021"}, "geo": {"lat": 34.032463, "lon": -118.250198}, "menus": [], "last_updated": "2020-12-28T19:25:14.320Z"}, {"restaurant_name": "sixth+mill pizzeria and bar", "restaurant_phone": "(213) 629-3000", "restaurant_website": "http:///ca/los-angeles/589149-sixthmill-pizzeria-and-bar/", "hours": "", "price_range": "", "price_range_num": 0, "restaurant_id": 34038506118234800, "cuisines": [""], "address": {"city": "Los Angeles", "state": "CA", "postal_code": "90021", "street": "1335 E 6th St", "formatted": "1335 E 6th St Los Angeles, CA 90021"}, "geo": {"lat": 34.038506, "lon": -118.234802}, "menus": [], "last_updated": "2020-12-28T19:25:14.404Z"}, {"restaurant_name": "The French Garden", "restaurant_phone": "(213) 623-4028", "restaurant_website": "http://www.thefrenchgardenrestaurant.com", "hours": "Mon-Fri: 10:30am-2:30pm", "price_range": "$$$", "price_range_num": 3, "restaurant_id": 34034488118232620, "cuisines": ["French", "Pasta", "Salads", "Sandwiches"], "address": {"city": "LOS ANGELES", "state": "CA", "postal_code": "90021", "street": "1936 E 7th St", "formatted": "1936 E 7th St LOS ANGELES, CA 90021"}, "geo": {"lat": 34.034488, "lon": -118.232621}, "menus": [], "last_updated": "2020-12-29T06:50:30.571Z"}, {"restaurant_name": "Pizzanista!", "restaurant_phone": "(213) 627-1430", "restaurant_website": "http://www.pizzanista.com/", "hours": "Tue-Fri: 12pm-12am Sat: 5pm-12am Sun: 5pm-10pm", "price_range": "$$", "price_range_num": 2, "restaurant_id": 34034698118231520, "cuisines": ["Pizza"], "address": {"city": "Los Angeles", "state": "CA", "postal_code": "90021", "street": "2019 E 7th St", "formatted": "2019 E 7th St Los Angeles, CA 90021"}, "geo": {"lat": 34.034698, "lon": -118.231521}, "menus": [], "last_updated": "2020-12-29T06:50:30.881Z"}, {"restaurant_name": "The Coffee Beanery", "restaurant_phone": "(213) 747-1693", "restaurant_website": "", "hours": "", "price_range": "", "price_range_num": 0, "restaurant_id": 34025217118250644, "cuisines": ["American", "Coffee & Tea", "Diner"], "address": {"city": "LOS ANGELES", "state": "CA", "postal_code": "90021", "street": "1225 E Washington Blvd", "formatted": "1225 E Washington Blvd LOS ANGELES, CA 90021"}, "geo": {"lat": 34.025217, "lon": -118.250644}, "menus": [], "last_updated": "2020-12-29T06:51:36.061Z"}, {"restaurant_name": "Farmer Boys", "restaurant_phone": "(213) 228-8999", "restaurant_website": "", "hours": "Daily: 24 Hours", "price_range": "", "price_range_num": 0, "restaurant_id": 34032041118238304, "cuisines": ["Diner"], "address": {"city": "Los Angeles", "state": "CA", "postal_code": "90021", "street": "726 S Alameda St", "formatted": "726 S Alameda St Los Angeles, CA 90021"}, "geo": {"lat": 34.032041, "lon": -118.238302}, "menus": [], "last_updated": "2020-12-29T06:51:37.813Z"}, {"restaurant_name": "LA's Best", "restaurant_phone": "(213) 622-7437", "restaurant_website": "", "hours": "Mon-Fri: 6am-4pm Sat: 6am-2pm", "price_range": "$$", "price_range_num": 2, "restaurant_id": 34038852118240028, "cuisines": ["American", "Burgers", "Pizza", "Sandwiches"], "address": {"city": "Los Angeles", "state": "CA", "postal_code": "90021", "street": "605 S Central Ave", "formatted": "605 S Central Ave Los Angeles, CA 90021"}, "geo": {"lat": 34.038852, "lon": -118.240028}, "menus": [], "last_updated": "2020-12-29T06:50:00.241Z"}, {"restaurant_name": "Setha", "restaurant_phone": "(213) 624-9865", "restaurant_website": "", "hours": "Mon-Fri: 7am-4pm Sat: 7:30am-3pm", "price_range": "$", "price_range_num": 1, "restaurant_id": 34035776118251484, "cuisines": ["Chinese", "Thai"], "address": {"city": "Los Angeles", "state": "CA", "postal_code": "90021", "street": "707 E 10th St", "formatted": "707 E 10th St Los Angeles, CA 90021"}, "geo": {"lat": 34.035776, "lon": -118.251484}, "menus": [], "last_updated": "2020-12-29T06:50:02.553Z"}, {"restaurant_name": "McDonald's", "restaurant_phone": "", "restaurant_website": "http://www.mcdonalds.com", "hours": "", "price_range": "", "price_range_num": 0, "restaurant_id": 34035275118238184, "cuisines": ["American", "Burgers"], "address": {"city": "LOS ANGELES", "state": "CA", "postal_code": "90021", "street": "690 S Alameda St", "formatted": "690 S Alameda St LOS ANGELES, CA 90021"}, "geo": {"lat": 34.035275, "lon": -118.238184}, "menus": [], "last_updated": "2020-12-29T06:51:31.223Z"}, {"restaurant_name": "McDonald's", "restaurant_phone": "", "restaurant_website": "http://www.mcdonalds.com", "hours": "", "price_range": "", "price_range_num": 0, "restaurant_id": 34031408118244012, "cuisines": ["American", "Burgers"], "address": {"city": "LOS ANGELES", "state": "CA", "postal_code": "90021", "street": "1310 E Olympic Blvd", "formatted": "1310 E Olympic Blvd LOS ANGELES, CA 90021"}, "geo": {"lat": 34.031408, "lon": -118.244012}, "menus": [], "last_updated": "2020-12-29T06:51:31.794Z"}, {"restaurant_name": "Jack in the Box", "restaurant_phone": "(213) 746-8827", "restaurant_website": "", "hours": "", "price_range": "", "price_range_num": 0, "restaurant_id": 34025017118239244, "cuisines": ["American", "Burgers"], "address": {"city": "Los Angeles", "state": "CA", "postal_code": "90021", "street": "1415 S Alameda Ave", "formatted": "1415 S Alameda Ave Los Angeles, CA 90021"}, "geo": {"lat": 34.025017, "lon": -118.239243}, "menus": [], "last_updated": "2020-12-29T06:51:33.256Z"}], "numResults": 25}