{"totalResults": 76, "page": 1, "total_pages": 4, "more_pages": true, "data": [{"restaurant_name": "White Rabbit Truck", "restaurant_phone": "(818) 745-2188", "restaurant_website": "", "hours": "", "price_range": "$", "price_range_num": 1, "restaurant_id": 34113739118235040, "cuisines": ["Filipino"], "address": {"city": "Eagle Rock", "state": "CA", "postal_code": "90065", "street": "Location Varies", "formatted": "Location Varies Eagle Rock, CA 90065"}, "geo": {"lat": 34.113739, "lon": -118.23504}, "menus": [], "last_updated": "2021-01-05T08:30:39.212Z"}, {"restaurant_name": "Lupita's Tamales", "restaurant_phone": "(323) 258-0667", "restaurant_website": "http:///ca/los-angeles/759344-lupitas-tamales/", "hours": "", "price_range": "", "price_range_num": 0, "restaurant_id": 34114178118244576, "cuisines": [""], "address": {"city": "Los Angeles", "state": "CA", "postal_code": "90065", "street": "3027 North San Fernando Road", "formatted": "3027 North San Fernando Road Los Angeles, CA 90065"}, "geo": {"lat": 34.114178, "lon": -118.244576}, "menus": [], "last_updated": "2020-12-29T06:46:06.400Z"}, {"restaurant_name": "Domino's Pizza", "restaurant_phone": "(323) 225-1080", "restaurant_website": "http://www.dominos.com", "hours": "", "price_range": "", "price_range_num": 0, "restaurant_id": 34083800118222000, "cuisines": ["American", "Pizza", "Wings"], "address": {"city": "Los Angeles", "state": "CA", "postal_code": "90065", "street": "520 W Avenue 26", "formatted": "520 W Avenue 26 Los Angeles, CA 90065"}, "geo": {"lat": 34.0838, "lon": -118.222}, "menus": [], "last_updated": "2020-12-29T06:46:06.743Z"}, {"restaurant_name": "Taqueria La Guadalupana", "restaurant_phone": "(323) 594-0509", "restaurant_website": "http:///ca/los-angeles/723905-taqueria-la-guadalupana/", "hours": "", "price_range": "", "price_range_num": 0, "restaurant_id": 34102703118236604, "cuisines": [""], "address": {"city": "Los Angeles", "state": "CA", "postal_code": "90065", "street": "2100 Cypress Avenue", "formatted": "2100 Cypress Avenue Los Angeles, CA 90065"}, "geo": {"lat": 34.102703, "lon": -118.236603}, "menus": [], "last_updated": "2020-12-29T06:46:06.995Z"}, {"restaurant_name": "IHOP (Store # 744)", "restaurant_phone": "(323) 224-9163", "restaurant_website": "http://ihop.com", "hours": "Sun-Thur: 7am-10pm Fri-Sat: 7am-12am", "price_range": "", "price_range_num": 0, "restaurant_id": 34083388118223444, "cuisines": ["American", "Diner"], "address": {"city": "Los Angeles", "state": "CA", "postal_code": "90065", "street": "2227 N Figueroa St", "formatted": "2227 N Figueroa St Los Angeles, CA 90065"}, "geo": {"lat": 34.083388, "lon": -118.223445}, "menus": [], "last_updated": "2021-01-05T08:01:28.421Z"}, {"restaurant_name": "Denny's", "restaurant_phone": "(323) 259-8258", "restaurant_website": "http://locations.dennys.com/CA/LOS-ANGELES/202125?utm_source=yext&utm_medium=local-listing&utm_campaign=yext-listing", "hours": "Daily: 24 Hrs", "price_range": "", "price_range_num": 0, "restaurant_id": 34114236118245556, "cuisines": ["Diner"], "address": {"city": "Los Angeles", "state": "CA", "postal_code": "90065", "street": "3060 San Fernando Rd", "formatted": "3060 San Fernando Rd Los Angeles, CA 90065"}, "geo": {"lat": 34.114236, "lon": -118.245556}, "menus": [], "last_updated": "2021-01-05T08:01:28.650Z"}, {"restaurant_name": "Aide's coffee and juices", "restaurant_phone": "(323) 987-0028", "restaurant_website": "http:///ca/los-angeles/844415-aides-coffee-and-juices/", "hours": "", "price_range": "", "price_range_num": 0, "restaurant_id": 34085117118221244, "cuisines": [""], "address": {"city": "Los Angeles", "state": "CA", "postal_code": "90065", "street": "2805 N Figueroa St", "formatted": "2805 N Figueroa St Los Angeles, CA 90065"}, "geo": {"lat": 34.085117, "lon": -118.221245}, "menus": [], "last_updated": "2021-01-05T08:01:28.971Z"}, {"restaurant_name": "Toto's BBQ", "restaurant_phone": "(323) 259-9926", "restaurant_website": "http:///ca/los-angeles/835392-totos-bbq/", "hours": "", "price_range": "", "price_range_num": 0, "restaurant_id": 34125473118231476, "cuisines": [""], "address": {"city": "Los Angeles", "state": "CA", "postal_code": "90065", "street": "4110 Verdugo Rd", "formatted": "4110 Verdugo Rd Los Angeles, CA 90065"}, "geo": {"lat": 34.125473, "lon": -118.231476}, "menus": [], "last_updated": "2021-01-05T08:01:30.807Z"}, {"restaurant_name": "La Pizza Loca", "restaurant_phone": "(323) 256-4710", "restaurant_website": "http://www.lapizzaloca.com", "hours": "Mon-Thur: 10am-11pm Fri-Sat: 10am-12am", "price_range": "", "price_range_num": 0, "restaurant_id": 34115112118246050, "cuisines": ["Pizza", "Wings"], "address": {"city": "Los Angeles", "state": "CA", "postal_code": "90065", "street": "3109 San Fernando Rd", "formatted": "3109 San Fernando Rd Los Angeles, CA 90065"}, "geo": {"lat": 34.115112, "lon": -118.246046}, "menus": [], "last_updated": "2021-01-05T08:01:31.326Z"}, {"restaurant_name": "Donut Factory", "restaurant_phone": "(323) 576-2322", "restaurant_website": "http:///ca/los-angeles/830319-donut-factory/", "hours": "", "price_range": "", "price_range_num": 0, "restaurant_id": 34095028118208764, "cuisines": [""], "address": {"city": "Los Angeles", "state": "CA", "postal_code": "90065", "street": "4315 North Figueroa Street", "formatted": "4315 North Figueroa Street Los Angeles, CA 90065"}, "geo": {"lat": 34.095028, "lon": -118.208763}, "menus": [], "last_updated": "2021-01-05T08:01:31.588Z"}, {"restaurant_name": "Donut Factory 2", "restaurant_phone": "(562) 619-3495", "restaurant_website": "http:///ca/los-angeles/830327-donut-factory-2/", "hours": "", "price_range": "", "price_range_num": 0, "restaurant_id": 34104168118237868, "cuisines": [""], "address": {"city": "Los Angeles", "state": "CA", "postal_code": "90065", "street": "2225 North San Fernando Road", "formatted": "2225 North San Fernando Road Los Angeles, CA 90065"}, "geo": {"lat": 34.104168, "lon": -118.237869}, "menus": [], "last_updated": "2021-01-05T08:01:31.613Z"}, {"restaurant_name": "Choo Choo's", "restaurant_phone": "(323) 258-4454", "restaurant_website": "http:///ca/los-angeles/821646-choo-choos/", "hours": "", "price_range": "", "price_range_num": 0, "restaurant_id": 34120148118228188, "cuisines": [""], "address": {"city": "Los Angeles", "state": "CA", "postal_code": "90065", "street": "4014 Eagle Rock Boulevard", "formatted": "4014 Eagle Rock Boulevard Los Angeles, CA 90065"}, "geo": {"lat": 34.120148, "lon": -118.228188}, "menus": [], "last_updated": "2021-01-05T08:01:32.451Z"}, {"restaurant_name": "El Buen Sabor", "restaurant_phone": "(323) 225-1805", "restaurant_website": "http:///ca/los-angeles/812894-el-buen-sabor/", "hours": "", "price_range": "", "price_range_num": 0, "restaurant_id": 34094681118208144, "cuisines": [""], "address": {"city": "Los Angeles", "state": "CA", "postal_code": "90065", "street": "4306 North Figueroa Street", "formatted": "4306 North Figueroa Street Los Angeles, CA 90065"}, "geo": {"lat": 34.094681, "lon": -118.208145}, "menus": [], "last_updated": "2021-01-05T08:02:04.272Z"}, {"restaurant_name": "Tacos La Estrella", "restaurant_phone": "(323) 258-5256", "restaurant_website": "", "hours": "Mon-Tue+Thu: 9am-5pm Wed: 9am-11:30am Fri: 9am-5:30pm", "price_range": "$", "price_range_num": 1, "restaurant_id": 34118936118240070, "cuisines": ["Mexican"], "address": {"city": "Los Angeles", "state": "CA", "postal_code": "90065", "street": "3415 Fletcher Dr", "formatted": "3415 Fletcher Dr Los Angeles, CA 90065"}, "geo": {"lat": 34.118936, "lon": -118.24007}, "menus": [], "last_updated": "2021-01-05T08:07:45.478Z"}, {"restaurant_name": "Subway", "restaurant_phone": "(323) 257-1604", "restaurant_website": "https://restaurants.subway.com/united-states/ca/los-angeles/3756-west-avenue-40?utm_source=yext-other&utm_medium=local&utm_term=acq&utm_content=47856&utm_campaign=evergreen-2020&y_source=1_MTQ5MDczMzg", "hours": "", "price_range": "", "price_range_num": 0, "restaurant_id": 34119700118227200, "cuisines": [""], "address": {"city": "Los Angeles", "state": "CA", "postal_code": "90065", "street": "3756 West Avenue 40", "formatted": "3756 West Avenue 40 Los Angeles, CA 90065"}, "geo": {"lat": 34.1197, "lon": -118.2272}, "menus": [], "last_updated": "2021-01-05T08:05:42.961Z"}, {"restaurant_name": "ABC Donuts", "restaurant_phone": "(323) 868-9915", "restaurant_website": "", "hours": "", "price_range": "", "price_range_num": 0, "restaurant_id": 34114178118244550, "cuisines": [""], "address": {"city": "Los Angeles", "state": "CA", "postal_code": "90065", "street": "3027 N San Fernando Rd", "formatted": "3027 N San Fernando Rd Los Angeles, CA 90065"}, "geo": {"lat": 34.114178, "lon": -118.244553}, "menus": [], "last_updated": "2021-01-05T08:05:43.541Z"}, {"restaurant_name": "Lupita's Restaurant", "restaurant_phone": "(323) 223-7835", "restaurant_website": "http:///ca/los-angeles/796440-lupitas-restaurant/", "hours": "", "price_range": "", "price_range_num": 0, "restaurant_id": 34086632118223756, "cuisines": [""], "address": {"city": "Los Angeles", "state": "CA", "postal_code": "90065", "street": "2634 Idell Street", "formatted": "2634 Idell Street Los Angeles, CA 90065"}, "geo": {"lat": 34.086632, "lon": -118.223755}, "menus": [], "last_updated": "2021-01-05T08:02:05.766Z"}, {"restaurant_name": "Egg Roll King", "restaurant_phone": "(323) 256-5271", "restaurant_website": "http:///ca/los-angeles/786257-egg-roll-king/", "hours": "", "price_range": "", "price_range_num": 0, "restaurant_id": 34115528118245652, "cuisines": [""], "address": {"city": "Los Angeles", "state": "CA", "postal_code": "90065", "street": "3111 North San Fernando Road", "formatted": "3111 North San Fernando Road Los Angeles, CA 90065"}, "geo": {"lat": 34.115528, "lon": -118.245651}, "menus": [], "last_updated": "2021-01-05T08:02:08.553Z"}, {"restaurant_name": "Pescaderia El Atacor", "restaurant_phone": "(323) 342-0180", "restaurant_website": "http:///ca/los-angeles/785675-pescaderia-el-atacor/", "hours": "", "price_range": "", "price_range_num": 0, "restaurant_id": 34088577118214700, "cuisines": [""], "address": {"city": "Los Angeles", "state": "CA", "postal_code": "90065", "street": "3520 North Figueroa Street", "formatted": "3520 North Figueroa Street Los Angeles, CA 90065"}, "geo": {"lat": 34.088577, "lon": -118.214699}, "menus": [], "last_updated": "2021-01-05T08:02:08.785Z"}, {"restaurant_name": "Taco Fiesta", "restaurant_phone": "(323) 223-5478", "restaurant_website": "http:///ca/los-angeles/781362-taco-fiesta/", "hours": "", "price_range": "", "price_range_num": 0, "restaurant_id": 34096161118207452, "cuisines": [""], "address": {"city": "Los Angeles", "state": "CA", "postal_code": "90065", "street": "4501 North Figueroa Street", "formatted": "4501 North Figueroa Street Los Angeles, CA 90065"}, "geo": {"lat": 34.096161, "lon": -118.207451}, "menus": [], "last_updated": "2021-01-05T08:02:09.281Z"}, {"restaurant_name": "Maria's Restaurant", "restaurant_phone": "(323) 221-1488", "restaurant_website": "http:///ca/los-angeles/781208-marias-restaurant/", "hours": "", "price_range": "", "price_range_num": 0, "restaurant_id": 34087997118217988, "cuisines": [""], "address": {"city": "Los Angeles", "state": "CA", "postal_code": "90065", "street": "3401 North Figueroa Street", "formatted": "3401 North Figueroa Street Los Angeles, CA 90065"}, "geo": {"lat": 34.087997, "lon": -118.217987}, "menus": [], "last_updated": "2021-01-05T08:02:09.368Z"}, {"restaurant_name": "Yum Yum Donut Shop", "restaurant_phone": "(323) 256-9412", "restaurant_website": "http:///ca/los-angeles/780780-yum-yum-donut-shop/", "hours": "", "price_range": "", "price_range_num": 0, "restaurant_id": 34115356118245500, "cuisines": [""], "address": {"city": "Los Angeles", "state": "CA", "postal_code": "90065", "street": "3103 North San Fernando Road", "formatted": "3103 North San Fernando Road Los Angeles, CA 90065"}, "geo": {"lat": 34.115356, "lon": -118.245499}, "menus": [], "last_updated": "2021-01-05T08:02:09.597Z"}, {"restaurant_name": "Salvamex", "restaurant_phone": "(323) 223-3914", "restaurant_website": "", "hours": "Daily: 8am-9pm", "price_range": "$$", "price_range_num": 2, "restaurant_id": 34100906118235108, "cuisines": ["Central American", "Latin American", "Mexican"], "address": {"city": "Los Angeles", "state": "CA", "postal_code": "90065", "street": "1910 Cypress Avenue", "formatted": "1910 Cypress Avenue Los Angeles, CA 90065"}, "geo": {"lat": 34.100906, "lon": -118.235107}, "menus": [], "last_updated": "2021-01-05T08:06:19.019Z"}, {"restaurant_name": "Uno Roll & Teriyaki", "restaurant_phone": "(323) 257-8717", "restaurant_website": "", "hours": "Mon-Sat: 11am-8pm", "price_range": "$", "price_range_num": 1, "restaurant_id": 34112056118235450, "cuisines": ["Japanese", "Smoothies & Juices", "Sushi", "Vegetarian"], "address": {"city": "Los Angeles", "state": "CA", "postal_code": "90065", "street": "3322 Verdugo Rd", "formatted": "3322 Verdugo Rd Los Angeles, CA 90065"}, "geo": {"lat": 34.112056, "lon": -118.235449}, "menus": [], "last_updated": "2021-01-05T08:06:19.141Z"}, {"restaurant_name": "Waba Grill", "restaurant_phone": "(323) 478-9222", "restaurant_website": "http://www.wabagrill.com", "hours": "Mon-Sat: 9am-9pm", "price_range": "$$", "price_range_num": 2, "restaurant_id": 34115646118245720, "cuisines": ["Japanese"], "address": {"city": "Los Angeles", "state": "CA", "postal_code": "90065", "street": "3113 N San Fernando Rd", "formatted": "3113 N San Fernando Rd Los Angeles, CA 90065"}, "geo": {"lat": 34.115646, "lon": -118.245718}, "menus": [], "last_updated": "2021-01-05T08:06:19.666Z"}], "numResults": 25}