{"totalResults": 59, "page": 1, "total_pages": 3, "more_pages": true, "data": [{"restaurant_name": "Spaccio Salumeria", "restaurant_phone": "(323) 795-0152", "restaurant_website": "http:///ca/los-angeles/755614-spaccio-salumeria/", "hours": "", "price_range": "", "price_range_num": 0, "restaurant_id": 34040165118328030, "cuisines": [""], "address": {"city": "Los Angeles", "state": "CA", "postal_code": "90018", "street": "4073 W Washington Blvd", "formatted": "4073 W Washington Blvd Los Angeles, CA 90018"}, "geo": {"lat": 34.040165, "lon": -118.328034}, "menus": [], "last_updated": "2020-12-29T06:46:06.573Z"}, {"restaurant_name": "Truffle Brothers", "restaurant_phone": "(323) 795-0152", "restaurant_website": "http:///ca/los-angeles/722832-truffle-brothers/", "hours": "", "price_range": "", "price_range_num": 0, "restaurant_id": 34040070118327880, "cuisines": [""], "address": {"city": "Los Angeles", "state": "CA", "postal_code": "90018", "street": "4073 West Washington Boulevard", "formatted": "4073 West Washington Boulevard Los Angeles, CA 90018"}, "geo": {"lat": 34.04007, "lon": -118.327881}, "menus": [], "last_updated": "2020-12-29T06:46:07.191Z"}, {"restaurant_name": "Abby's Seafood", "restaurant_phone": "(323) 730-3700", "restaurant_website": "http:///ca/los-angeles/722649-abbys-seafood/", "hours": "", "price_range": "", "price_range_num": 0, "restaurant_id": 34019211118309130, "cuisines": [""], "address": {"city": "Los Angeles", "state": "CA", "postal_code": "90018", "street": "3751 South Western Avenue", "formatted": "3751 South Western Avenue Los Angeles, CA 90018"}, "geo": {"lat": 34.019211, "lon": -118.309128}, "menus": [], "last_updated": "2020-12-29T06:46:07.868Z"}, {"restaurant_name": "La Michoacana Premier", "restaurant_phone": "(805) 579-0206", "restaurant_website": "http:///ca/los-angeles/722643-la-michoacana-premier/", "hours": "", "price_range": "", "price_range_num": 0, "restaurant_id": 34030449118309430, "cuisines": [""], "address": {"city": "Los Angeles", "state": "CA", "postal_code": "90018", "street": "2715 South Western Avenue", "formatted": "2715 South Western Avenue Los Angeles, CA 90018"}, "geo": {"lat": 34.030449, "lon": -118.309433}, "menus": [], "last_updated": "2020-12-29T06:46:08.025Z"}, {"restaurant_name": "Tacos Como En El D.F. Taco Truck", "restaurant_phone": "(310) 948-4714", "restaurant_website": "http:///ca/los-angeles/722508-tacos-como-en-el-df-taco-truck/", "hours": "", "price_range": "", "price_range_num": 0, "restaurant_id": 34040108118315250, "cuisines": [""], "address": {"city": "Los Angeles", "state": "CA", "postal_code": "90018", "street": "2431 West Washington Boulevard", "formatted": "2431 West Washington Boulevard Los Angeles, CA 90018"}, "geo": {"lat": 34.040108, "lon": -118.315247}, "menus": [], "last_updated": "2020-12-29T06:46:08.436Z"}, {"restaurant_name": "Starbucks", "restaurant_phone": "(323) 734-0281", "restaurant_website": "http:///ca/los-angeles/722517-starbucks/", "hours": "", "price_range": "", "price_range_num": 0, "restaurant_id": 34040222118330460, "cuisines": [""], "address": {"city": "Los Angeles", "state": "CA", "postal_code": "90018", "street": "4177 West Washington Boulevard", "formatted": "4177 West Washington Boulevard Los Angeles, CA 90018"}, "geo": {"lat": 34.040222, "lon": -118.33046}, "menus": [], "last_updated": "2020-12-29T06:46:08.526Z"}, {"restaurant_name": "Baerrito", "restaurant_phone": "(323) 892-6886", "restaurant_website": "http:///ca/los-angeles/567504-baerrito/", "hours": "", "price_range": "", "price_range_num": 0, "restaurant_id": 34034462118320388, "cuisines": [""], "address": {"city": "Los Angeles", "state": "CA", "postal_code": "90018", "street": "3305 W 25th St", "formatted": "3305 W 25th St Los Angeles, CA 90018"}, "geo": {"lat": 34.034462, "lon": -118.320389}, "menus": [], "last_updated": "2020-12-28T19:25:11.381Z"}, {"restaurant_name": "Church's Chicken", "restaurant_phone": "(323) 733-2728", "restaurant_website": "http:///ca/los-angeles/573856-churchs-chicken/", "hours": "", "price_range": "", "price_range_num": 0, "restaurant_id": 34025776118309320, "cuisines": [""], "address": {"city": "Los Angeles", "state": "CA", "postal_code": "90018", "street": "1811 W Jefferson Blvd", "formatted": "1811 W Jefferson Blvd Los Angeles, CA 90018"}, "geo": {"lat": 34.025776, "lon": -118.309319}, "menus": [], "last_updated": "2020-12-28T19:25:12.242Z"}, {"restaurant_name": "Subway", "restaurant_phone": "(323) 795-0135", "restaurant_website": "https://restaurants.subway.com/united-states/ca/los-angeles/2401-2425-west-jefferson-blvd?utm_source=yext-other&utm_medium=local&utm_term=acq&utm_content=60536&utm_campaign=evergreen-2020", "hours": "", "price_range": "", "price_range_num": 0, "restaurant_id": 34025800118321500, "cuisines": [""], "address": {"city": "Los Angeles", "state": "CA", "postal_code": "90018", "street": "2401-2425 West Jefferson Blvd.", "formatted": "2401-2425 West Jefferson Blvd. Los Angeles, CA 90018"}, "geo": {"lat": 34.0258, "lon": -118.3215}, "menus": [], "last_updated": "2020-12-28T19:25:13.935Z"}, {"restaurant_name": "Fiesta Mariscos", "restaurant_phone": "(323) 373-4911", "restaurant_website": "", "hours": "", "price_range": "$$", "price_range_num": 2, "restaurant_id": 34039048118309416, "cuisines": ["Mexican", "Seafood"], "address": {"city": "Los Angeles", "state": "CA", "postal_code": "90018", "street": "1927 Western Ave", "formatted": "1927 Western Ave Los Angeles, CA 90018"}, "geo": {"lat": 34.039048, "lon": -118.309417}, "menus": [], "last_updated": "2020-12-29T06:50:09.454Z"}, {"restaurant_name": "Gish Bac Restaurant", "restaurant_phone": "(323) 737-5050", "restaurant_website": "", "hours": "Daily: 9am-9pm", "price_range": "$", "price_range_num": 1, "restaurant_id": 34039874118330136, "cuisines": ["Mexican"], "address": {"city": "Los Angeles", "state": "CA", "postal_code": "90018", "street": "4163 W Washington Blvd", "formatted": "4163 W Washington Blvd Los Angeles, CA 90018"}, "geo": {"lat": 34.039874, "lon": -118.330138}, "menus": [], "last_updated": "2020-12-29T06:50:32.011Z"}, {"restaurant_name": "2 for 1 Pizza on Western", "restaurant_phone": "(323) 737-2911", "restaurant_website": "", "hours": "Sun-Thu: 10am-11pm Fri-Sat: 10am-12am", "price_range": "$", "price_range_num": 1, "restaurant_id": 34039524118309548, "cuisines": ["Pizza"], "address": {"city": "Los Angeles", "state": "CA", "postal_code": "90018", "street": "1905 S Western Ave", "formatted": "1905 S Western Ave Los Angeles, CA 90018"}, "geo": {"lat": 34.039524, "lon": -118.309547}, "menus": [], "last_updated": "2020-12-29T06:50:34.210Z"}, {"restaurant_name": "Tim's Kitchen", "restaurant_phone": "(323) 731-0769", "restaurant_website": "", "hours": "Daily: 11:30am-8pm", "price_range": "$$", "price_range_num": 2, "restaurant_id": 34025698118330256, "cuisines": ["Chinese"], "address": {"city": "Los Angeles", "state": "CA", "postal_code": "90018", "street": "3125 W Jefferson Blvd", "formatted": "3125 W Jefferson Blvd Los Angeles, CA 90018"}, "geo": {"lat": 34.025698, "lon": -118.330256}, "menus": [], "last_updated": "2020-12-29T06:49:38.742Z"}, {"restaurant_name": "China Wok & Sushi", "restaurant_phone": "(323) 954-8486", "restaurant_website": "http://www.chinawokcala.com", "hours": "Daily: 11am-10pm", "price_range": "$$", "price_range_num": 2, "restaurant_id": 34040077118325828, "cuisines": ["Chinese"], "address": {"city": "Los Angeles", "state": "CA", "postal_code": "90018", "street": "4016 W Washington Blvd #A", "formatted": "4016 W Washington Blvd #A Los Angeles, CA 90018"}, "geo": {"lat": 34.040077, "lon": -118.325829}, "menus": [], "last_updated": "2020-12-29T06:50:35.361Z"}, {"restaurant_name": "Pizza Moon", "restaurant_phone": "(323) 733-2222", "restaurant_website": "http://www.pizzamoon.com", "hours": "Sun-Thu: 11am-10:30pm Fri-Sat: 11am-11pm", "price_range": "$$", "price_range_num": 2, "restaurant_id": 34032456118309110, "cuisines": ["Barbecue", "Burgers", "Italian", "Mexican", "Pizza", "Sandwiches"], "address": {"city": "Los Angeles", "state": "CA", "postal_code": "90018", "street": "2619 S Western Ave", "formatted": "2619 S Western Ave Los Angeles, CA 90018"}, "geo": {"lat": 34.032456, "lon": -118.309113}, "menus": [], "last_updated": "2020-12-29T06:50:35.921Z"}, {"restaurant_name": "The Natraliart", "restaurant_phone": "(323) 732-8865", "restaurant_website": "", "hours": "Tue-Sat: 11am-9pm", "price_range": "$", "price_range_num": 1, "restaurant_id": 34039773118322264, "cuisines": ["Jamaican", "Smoothies & Juices"], "address": {"city": "Los Angeles", "state": "CA", "postal_code": "90018", "street": "3426 W Washington Blvd", "formatted": "3426 W Washington Blvd Los Angeles, CA 90018"}, "geo": {"lat": 34.039773, "lon": -118.322262}, "menus": [], "last_updated": "2020-12-29T06:50:02.493Z"}, {"restaurant_name": "Ronnie's Kickin", "restaurant_phone": "(323) 682-1747", "restaurant_website": "http:///ca/los-angeles/663199-ronnies-kickin/", "hours": "", "price_range": "", "price_range_num": 0, "restaurant_id": 34023361118330796, "cuisines": [""], "address": {"city": "Los Angeles", "state": "CA", "postal_code": "90018", "street": "3527 Edgehill Dr", "formatted": "3527 Edgehill Dr Los Angeles, CA 90018"}, "geo": {"lat": 34.023361, "lon": -118.330795}, "menus": [], "last_updated": "2020-12-29T06:46:33.387Z"}, {"restaurant_name": "Lucy Ethiopian Restaurant", "restaurant_phone": "(323) 795-0869", "restaurant_website": "http:///ca/los-angeles/662959-lucy-ethiopian-restaurant/", "hours": "", "price_range": "", "price_range_num": 0, "restaurant_id": 34039757118303744, "cuisines": [""], "address": {"city": "Los Angeles", "state": "CA", "postal_code": "90018", "street": "2018 W Washington Blvd", "formatted": "2018 W Washington Blvd Los Angeles, CA 90018"}, "geo": {"lat": 34.039757, "lon": -118.303742}, "menus": [], "last_updated": "2020-12-29T06:46:33.447Z"}, {"restaurant_name": "Papi Tacos & Churros", "restaurant_phone": "(323) 373-9671", "restaurant_website": "http:///ca/los-angeles/655508-papi-tacos-churros/", "hours": "", "price_range": "", "price_range_num": 0, "restaurant_id": 34025429118324490, "cuisines": [""], "address": {"city": "Los Angeles", "state": "CA", "postal_code": "90018", "street": "2622 W Jefferson Blvd", "formatted": "2622 W Jefferson Blvd Los Angeles, CA 90018"}, "geo": {"lat": 34.025429, "lon": -118.324486}, "menus": [], "last_updated": "2020-12-29T06:46:33.484Z"}, {"restaurant_name": "Los Alcatraces", "restaurant_phone": "(323) 733-1379", "restaurant_website": "http:///ca/los-angeles/655510-los-alcatraces/", "hours": "", "price_range": "", "price_range_num": 0, "restaurant_id": 34018604118309136, "cuisines": [""], "address": {"city": "Los Angeles", "state": "CA", "postal_code": "90018", "street": "3773 S Western Ave", "formatted": "3773 S Western Ave Los Angeles, CA 90018"}, "geo": {"lat": 34.018604, "lon": -118.309135}, "menus": [], "last_updated": "2020-12-29T06:46:33.516Z"}, {"restaurant_name": "Starbucks Coffee", "restaurant_phone": "(323) 313-5211", "restaurant_website": "http:///ca/los-angeles/719278-starbucks-coffee/", "hours": "", "price_range": "", "price_range_num": 0, "restaurant_id": 34025814118308684, "cuisines": [""], "address": {"city": "Los Angeles", "state": "CA", "postal_code": "90018", "street": "1789 West Jefferson Boulevard", "formatted": "1789 West Jefferson Boulevard Los Angeles, CA 90018"}, "geo": {"lat": 34.025814, "lon": -118.308685}, "menus": [], "last_updated": "2020-12-29T06:46:11.137Z"}, {"restaurant_name": "Paseo San Miguel", "restaurant_phone": "(323) 998-0066", "restaurant_website": "http:///ca/los-angeles/719203-paseo-san-miguel/", "hours": "", "price_range": "", "price_range_num": 0, "restaurant_id": 34020405118309188, "cuisines": [""], "address": {"city": "Los Angeles", "state": "CA", "postal_code": "90018", "street": "3723 South Western Avenue", "formatted": "3723 South Western Avenue Los Angeles, CA 90018"}, "geo": {"lat": 34.020405, "lon": -118.309189}, "menus": [], "last_updated": "2020-12-29T06:46:11.252Z"}, {"restaurant_name": "Mi Pueblo Viejo Restaurant", "restaurant_phone": "(323) 870-5272", "restaurant_website": "http:///ca/los-angeles/719153-mi-pueblo-viejo-restaurant/", "hours": "", "price_range": "", "price_range_num": 0, "restaurant_id": 34039619118326950, "cuisines": [""], "address": {"city": "Los Angeles", "state": "CA", "postal_code": "90018", "street": "4000 West Washington Boulevard", "formatted": "4000 West Washington Boulevard Los Angeles, CA 90018"}, "geo": {"lat": 34.039619, "lon": -118.32695}, "menus": [], "last_updated": "2020-12-29T06:46:11.460Z"}, {"restaurant_name": "El Palmar Salvadoran Restaurant", "restaurant_phone": "(323) 870-5080", "restaurant_website": "http:///ca/los-angeles/719154-el-palmar-salvadoran-restaurant/", "hours": "", "price_range": "", "price_range_num": 0, "restaurant_id": 34030235118309430, "cuisines": [""], "address": {"city": "Los Angeles", "state": "CA", "postal_code": "90018", "street": "2781 South Western Avenue", "formatted": "2781 South Western Avenue Los Angeles, CA 90018"}, "geo": {"lat": 34.030235, "lon": -118.309433}, "menus": [], "last_updated": "2020-12-29T06:46:11.488Z"}, {"restaurant_name": "Playas El Salvador", "restaurant_phone": "(323) 737-5574", "restaurant_website": "http:///ca/los-angeles/719142-playas-el-salvador/", "hours": "", "price_range": "", "price_range_num": 0, "restaurant_id": 34039631118327292, "cuisines": [""], "address": {"city": "Los Angeles", "state": "CA", "postal_code": "90018", "street": "4020 West Washington Boulevard", "formatted": "4020 West Washington Boulevard Los Angeles, CA 90018"}, "geo": {"lat": 34.039631, "lon": -118.327293}, "menus": [], "last_updated": "2020-12-29T06:46:11.539Z"}], "numResults": 25}