{"totalResults": 82, "page": 1, "total_pages": 4, "more_pages": true, "data": [{"restaurant_name": "Asbury Fusion Indian Bistro", "restaurant_phone": "(213) 739-0909", "restaurant_website": "", "hours": "", "price_range": "$$$", "price_range_num": 3, "restaurant_id": 34061545118279064, "cuisines": ["Eclectic & International", "Healthy", "Indian", "Lunch Specials", "Seafood"], "address": {"city": "Los Angeles", "state": "CA", "postal_code": "90057", "street": "2501 W 6th St", "formatted": "2501 W 6th St Los Angeles, CA 90057"}, "geo": {"lat": 34.061545, "lon": -118.279063}, "menus": [], "last_updated": "2020-12-29T06:50:33.582Z"}, {"restaurant_name": "Domino's Pizza", "restaurant_phone": "(213) 383-1330", "restaurant_website": "http://www.dominos.com", "hours": "", "price_range": "", "price_range_num": 0, "restaurant_id": 34067000118278000, "cuisines": ["American", "Pizza", "Wings"], "address": {"city": "Los Angeles", "state": "CA", "postal_code": "90057", "street": "270 S Rampart Blvd", "formatted": "270 S Rampart Blvd Los Angeles, CA 90057"}, "geo": {"lat": 34.067, "lon": -118.278}, "menus": [], "last_updated": "2020-12-29T06:46:06.781Z"}, {"restaurant_name": "La Kitchen", "restaurant_phone": "(213) 989-6999", "restaurant_website": "http:///ca/los-angeles/722789-la-kitchen/", "hours": "", "price_range": "", "price_range_num": 0, "restaurant_id": 34056603118276536, "cuisines": [""], "address": {"city": "Los Angeles", "state": "CA", "postal_code": "90057", "street": "696 South Alvarado Street", "formatted": "696 South Alvarado Street Los Angeles, CA 90057"}, "geo": {"lat": 34.056603, "lon": -118.276535}, "menus": [], "last_updated": "2020-12-29T06:46:07.354Z"}, {"restaurant_name": "Maggie's Donuts", "restaurant_phone": "(213) 383-1511", "restaurant_website": "http:///ca/los-angeles/722719-maggies-donuts/", "hours": "", "price_range": "", "price_range_num": 0, "restaurant_id": 34062061118280950, "cuisines": [""], "address": {"city": "Los Angeles", "state": "CA", "postal_code": "90057", "street": "2612 West 6th Street", "formatted": "2612 West 6th Street Los Angeles, CA 90057"}, "geo": {"lat": 34.062061, "lon": -118.280953}, "menus": [], "last_updated": "2020-12-29T06:46:07.615Z"}, {"restaurant_name": "Starbucks", "restaurant_phone": "(213) 434-1379", "restaurant_website": "http:///ca/los-angeles/722708-starbucks/", "hours": "", "price_range": "", "price_range_num": 0, "restaurant_id": 34063038118272290, "cuisines": [""], "address": {"city": "Los Angeles", "state": "CA", "postal_code": "90057", "street": "230 South Alvarado Street", "formatted": "230 South Alvarado Street Los Angeles, CA 90057"}, "geo": {"lat": 34.063038, "lon": -118.272286}, "menus": [], "last_updated": "2020-12-29T06:46:07.816Z"}, {"restaurant_name": "Filipino Bagnet Restaurant & Bakery", "restaurant_phone": "(877) 585-1085", "restaurant_website": "http:///ca/los-angeles/719732-filipino-bagnet-restaurant-bakery/", "hours": "", "price_range": "", "price_range_num": 0, "restaurant_id": 34073021118284196, "cuisines": [""], "address": {"city": "Los Angeles", "state": "CA", "postal_code": "90057", "street": "3253 Beverly Boulevard", "formatted": "3253 Beverly Boulevard Los Angeles, CA 90057"}, "geo": {"lat": 34.073021, "lon": -118.284195}, "menus": [], "last_updated": "2020-12-29T06:46:08.933Z"}, {"restaurant_name": "Prizon Bar", "restaurant_phone": "(877) 585-1085", "restaurant_website": "http:///ca/los-angeles/719701-prizon-bar/", "hours": "", "price_range": "", "price_range_num": 0, "restaurant_id": 34056519118282600, "cuisines": [""], "address": {"city": "Los Angeles", "state": "CA", "postal_code": "90057", "street": "2500 West 8th Street", "formatted": "2500 West 8th Street Los Angeles, CA 90057"}, "geo": {"lat": 34.056519, "lon": -118.2826}, "menus": [], "last_updated": "2020-12-29T06:46:09.095Z"}, {"restaurant_name": "Golden Burger 11", "restaurant_phone": "(213) 484-2868", "restaurant_website": "http:///ca/los-angeles/838372-golden-burger-11/", "hours": "", "price_range": "", "price_range_num": 0, "restaurant_id": 34062145118271416, "cuisines": [""], "address": {"city": "Los Angeles", "state": "CA", "postal_code": "90057", "street": "1938 W 3rd St", "formatted": "1938 W 3rd St Los Angeles, CA 90057"}, "geo": {"lat": 34.062145, "lon": -118.271416}, "menus": [], "last_updated": "2021-01-05T08:01:30.300Z"}, {"restaurant_name": "Pizza Loca # 31", "restaurant_phone": "(213) 381-6161", "restaurant_website": "http://www.lapizzaloca.com", "hours": "Mon-Thur: 10am-11pm Fri-Sat: 10am-12am", "price_range": "", "price_range_num": 0, "restaurant_id": 34061844118281372, "cuisines": ["Pizza", "Wings"], "address": {"city": "Los Angeles", "state": "CA", "postal_code": "90057", "street": "610 S Rampart Blvd", "formatted": "610 S Rampart Blvd Los Angeles, CA 90057"}, "geo": {"lat": 34.061844, "lon": -118.281372}, "menus": [], "last_updated": "2021-01-05T08:01:31.469Z"}, {"restaurant_name": "Hops Liqueur and Market", "restaurant_phone": "(213) 413-1666", "restaurant_website": "http:///ca/los-angeles/818267-hops-liqueur-and-market/", "hours": "", "price_range": "", "price_range_num": 0, "restaurant_id": 34066544118270980, "cuisines": [""], "address": {"city": "Los Angeles", "state": "CA", "postal_code": "90057", "street": "2104 Beverly Boulevard", "formatted": "2104 Beverly Boulevard Los Angeles, CA 90057"}, "geo": {"lat": 34.066544, "lon": -118.270981}, "menus": [], "last_updated": "2021-01-05T08:02:03.593Z"}, {"restaurant_name": "Baja California Tacos", "restaurant_phone": "(213) 674-7576", "restaurant_website": "http:///ca/los-angeles/816406-baja-california-tacos/", "hours": "", "price_range": "", "price_range_num": 0, "restaurant_id": 34054573118277810, "cuisines": [""], "address": {"city": "Los Angeles", "state": "CA", "postal_code": "90057", "street": "2030 West 8th Street", "formatted": "2030 West 8th Street Los Angeles, CA 90057"}, "geo": {"lat": 34.054573, "lon": -118.277809}, "menus": [], "last_updated": "2021-01-05T08:02:03.873Z"}, {"restaurant_name": "Salakot Sizzle & Grill", "restaurant_phone": "(213) 483-0303", "restaurant_website": "", "hours": "Tue-Fri: 11am-2:30pm, 4:30pm-9pm Sat-Sun: 11am-9pm", "price_range": "$$", "price_range_num": 2, "restaurant_id": 34066760118271304, "cuisines": [""], "address": {"city": "LOS ANGELES", "state": "CA", "postal_code": "90057", "street": "2122 Beverly Blvd", "formatted": "2122 Beverly Blvd LOS ANGELES, CA 90057"}, "geo": {"lat": 34.06676, "lon": -118.271304}, "menus": [], "last_updated": "2021-01-05T08:08:29.430Z"}, {"restaurant_name": "PopKitch", "restaurant_phone": "(310) 867-9851", "restaurant_website": "", "hours": "", "price_range": "", "price_range_num": 0, "restaurant_id": 34061310118273292, "cuisines": [""], "address": {"city": "Los Angeles", "state": "CA", "postal_code": "90057", "street": "360 S Alvarado St", "formatted": "360 S Alvarado St Los Angeles, CA 90057"}, "geo": {"lat": 34.06131, "lon": -118.273293}, "menus": [], "last_updated": "2021-01-05T08:06:15.440Z"}, {"restaurant_name": "G-Station", "restaurant_phone": "(213) 663-3318", "restaurant_website": "", "hours": "", "price_range": "", "price_range_num": 0, "restaurant_id": 34056588118282450, "cuisines": [""], "address": {"city": "Los Angeles", "state": "CA", "postal_code": "90057", "street": "2500 W 8th St", "formatted": "2500 W 8th St Los Angeles, CA 90057"}, "geo": {"lat": 34.056588, "lon": -118.282447}, "menus": [], "last_updated": "2021-01-05T08:06:16.036Z"}, {"restaurant_name": "Subway", "restaurant_phone": "(213) 388-2078", "restaurant_website": "https://restaurants.subway.com/united-states/ca/los-angeles/610-south-rampart-avenue?utm_source=yext-other&utm_medium=local&utm_term=acq&utm_content=41546&utm_campaign=evergreen-2020&y_source=1_MTQ4OT", "hours": "", "price_range": "", "price_range_num": 0, "restaurant_id": 34061800118281300, "cuisines": [""], "address": {"city": "Los Angeles", "state": "CA", "postal_code": "90057", "street": "610 South Rampart Avenue", "formatted": "610 South Rampart Avenue Los Angeles, CA 90057"}, "geo": {"lat": 34.0618, "lon": -118.2813}, "menus": [], "last_updated": "2021-01-05T08:06:16.562Z"}, {"restaurant_name": "Subway", "restaurant_phone": "(213) 471-9141", "restaurant_website": "https://restaurants.subway.com/united-states/ca/los-angeles/2112-west-7th-street?utm_source=yext-other&utm_medium=local&utm_term=acq&utm_content=54869&utm_campaign=evergreen-2020&y_source=1_MTQ5MDc0ND", "hours": "", "price_range": "", "price_range_num": 0, "restaurant_id": 34056500118277500, "cuisines": [""], "address": {"city": "Los Angeles", "state": "CA", "postal_code": "90057", "street": "2112 West 7th Street", "formatted": "2112 West 7th Street Los Angeles, CA 90057"}, "geo": {"lat": 34.0565, "lon": -118.2775}, "menus": [], "last_updated": "2021-01-05T08:06:16.628Z"}, {"restaurant_name": "LaRayia's Bodega", "restaurant_phone": "(818) 357-9114", "restaurant_website": "http:///ca/los-angeles/790258-larayias-bodega/", "hours": "", "price_range": "", "price_range_num": 0, "restaurant_id": 34062740118281664, "cuisines": [""], "address": {"city": "Los Angeles", "state": "CA", "postal_code": "90057", "street": "2711 West 6th Street", "formatted": "2711 West 6th Street Los Angeles, CA 90057"}, "geo": {"lat": 34.06274, "lon": -118.281662}, "menus": [], "last_updated": "2021-01-05T08:02:07.172Z"}, {"restaurant_name": "Seafood Express", "restaurant_phone": "(213) 483-2122", "restaurant_website": "", "hours": "Daily: 11am-9:30pm", "price_range": "$$$", "price_range_num": 3, "restaurant_id": 34066854118271216, "cuisines": ["Seafood"], "address": {"city": "Los Angeles", "state": "CA", "postal_code": "90057", "street": "2122 Beverly Blvd", "formatted": "2122 Beverly Blvd Los Angeles, CA 90057"}, "geo": {"lat": 34.066854, "lon": -118.271216}, "menus": [], "last_updated": "2021-01-05T08:06:18.718Z"}, {"restaurant_name": "AlexisAmor Savory & Sweets", "restaurant_phone": "(000) 000-0000", "restaurant_website": "", "hours": "Tue-Sun: 11am-7pm", "price_range": "$", "price_range_num": 1, "restaurant_id": 34073090118284190, "cuisines": ["Bakery & Pastries", "Desserts", "Filipino"], "address": {"city": "Los Angeles", "state": "CA", "postal_code": "90057", "street": "3253 W Beverly Blvd", "formatted": "3253 W Beverly Blvd Los Angeles, CA 90057"}, "geo": {"lat": 34.07309, "lon": -118.28419}, "menus": [], "last_updated": "2021-01-05T08:06:19.082Z"}, {"restaurant_name": "El Pueblo Pupuseria", "restaurant_phone": "(213) 382-2625", "restaurant_website": "http://www.pupuseriaelpueblo.com", "hours": "Daily: 6am-11pm", "price_range": "$$", "price_range_num": 2, "restaurant_id": 34062863118281932, "cuisines": ["Latin American"], "address": {"city": "Los Angeles", "state": "CA", "postal_code": "90057", "street": "2723 W 6th St", "formatted": "2723 W 6th St Los Angeles, CA 90057"}, "geo": {"lat": 34.062863, "lon": -118.281932}, "menus": [], "last_updated": "2021-01-05T08:06:19.147Z"}, {"restaurant_name": "Chuck E. Cheese", "restaurant_phone": "(855) 606-0548", "restaurant_website": "http://www.chuckecheese.com", "hours": "Sun-Thu: 11am-9pm Fri: 11am-10pm Sat: 10am-10pm", "price_range": "$$", "price_range_num": 2, "restaurant_id": 34060921118283080, "cuisines": ["American", "Pizza"], "address": {"city": "Los Angeles", "state": "CA", "postal_code": "90057", "street": "2706 Wilshire Blvd", "formatted": "2706 Wilshire Blvd Los Angeles, CA 90057"}, "geo": {"lat": 34.060921, "lon": -118.283081}, "menus": [], "last_updated": "2021-01-05T08:06:19.383Z"}, {"restaurant_name": "Golden Crane Express", "restaurant_phone": "(213) 739-8728", "restaurant_website": "http:///ca/los-angeles/523809-golden-crane-express/", "hours": "", "price_range": "", "price_range_num": 0, "restaurant_id": 34054230118277624, "cuisines": [""], "address": {"city": "Los Angeles", "state": "CA", "postal_code": "90057", "street": "808 S Alvarado St Ste A", "formatted": "808 S Alvarado St Ste A Los Angeles, CA 90057"}, "geo": {"lat": 34.05423, "lon": -118.277626}, "menus": [], "last_updated": "2021-01-05T08:05:40.965Z"}, {"restaurant_name": "Pokemole", "restaurant_phone": "(213) 568-3535", "restaurant_website": "", "hours": "", "price_range": "", "price_range_num": 0, "restaurant_id": 34063993118283840, "cuisines": [""], "address": {"city": "Los Angeles", "state": "CA", "postal_code": "90057", "street": "530 S Occidental Blvd", "formatted": "530 S Occidental Blvd Los Angeles, CA 90057"}, "geo": {"lat": 34.063993, "lon": -118.283838}, "menus": [], "last_updated": "2021-01-05T08:05:41.192Z"}, {"restaurant_name": "HoHo Chicken", "restaurant_phone": "(213) 384-9595", "restaurant_website": "", "hours": "", "price_range": "", "price_range_num": 0, "restaurant_id": 34062401118280850, "cuisines": [""], "address": {"city": "Los Angeles", "state": "CA", "postal_code": "90057", "street": "2625 W 6th St", "formatted": "2625 W 6th St Los Angeles, CA 90057"}, "geo": {"lat": 34.062401, "lon": -118.280846}, "menus": [], "last_updated": "2021-01-05T08:05:41.387Z"}, {"restaurant_name": "Rickys Pizza", "restaurant_phone": "(213) 296-9357", "restaurant_website": "", "hours": "", "price_range": "", "price_range_num": 0, "restaurant_id": 34054698118276704, "cuisines": [""], "address": {"city": "Los Angeles", "state": "CA", "postal_code": "90057", "street": "753 S Westlake Ave", "formatted": "753 S Westlake Ave Los Angeles, CA 90057"}, "geo": {"lat": 34.054698, "lon": -118.276702}, "menus": [], "last_updated": "2021-01-05T08:05:41.561Z"}], "numResults": 25}