{"totalResults": 147, "page": 1, "total_pages": 6, "more_pages": true, "data": [{"restaurant_name": "Raffallo's Pizza", "restaurant_phone": "(323) 462-1344", "restaurant_website": "", "hours": "Sun-Thu: 11am-11pm Fri-Sat: 11am-12am", "price_range": "$$", "price_range_num": 2, "restaurant_id": 34084027118338230, "cuisines": ["Italian", "Pizza", "Sandwiches"], "address": {"city": "Los Angeles", "state": "CA", "postal_code": "90038", "street": "716 N Highland Ave", "formatted": "716 N Highland Ave Los Angeles, CA 90038"}, "geo": {"lat": 34.084027, "lon": -118.338232}, "menus": [], "last_updated": "2020-12-29T06:50:33.987Z"}, {"restaurant_name": "Wok & Roll China Restaurant", "restaurant_phone": "(323) 464-5799", "restaurant_website": "", "hours": "", "price_range": "$$", "price_range_num": 2, "restaurant_id": 34090095118326240, "cuisines": ["Asian", "Chinese"], "address": {"city": "Los Angeles", "state": "CA", "postal_code": "90038", "street": "1050 Vine St.", "formatted": "1050 Vine St. Los Angeles, CA 90038"}, "geo": {"lat": 34.090095, "lon": -118.326241}, "menus": [], "last_updated": "2020-12-29T06:50:33.672Z"}, {"restaurant_name": "Cannabis Cafe", "restaurant_phone": "(323) 975-7676", "restaurant_website": "http:///ca/west-hollywood/830165-cannabis-cafe/", "hours": "", "price_range": "", "price_range_num": 0, "restaurant_id": 34092667118344420, "cuisines": [""], "address": {"city": "West Hollywood", "state": "CA", "postal_code": "90038", "street": "1201 North La Brea Avenue", "formatted": "1201 North La Brea Avenue West Hollywood, CA 90038"}, "geo": {"lat": 34.092667, "lon": -118.344421}, "menus": [], "last_updated": "2021-01-05T07:26:11.977Z"}, {"restaurant_name": "Gardenia", "restaurant_phone": "(323) 467-7444", "restaurant_website": "", "hours": "Mon-Sat: 7pm-10pm", "price_range": "$", "price_range_num": 1, "restaurant_id": 34090492118343430, "cuisines": ["American (New)", "Eclectic & International"], "address": {"city": "WEST HOLLYWOOD", "state": "CA", "postal_code": "90038", "street": "7066 Santa Monica Blvd", "formatted": "7066 Santa Monica Blvd WEST HOLLYWOOD, CA 90038"}, "geo": {"lat": 34.090492, "lon": -118.343431}, "menus": [], "last_updated": "2021-01-05T07:26:13.574Z"}, {"restaurant_name": "McDonald's", "restaurant_phone": "", "restaurant_website": "http://www.mcdonalds.com", "hours": "", "price_range": "", "price_range_num": 0, "restaurant_id": 34091679118344436, "cuisines": ["American", "Burgers"], "address": {"city": "West Hollywood", "state": "CA", "postal_code": "90038", "street": "1133 N La Brea Ave", "formatted": "1133 N La Brea Ave West Hollywood, CA 90038"}, "geo": {"lat": 34.091679, "lon": -118.344437}, "menus": [], "last_updated": "2021-01-05T07:26:15.798Z"}, {"restaurant_name": "Frenz Coffee", "restaurant_phone": "(323) 848-4523", "restaurant_website": "http:///ca/los-angeles/777794-frenz-coffee/", "hours": "", "price_range": "", "price_range_num": 0, "restaurant_id": 34083191118325624, "cuisines": [""], "address": {"city": "Los Angeles", "state": "CA", "postal_code": "90038", "street": "5770 Melrose Ave", "formatted": "5770 Melrose Ave Los Angeles, CA 90038"}, "geo": {"lat": 34.083191, "lon": -118.325623}, "menus": [], "last_updated": "2020-12-29T06:46:06.121Z"}, {"restaurant_name": "Shakey's Pizza", "restaurant_phone": "(323) 463-1104", "restaurant_website": "http://www.shakeys.com/HOME", "hours": "", "price_range": "$", "price_range_num": 1, "restaurant_id": 34091042118341948, "cuisines": ["American", "Italian", "Pizza"], "address": {"city": "Los Angeles", "state": "CA", "postal_code": "90038", "street": "7001 Santa Monica Blvd", "formatted": "7001 Santa Monica Blvd Los Angeles, CA 90038"}, "geo": {"lat": 34.091042, "lon": -118.341948}, "menus": [], "last_updated": "2020-12-29T06:46:06.608Z"}, {"restaurant_name": "Taqueria of Hollywood", "restaurant_phone": "(323) 464-1604", "restaurant_website": "http:///ca/los-angeles/569821-taqueria-of-hollywood/", "hours": "", "price_range": "", "price_range_num": 0, "restaurant_id": 34090710118337570, "cuisines": [""], "address": {"city": "Los Angeles", "state": "CA", "postal_code": "90038", "street": "6751 Santa Monica Blvd", "formatted": "6751 Santa Monica Blvd Los Angeles, CA 90038"}, "geo": {"lat": 34.09071, "lon": -118.33757}, "menus": [], "last_updated": "2020-12-28T19:25:11.509Z"}, {"restaurant_name": "La China Oaxaque\u00f1a", "restaurant_phone": "(323) 499-1589", "restaurant_website": "http:///ca/los-angeles/573129-la-china-oaxaque\u00f1a/", "hours": "", "price_range": "", "price_range_num": 0, "restaurant_id": 34090549118314056, "cuisines": [""], "address": {"city": "Los Angeles", "state": "CA", "postal_code": "90038", "street": "5710 Santa Monica Blvd", "formatted": "5710 Santa Monica Blvd Los Angeles, CA 90038"}, "geo": {"lat": 34.090549, "lon": -118.314056}, "menus": [], "last_updated": "2020-12-28T19:25:12.281Z"}, {"restaurant_name": "BBQ + RICE", "restaurant_phone": "(323) 645-7041", "restaurant_website": "http:///ca/los-angeles/580316-bbq-rice/", "hours": "", "price_range": "", "price_range_num": 0, "restaurant_id": 34090462118313980, "cuisines": [""], "address": {"city": "Los Angeles", "state": "CA", "postal_code": "90038", "street": "5706 Santa Monica Blvd", "formatted": "5706 Santa Monica Blvd Los Angeles, CA 90038"}, "geo": {"lat": 34.090462, "lon": -118.31398}, "menus": [], "last_updated": "2020-12-28T19:25:13.248Z"}, {"restaurant_name": "Fish Eight by Jinpachi", "restaurant_phone": "(323) 852-3029", "restaurant_website": "http:///ca/los-angeles/573433-fish-eight-by-jinpachi/", "hours": "", "price_range": "", "price_range_num": 0, "restaurant_id": 34083321118350510, "cuisines": [""], "address": {"city": "Los Angeles", "state": "CA", "postal_code": "90038", "street": "7368 Melrose Ave", "formatted": "7368 Melrose Ave Los Angeles, CA 90038"}, "geo": {"lat": 34.083321, "lon": -118.35051}, "menus": [], "last_updated": "2020-12-28T19:25:12.205Z"}, {"restaurant_name": "Osteria Mamma", "restaurant_phone": "(323) 284-7060", "restaurant_website": "", "hours": "Lunch Mon-Fri: 11:30am-2:30pm Dinner Mon-Fri: 5:30pm-10:30pm Sat: 5:30pm-11pm Sun: 5pm-10pm", "price_range": "$$$", "price_range_num": 3, "restaurant_id": 34083340118324716, "cuisines": ["Italian", "Local/Organic", "Pizza"], "address": {"city": "Los Angeles", "state": "CA", "postal_code": "90038", "street": "5732 Melrose Ave", "formatted": "5732 Melrose Ave Los Angeles, CA 90038"}, "geo": {"lat": 34.08334, "lon": -118.324715}, "menus": [], "last_updated": "2020-12-29T06:50:09.126Z"}, {"restaurant_name": "Sermeno's Restaurant", "restaurant_phone": "(323) 467-1202", "restaurant_website": "", "hours": "Daily: 7am-12am", "price_range": "$", "price_range_num": 1, "restaurant_id": 34091045118322540, "cuisines": ["Mexican"], "address": {"city": "Los Angeles", "state": "CA", "postal_code": "90038", "street": "6115 Santa Monica Blvd", "formatted": "6115 Santa Monica Blvd Los Angeles, CA 90038"}, "geo": {"lat": 34.091045, "lon": -118.322539}, "menus": [], "last_updated": "2020-12-29T06:50:30.590Z"}, {"restaurant_name": "Philly Steak Depot", "restaurant_phone": "(323) 467-1215", "restaurant_website": "", "hours": "Mon-Sat: 10am-10:30pm", "price_range": "$", "price_range_num": 1, "restaurant_id": 34090712118326464, "cuisines": ["Cheesesteaks", "Hot Dogs", "Sandwiches"], "address": {"city": "Los Angeles", "state": "CA", "postal_code": "90038", "street": "6254 Santa Monica Blvd", "formatted": "6254 Santa Monica Blvd Los Angeles, CA 90038"}, "geo": {"lat": 34.090712, "lon": -118.326464}, "menus": [], "last_updated": "2020-12-29T06:50:30.698Z"}, {"restaurant_name": "Mozza2Go", "restaurant_phone": "(323) 297-1130", "restaurant_website": "http://www.mozza2go.com", "hours": "Daily: 12pm-10pm", "price_range": "$$", "price_range_num": 2, "restaurant_id": 34083452118338544, "cuisines": ["Italian", "Pizza"], "address": {"city": "Los Angeles", "state": "CA", "postal_code": "90038", "street": "6610 Melrose Ave", "formatted": "6610 Melrose Ave Los Angeles, CA 90038"}, "geo": {"lat": 34.083452, "lon": -118.338545}, "menus": [], "last_updated": "2020-12-29T06:50:31.042Z"}, {"restaurant_name": "The Hollywood Corner", "restaurant_phone": "(323) 463-2220", "restaurant_website": "http://www.callthecorner.com", "hours": "Mon-Sat: 8am-10pm Sun: 8am-4pm ", "price_range": "$$", "price_range_num": 2, "restaurant_id": 34092440118338450, "cuisines": ["American", "Breakfast", "Burgers", "Pizza", "Salads", "Sandwiches"], "address": {"city": "LOS ANGELES", "state": "CA", "postal_code": "90038", "street": "1156 N Highland Ave", "formatted": "1156 N Highland Ave LOS ANGELES, CA 90038"}, "geo": {"lat": 34.09244, "lon": -118.338446}, "menus": [], "last_updated": "2020-12-29T06:50:31.161Z"}, {"restaurant_name": "Susan Feniger's Street", "restaurant_phone": "(323) 203-0500", "restaurant_website": "http://www.eatatstreet.com/", "hours": "Lunch Fri: 12pm-3pm Dinner Sun-Thu: 5pm-10pm Fri-Sat: 5pm-11pm Brunch Sat-Sun: 11am-3pm", "price_range": "$", "price_range_num": 1, "restaurant_id": 34084716118338436, "cuisines": ["American (New)", "Sandwiches", "Tapas"], "address": {"city": "LOS ANGELES", "state": "CA", "postal_code": "90038", "street": "742 N Highland Ave", "formatted": "742 N Highland Ave LOS ANGELES, CA 90038"}, "geo": {"lat": 34.084716, "lon": -118.338437}, "menus": [], "last_updated": "2020-12-29T06:50:31.533Z"}, {"restaurant_name": "Grub Restaurant", "restaurant_phone": "(323) 461-3663", "restaurant_website": "http://www.grub-la.com", "hours": "Mon-Thu: 11am-9pm Fri: 11am-10pm Sat: 9am-3pm+5pm-10pm Sun: 9am-3pm+5pm-9pm", "price_range": "$$$", "price_range_num": 3, "restaurant_id": 34087578118333344, "cuisines": ["American", "Vegetarian"], "address": {"city": "Los Angeles", "state": "CA", "postal_code": "90038", "street": "911 N Seward St", "formatted": "911 N Seward St Los Angeles, CA 90038"}, "geo": {"lat": 34.087578, "lon": -118.333344}, "menus": [], "last_updated": "2020-12-29T06:50:31.552Z"}, {"restaurant_name": "La Numero Uno", "restaurant_phone": "(323) 957-1111", "restaurant_website": "", "hours": "Mon-Sat: 8am-10pm Sun: 9am-10pm", "price_range": "$", "price_range_num": 1, "restaurant_id": 34093880118326640, "cuisines": ["Breakfast", "El Salvadoran", "Kids Menu", "Latin American", "Mexican", "Soups"], "address": {"city": "Los Angeles", "state": "CA", "postal_code": "90038", "street": "1247 N Vine St", "formatted": "1247 N Vine St Los Angeles, CA 90038"}, "geo": {"lat": 34.09388, "lon": -118.326641}, "menus": [], "last_updated": "2020-12-29T06:50:34.594Z"}, {"restaurant_name": "Anarkali Indian Restaurant", "restaurant_phone": "(323) 934-6488", "restaurant_website": "", "hours": "Daily: 11am-11pm ", "price_range": "$$$", "price_range_num": 3, "restaurant_id": 34083557118343268, "cuisines": ["Indian"], "address": {"city": "Los Angeles", "state": "CA", "postal_code": "90038", "street": "7013 Melrose Ave", "formatted": "7013 Melrose Ave Los Angeles, CA 90038"}, "geo": {"lat": 34.083557, "lon": -118.343269}, "menus": [], "last_updated": "2020-12-29T06:50:35.193Z"}, {"restaurant_name": "Lucy's Cafe El Adobe", "restaurant_phone": "(323) 462-9421", "restaurant_website": "", "hours": "Mon-Sat: 11:30am-11pm", "price_range": "$$$", "price_range_num": 3, "restaurant_id": 34083402118321056, "cuisines": ["Mexican"], "address": {"city": "Los Angeles", "state": "CA", "postal_code": "90038", "street": "5536 Melrose Ave", "formatted": "5536 Melrose Ave Los Angeles, CA 90038"}, "geo": {"lat": 34.083402, "lon": -118.321056}, "menus": [], "last_updated": "2020-12-29T06:49:59.833Z"}, {"restaurant_name": "Colbee Restaurant and Liquor Store", "restaurant_phone": "(323) 463-4070", "restaurant_website": "", "hours": "Daily: 11am-9:30pm", "price_range": "$", "price_range_num": 1, "restaurant_id": 34087259118330220, "cuisines": ["Pizza", "Sandwiches"], "address": {"city": "Los Angeles", "state": "CA", "postal_code": "90038", "street": "6205 Willoughby Ave", "formatted": "6205 Willoughby Ave Los Angeles, CA 90038"}, "geo": {"lat": 34.087259, "lon": -118.33022}, "menus": [], "last_updated": "2020-12-29T06:50:00.546Z"}, {"restaurant_name": "La Fonda Antioquena", "restaurant_phone": "(323) 957-5164", "restaurant_website": "", "hours": "Mon-Sat: 8am-10pm Sun: 8am-9pm", "price_range": "$$$", "price_range_num": 3, "restaurant_id": 34083802118311990, "cuisines": ["South American"], "address": {"city": "Los Angeles", "state": "CA", "postal_code": "90038", "street": "5125 Melrose Ave", "formatted": "5125 Melrose Ave Los Angeles, CA 90038"}, "geo": {"lat": 34.083802, "lon": -118.31199}, "menus": [], "last_updated": "2020-12-29T06:50:00.812Z"}, {"restaurant_name": "Roscoe's House of Chicken & Waffles", "restaurant_phone": "(323) 466-7453", "restaurant_website": "", "hours": "Mon-Thu: 8:30am-12am Fri-Sat: 8am-4am Sun: 8am-12am ", "price_range": "$$", "price_range_num": 2, "restaurant_id": 34098581118322144, "cuisines": ["Chicken", "Soul Food"], "address": {"city": "Los Angeles", "state": "CA", "postal_code": "90038", "street": "1514 N Gower St", "formatted": "1514 N Gower St Los Angeles, CA 90038"}, "geo": {"lat": 34.098581, "lon": -118.322146}, "menus": [], "last_updated": "2020-12-29T06:50:00.843Z"}, {"restaurant_name": "Providence", "restaurant_phone": "(323) 460-4170", "restaurant_website": "http://www.providencela.com", "hours": "Lunch Fri: 12pm-2pm Dinner Mon-Fri: 6pm-10pm Sat: 5:30pm-10pm Sun: 5:30pm-9pm", "price_range": "$", "price_range_num": 1, "restaurant_id": 34083485118330212, "cuisines": ["American (New)", "Asian Fusion", "Seafood"], "address": {"city": "Los Angeles", "state": "CA", "postal_code": "90038", "street": "5955 Melrose Ave", "formatted": "5955 Melrose Ave Los Angeles, CA 90038"}, "geo": {"lat": 34.083485, "lon": -118.330213}, "menus": [], "last_updated": "2020-12-29T06:51:30.524Z"}], "numResults": 25}