{"totalResults": 146, "page": 1, "total_pages": 6, "more_pages": true, "data": [{"restaurant_name": "Burrata House", "restaurant_phone": "(844) 287-7282", "restaurant_website": "http:///ca/culver-city/597377-burrata-house/", "hours": "", "price_range": "", "price_range_num": 0, "restaurant_id": 34029834118410664, "cuisines": [""], "address": {"city": "Culver City", "state": "CA", "postal_code": "90034", "street": "3272 Motor Ave", "formatted": "3272 Motor Ave Culver City, CA 90034"}, "geo": {"lat": 34.029834, "lon": -118.410665}, "menus": [], "last_updated": "2021-01-05T08:31:23.507Z"}, {"restaurant_name": "Benny's Tacos & Chicken Rotisserie", "restaurant_phone": "(424) 298-8327", "restaurant_website": "http:///ca/culver-city/524972-bennys-tacos-chicken-rotisserie/", "hours": "", "price_range": "", "price_range_num": 0, "restaurant_id": 34020609118404536, "cuisines": [""], "address": {"city": "Culver city", "state": "CA", "postal_code": "90034", "street": "10401 Venice Blvd Ste 101B", "formatted": "10401 Venice Blvd Ste 101B Culver city, CA 90034"}, "geo": {"lat": 34.020609, "lon": -118.404535}, "menus": [], "last_updated": "2021-01-05T08:31:23.927Z"}, {"restaurant_name": "Julie Goes Green", "restaurant_phone": "(310) 398-4620", "restaurant_website": "", "hours": "Daily: 11am-10pm", "price_range": "$$", "price_range_num": 2, "restaurant_id": 34019545118421604, "cuisines": ["Italian", "Pizza"], "address": {"city": "Los Angeles", "state": "CA", "postal_code": "90034", "street": "11140 Palms Blvd", "formatted": "11140 Palms Blvd Los Angeles, CA 90034"}, "geo": {"lat": 34.019545, "lon": -118.421604}, "menus": [], "last_updated": "2020-12-29T06:50:34.416Z"}, {"restaurant_name": "Pantry's Pizza", "restaurant_phone": "(310) 204-1414", "restaurant_website": "", "hours": "Mon-Thu: 8am-10pm Fri: 8am-11pm Sat: 9am-10pm Sun: 11am-10pm", "price_range": "$", "price_range_num": 1, "restaurant_id": 34040579118376560, "cuisines": ["Mexican", "Pizza", "Sandwiches"], "address": {"city": "Los Angeles", "state": "CA", "postal_code": "90034", "street": "1976 S La Cienega Blvd", "formatted": "1976 S La Cienega Blvd Los Angeles, CA 90034"}, "geo": {"lat": 34.040579, "lon": -118.376562}, "menus": [], "last_updated": "2020-12-29T06:50:34.902Z"}, {"restaurant_name": "Sabores De Oaxaca", "restaurant_phone": "(310) 559-7003", "restaurant_website": "http:///ca/los-angeles/722787-sabores-de-oaxaca/", "hours": "", "price_range": "", "price_range_num": 0, "restaurant_id": 34035210118377344, "cuisines": [""], "address": {"city": "Los Angeles", "state": "CA", "postal_code": "90034", "street": "6136 Venice Boulevard", "formatted": "6136 Venice Boulevard Los Angeles, CA 90034"}, "geo": {"lat": 34.03521, "lon": -118.377342}, "menus": [], "last_updated": "2020-12-29T06:46:07.396Z"}, {"restaurant_name": "Rubens Tacos", "restaurant_phone": "(310) 343-9200", "restaurant_website": "http:///ca/los-angeles/722593-rubens-tacos/", "hours": "", "price_range": "", "price_range_num": 0, "restaurant_id": 34022095118401790, "cuisines": [""], "address": {"city": "Los Angeles", "state": "CA", "postal_code": "90034", "street": "10113 Venice Boulevard", "formatted": "10113 Venice Boulevard Los Angeles, CA 90034"}, "geo": {"lat": 34.022095, "lon": -118.401794}, "menus": [], "last_updated": "2020-12-29T06:46:08.188Z"}, {"restaurant_name": "El Rincon de Llonka", "restaurant_phone": "(877) 585-1085", "restaurant_website": "http:///ca/los-angeles/722575-el-rincon-de-llonka/", "hours": "", "price_range": "", "price_range_num": 0, "restaurant_id": 34015808118412910, "cuisines": [""], "address": {"city": "Los Angeles", "state": "CA", "postal_code": "90034", "street": "10925 Venice Boulevard", "formatted": "10925 Venice Boulevard Los Angeles, CA 90034"}, "geo": {"lat": 34.015808, "lon": -118.412911}, "menus": [], "last_updated": "2020-12-29T06:46:08.215Z"}, {"restaurant_name": "Matthews Kitchen Truck", "restaurant_phone": "(310) 936-4106", "restaurant_website": "http:///ca/los-angeles/722509-matthews-kitchen-truck/", "hours": "", "price_range": "", "price_range_num": 0, "restaurant_id": 34038345118375900, "cuisines": [""], "address": {"city": "Los Angeles", "state": "CA", "postal_code": "90034", "street": "6041 Cadillac Avenue", "formatted": "6041 Cadillac Avenue Los Angeles, CA 90034"}, "geo": {"lat": 34.038345, "lon": -118.3759}, "menus": [], "last_updated": "2020-12-29T06:46:08.433Z"}, {"restaurant_name": "Tacos Super Gallito", "restaurant_phone": "(323) 337-7097", "restaurant_website": "http:///ca/los-angeles/722478-tacos-super-gallito/", "hours": "", "price_range": "", "price_range_num": 0, "restaurant_id": 34042259118376700, "cuisines": [""], "address": {"city": "Los Angeles", "state": "CA", "postal_code": "90034", "street": "1907 South La Cienega Boulevard", "formatted": "1907 South La Cienega Boulevard Los Angeles, CA 90034"}, "geo": {"lat": 34.042259, "lon": -118.376701}, "menus": [], "last_updated": "2020-12-29T06:46:08.538Z"}, {"restaurant_name": "The Coffee Bean & Tea Leaf", "restaurant_phone": "(323) 989-4718", "restaurant_website": "http:///ca/los-angeles/719566-the-coffee-bean-tea-leaf/", "hours": "", "price_range": "", "price_range_num": 0, "restaurant_id": 34030499118415740, "cuisines": [""], "address": {"city": "Los Angeles", "state": "CA", "postal_code": "90034", "street": "10612 National Boulevard", "formatted": "10612 National Boulevard Los Angeles, CA 90034"}, "geo": {"lat": 34.030499, "lon": -118.415741}, "menus": [], "last_updated": "2020-12-29T06:46:09.722Z"}, {"restaurant_name": "Harvey's Sandwich Shop", "restaurant_phone": "(310) 558-7070", "restaurant_website": "http:///ca/los-angeles/566508-harveys-sandwich-shop/", "hours": "", "price_range": "", "price_range_num": 0, "restaurant_id": 34026174118408696, "cuisines": [""], "address": {"city": "Los Angeles", "state": "CA", "postal_code": "90034", "street": "3503 Motor Ave", "formatted": "3503 Motor Ave Los Angeles, CA 90034"}, "geo": {"lat": 34.026174, "lon": -118.408697}, "menus": [], "last_updated": "2020-12-28T19:25:11.215Z"}, {"restaurant_name": "Westside Mediterranean", "restaurant_phone": "(310) 422-8707", "restaurant_website": "http:///ca/los-angeles/566514-westside-mediterranean/", "hours": "", "price_range": "", "price_range_num": 0, "restaurant_id": 34020164118405104, "cuisines": [""], "address": {"city": "Los Angeles", "state": "CA", "postal_code": "90034", "street": "10445B Venice Blvd", "formatted": "10445B Venice Blvd Los Angeles, CA 90034"}, "geo": {"lat": 34.020164, "lon": -118.405106}, "menus": [], "last_updated": "2020-12-28T19:25:11.263Z"}, {"restaurant_name": "Lokal Sandwich Shop", "restaurant_phone": "(310) 836-5333", "restaurant_website": "http:///ca/los-angeles/570218-lokal-sandwich-shop/", "hours": "", "price_range": "", "price_range_num": 0, "restaurant_id": 34029156118411660, "cuisines": [""], "address": {"city": "Los Angeles", "state": "CA", "postal_code": "90034", "street": "10433 National Blvd Ste 1A", "formatted": "10433 National Blvd Ste 1A Los Angeles, CA 90034"}, "geo": {"lat": 34.029156, "lon": -118.411659}, "menus": [], "last_updated": "2020-12-28T19:25:11.722Z"}, {"restaurant_name": "La Esquina Mexican Grill", "restaurant_phone": "(424) 258-6396", "restaurant_website": "http:///ca/los-angeles/588154-la-esquina-mexican-grill/", "hours": "", "price_range": "", "price_range_num": 0, "restaurant_id": 34029224118389160, "cuisines": [""], "address": {"city": "Los Angeles", "state": "CA", "postal_code": "90034", "street": "8905 Venice Blvd", "formatted": "8905 Venice Blvd Los Angeles, CA 90034"}, "geo": {"lat": 34.029224, "lon": -118.38916}, "menus": [], "last_updated": "2020-12-28T19:25:14.246Z"}, {"restaurant_name": "K&A Canton Chinese Restaurant", "restaurant_phone": "(310) 202-7209", "restaurant_website": "", "hours": "Daily: 11am-10pm ", "price_range": "$$", "price_range_num": 2, "restaurant_id": 34030830118400916, "cuisines": ["Chinese"], "address": {"city": "Los Angeles", "state": "CA", "postal_code": "90034", "street": "9840 National Blvd", "formatted": "9840 National Blvd Los Angeles, CA 90034"}, "geo": {"lat": 34.03083, "lon": -118.400917}, "menus": [], "last_updated": "2020-12-29T06:50:30.662Z"}, {"restaurant_name": "Mama's Original Pizza", "restaurant_phone": "(310) 204-6262", "restaurant_website": "http://www.mamasoriginalpizza.com", "hours": "Daily: 11am-11pm", "price_range": "$$", "price_range_num": 2, "restaurant_id": 34028828118410744, "cuisines": ["Italian", "Pizza"], "address": {"city": "Los Angeles", "state": "CA", "postal_code": "90034", "street": "3311 Motor Ave", "formatted": "3311 Motor Ave Los Angeles, CA 90034"}, "geo": {"lat": 34.028828, "lon": -118.410744}, "menus": [], "last_updated": "2020-12-29T06:50:30.939Z"}, {"restaurant_name": "Hu's Szechwan", "restaurant_phone": "(310) 837-0252", "restaurant_website": "http://www.husrestaurant.com/", "hours": "Lunch Mon-Fri: 11:30am-2:30pm Sat: 12pm-2:30pm Dinner Sun-Thu: 5pm-10pm Fri-Sat: 5pm-10:30pm", "price_range": "$$", "price_range_num": 2, "restaurant_id": 34028721118412132, "cuisines": ["Chinese"], "address": {"city": "Los Angeles", "state": "CA", "postal_code": "90034", "street": "10450 National Blvd", "formatted": "10450 National Blvd Los Angeles, CA 90034"}, "geo": {"lat": 34.028721, "lon": -118.412132}, "menus": [], "last_updated": "2020-12-29T06:50:30.951Z"}, {"restaurant_name": "Madre Oaxacan (Formerly Known As: ''El Nopal'')", "restaurant_phone": "(310) 559-4035", "restaurant_website": "http://www.madrerestaurants.com", "hours": "Sun-Thu: 11am-9pm Fri-Sat: 11am-10pm", "price_range": "$$", "price_range_num": 2, "restaurant_id": 34028686118411810, "cuisines": ["Mexican"], "address": {"city": "Los Angeles", "state": "CA", "postal_code": "90034", "street": "10426 National Blvd", "formatted": "10426 National Blvd Los Angeles, CA 90034"}, "geo": {"lat": 34.028686, "lon": -118.411806}, "menus": [], "last_updated": "2020-12-29T06:50:31.262Z"}, {"restaurant_name": "The Coop", "restaurant_phone": "(310) 837-4462", "restaurant_website": "http://www.justsmog.com/coop.html", "hours": "Tue-Thu: 11am-9pm Fri-Sat: 11am-9:30pm Sun: 11am-9pm", "price_range": "$$", "price_range_num": 2, "restaurant_id": 34028966118403452, "cuisines": ["Pizza"], "address": {"city": "Los Angeles", "state": "CA", "postal_code": "90034", "street": "10006 National Blvd", "formatted": "10006 National Blvd Los Angeles, CA 90034"}, "geo": {"lat": 34.028966, "lon": -118.403451}, "menus": [], "last_updated": "2020-12-29T06:50:31.411Z"}, {"restaurant_name": "Overland Cafe", "restaurant_phone": "(310) 559-9999", "restaurant_website": "http://www.overlandcafe.com", "hours": "Mon-Fri: 7am-11pm Sat: 8am-11pm Sun: 8am-10pm", "price_range": "$$", "price_range_num": 2, "restaurant_id": 34022355118409972, "cuisines": ["Californian"], "address": {"city": "Los Angeles", "state": "CA", "postal_code": "90034", "street": "3601 Overland Ave", "formatted": "3601 Overland Ave Los Angeles, CA 90034"}, "geo": {"lat": 34.022355, "lon": -118.409972}, "menus": [], "last_updated": "2020-12-29T06:50:31.482Z"}, {"restaurant_name": "Empanada Factory", "restaurant_phone": "(310) 836-5944", "restaurant_website": "", "hours": "Mon-Sat: 11am-8pm", "price_range": "$$$$", "price_range_num": 4, "restaurant_id": 34038789118388424, "cuisines": ["Argentinean", "South American"], "address": {"city": "Los Angeles", "state": "CA", "postal_code": "90034", "street": "2513 S Robertson Blvd", "formatted": "2513 S Robertson Blvd Los Angeles, CA 90034"}, "geo": {"lat": 34.038789, "lon": -118.388423}, "menus": [], "last_updated": "2020-12-29T06:50:32.110Z"}, {"restaurant_name": "Best Pizza Restaurant", "restaurant_phone": "(310) 842-1111", "restaurant_website": "http://www.bestpizzala.com/", "hours": "Sun-Thu: 11am-10pm Fri-Sat: 11am-11pm", "price_range": "$$", "price_range_num": 2, "restaurant_id": 34020399118404532, "cuisines": ["American", "Italian", "Pasta", "Pizza", "Sandwiches"], "address": {"city": "Los Angeles", "state": "CA", "postal_code": "90034", "street": "10401 Venice Blvd", "formatted": "10401 Venice Blvd Los Angeles, CA 90034"}, "geo": {"lat": 34.020399, "lon": -118.404532}, "menus": [], "last_updated": "2020-12-29T06:50:32.442Z"}, {"restaurant_name": "Kristina's Italian Kitchen", "restaurant_phone": "(310) 836-0891", "restaurant_website": "", "hours": "Daily: 11am-11pm", "price_range": "$$", "price_range_num": 2, "restaurant_id": 34025701118412364, "cuisines": ["Healthy", "Italian", "Pasta", "Pizza", "Salads", "Subs"], "address": {"city": "Los Angeles", "state": "CA", "postal_code": "90034", "street": "3409 Overland Ave.", "formatted": "3409 Overland Ave. Los Angeles, CA 90034"}, "geo": {"lat": 34.025701, "lon": -118.412365}, "menus": [], "last_updated": "2020-12-29T06:50:34.483Z"}, {"restaurant_name": "Thai Boom On Venice Blvd", "restaurant_phone": "(310) 842-8291", "restaurant_website": "", "hours": "Daily: 11am-10pm", "price_range": "$$", "price_range_num": 2, "restaurant_id": 34016751118410650, "cuisines": ["Thai"], "address": {"city": "Los Angeles", "state": "CA", "postal_code": "90034", "street": "10863 Venice Blvd", "formatted": "10863 Venice Blvd Los Angeles, CA 90034"}, "geo": {"lat": 34.016751, "lon": -118.410646}, "menus": [], "last_updated": "2020-12-29T06:50:34.550Z"}, {"restaurant_name": "Almaza Restaurant", "restaurant_phone": "(310) 280-9006", "restaurant_website": "", "hours": "Mon-Fri: 11am-12am Sun: 1pm-12am", "price_range": "$", "price_range_num": 1, "restaurant_id": 34029217118389160, "cuisines": ["Middle Eastern"], "address": {"city": "Los Angeles", "state": "CA", "postal_code": "90034", "street": "8905 Venice Blvd", "formatted": "8905 Venice Blvd Los Angeles, CA 90034"}, "geo": {"lat": 34.029217, "lon": -118.389161}, "menus": [], "last_updated": "2020-12-29T06:50:34.641Z"}], "numResults": 25}