{"totalResults": 143, "page": 1, "total_pages": 6, "more_pages": true, "data": [{"restaurant_name": "Zipchops", "restaurant_phone": "(213) 784-2554", "restaurant_website": "", "hours": "", "price_range": "", "price_range_num": 0, "restaurant_id": 33997371118424270, "cuisines": [""], "address": {"city": "Culver City", "state": "CA", "postal_code": "90066", "street": "12114 Washington Blvd", "formatted": "12114 Washington Blvd Culver City, CA 90066"}, "geo": {"lat": 33.997371, "lon": -118.424274}, "menus": [], "last_updated": "2021-01-05T08:31:24.261Z"}, {"restaurant_name": "Sunny Blue", "restaurant_phone": "(310) 751-6306", "restaurant_website": "http://www.sunnyblueinc.com", "hours": "Mon-Thu: 11am-9pm Fri-Sat: 11am-10pm Sun: 11am-8pm", "price_range": "$", "price_range_num": 1, "restaurant_id": 33996545118432480, "cuisines": ["Desserts", "Japanese"], "address": {"city": "Culver City", "state": "CA", "postal_code": "90066", "street": "12608 W Washington Blvd", "formatted": "12608 W Washington Blvd Culver City, CA 90066"}, "geo": {"lat": 33.996545, "lon": -118.432482}, "menus": [], "last_updated": "2021-01-05T08:31:24.349Z"}, {"restaurant_name": "Fruit Gallery ", "restaurant_phone": "(310) 390-0330", "restaurant_website": "", "hours": "Daily: 7am-8pm", "price_range": "$", "price_range_num": 1, "restaurant_id": 33999410118418890, "cuisines": ["Californian", "Healthy", "Smoothies & Juices"], "address": {"city": "Culver City", "state": "CA", "postal_code": "90066", "street": "11739 W Washington Blvd", "formatted": "11739 W Washington Blvd Culver City, CA 90066"}, "geo": {"lat": 33.99941, "lon": -118.418889}, "menus": [], "last_updated": "2021-01-05T08:31:24.435Z"}, {"restaurant_name": "Kustaa", "restaurant_phone": "(424) 289-9167", "restaurant_website": "http:///ca/culver-city/579378-kustaa/", "hours": "", "price_range": "", "price_range_num": 0, "restaurant_id": 33994549118439164, "cuisines": [""], "address": {"city": "Culver City", "state": "CA", "postal_code": "90066", "street": "12954 W Washington Blvd", "formatted": "12954 W Washington Blvd Culver City, CA 90066"}, "geo": {"lat": 33.994549, "lon": -118.439163}, "menus": [], "last_updated": "2021-01-05T08:31:23.608Z"}, {"restaurant_name": "Dunkin'", "restaurant_phone": "(424) 835-4096", "restaurant_website": "https://www.dunkindonuts.com?utm_source=yext&utm_medium=local&utm_campaign=localmaps&utm_content=354239", "hours": "", "price_range": "", "price_range_num": 0, "restaurant_id": 33992900118442300, "cuisines": [""], "address": {"city": "Culver City", "state": "CA", "postal_code": "90066", "street": "13300 Washington Blvd", "formatted": "13300 Washington Blvd Culver City, CA 90066"}, "geo": {"lat": 33.9929, "lon": -118.4423}, "menus": [], "last_updated": "2021-01-05T08:31:23.735Z"}, {"restaurant_name": "Gravlax", "restaurant_phone": "(310) 390-9463", "restaurant_website": "", "hours": "Daily: 5pm-12am ", "price_range": "$$", "price_range_num": 2, "restaurant_id": 33996907118428464, "cuisines": ["Scandinavian", "Turkish"], "address": {"city": "Culver City", "state": "CA", "postal_code": "90066", "street": "12400 Washington Blvd", "formatted": "12400 Washington Blvd Culver City, CA 90066"}, "geo": {"lat": 33.996907, "lon": -118.428464}, "menus": [], "last_updated": "2021-01-05T08:31:24.576Z"}, {"restaurant_name": "A La Carte Thai Bistro", "restaurant_phone": "(310) 390-9905", "restaurant_website": "", "hours": "Mon-Fri: 11am-10pm Sat-Sun: 12pm-10pm", "price_range": "$$", "price_range_num": 2, "restaurant_id": 33996894118428628, "cuisines": ["Thai"], "address": {"city": "Culver City", "state": "CA", "postal_code": "90066", "street": "12404 W Washington Blvd", "formatted": "12404 W Washington Blvd Culver City, CA 90066"}, "geo": {"lat": 33.996894, "lon": -118.428628}, "menus": [], "last_updated": "2021-01-05T08:31:24.683Z"}, {"restaurant_name": "El Jacalito", "restaurant_phone": "(310) 572-4625", "restaurant_website": "", "hours": "Daily: 8am-9pm", "price_range": "$$", "price_range_num": 2, "restaurant_id": 33996716118432936, "cuisines": ["Mexican"], "address": {"city": "Culver City", "state": "CA", "postal_code": "90066", "street": "12618 W Washington Blvd", "formatted": "12618 W Washington Blvd Culver City, CA 90066"}, "geo": {"lat": 33.996716, "lon": -118.432935}, "menus": [], "last_updated": "2021-01-05T08:31:24.776Z"}, {"restaurant_name": "Subway", "restaurant_phone": "(818) 773-9495", "restaurant_website": "https://restaurants.subway.com/united-states/ca/chatsworth/9103-de-soto-ave?utm_source=yext-other&utm_medium=local&utm_term=acq&utm_content=5102&utm_campaign=evergreen-2020&y_source=1_MTQ5MTAxNzYtNzA4", "hours": "", "price_range": "", "price_range_num": 0, "restaurant_id": 34235800118588800, "cuisines": [""], "address": {"city": "Chatsworth", "state": "CA", "postal_code": "90066", "street": "9103 de Soto Ave", "formatted": "9103 de Soto Ave Chatsworth, CA 90066"}, "geo": {"lat": 34.2358, "lon": -118.5888}, "menus": [], "last_updated": "2021-01-05T08:32:46.948Z"}, {"restaurant_name": "Big Fat Pita", "restaurant_phone": "(310) 282-8500", "restaurant_website": "", "hours": "Daily: 10am-10pm", "price_range": "$", "price_range_num": 1, "restaurant_id": 34059683118419496, "cuisines": ["Greek"], "address": {"city": "Century City", "state": "CA", "postal_code": "90066", "street": "10250 Santa Monica Blvd", "formatted": "10250 Santa Monica Blvd Century City, CA 90066"}, "geo": {"lat": 34.059683, "lon": -118.419498}, "menus": [], "last_updated": "2021-01-05T08:32:56.411Z"}, {"restaurant_name": "RockenWagner Bakery Cafe", "restaurant_phone": "(310) 578-8171", "restaurant_website": "", "hours": "", "price_range": "$", "price_range_num": 1, "restaurant_id": 33995603118437490, "cuisines": ["Bakery & Pastries", "Sandwiches"], "address": {"city": "Culver City", "state": "CA", "postal_code": "90066", "street": "12835 W Washington Blvd", "formatted": "12835 W Washington Blvd Culver City, CA 90066"}, "geo": {"lat": 33.995603, "lon": -118.437489}, "menus": [], "last_updated": "2021-01-05T08:31:25.413Z"}, {"restaurant_name": "House of Thai Taste", "restaurant_phone": "(310) 915-0123", "restaurant_website": "", "hours": "Daily: 11am-11pm", "price_range": "$$", "price_range_num": 2, "restaurant_id": 33999664118440956, "cuisines": ["Thai"], "address": {"city": "Los Angeles", "state": "CA", "postal_code": "90066", "street": "12824 Venice Blvd", "formatted": "12824 Venice Blvd Los Angeles, CA 90066"}, "geo": {"lat": 33.999664, "lon": -118.440956}, "menus": [], "last_updated": "2020-12-29T06:50:32.298Z"}, {"restaurant_name": "Lenzini's Pizza", "restaurant_phone": "(310) 305-0305", "restaurant_website": "", "hours": "Sun-Thu: 10:30am-11pm Fri-Sat: 10:30am-12am", "price_range": "$$$", "price_range_num": 3, "restaurant_id": 33985458118424570, "cuisines": ["Pizza", "Salads", "Wings"], "address": {"city": "Los Angeles", "state": "CA", "postal_code": "90066", "street": "12740 Culver Blvd STE B", "formatted": "12740 Culver Blvd STE B Los Angeles, CA 90066"}, "geo": {"lat": 33.985458, "lon": -118.424568}, "menus": [], "last_updated": "2020-12-29T06:50:34.599Z"}, {"restaurant_name": "Outdoor Grill", "restaurant_phone": "(310) 636-4745", "restaurant_website": "", "hours": "Sun-Thu: 10:30am-9pm Fri-Sat: 10:30am-9:30pm", "price_range": "$$", "price_range_num": 2, "restaurant_id": 33997650118433890, "cuisines": ["Barbecue"], "address": {"city": "Los Angeles", "state": "CA", "postal_code": "90066", "street": "12630 1/2 Washington Pl", "formatted": "12630 1/2 Washington Pl Los Angeles, CA 90066"}, "geo": {"lat": 33.99765, "lon": -118.433887}, "menus": [], "last_updated": "2020-12-29T06:50:33.344Z"}, {"restaurant_name": "Los Cocos Panaderia y Pupuseria", "restaurant_phone": "(310) 636-1043", "restaurant_website": "http:///ca/los-angeles/755931-los-cocos-panaderia-y-pupuseria/", "hours": "", "price_range": "", "price_range_num": 0, "restaurant_id": 33989529118418624, "cuisines": [""], "address": {"city": "Los Angeles", "state": "CA", "postal_code": "90066", "street": "4804 1/2 South Centinela Avenue", "formatted": "4804 1/2 South Centinela Avenue Los Angeles, CA 90066"}, "geo": {"lat": 33.989529, "lon": -118.418625}, "menus": [], "last_updated": "2020-12-29T06:46:06.442Z"}, {"restaurant_name": "ChocoVivo", "restaurant_phone": "(310) 845-6259", "restaurant_website": "http:///ca/los-angeles/845091-chocovivo/", "hours": "", "price_range": "", "price_range_num": 0, "restaurant_id": 33997051118430436, "cuisines": [""], "address": {"city": "Los Angeles", "state": "CA", "postal_code": "90066", "street": "12469 Washington Blvd", "formatted": "12469 Washington Blvd Los Angeles, CA 90066"}, "geo": {"lat": 33.997051, "lon": -118.430435}, "menus": [], "last_updated": "2021-01-05T08:01:28.953Z"}, {"restaurant_name": "Gindaco", "restaurant_phone": "(310) 398-8256", "restaurant_website": "http:///ca/los-angeles/837301-gindaco/", "hours": "", "price_range": "", "price_range_num": 0, "restaurant_id": 34004881118433480, "cuisines": [""], "address": {"city": "Los Angeles", "state": "CA", "postal_code": "90066", "street": "3760 S Centinela Ave", "formatted": "3760 S Centinela Ave Los Angeles, CA 90066"}, "geo": {"lat": 34.004881, "lon": -118.433478}, "menus": [], "last_updated": "2021-01-05T08:01:30.362Z"}, {"restaurant_name": "My Lai", "restaurant_phone": "(310) 439-2259", "restaurant_website": "http:///ca/los-angeles/837154-my-lai/", "hours": "", "price_range": "", "price_range_num": 0, "restaurant_id": 34004325118431740, "cuisines": [""], "address": {"city": "Los Angeles", "state": "CA", "postal_code": "90066", "street": "12222 Venice Blvd", "formatted": "12222 Venice Blvd Los Angeles, CA 90066"}, "geo": {"lat": 34.004325, "lon": -118.431739}, "menus": [], "last_updated": "2021-01-05T08:01:30.447Z"}, {"restaurant_name": "Starbucks @ Runway", "restaurant_phone": "(213) 393-2572", "restaurant_website": "http:///ca/los-angeles/832427-starbucks-runway/", "hours": "", "price_range": "", "price_range_num": 0, "restaurant_id": 33977173118417396, "cuisines": [""], "address": {"city": "Los Angeles", "state": "CA", "postal_code": "90066", "street": "12746 Jefferson Boulevard", "formatted": "12746 Jefferson Boulevard Los Angeles, CA 90066"}, "geo": {"lat": 33.977173, "lon": -118.417397}, "menus": [], "last_updated": "2021-01-05T08:01:31.461Z"}, {"restaurant_name": "Bacon Wrapped Hot Dogs", "restaurant_phone": "(310) 477-2111", "restaurant_website": "http:///ca/los-angeles/821206-bacon-wrapped-hot-dogs/", "hours": "", "price_range": "", "price_range_num": 0, "restaurant_id": 34008564118424090, "cuisines": [""], "address": {"city": "Los Angeles", "state": "CA", "postal_code": "90066", "street": "11614 Venice Boulevard", "formatted": "11614 Venice Boulevard Los Angeles, CA 90066"}, "geo": {"lat": 34.008564, "lon": -118.424088}, "menus": [], "last_updated": "2021-01-05T08:02:03.138Z"}, {"restaurant_name": "Old Man Bar", "restaurant_phone": "(310) 391-4222", "restaurant_website": "http:///ca/los-angeles/821184-old-man-bar/", "hours": "", "price_range": "", "price_range_num": 0, "restaurant_id": 33997006118431580, "cuisines": [""], "address": {"city": "Los Angeles", "state": "CA", "postal_code": "90066", "street": "12517 Washington Boulevard", "formatted": "12517 Washington Boulevard Los Angeles, CA 90066"}, "geo": {"lat": 33.997006, "lon": -118.43158}, "menus": [], "last_updated": "2021-01-05T08:02:03.142Z"}, {"restaurant_name": "Saby's Cafe", "restaurant_phone": "(310) 313-3867", "restaurant_website": "http:///ca/los-angeles/818242-sabys-cafe/", "hours": "", "price_range": "", "price_range_num": 0, "restaurant_id": 33999497118441140, "cuisines": [""], "address": {"city": "Los Angeles", "state": "CA", "postal_code": "90066", "street": "12900 Venice Boulevard", "formatted": "12900 Venice Boulevard Los Angeles, CA 90066"}, "geo": {"lat": 33.999497, "lon": -118.441139}, "menus": [], "last_updated": "2021-01-05T08:02:03.619Z"}, {"restaurant_name": "Wheel House Cheese & Wine", "restaurant_phone": "(424) 289-9167", "restaurant_website": "http:///ca/los-angeles/818241-wheel-house-cheese-wine/", "hours": "", "price_range": "", "price_range_num": 0, "restaurant_id": 33994587118439096, "cuisines": [""], "address": {"city": "Los Angeles", "state": "CA", "postal_code": "90066", "street": "12954 Washington Boulevard", "formatted": "12954 Washington Boulevard Los Angeles, CA 90066"}, "geo": {"lat": 33.994587, "lon": -118.439095}, "menus": [], "last_updated": "2021-01-05T08:02:03.757Z"}, {"restaurant_name": "Winc", "restaurant_phone": "(310) 699-1888", "restaurant_website": "http:///ca/los-angeles/814864-winc/", "hours": "", "price_range": "", "price_range_num": 0, "restaurant_id": 33977337118424890, "cuisines": [""], "address": {"city": "Los Angeles", "state": "CA", "postal_code": "90066", "street": "5340 Alla Road", "formatted": "5340 Alla Road Los Angeles, CA 90066"}, "geo": {"lat": 33.977337, "lon": -118.424889}, "menus": [], "last_updated": "2021-01-05T08:02:03.922Z"}, {"restaurant_name": "Quebobs Mediterranean Restaurant (Stand)", "restaurant_phone": "(323) 272-5331", "restaurant_website": "http:///ca/los-angeles/808655-quebobs-mediterranean-restaurant-stand/", "hours": "", "price_range": "", "price_range_num": 0, "restaurant_id": 34003635118433524, "cuisines": [""], "address": {"city": "Los Angeles", "state": "CA", "postal_code": "90066", "street": "Venice and Centinela", "formatted": "Venice and Centinela Los Angeles, CA 90066"}, "geo": {"lat": 34.003635, "lon": -118.433525}, "menus": [], "last_updated": "2021-01-05T08:02:04.417Z"}], "numResults": 25}