{"totalResults": 309, "page": 1, "total_pages": 13, "more_pages": true, "data": [{"restaurant_name": "Jersey Mike's-Miracle Mile", "restaurant_phone": "(310) 268-1500", "restaurant_website": "", "hours": "Daily: 10am-9pm", "price_range": "$$", "price_range_num": 2, "restaurant_id": 34063821118367308, "cuisines": ["Sandwiches"], "address": {"city": "Los Angeles", "state": "CA", "postal_code": "90025", "street": "6361 Wilshire Blvd", "formatted": "6361 Wilshire Blvd Los Angeles, CA 90025"}, "geo": {"lat": 34.063821, "lon": -118.367308}, "menus": [], "last_updated": "2020-12-29T06:50:32.210Z"}, {"restaurant_name": "Churros Calientes", "restaurant_phone": "(424) 248-3890", "restaurant_website": "", "hours": "Tue-Sun: 11:30am-10:30pm", "price_range": "$", "price_range_num": 1, "restaurant_id": 34045543118452896, "cuisines": ["Local/Organic", "South American", "Venezuelan"], "address": {"city": "Los Angeles", "state": "CA", "postal_code": "90025", "street": "11521 Santa Monica Blvd", "formatted": "11521 Santa Monica Blvd Los Angeles, CA 90025"}, "geo": {"lat": 34.045543, "lon": -118.452894}, "menus": [], "last_updated": "2020-12-29T06:50:32.216Z"}, {"restaurant_name": "Yekta", "restaurant_phone": "(310) 444-9422", "restaurant_website": "", "hours": "Tue-Sun: 11:30am-9pm", "price_range": "$$$", "price_range_num": 3, "restaurant_id": 34041557118461084, "cuisines": ["Persian"], "address": {"city": "Los Angeles", "state": "CA", "postal_code": "90025", "street": "11925 Santa Monica Blvd", "formatted": "11925 Santa Monica Blvd Los Angeles, CA 90025"}, "geo": {"lat": 34.041557, "lon": -118.461084}, "menus": [], "last_updated": "2020-12-29T06:50:33.004Z"}, {"restaurant_name": "Qusqo", "restaurant_phone": "(310) 312-3800", "restaurant_website": "", "hours": "Mon: 12pm-3pm+5:30pm-9pm Tue-Thu: 12pm-3pm+5:30pm-10pm Fri-Sat: 12pm-3pm+5:30pm-10:30pm", "price_range": "$$", "price_range_num": 2, "restaurant_id": 34044449118455040, "cuisines": ["Peruvian", "South American"], "address": {"city": "Los Angeles", "state": "CA", "postal_code": "90025", "street": "11633 Santa Monica Blvd", "formatted": "11633 Santa Monica Blvd Los Angeles, CA 90025"}, "geo": {"lat": 34.044449, "lon": -118.45504}, "menus": [], "last_updated": "2020-12-29T06:50:33.107Z"}, {"restaurant_name": "Layla Mediterranean Cafe & Catering", "restaurant_phone": "(310) 310-2999", "restaurant_website": "", "hours": "Daily: 11am-10pm", "price_range": "$$", "price_range_num": 2, "restaurant_id": 34046196118464344, "cuisines": ["Coffee & Tea", "Mediterranean"], "address": {"city": "Los Angeles", "state": "CA", "postal_code": "90025", "street": "11906 Wilshire Blvd", "formatted": "11906 Wilshire Blvd Los Angeles, CA 90025"}, "geo": {"lat": 34.046196, "lon": -118.464345}, "menus": [], "last_updated": "2020-12-29T06:50:33.598Z"}, {"restaurant_name": "Rubio's", "restaurant_phone": "(310) 231-7006", "restaurant_website": "", "hours": "", "price_range": "", "price_range_num": 0, "restaurant_id": 34046191118465504, "cuisines": ["American", "Mexican", "Seafood"], "address": {"city": "W LOS ANGELES", "state": "CA", "postal_code": "90025", "street": "12007 Wilshire Blvd", "formatted": "12007 Wilshire Blvd W LOS ANGELES, CA 90025"}, "geo": {"lat": 34.046191, "lon": -118.465505}, "menus": [], "last_updated": "2021-01-05T07:26:44.930Z"}, {"restaurant_name": "Domino's Pizza", "restaurant_phone": "(310) 826-3030", "restaurant_website": "http://www.dominos.com", "hours": "", "price_range": "", "price_range_num": 0, "restaurant_id": 34039900118465000, "cuisines": ["American", "Pizza", "Wings"], "address": {"city": "West Los Angeles", "state": "CA", "postal_code": "90025", "street": "12237 Santa Monica Blvd", "formatted": "12237 Santa Monica Blvd West Los Angeles, CA 90025"}, "geo": {"lat": 34.0399, "lon": -118.465}, "menus": [], "last_updated": "2021-01-05T07:26:12.050Z"}, {"restaurant_name": "Shin Sen Gumi Hakata Ramen Express", "restaurant_phone": "(310) 200-6066", "restaurant_website": "http:///ca/los-angeles/755635-shin-sen-gumi-hakata-ramen-express/", "hours": "", "price_range": "", "price_range_num": 0, "restaurant_id": 34045891118451510, "cuisines": [""], "address": {"city": "Los Angeles", "state": "CA", "postal_code": "90025", "street": "11419 Santa Monica Blvd", "formatted": "11419 Santa Monica Blvd Los Angeles, CA 90025"}, "geo": {"lat": 34.045891, "lon": -118.45151}, "menus": [], "last_updated": "2020-12-29T06:46:06.591Z"}, {"restaurant_name": "Harvest Cafe", "restaurant_phone": "(310) 207-6611", "restaurant_website": "http:///ca/los-angeles/780179-harvest-cafe/", "hours": "", "price_range": "", "price_range_num": 0, "restaurant_id": 34043964118468376, "cuisines": [""], "address": {"city": "Los Angeles", "state": "CA", "postal_code": "90025", "street": "12121 Wilshire Boulevard", "formatted": "12121 Wilshire Boulevard Los Angeles, CA 90025"}, "geo": {"lat": 34.043964, "lon": -118.468376}, "menus": [], "last_updated": "2020-12-28T19:27:17.633Z"}, {"restaurant_name": "Grilled Cheese Heaven", "restaurant_phone": "(323) 840-3298", "restaurant_website": "http:///ca/los-angeles/571946-grilled-cheese-heaven/", "hours": "", "price_range": "", "price_range_num": 0, "restaurant_id": 34045903118451510, "cuisines": [""], "address": {"city": "Los Angeles", "state": "CA", "postal_code": "90025", "street": "11419 Santa Monica Blvd", "formatted": "11419 Santa Monica Blvd Los Angeles, CA 90025"}, "geo": {"lat": 34.045903, "lon": -118.451511}, "menus": [], "last_updated": "2020-12-28T19:25:11.984Z"}, {"restaurant_name": "Laziz Grill", "restaurant_phone": "(310) 474-2436", "restaurant_website": "http:///ca/los-angeles/573167-laziz-grill/", "hours": "", "price_range": "", "price_range_num": 0, "restaurant_id": 34047859118434816, "cuisines": [""], "address": {"city": "Los Angeles", "state": "CA", "postal_code": "90025", "street": "1922 Westwood Blvd", "formatted": "1922 Westwood Blvd Los Angeles, CA 90025"}, "geo": {"lat": 34.047859, "lon": -118.434815}, "menus": [], "last_updated": "2020-12-28T19:25:12.137Z"}, {"restaurant_name": "Burgers with Attitude DTLA", "restaurant_phone": "(323) 402-0877", "restaurant_website": "http:///ca/los-angeles/578105-burgers-with-attitude-dtla/", "hours": "", "price_range": "", "price_range_num": 0, "restaurant_id": 34045908118451508, "cuisines": [""], "address": {"city": "Los Angeles", "state": "CA", "postal_code": "90025", "street": "11419 Santa Monica Blvd", "formatted": "11419 Santa Monica Blvd Los Angeles, CA 90025"}, "geo": {"lat": 34.045908, "lon": -118.451509}, "menus": [], "last_updated": "2020-12-28T19:25:13.004Z"}, {"restaurant_name": "Jersey Mike's Subs", "restaurant_phone": "(310) 268-1500", "restaurant_website": "http:///ca/los-angeles/581243-jersey-mikes-subs/", "hours": "", "price_range": "", "price_range_num": 0, "restaurant_id": 34046066118465468, "cuisines": [""], "address": {"city": "Los Angeles", "state": "CA", "postal_code": "90025", "street": "12003 Wilshire Blvd", "formatted": "12003 Wilshire Blvd Los Angeles, CA 90025"}, "geo": {"lat": 34.046066, "lon": -118.465469}, "menus": [], "last_updated": "2020-12-28T19:25:13.427Z"}, {"restaurant_name": "Menya Musashi", "restaurant_phone": "(310) 231-7188", "restaurant_website": "http:///ca/los-angeles/588691-menya-musashi/", "hours": "", "price_range": "", "price_range_num": 0, "restaurant_id": 34040710118443200, "cuisines": [""], "address": {"city": "Los Angeles", "state": "CA", "postal_code": "90025", "street": "2012 Sawtelle Blvd", "formatted": "2012 Sawtelle Blvd Los Angeles, CA 90025"}, "geo": {"lat": 34.04071, "lon": -118.443199}, "menus": [], "last_updated": "2020-12-28T19:25:14.277Z"}, {"restaurant_name": "Chef Ming's", "restaurant_phone": "(310) 207-5496", "restaurant_website": "", "hours": "Mon-Sat: 11:30am-10pm Sun: 4pm-10pm", "price_range": "$$", "price_range_num": 2, "restaurant_id": 34039638118465440, "cuisines": ["Chinese", "Vegetarian"], "address": {"city": "Los Angeles", "state": "CA", "postal_code": "90025", "street": "12239 Santa Monica Blvd", "formatted": "12239 Santa Monica Blvd Los Angeles, CA 90025"}, "geo": {"lat": 34.039638, "lon": -118.465439}, "menus": [], "last_updated": "2020-12-29T06:50:08.912Z"}, {"restaurant_name": "Axiote Restaurant", "restaurant_phone": "", "restaurant_website": "", "hours": "Daily: 11am-9pm", "price_range": "$", "price_range_num": 1, "restaurant_id": 34046832118449120, "cuisines": ["Breakfast", "Lunch Specials", "Mexican"], "address": {"city": "Los Angeles", "state": "CA", "postal_code": "90025", "street": "1601 Sawtelle Blvd", "formatted": "1601 Sawtelle Blvd Los Angeles, CA 90025"}, "geo": {"lat": 34.046832, "lon": -118.449122}, "menus": [], "last_updated": "2020-12-29T06:50:09.080Z"}, {"restaurant_name": "California Pita", "restaurant_phone": "(310) 478-6200", "restaurant_website": "", "hours": "Daily: 11am-9pm", "price_range": "$", "price_range_num": 1, "restaurant_id": 34046027118465436, "cuisines": ["Middle Eastern"], "address": {"city": "Los Angeles", "state": "CA", "postal_code": "90025", "street": "12001 Wilshire Blvd", "formatted": "12001 Wilshire Blvd Los Angeles, CA 90025"}, "geo": {"lat": 34.046027, "lon": -118.465436}, "menus": [], "last_updated": "2020-12-29T06:50:09.201Z"}, {"restaurant_name": "Rosemary Grill", "restaurant_phone": "(310) 826-3111", "restaurant_website": "", "hours": "Mon-Thu: 11:30am-10pm Fri: 11:30am-11pm Sat: 11:30am-12am", "price_range": "$", "price_range_num": 1, "restaurant_id": 34039674118465356, "cuisines": ["Burgers", "Healthy", "Lunch Specials", "Mediterranean", "Middle Eastern", "Sandwiches", "Vegetarian"], "address": {"city": "Los Angeles", "state": "CA", "postal_code": "90025", "street": "12231 Santa Monica Blvd", "formatted": "12231 Santa Monica Blvd Los Angeles, CA 90025"}, "geo": {"lat": 34.039674, "lon": -118.465357}, "menus": [], "last_updated": "2020-12-29T06:50:09.258Z"}, {"restaurant_name": "Specialty's", "restaurant_phone": "(415) 362-2052", "restaurant_website": "http://www.specialtys.com", "hours": "Mon-Fri: 6am-5pm", "price_range": "$", "price_range_num": 1, "restaurant_id": 34046975118444910, "cuisines": ["Bakery & Pastries", "Coffee & Tea", "Desserts", "Sandwiches"], "address": {"city": "Los Angeles", "state": "CA", "postal_code": "90025", "street": "11150 Santa Monica Blvd", "formatted": "11150 Santa Monica Blvd Los Angeles, CA 90025"}, "geo": {"lat": 34.046975, "lon": -118.444913}, "menus": [], "last_updated": "2020-12-29T06:50:09.362Z"}, {"restaurant_name": "Slicetruck Pizzeria", "restaurant_phone": "(310) 444-9550", "restaurant_website": "", "hours": "Sun-Thu: 11:30am-10pm Fri-Sat: 11:30am-12am", "price_range": "$", "price_range_num": 1, "restaurant_id": 34039892118462710, "cuisines": ["Pizza"], "address": {"city": "Los Angeles", "state": "CA", "postal_code": "90025", "street": "1523 S Bundy Drive", "formatted": "1523 S Bundy Drive Los Angeles, CA 90025"}, "geo": {"lat": 34.039892, "lon": -118.462714}, "menus": [], "last_updated": "2020-12-29T06:50:09.373Z"}, {"restaurant_name": "WLA Grill Cafe", "restaurant_phone": "(310) 481-6948", "restaurant_website": "", "hours": "", "price_range": "$$", "price_range_num": 2, "restaurant_id": 34045537118451760, "cuisines": ["American", "Breakfast", "Burgers", "Pizza", "Sandwiches"], "address": {"city": "Los Angeles", "state": "CA", "postal_code": "90025", "street": "11407 Santa Monica Blvd", "formatted": "11407 Santa Monica Blvd Los Angeles, CA 90025"}, "geo": {"lat": 34.045537, "lon": -118.451758}, "menus": [], "last_updated": "2020-12-29T06:50:09.473Z"}, {"restaurant_name": "Carmine's", "restaurant_phone": "(310) 441-4706", "restaurant_website": "", "hours": "Lunch Tue-Fri: 11:30am-2:30pm Dinner Mon-Thu: 5:30pm-10pm Fri-Sat: 5:30pm-11pm", "price_range": "$$$$", "price_range_num": 4, "restaurant_id": 34056295118426170, "cuisines": ["Italian"], "address": {"city": "Los Angeles", "state": "CA", "postal_code": "90025", "street": "10463 Santa Monica Blvd", "formatted": "10463 Santa Monica Blvd Los Angeles, CA 90025"}, "geo": {"lat": 34.056295, "lon": -118.426167}, "menus": [], "last_updated": "2020-12-29T06:50:29.728Z"}, {"restaurant_name": "Feast From The East", "restaurant_phone": "(310) 475-0400", "restaurant_website": "", "hours": "Mon-Sat: 11am-9pm", "price_range": "$$$$", "price_range_num": 4, "restaurant_id": 34047377118434750, "cuisines": ["Chinese", "Wings"], "address": {"city": "Los Angeles", "state": "CA", "postal_code": "90025", "street": "1949 Westwood Blvd", "formatted": "1949 Westwood Blvd Los Angeles, CA 90025"}, "geo": {"lat": 34.047377, "lon": -118.43475}, "menus": [], "last_updated": "2020-12-29T06:50:29.930Z"}, {"restaurant_name": "The Corner Deli & Grill", "restaurant_phone": "(310) 477-5760", "restaurant_website": "http://www.thecornerdeliandgrill.com", "hours": "Mon-Fri: 6:30am-5pmSat-Sun: Closed", "price_range": "$", "price_range_num": 1, "restaurant_id": 34048042118444228, "cuisines": ["Deli Food", "Mexican", "Sandwiches"], "address": {"city": "Los Angeles", "state": "CA", "postal_code": "90025", "street": "1660 S Sepulveda Blvd", "formatted": "1660 S Sepulveda Blvd Los Angeles, CA 90025"}, "geo": {"lat": 34.048042, "lon": -118.444229}, "menus": [], "last_updated": "2020-12-29T06:50:30.129Z"}, {"restaurant_name": "O Sushi", "restaurant_phone": "(310) 473-7883", "restaurant_website": "http://www.osushiandroll.com", "hours": "Mon-Sat: 11am-9:30pm Sun: 5pm-9:30pm", "price_range": "$$", "price_range_num": 2, "restaurant_id": 34047749118443748, "cuisines": ["Japanese", "Sushi"], "address": {"city": "Los Angeles", "state": "CA", "postal_code": "90025", "street": "11082 Santa Monica Blvd.", "formatted": "11082 Santa Monica Blvd. Los Angeles, CA 90025"}, "geo": {"lat": 34.047749, "lon": -118.443748}, "menus": [], "last_updated": "2020-12-29T06:50:30.212Z"}], "numResults": 25}