{"totalResults": 33, "page": 1, "total_pages": 2, "more_pages": true, "data": [{"restaurant_name": "Maximos pizza", "restaurant_phone": "(323) 877-5359", "restaurant_website": "http:///ca/vernon/779945-maximos-pizza/", "hours": "", "price_range": "", "price_range_num": 0, "restaurant_id": 34006584118243484, "cuisines": [""], "address": {"city": "Vernon", "state": "CA", "postal_code": "90058", "street": "4175 Long Beach Avenue", "formatted": "4175 Long Beach Avenue Vernon, CA 90058"}, "geo": {"lat": 34.006584, "lon": -118.243485}, "menus": [], "last_updated": "2021-01-05T07:27:06.621Z"}, {"restaurant_name": "Novacane Sports Bar & Grill", "restaurant_phone": "(562) 396-2272", "restaurant_website": "http:///ca/vernon/722736-novacane-sports-bar-grill/", "hours": "", "price_range": "", "price_range_num": 0, "restaurant_id": 33989796118229936, "cuisines": [""], "address": {"city": "Vernon", "state": "CA", "postal_code": "90058", "street": "5812 South Santa Fe Avenue", "formatted": "5812 South Santa Fe Avenue Vernon, CA 90058"}, "geo": {"lat": 33.989796, "lon": -118.229935}, "menus": [], "last_updated": "2021-01-05T07:27:06.694Z"}, {"restaurant_name": "Fortuna Pollo Grill", "restaurant_phone": "(323) 846-4918", "restaurant_website": "http:///ca/vernon/719685-fortuna-pollo-grill/", "hours": "", "price_range": "", "price_range_num": 0, "restaurant_id": 34002796118242156, "cuisines": [""], "address": {"city": "Vernon", "state": "CA", "postal_code": "90058", "street": "4501 Staunton Avenue", "formatted": "4501 Staunton Avenue Vernon, CA 90058"}, "geo": {"lat": 34.002796, "lon": -118.242157}, "menus": [], "last_updated": "2021-01-05T07:27:06.703Z"}, {"restaurant_name": "Restaurante La Casita", "restaurant_phone": "(323) 424-5462", "restaurant_website": "http:///ca/vernon/719053-restaurante-la-casita/", "hours": "", "price_range": "", "price_range_num": 0, "restaurant_id": 34003532118239176, "cuisines": [""], "address": {"city": "Vernon", "state": "CA", "postal_code": "90058", "street": "4433 South Alameda Street", "formatted": "4433 South Alameda Street Vernon, CA 90058"}, "geo": {"lat": 34.003532, "lon": -118.239174}, "menus": [], "last_updated": "2021-01-05T07:27:06.733Z"}, {"restaurant_name": "Tadin Herb & Tea Co.", "restaurant_phone": "(800) 838-2346", "restaurant_website": "http:///ca/vernon/790637-tadin-herb-tea-co/", "hours": "", "price_range": "", "price_range_num": 0, "restaurant_id": 33989670118206520, "cuisines": [""], "address": {"city": "Vernon", "state": "CA", "postal_code": "90058", "street": "3345 Slauson Avenue", "formatted": "3345 Slauson Avenue Vernon, CA 90058"}, "geo": {"lat": 33.98967, "lon": -118.20652}, "menus": [], "last_updated": "2021-01-05T07:27:06.746Z"}, {"restaurant_name": "Mikawaya Mochi Ice Cream", "restaurant_phone": "(323) 587-5504", "restaurant_website": "http:///ca/vernon/719173-mikawaya-mochi-ice-cream/", "hours": "", "price_range": "", "price_range_num": 0, "restaurant_id": 33992630118209440, "cuisines": [""], "address": {"city": "Vernon", "state": "CA", "postal_code": "90058", "street": "5563 Alcoa Avenue", "formatted": "5563 Alcoa Avenue Vernon, CA 90058"}, "geo": {"lat": 33.99263, "lon": -118.209442}, "menus": [], "last_updated": "2021-01-05T07:27:06.762Z"}, {"restaurant_name": "Cafe Dulce Vernon", "restaurant_phone": "(213) 246-4655", "restaurant_website": "http:///ca/vernon/719044-cafe-dulce-vernon/", "hours": "", "price_range": "", "price_range_num": 0, "restaurant_id": 34014561118239204, "cuisines": [""], "address": {"city": "Vernon", "state": "CA", "postal_code": "90058", "street": "2520 South Alameda Street", "formatted": "2520 South Alameda Street Vernon, CA 90058"}, "geo": {"lat": 34.014561, "lon": -118.239204}, "menus": [], "last_updated": "2021-01-05T07:27:06.767Z"}, {"restaurant_name": "El Primo Mexican Food", "restaurant_phone": "(323) 588-1745", "restaurant_website": "http:///ca/vernon/601110-el-primo-mexican-food/", "hours": "", "price_range": "", "price_range_num": 0, "restaurant_id": 34009438118219530, "cuisines": [""], "address": {"city": "Vernon", "state": "CA", "postal_code": "90058", "street": "3632 S Soto St", "formatted": "3632 S Soto St Vernon, CA 90058"}, "geo": {"lat": 34.009438, "lon": -118.219528}, "menus": [], "last_updated": "2021-01-05T07:27:06.776Z"}, {"restaurant_name": "Mariscos El Diablo", "restaurant_phone": "(323) 233-3015", "restaurant_website": "http:///ca/vernon/719264-mariscos-el-diablo/", "hours": "", "price_range": "", "price_range_num": 0, "restaurant_id": 34002544118239776, "cuisines": [""], "address": {"city": "Vernon", "state": "CA", "postal_code": "90058", "street": "4501 South Alameda Street", "formatted": "4501 South Alameda Street Vernon, CA 90058"}, "geo": {"lat": 34.002544, "lon": -118.239777}, "menus": [], "last_updated": "2021-01-05T07:27:06.811Z"}, {"restaurant_name": "The Green Olive", "restaurant_phone": "(323) 586-0201", "restaurant_website": "", "hours": "", "price_range": "", "price_range_num": 0, "restaurant_id": 34009544118219496, "cuisines": [""], "address": {"city": "Vernon", "state": "CA", "postal_code": "90058", "street": "3616 S Soto St", "formatted": "3616 S Soto St Vernon, CA 90058"}, "geo": {"lat": 34.009544, "lon": -118.219498}, "menus": [], "last_updated": "2021-01-05T07:27:06.824Z"}, {"restaurant_name": "Ben?s General Store", "restaurant_phone": "(323) 583-2434", "restaurant_website": "http:///ca/vernon/664315-bens-general-store/", "hours": "", "price_range": "", "price_range_num": 0, "restaurant_id": 33994980118229776, "cuisines": [""], "address": {"city": "Vernon", "state": "CA", "postal_code": "90058", "street": "5218 S Santa Fe Ave", "formatted": "5218 S Santa Fe Ave Vernon, CA 90058"}, "geo": {"lat": 33.99498, "lon": -118.229775}, "menus": [], "last_updated": "2021-01-05T07:27:06.845Z"}, {"restaurant_name": "Trattoria No 25", "restaurant_phone": "(323) 587-1494", "restaurant_website": "http://www.trattoria25.com", "hours": "Mon-Thu: 10:30am-9pm ", "price_range": "$$$", "price_range_num": 3, "restaurant_id": 34014240118230600, "cuisines": ["Italian", "Pizza"], "address": {"city": "Vernon", "state": "CA", "postal_code": "90058", "street": "2501 South Santa Fe Avenue", "formatted": "2501 South Santa Fe Avenue Vernon, CA 90058"}, "geo": {"lat": 34.01424, "lon": -118.230598}, "menus": [], "last_updated": "2021-01-05T07:27:06.855Z"}, {"restaurant_name": "Alexander's Greek Kitchen", "restaurant_phone": "(323) 586-0201", "restaurant_website": "", "hours": "Mon-Fri: 10:30am-4pm", "price_range": "$$", "price_range_num": 2, "restaurant_id": 34009580118219690, "cuisines": ["Greek"], "address": {"city": "Vernon", "state": "CA", "postal_code": "90058", "street": "3632 Soto St", "formatted": "3632 Soto St Vernon, CA 90058"}, "geo": {"lat": 34.00958, "lon": -118.21969}, "menus": [], "last_updated": "2021-01-05T07:27:06.864Z"}, {"restaurant_name": "Salad Farm", "restaurant_phone": "(323) 277-9080", "restaurant_website": "", "hours": "Mon-Fri: 10am-4pm", "price_range": "$$", "price_range_num": 2, "restaurant_id": 34009420118219412, "cuisines": ["Californian", "Salads", "Sandwiches", "Vegetarian"], "address": {"city": "Vernon", "state": "CA", "postal_code": "90058", "street": "3600 S Soto St", "formatted": "3600 S Soto St Vernon, CA 90058"}, "geo": {"lat": 34.00942, "lon": -118.219413}, "menus": [], "last_updated": "2021-01-05T07:27:06.876Z"}, {"restaurant_name": "Joe K's Deli Lounge", "restaurant_phone": "(323) 267-1400", "restaurant_website": "http:///ca/vernon/572502-joe-ks-deli-lounge/", "hours": "", "price_range": "", "price_range_num": 0, "restaurant_id": 34014294118220070, "cuisines": [""], "address": {"city": "Vernon", "state": "CA", "postal_code": "90058", "street": "2601 S Soto St", "formatted": "2601 S Soto St Vernon, CA 90058"}, "geo": {"lat": 34.014294, "lon": -118.22007}, "menus": [], "last_updated": "2021-01-05T07:27:06.904Z"}, {"restaurant_name": "McDonald's", "restaurant_phone": "", "restaurant_website": "http://www.mcdonalds.com", "hours": "", "price_range": "", "price_range_num": 0, "restaurant_id": 34008423118220170, "cuisines": ["American", "Burgers"], "address": {"city": "Vernon", "state": "CA", "postal_code": "90058", "street": "3737 S Soto St", "formatted": "3737 S Soto St Vernon, CA 90058"}, "geo": {"lat": 34.008423, "lon": -118.220169}, "menus": [], "last_updated": "2021-01-05T07:27:06.915Z"}, {"restaurant_name": "Capri Cucina", "restaurant_phone": "(323) 588-0004", "restaurant_website": "", "hours": "", "price_range": "$$", "price_range_num": 2, "restaurant_id": 34009549118219630, "cuisines": ["Italian", "Pasta", "Pizza"], "address": {"city": "Vernon", "state": "CA", "postal_code": "90058", "street": "3608 S Soto St", "formatted": "3608 S Soto St Vernon, CA 90058"}, "geo": {"lat": 34.009549, "lon": -118.219634}, "menus": [], "last_updated": "2021-01-05T07:27:06.921Z"}, {"restaurant_name": "Z's Place", "restaurant_phone": "(323) 589-3474", "restaurant_website": "", "hours": "Mon-Fri: 7am-4pm", "price_range": "$$", "price_range_num": 2, "restaurant_id": 34007783118219800, "cuisines": ["Deli Food", "Mexican", "Sandwiches", "Seafood"], "address": {"city": "Vernon", "state": "CA", "postal_code": "90058", "street": "3805 S Soto St", "formatted": "3805 S Soto St Vernon, CA 90058"}, "geo": {"lat": 34.007783, "lon": -118.2198}, "menus": [], "last_updated": "2021-01-05T07:27:06.951Z"}, {"restaurant_name": "Enzo Restaurant", "restaurant_phone": "(323) 581-8768", "restaurant_website": "", "hours": "Mon-Fri: 8:30am-5pm", "price_range": "$$", "price_range_num": 2, "restaurant_id": 34009343118219676, "cuisines": ["Burgers", "Korean", "Salads"], "address": {"city": "Vernon", "state": "CA", "postal_code": "90058", "street": "3616 S Soto St", "formatted": "3616 S Soto St Vernon, CA 90058"}, "geo": {"lat": 34.009343, "lon": -118.219676}, "menus": [], "last_updated": "2021-01-05T07:27:06.985Z"}, {"restaurant_name": "Krispy Krunchy Chicken", "restaurant_phone": "(317) 328-0182", "restaurant_website": "", "hours": "Mon-Sat: 10am-9pm Sun: 12pm-6pm", "price_range": "$", "price_range_num": 1, "restaurant_id": 34009204118219660, "cuisines": ["Cajun & Creole", "Chicken", "Wings"], "address": {"city": "Los Angeles", "state": "CA", "postal_code": "90058", "street": "3624 S Soto St", "formatted": "3624 S Soto St Los Angeles, CA 90058"}, "geo": {"lat": 34.009204, "lon": -118.219661}, "menus": [], "last_updated": "2021-01-05T08:07:43.208Z"}, {"restaurant_name": "What's Sub & Poke", "restaurant_phone": "(323) 585-5666", "restaurant_website": "", "hours": "", "price_range": "", "price_range_num": 0, "restaurant_id": 34009163118219676, "cuisines": [""], "address": {"city": "Los Angeles", "state": "CA", "postal_code": "90058", "street": "3634 S Soto St", "formatted": "3634 S Soto St Los Angeles, CA 90058"}, "geo": {"lat": 34.009163, "lon": -118.219677}, "menus": [], "last_updated": "2021-01-05T08:06:15.872Z"}, {"restaurant_name": "Roberts and Portos Pizza", "restaurant_phone": "(323) 232-3439", "restaurant_website": "http:///ca/los-angeles/790812-roberts-and-portos-pizza/", "hours": "", "price_range": "", "price_range_num": 0, "restaurant_id": 34004368118242324, "cuisines": [""], "address": {"city": "Los Angeles", "state": "CA", "postal_code": "90058", "street": "1713 East Vernon Avenue", "formatted": "1713 East Vernon Avenue Los Angeles, CA 90058"}, "geo": {"lat": 34.004368, "lon": -118.242325}, "menus": [], "last_updated": "2021-01-05T08:02:06.694Z"}, {"restaurant_name": "El Rinconcito de Mago", "restaurant_phone": "(213) 745-7894", "restaurant_website": "http:///ca/los-angeles/607546-el-rinconcito-de-mago/", "hours": "", "price_range": "", "price_range_num": 0, "restaurant_id": 34019829118239744, "cuisines": [""], "address": {"city": "Los Angeles", "state": "CA", "postal_code": "90058", "street": "1901 S Alameda St Ste 115", "formatted": "1901 S Alameda St Ste 115 Los Angeles, CA 90058"}, "geo": {"lat": 34.019829, "lon": -118.239746}, "menus": [], "last_updated": "2020-12-29T06:46:54.524Z"}, {"restaurant_name": "Jersey Mike's Subs", "restaurant_phone": "(323) 233-2770", "restaurant_website": "http:///ca/los-angeles/628325-jersey-mikes-subs/", "hours": "", "price_range": "", "price_range_num": 0, "restaurant_id": 34014301118239364, "cuisines": [""], "address": {"city": "Los Angeles", "state": "CA", "postal_code": "90058", "street": "2550 S Alameda St Spc 2526", "formatted": "2550 S Alameda St Spc 2526 Los Angeles, CA 90058"}, "geo": {"lat": 34.014301, "lon": -118.239365}, "menus": [], "last_updated": "2020-12-29T06:46:34.886Z"}, {"restaurant_name": "Tortas Ahogadas Las Originales", "restaurant_phone": "(213) 521-1627", "restaurant_website": "", "hours": "", "price_range": "$", "price_range_num": 1, "restaurant_id": 34004182118242696, "cuisines": ["Mexican"], "address": {"city": "Los Angeles", "state": "CA", "postal_code": "90058", "street": "1713 E Varnon Ave", "formatted": "1713 E Varnon Ave Los Angeles, CA 90058"}, "geo": {"lat": 34.004182, "lon": -118.242695}, "menus": [], "last_updated": "2020-12-29T06:49:38.988Z"}], "numResults": 25}