{"totalResults": 68, "page": 1, "total_pages": 3, "more_pages": true, "data": [{"restaurant_name": "Subway", "restaurant_phone": "(323) 755-7200", "restaurant_website": "https://restaurants.subway.com/united-states/ca/los-angeles/10317-avalon-blvd?utm_source=yext-other&utm_medium=local&utm_term=acq&utm_content=43422&utm_campaign=evergreen-2020&y_source=1_MTQ5MTEwNzYtN", "hours": "", "price_range": "", "price_range_num": 0, "restaurant_id": 33942400118265600, "cuisines": [""], "address": {"city": "Los Angeles", "state": "CA", "postal_code": "90003", "street": "10317 Avalon Blvd.", "formatted": "10317 Avalon Blvd. Los Angeles, CA 90003"}, "geo": {"lat": 33.9424, "lon": -118.2656}, "menus": [], "last_updated": "2020-12-28T19:25:11.780Z"}, {"restaurant_name": "Church's Chicken", "restaurant_phone": "(323) 778-7431", "restaurant_website": "http:///ca/los-angeles/573880-churchs-chicken/", "hours": "", "price_range": "", "price_range_num": 0, "restaurant_id": 33982761118277948, "cuisines": [""], "address": {"city": "Los Angeles", "state": "CA", "postal_code": "90003", "street": "6210 S Broadway", "formatted": "6210 S Broadway Los Angeles, CA 90003"}, "geo": {"lat": 33.982761, "lon": -118.277947}, "menus": [], "last_updated": "2020-12-28T19:25:12.266Z"}, {"restaurant_name": "Tumby's Pizza", "restaurant_phone": "(323) 759-2651", "restaurant_website": "http:///ca/los-angeles/576568-tumbys-pizza/", "hours": "", "price_range": "", "price_range_num": 0, "restaurant_id": 33960671118283270, "cuisines": [""], "address": {"city": "Los Angeles", "state": "CA", "postal_code": "90003", "street": "8509 S Figueroa St", "formatted": "8509 S Figueroa St Los Angeles, CA 90003"}, "geo": {"lat": 33.960671, "lon": -118.283272}, "menus": [], "last_updated": "2020-12-28T19:25:12.723Z"}, {"restaurant_name": "A & T Burgers", "restaurant_phone": "(323) 754-0709", "restaurant_website": "http://www.aandtburgers.com", "hours": "", "price_range": "$$", "price_range_num": 2, "restaurant_id": 33950966118265460, "cuisines": [""], "address": {"city": "Los Angeles", "state": "CA", "postal_code": "90003", "street": "9401 South Avalon Boulevard", "formatted": "9401 South Avalon Boulevard Los Angeles, CA 90003"}, "geo": {"lat": 33.950966, "lon": -118.26546}, "menus": [], "last_updated": "2020-12-28T19:23:55.178Z"}, {"restaurant_name": "The Burger Palace", "restaurant_phone": "(323) 750-4507", "restaurant_website": "", "hours": "", "price_range": "$", "price_range_num": 1, "restaurant_id": 33959877118274476, "cuisines": ["American", "Burgers", "Mexican"], "address": {"city": "Los Angeles", "state": "CA", "postal_code": "90003", "street": "106 West Manchester Avenue", "formatted": "106 West Manchester Avenue Los Angeles, CA 90003"}, "geo": {"lat": 33.959877, "lon": -118.274475}, "menus": [], "last_updated": "2020-12-29T06:49:38.815Z"}, {"restaurant_name": "Roscoe's House of Chicken & Waffles", "restaurant_phone": "(323) 752-6211", "restaurant_website": "", "hours": "Sun-Thu: 8am-10pm Fri-Sat: 8am-12am", "price_range": "$$", "price_range_num": 2, "restaurant_id": 33959876118274476, "cuisines": ["Chicken", "Soul Food"], "address": {"city": "Los Angeles", "state": "CA", "postal_code": "90003", "street": "106 W Manchester Ave Ste B", "formatted": "106 W Manchester Ave Ste B Los Angeles, CA 90003"}, "geo": {"lat": 33.959876, "lon": -118.274476}, "menus": [], "last_updated": "2020-12-29T06:50:00.021Z"}, {"restaurant_name": "McDonald's", "restaurant_phone": "", "restaurant_website": "http://www.mcdonalds.com", "hours": "", "price_range": "", "price_range_num": 0, "restaurant_id": 33945190118265500, "cuisines": ["American", "Burgers"], "address": {"city": "LOS ANGELES", "state": "CA", "postal_code": "90003", "street": "10011 Avalon Blvd", "formatted": "10011 Avalon Blvd LOS ANGELES, CA 90003"}, "geo": {"lat": 33.94519, "lon": -118.2655}, "menus": [], "last_updated": "2020-12-29T06:51:31.930Z"}, {"restaurant_name": "Taco Bell", "restaurant_phone": "(323) 756-8546", "restaurant_website": "http://www.tacobell.com", "hours": "", "price_range": "", "price_range_num": 0, "restaurant_id": 33945869118265516, "cuisines": ["Mexican"], "address": {"city": "LOS ANGELES", "state": "CA", "postal_code": "90003", "street": "9919 Avalon Blvd", "formatted": "9919 Avalon Blvd LOS ANGELES, CA 90003"}, "geo": {"lat": 33.945869, "lon": -118.265515}, "menus": [], "last_updated": "2020-12-29T06:51:32.394Z"}, {"restaurant_name": "Jack in the Box", "restaurant_phone": "(323) 751-5083", "restaurant_website": "", "hours": "", "price_range": "", "price_range_num": 0, "restaurant_id": 33974903118278040, "cuisines": ["American", "Burgers"], "address": {"city": "Los Angeles", "state": "CA", "postal_code": "90003", "street": "7120 S Broadway", "formatted": "7120 S Broadway Los Angeles, CA 90003"}, "geo": {"lat": 33.974903, "lon": -118.278038}, "menus": [], "last_updated": "2020-12-29T06:51:33.387Z"}, {"restaurant_name": "Popeyes", "restaurant_phone": "(323) 751-9801", "restaurant_website": "http://www.popeyes.com", "hours": "", "price_range": "", "price_range_num": 0, "restaurant_id": 33960388118282380, "cuisines": ["American", "Wings"], "address": {"city": "Los Angeles", "state": "CA", "postal_code": "90003", "street": "8530 S Figueroa St", "formatted": "8530 S Figueroa St Los Angeles, CA 90003"}, "geo": {"lat": 33.960388, "lon": -118.282379}, "menus": [], "last_updated": "2020-12-29T06:51:33.594Z"}, {"restaurant_name": "Burger King", "restaurant_phone": "(213) 758-6336", "restaurant_website": "", "hours": "", "price_range": "", "price_range_num": 0, "restaurant_id": 33974255118282930, "cuisines": ["American", "Burgers"], "address": {"city": "Los Angeles", "state": "CA", "postal_code": "90003", "street": "7201 S Figueroa St", "formatted": "7201 S Figueroa St Los Angeles, CA 90003"}, "geo": {"lat": 33.974255, "lon": -118.282928}, "menus": [], "last_updated": "2020-12-29T06:51:34.128Z"}, {"restaurant_name": "Burger King", "restaurant_phone": "(323) 779-3684", "restaurant_website": "", "hours": "", "price_range": "", "price_range_num": 0, "restaurant_id": 33945309118278816, "cuisines": ["American", "Burgers"], "address": {"city": "Los Angeles", "state": "CA", "postal_code": "90003", "street": "304 W Century Blvd", "formatted": "304 W Century Blvd Los Angeles, CA 90003"}, "geo": {"lat": 33.945309, "lon": -118.278816}, "menus": [], "last_updated": "2020-12-29T06:51:34.214Z"}, {"restaurant_name": "El Pollo Loco", "restaurant_phone": "(562) 437-5689", "restaurant_website": "http://www.elpolloloco.com", "hours": "", "price_range": "", "price_range_num": 0, "restaurant_id": 33960348118273430, "cuisines": ["Chicken", "Mexican"], "address": {"city": "LOS ANGELES", "state": "CA", "postal_code": "90003", "street": "101 E Manchester Ave", "formatted": "101 E Manchester Ave LOS ANGELES, CA 90003"}, "geo": {"lat": 33.960348, "lon": -118.27343}, "menus": [], "last_updated": "2020-12-29T06:51:34.793Z"}, {"restaurant_name": "Winchell's Doughnut House", "restaurant_phone": "(323) 753-9850", "restaurant_website": "", "hours": "", "price_range": "", "price_range_num": 0, "restaurant_id": 33974908118274344, "cuisines": ["American", "Bakery & Pastries", "Smoothies & Juices"], "address": {"city": "LOS ANGELES", "state": "CA", "postal_code": "90003", "street": "101 W Florence Ave", "formatted": "101 W Florence Ave LOS ANGELES, CA 90003"}, "geo": {"lat": 33.974908, "lon": -118.274344}, "menus": [], "last_updated": "2020-12-29T06:50:38.799Z"}, {"restaurant_name": "The Burger Palace", "restaurant_phone": "(323) 750-4507", "restaurant_website": "http:///ca/los-angeles/705413-the-burger-palace/", "hours": "", "price_range": "", "price_range_num": 0, "restaurant_id": 33959881118273652, "cuisines": [""], "address": {"city": "Los Angeles", "state": "CA", "postal_code": "90003", "street": "100 East Manchester Avenue", "formatted": "100 East Manchester Avenue Los Angeles, CA 90003"}, "geo": {"lat": 33.959881, "lon": -118.273651}, "menus": [], "last_updated": "2020-12-29T06:46:32.326Z"}, {"restaurant_name": "El Tacorin", "restaurant_phone": "(323) 778-2818", "restaurant_website": "http:///ca/los-angeles/705112-el-tacorin/", "hours": "", "price_range": "", "price_range_num": 0, "restaurant_id": 33964573118278548, "cuisines": [""], "address": {"city": "Los Angeles", "state": "CA", "postal_code": "90003", "street": "8215 South Broadway", "formatted": "8215 South Broadway Los Angeles, CA 90003"}, "geo": {"lat": 33.964573, "lon": -118.278549}, "menus": [], "last_updated": "2020-12-29T06:46:32.348Z"}, {"restaurant_name": "House Of Boba", "restaurant_phone": "(323) 238-0257", "restaurant_website": "http:///ca/los-angeles/704946-house-of-boba/", "hours": "", "price_range": "", "price_range_num": 0, "restaurant_id": 33986427118273444, "cuisines": [""], "address": {"city": "Los Angeles", "state": "CA", "postal_code": "90003", "street": "5930 South Main Street", "formatted": "5930 South Main Street Los Angeles, CA 90003"}, "geo": {"lat": 33.986427, "lon": -118.273445}, "menus": [], "last_updated": "2020-12-29T06:46:32.365Z"}, {"restaurant_name": "Bienvenidos A Restaurant Panaderia", "restaurant_phone": "(323) 778-0721", "restaurant_website": "http:///ca/los-angeles/704722-bienvenidos-a-restaurant-panaderia/", "hours": "", "price_range": "", "price_range_num": 0, "restaurant_id": 33975029118282220, "cuisines": [""], "address": {"city": "Los Angeles", "state": "CA", "postal_code": "90003", "street": "455 West Florence Avenue", "formatted": "455 West Florence Avenue Los Angeles, CA 90003"}, "geo": {"lat": 33.975029, "lon": -118.282219}, "menus": [], "last_updated": "2020-12-29T06:46:32.493Z"}, {"restaurant_name": "Becks Burgers and BBQ", "restaurant_phone": "(877) 585-1085", "restaurant_website": "http:///ca/los-angeles/704880-becks-burgers-and-bbq/", "hours": "", "price_range": "", "price_range_num": 0, "restaurant_id": 33941147118265404, "cuisines": [""], "address": {"city": "Los Angeles", "state": "CA", "postal_code": "90003", "street": "10425 South Avalon Boulevard", "formatted": "10425 South Avalon Boulevard Los Angeles, CA 90003"}, "geo": {"lat": 33.941147, "lon": -118.265404}, "menus": [], "last_updated": "2020-12-29T06:46:32.499Z"}, {"restaurant_name": "Cafe Avalon", "restaurant_phone": "(323) 231-7569", "restaurant_website": "http:///ca/los-angeles/704831-cafe-avalon/", "hours": "", "price_range": "", "price_range_num": 0, "restaurant_id": 33986366118265370, "cuisines": [""], "address": {"city": "Los Angeles", "state": "CA", "postal_code": "90003", "street": "5943 South Avalon Boulevard", "formatted": "5943 South Avalon Boulevard Los Angeles, CA 90003"}, "geo": {"lat": 33.986366, "lon": -118.265366}, "menus": [], "last_updated": "2020-12-29T06:46:32.506Z"}, {"restaurant_name": "Kim's Fish World", "restaurant_phone": "(877) 585-1085", "restaurant_website": "http:///ca/los-angeles/704750-kims-fish-world/", "hours": "", "price_range": "", "price_range_num": 0, "restaurant_id": 33945248118264772, "cuisines": [""], "address": {"city": "Los Angeles", "state": "CA", "postal_code": "90003", "street": "10000-10004 South Avalon Boulevard", "formatted": "10000-10004 South Avalon Boulevard Los Angeles, CA 90003"}, "geo": {"lat": 33.945248, "lon": -118.264771}, "menus": [], "last_updated": "2020-12-29T06:46:32.546Z"}, {"restaurant_name": "Monster Burger", "restaurant_phone": "(323) 920-4611", "restaurant_website": "http:///ca/los-angeles/704796-monster-burger/", "hours": "", "price_range": "", "price_range_num": 0, "restaurant_id": 33965717118265336, "cuisines": [""], "address": {"city": "Los Angeles", "state": "CA", "postal_code": "90003", "street": "8025 S Avalon Blvd", "formatted": "8025 S Avalon Blvd Los Angeles, CA 90003"}, "geo": {"lat": 33.965717, "lon": -118.265335}, "menus": [], "last_updated": "2020-12-29T06:46:32.648Z"}, {"restaurant_name": "Manuel's Burgers", "restaurant_phone": "(323) 789-6693", "restaurant_website": "http:///ca/los-angeles/631133-manuels-burgers/", "hours": "", "price_range": "", "price_range_num": 0, "restaurant_id": 33959866118270180, "cuisines": [""], "address": {"city": "Los Angeles", "state": "CA", "postal_code": "90003", "street": "254 E Manchester Ave", "formatted": "254 E Manchester Ave Los Angeles, CA 90003"}, "geo": {"lat": 33.959866, "lon": -118.27018}, "menus": [], "last_updated": "2020-12-29T06:46:34.502Z"}, {"restaurant_name": "Tacos Los Machetes", "restaurant_phone": "(323) 971-6537", "restaurant_website": "http:///ca/los-angeles/636941-tacos-los-machetes/", "hours": "", "price_range": "", "price_range_num": 0, "restaurant_id": 33959876118275668, "cuisines": [""], "address": {"city": "Los Angeles", "state": "CA", "postal_code": "90003", "street": "152 W Manchester Ave", "formatted": "152 W Manchester Ave Los Angeles, CA 90003"}, "geo": {"lat": 33.959876, "lon": -118.275667}, "menus": [], "last_updated": "2020-12-29T06:46:33.982Z"}, {"restaurant_name": "Cano's Mexican Restaurant", "restaurant_phone": "(323) 320-2472", "restaurant_website": "http:///ca/los-angeles/708974-canos-mexican-restaurant/", "hours": "", "price_range": "", "price_range_num": 0, "restaurant_id": 33959938118277900, "cuisines": [""], "address": {"city": "Los Angeles", "state": "CA", "postal_code": "90003", "street": "258 West Manchester Avenue", "formatted": "258 West Manchester Avenue Los Angeles, CA 90003"}, "geo": {"lat": 33.959938, "lon": -118.277901}, "menus": [], "last_updated": "2020-12-29T06:46:30.557Z"}], "numResults": 25}