{"totalResults": 53, "page": 1, "total_pages": 3, "more_pages": true, "data": [{"restaurant_name": "Stone's Grocery & Market", "restaurant_phone": "(323) 751-5526", "restaurant_website": "http:///ca/los-angeles/722812-stones-grocery-market/", "hours": "", "price_range": "", "price_range_num": 0, "restaurant_id": 33977943118330620, "cuisines": [""], "address": {"city": "Los Angeles", "state": "CA", "postal_code": "90043", "street": "6700 Crenshaw Boulevard", "formatted": "6700 Crenshaw Boulevard Los Angeles, CA 90043"}, "geo": {"lat": 33.977943, "lon": -118.33062}, "menus": [], "last_updated": "2020-12-29T06:46:07.379Z"}, {"restaurant_name": "Plaza Fish Market", "restaurant_phone": "(323) 295-9368", "restaurant_website": "http:///ca/los-angeles/722619-plaza-fish-market/", "hours": "", "price_range": "", "price_range_num": 0, "restaurant_id": 33988586118330010, "cuisines": [""], "address": {"city": "Los Angeles", "state": "CA", "postal_code": "90043", "street": "3282 West Slauson Avenue", "formatted": "3282 West Slauson Avenue Los Angeles, CA 90043"}, "geo": {"lat": 33.988586, "lon": -118.33001}, "menus": [], "last_updated": "2020-12-29T06:46:08.091Z"}, {"restaurant_name": "Louisiana Fried Chicken", "restaurant_phone": "(323) 294-5468", "restaurant_website": "http:///ca/los-angeles/719662-louisiana-fried-chicken/", "hours": "", "price_range": "", "price_range_num": 0, "restaurant_id": 33989208118331300, "cuisines": [""], "address": {"city": "Los Angeles", "state": "CA", "postal_code": "90043", "street": "3403 West Slauson Avenue", "formatted": "3403 West Slauson Avenue Los Angeles, CA 90043"}, "geo": {"lat": 33.989208, "lon": -118.331299}, "menus": [], "last_updated": "2020-12-29T06:46:09.284Z"}, {"restaurant_name": "Papa John's Pizza", "restaurant_phone": "(323) 752-7272", "restaurant_website": "http:///ca/los-angeles/566518-papa-johns-pizza/", "hours": "", "price_range": "", "price_range_num": 0, "restaurant_id": 33979992118330350, "cuisines": [""], "address": {"city": "Los Angeles", "state": "CA", "postal_code": "90043", "street": "6520 Crenshaw Blvd", "formatted": "6520 Crenshaw Blvd Los Angeles, CA 90043"}, "geo": {"lat": 33.979992, "lon": -118.330353}, "menus": [], "last_updated": "2020-12-28T19:25:11.205Z"}, {"restaurant_name": "Church's Chicken", "restaurant_phone": "(323) 294-5443", "restaurant_website": "http:///ca/los-angeles/573906-churchs-chicken/", "hours": "", "price_range": "", "price_range_num": 0, "restaurant_id": 34000298118330240, "cuisines": [""], "address": {"city": "Los Angeles", "state": "CA", "postal_code": "90043", "street": "4720 Crenshaw Blvd", "formatted": "4720 Crenshaw Blvd Los Angeles, CA 90043"}, "geo": {"lat": 34.000298, "lon": -118.330238}, "menus": [], "last_updated": "2020-12-28T19:25:12.286Z"}, {"restaurant_name": "Hilltop Coffee + Kitchen", "restaurant_phone": "(323) 815-9833", "restaurant_website": "http:///ca/los-angeles/578972-hilltop-coffee-kitchen/", "hours": "", "price_range": "", "price_range_num": 0, "restaurant_id": 33988907118352800, "cuisines": [""], "address": {"city": "Los Angeles", "state": "CA", "postal_code": "90043", "street": "4427 W Slauson Ave", "formatted": "4427 W Slauson Ave Los Angeles, CA 90043"}, "geo": {"lat": 33.988907, "lon": -118.352799}, "menus": [], "last_updated": "2020-12-28T19:25:13.125Z"}, {"restaurant_name": "Pizza 8", "restaurant_phone": "(323) 292-8888", "restaurant_website": "", "hours": "Sun-Thu: 11am-10pm Fri-Sat: 11am-11pm", "price_range": "$$$", "price_range_num": 3, "restaurant_id": 33988853118330010, "cuisines": ["Pizza"], "address": {"city": "Los Angeles", "state": "CA", "postal_code": "90043", "street": "3272 W Slauson Ave", "formatted": "3272 W Slauson Ave Los Angeles, CA 90043"}, "geo": {"lat": 33.988853, "lon": -118.330009}, "menus": [], "last_updated": "2020-12-29T06:50:32.032Z"}, {"restaurant_name": "La Louisanne", "restaurant_phone": "(323) 293-5073", "restaurant_website": "", "hours": "Daily: 11am-10pm", "price_range": "$$", "price_range_num": 2, "restaurant_id": 33988251118353824, "cuisines": ["Soul Food"], "address": {"city": "Los Angeles", "state": "CA", "postal_code": "90043", "street": "5812 Overhill Dr", "formatted": "5812 Overhill Dr Los Angeles, CA 90043"}, "geo": {"lat": 33.988251, "lon": -118.353823}, "menus": [], "last_updated": "2020-12-29T06:50:01.033Z"}, {"restaurant_name": "McDonald's", "restaurant_phone": "", "restaurant_website": "http://www.mcdonalds.com", "hours": "", "price_range": "", "price_range_num": 0, "restaurant_id": 33975042118330890, "cuisines": ["American", "Burgers"], "address": {"city": "LOS ANGELES", "state": "CA", "postal_code": "90043", "street": "7123 Crenshaw Blvd", "formatted": "7123 Crenshaw Blvd LOS ANGELES, CA 90043"}, "geo": {"lat": 33.975042, "lon": -118.330889}, "menus": [], "last_updated": "2020-12-29T06:51:31.270Z"}, {"restaurant_name": "Taco Bell", "restaurant_phone": "(323) 758-5900", "restaurant_website": "http://www.tacobell.com", "hours": "", "price_range": "", "price_range_num": 0, "restaurant_id": 33985209118330530, "cuisines": ["Mexican"], "address": {"city": "LOS ANGELES", "state": "CA", "postal_code": "90043", "street": "6000 Crenshaw Blvd", "formatted": "6000 Crenshaw Blvd LOS ANGELES, CA 90043"}, "geo": {"lat": 33.985209, "lon": -118.330527}, "menus": [], "last_updated": "2020-12-29T06:51:32.037Z"}, {"restaurant_name": "KFC - Kentucky Fried Chicken", "restaurant_phone": "(323) 296-4200", "restaurant_website": "http://www.kfc.com", "hours": "", "price_range": "", "price_range_num": 0, "restaurant_id": 33988459118331264, "cuisines": ["American", "Chicken"], "address": {"city": "LOS ANGELES", "state": "CA", "postal_code": "90043", "street": "5817 Crenshaw Blvd", "formatted": "5817 Crenshaw Blvd LOS ANGELES, CA 90043"}, "geo": {"lat": 33.988459, "lon": -118.331262}, "menus": [], "last_updated": "2020-12-29T06:51:32.591Z"}, {"restaurant_name": "Jack in the Box", "restaurant_phone": "(323) 298-0653", "restaurant_website": "", "hours": "", "price_range": "", "price_range_num": 0, "restaurant_id": 33988862118318256, "cuisines": ["American", "Burgers"], "address": {"city": "Los Angeles", "state": "CA", "postal_code": "90043", "street": "2220 W Slauson Ave", "formatted": "2220 W Slauson Ave Los Angeles, CA 90043"}, "geo": {"lat": 33.988862, "lon": -118.318255}, "menus": [], "last_updated": "2020-12-29T06:51:33.175Z"}, {"restaurant_name": "Popeyes", "restaurant_phone": "(323) 294-8116", "restaurant_website": "http://www.popeyes.com", "hours": "", "price_range": "", "price_range_num": 0, "restaurant_id": 33988800118329324, "cuisines": ["American", "Wings"], "address": {"city": "Los Angeles", "state": "CA", "postal_code": "90043", "street": "3268 W Slauson Ave", "formatted": "3268 W Slauson Ave Los Angeles, CA 90043"}, "geo": {"lat": 33.9888, "lon": -118.329323}, "menus": [], "last_updated": "2020-12-29T06:51:33.759Z"}, {"restaurant_name": "Burger King", "restaurant_phone": "(323) 294-5404", "restaurant_website": "", "hours": "", "price_range": "", "price_range_num": 0, "restaurant_id": 33988388118330420, "cuisines": ["American", "Burgers"], "address": {"city": "Los Angeles", "state": "CA", "postal_code": "90043", "street": "5850 Crenshaw Blvd", "formatted": "5850 Crenshaw Blvd Los Angeles, CA 90043"}, "geo": {"lat": 33.988388, "lon": -118.330421}, "menus": [], "last_updated": "2020-12-29T06:51:34.076Z"}, {"restaurant_name": "Quiznos Sub", "restaurant_phone": "(323) 298-5023", "restaurant_website": "http://www.quiznos.com/", "hours": "", "price_range": "", "price_range_num": 0, "restaurant_id": 33988573118330690, "cuisines": ["American", "Sandwiches", "Wraps"], "address": {"city": "LOS ANGELES", "state": "CA", "postal_code": "90043", "street": "5808 Crenshaw Blvd", "formatted": "5808 Crenshaw Blvd LOS ANGELES, CA 90043"}, "geo": {"lat": 33.988573, "lon": -118.33069}, "menus": [], "last_updated": "2020-12-29T06:51:35.631Z"}, {"restaurant_name": "Woody's Bar-B-Que", "restaurant_phone": "(323) 294-9443", "restaurant_website": "", "hours": "Mon-Thu: 11am-10pm Fri-Sat: 11am-12pm Sun: 12pm-10pm", "price_range": "$", "price_range_num": 1, "restaurant_id": 33988857118332010, "cuisines": ["Barbecue", "Soul Food"], "address": {"city": "Los Angeles", "state": "CA", "postal_code": "90043", "street": "3446 W Slauson Ave", "formatted": "3446 W Slauson Ave Los Angeles, CA 90043"}, "geo": {"lat": 33.988857, "lon": -118.332008}, "menus": [], "last_updated": "2020-12-29T06:50:36.701Z"}, {"restaurant_name": "Winchell's Doughnut House", "restaurant_phone": "(323) 751-7462", "restaurant_website": "", "hours": "", "price_range": "", "price_range_num": 0, "restaurant_id": 33974851118326228, "cuisines": ["American", "Bakery & Pastries", "Smoothies & Juices"], "address": {"city": "LOS ANGELES", "state": "CA", "postal_code": "90043", "street": "3023 W Florence Ave", "formatted": "3023 W Florence Ave LOS ANGELES, CA 90043"}, "geo": {"lat": 33.974851, "lon": -118.326229}, "menus": [], "last_updated": "2020-12-29T06:50:38.937Z"}, {"restaurant_name": "Grilled Fraiche", "restaurant_phone": "(323) 389-8888", "restaurant_website": "http:///ca/los-angeles/625481-grilled-fraiche/", "hours": "", "price_range": "", "price_range_num": 0, "restaurant_id": 33988731118334900, "cuisines": [""], "address": {"city": "Los Angeles", "state": "CA", "postal_code": "90043", "street": "5800 West Blvd", "formatted": "5800 West Blvd Los Angeles, CA 90043"}, "geo": {"lat": 33.988731, "lon": -118.3349}, "menus": [], "last_updated": "2020-12-29T06:46:53.656Z"}, {"restaurant_name": "The Buffalo Spot", "restaurant_phone": "(323) 299-9885", "restaurant_website": "http:///ca/los-angeles/719549-the-buffalo-spot/", "hours": "", "price_range": "", "price_range_num": 0, "restaurant_id": 33988468118330010, "cuisines": [""], "address": {"city": "Los Angeles", "state": "CA", "postal_code": "90043", "street": "3286 West Slauson Avenue", "formatted": "3286 West Slauson Avenue Los Angeles, CA 90043"}, "geo": {"lat": 33.988468, "lon": -118.33001}, "menus": [], "last_updated": "2020-12-29T06:46:09.829Z"}, {"restaurant_name": "Tumby's Pizza", "restaurant_phone": "(323) 750-1930", "restaurant_website": "http:///ca/los-angeles/719541-tumbys-pizza/", "hours": "", "price_range": "", "price_range_num": 0, "restaurant_id": 33980965118330650, "cuisines": [""], "address": {"city": "Los Angeles", "state": "CA", "postal_code": "90043", "street": "3329 Hyde Park Boulevard", "formatted": "3329 Hyde Park Boulevard Los Angeles, CA 90043"}, "geo": {"lat": 33.980965, "lon": -118.33065}, "menus": [], "last_updated": "2020-12-29T06:46:09.848Z"}, {"restaurant_name": "Fish Town", "restaurant_phone": "(877) 585-1085", "restaurant_website": "http:///ca/los-angeles/719067-fish-town/", "hours": "", "price_range": "", "price_range_num": 0, "restaurant_id": 33993565118318412, "cuisines": [""], "address": {"city": "Los Angeles", "state": "CA", "postal_code": "90043", "street": "5351 Arlington Avenue", "formatted": "5351 Arlington Avenue Los Angeles, CA 90043"}, "geo": {"lat": 33.993565, "lon": -118.318413}, "menus": [], "last_updated": "2020-12-29T06:46:11.755Z"}, {"restaurant_name": "The Flavor Table", "restaurant_phone": "(323) 751-6000", "restaurant_website": "http:///ca/los-angeles/716051-the-flavor-table/", "hours": "", "price_range": "", "price_range_num": 0, "restaurant_id": 33974361118324120, "cuisines": [""], "address": {"city": "Los Angeles", "state": "CA", "postal_code": "90043", "street": "2812 West Florence Avenue", "formatted": "2812 West Florence Avenue Los Angeles, CA 90043"}, "geo": {"lat": 33.974361, "lon": -118.32412}, "menus": [], "last_updated": "2020-12-29T06:46:29.444Z"}, {"restaurant_name": "Hungry Harold's", "restaurant_phone": "(323) 299-1817", "restaurant_website": "http:///ca/los-angeles/624978-hungry-harolds/", "hours": "", "price_range": "", "price_range_num": 0, "restaurant_id": 33989147118332720, "cuisines": [""], "address": {"city": "Los Angeles", "state": "CA", "postal_code": "90043", "street": "3453 W Slauson Ave", "formatted": "3453 W Slauson Ave Los Angeles, CA 90043"}, "geo": {"lat": 33.989147, "lon": -118.332718}, "menus": [], "last_updated": "2020-12-29T06:46:53.683Z"}, {"restaurant_name": "New Orleans Snoballs", "restaurant_phone": "(323) 292-3145", "restaurant_website": "http:///ca/view-park-windsor-hills/806118-new-orleans-snoballs/", "hours": "", "price_range": "", "price_range_num": 0, "restaurant_id": 33988670118353844, "cuisines": [""], "address": {"city": "View Park-Windsor Hills", "state": "CA", "postal_code": "90043", "street": "4452 West Slauson Avenue", "formatted": "4452 West Slauson Avenue View Park-Windsor Hills, CA 90043"}, "geo": {"lat": 33.98867, "lon": -118.353844}, "menus": [], "last_updated": "2021-01-05T07:27:03.197Z"}, {"restaurant_name": "Crustees", "restaurant_phone": "(323) 815-9910", "restaurant_website": "http:///ca/view-park-windsor-hills/627773-crustees/", "hours": "", "price_range": "", "price_range_num": 0, "restaurant_id": 33988636118353304, "cuisines": [""], "address": {"city": "View Park-Windsor Hills", "state": "CA", "postal_code": "90043", "street": "4442 W Slauson Ave", "formatted": "4442 W Slauson Ave View Park-Windsor Hills, CA 90043"}, "geo": {"lat": 33.988636, "lon": -118.353302}, "menus": [], "last_updated": "2021-01-05T07:27:03.331Z"}], "numResults": 25}