{"totalResults": 83, "page": 1, "total_pages": 4, "more_pages": true, "data": [{"restaurant_name": "China Chef's Express", "restaurant_phone": "(213) 765-0188", "restaurant_website": "http:///ca/los-angeles/722824-china-chefs-express/", "hours": "", "price_range": "", "price_range_num": 0, "restaurant_id": 34023003118251572, "cuisines": [""], "address": {"city": "Los Angeles", "state": "CA", "postal_code": "90011", "street": "2040 South Central Avenue", "formatted": "2040 South Central Avenue Los Angeles, CA 90011"}, "geo": {"lat": 34.023003, "lon": -118.251572}, "menus": [], "last_updated": "2020-12-29T06:46:07.211Z"}, {"restaurant_name": "Tire Shop Taqueria", "restaurant_phone": "(323) 235-2812", "restaurant_website": "http:///ca/los-angeles/722786-tire-shop-taqueria/", "hours": "", "price_range": "", "price_range_num": 0, "restaurant_id": 34009613118265440, "cuisines": [""], "address": {"city": "Los Angeles", "state": "CA", "postal_code": "90011", "street": "4069 South Avalon Boulevard", "formatted": "4069 South Avalon Boulevard Los Angeles, CA 90011"}, "geo": {"lat": 34.009613, "lon": -118.265442}, "menus": [], "last_updated": "2020-12-29T06:46:07.356Z"}, {"restaurant_name": "Torta Movil", "restaurant_phone": "(323) 573-3968", "restaurant_website": "http:///ca/los-angeles/722772-torta-movil/", "hours": "", "price_range": "", "price_range_num": 0, "restaurant_id": 34020737118262452, "cuisines": [""], "address": {"city": "Los Angeles", "state": "CA", "postal_code": "90011", "street": "646 East 27th Street", "formatted": "646 East 27th Street Los Angeles, CA 90011"}, "geo": {"lat": 34.020737, "lon": -118.262451}, "menus": [], "last_updated": "2020-12-29T06:46:07.427Z"}, {"restaurant_name": "Mariscos Guadalajara", "restaurant_phone": "(213) 393-4858", "restaurant_website": "http:///ca/los-angeles/722666-mariscos-guadalajara/", "hours": "", "price_range": "", "price_range_num": 0, "restaurant_id": 34015854118265144, "cuisines": [""], "address": {"city": "Los Angeles", "state": "CA", "postal_code": "90011", "street": "3301 San Pedro Street", "formatted": "3301 San Pedro Street Los Angeles, CA 90011"}, "geo": {"lat": 34.015854, "lon": -118.265144}, "menus": [], "last_updated": "2020-12-29T06:46:07.844Z"}, {"restaurant_name": "Mariscos Estilo Sinaloa", "restaurant_phone": "(626) 615-1885", "restaurant_website": "http:///ca/los-angeles/722601-mariscos-estilo-sinaloa/", "hours": "", "price_range": "", "price_range_num": 0, "restaurant_id": 34025612118259004, "cuisines": [""], "address": {"city": "Los Angeles", "state": "CA", "postal_code": "90011", "street": "2113 San Pedro Street", "formatted": "2113 San Pedro Street Los Angeles, CA 90011"}, "geo": {"lat": 34.025612, "lon": -118.259003}, "menus": [], "last_updated": "2020-12-29T06:46:08.143Z"}, {"restaurant_name": "El Grullense", "restaurant_phone": "(323) 742-9964", "restaurant_website": "http:///ca/los-angeles/722574-el-grullense/", "hours": "", "price_range": "", "price_range_num": 0, "restaurant_id": 34026074118258680, "cuisines": [""], "address": {"city": "Los Angeles", "state": "CA", "postal_code": "90011", "street": "1965 San Pedro Street", "formatted": "1965 San Pedro Street Los Angeles, CA 90011"}, "geo": {"lat": 34.026074, "lon": -118.258682}, "menus": [], "last_updated": "2020-12-29T06:46:08.206Z"}, {"restaurant_name": "Dctacos", "restaurant_phone": "(323) 688-8601", "restaurant_website": "http:///ca/los-angeles/722519-dctacos/", "hours": "", "price_range": "", "price_range_num": 0, "restaurant_id": 34010365118256870, "cuisines": [""], "address": {"city": "Los Angeles", "state": "CA", "postal_code": "90011", "street": "4019 South Central Avenue", "formatted": "4019 South Central Avenue Los Angeles, CA 90011"}, "geo": {"lat": 34.010365, "lon": -118.256874}, "menus": [], "last_updated": "2020-12-29T06:46:08.404Z"}, {"restaurant_name": "Tacos El Potrero", "restaurant_phone": "(323) 234-5230", "restaurant_website": "http:///ca/los-angeles/722493-tacos-el-potrero/", "hours": "", "price_range": "", "price_range_num": 0, "restaurant_id": 34003716118268860, "cuisines": [""], "address": {"city": "Los Angeles", "state": "CA", "postal_code": "90011", "street": "418 East Vernon Avenue", "formatted": "418 East Vernon Avenue Los Angeles, CA 90011"}, "geo": {"lat": 34.003716, "lon": -118.26886}, "menus": [], "last_updated": "2020-12-29T06:46:08.467Z"}, {"restaurant_name": "Served 2 Enjoy", "restaurant_phone": "(323) 432-2837", "restaurant_website": "http:///ca/los-angeles/722456-served-2-enjoy/", "hours": "", "price_range": "", "price_range_num": 0, "restaurant_id": 34000801118265024, "cuisines": [""], "address": {"city": "Los Angeles", "state": "CA", "postal_code": "90011", "street": "4624 South Avalon Boulevard", "formatted": "4624 South Avalon Boulevard Los Angeles, CA 90011"}, "geo": {"lat": 34.000801, "lon": -118.265022}, "menus": [], "last_updated": "2020-12-29T06:46:08.639Z"}, {"restaurant_name": "Subway", "restaurant_phone": "(323) 232-2211", "restaurant_website": "https://restaurants.subway.com/united-states/ca/los-angeles/3300-south-central-avenue?utm_source=yext-other&utm_medium=local&utm_term=acq&utm_content=46186&utm_campaign=evergreen-2020&y_source=1_MTQ5M", "hours": "", "price_range": "", "price_range_num": 0, "restaurant_id": 34013500118256300, "cuisines": [""], "address": {"city": "Los Angeles", "state": "CA", "postal_code": "90011", "street": "3300 South Central Avenue", "formatted": "3300 South Central Avenue Los Angeles, CA 90011"}, "geo": {"lat": 34.0135, "lon": -118.2563}, "menus": [], "last_updated": "2020-12-28T19:25:14.041Z"}, {"restaurant_name": "Baby J's Burgers", "restaurant_phone": "(213) 536-5080", "restaurant_website": "http:///ca/los-angeles/587322-baby-js-burgers/", "hours": "", "price_range": "", "price_range_num": 0, "restaurant_id": 34019733118254910, "cuisines": [""], "address": {"city": "Los Angeles", "state": "CA", "postal_code": "90011", "street": "1030 E 25th St", "formatted": "1030 E 25th St Los Angeles, CA 90011"}, "geo": {"lat": 34.019733, "lon": -118.254913}, "menus": [], "last_updated": "2020-12-28T19:25:14.162Z"}, {"restaurant_name": "Church's Chicken", "restaurant_phone": "(323) 846-8738", "restaurant_website": "http:///ca/los-angeles/573855-churchs-chicken/", "hours": "", "price_range": "", "price_range_num": 0, "restaurant_id": 34004135118269950, "cuisines": [""], "address": {"city": "Los Angeles", "state": "CA", "postal_code": "90011", "street": "261 E Vernon Ave", "formatted": "261 E Vernon Ave Los Angeles, CA 90011"}, "geo": {"lat": 34.004135, "lon": -118.269951}, "menus": [], "last_updated": "2020-12-28T19:25:12.245Z"}, {"restaurant_name": "Church's Chicken", "restaurant_phone": "(323) 235-9200", "restaurant_website": "http:///ca/los-angeles/573905-churchs-chicken/", "hours": "", "price_range": "", "price_range_num": 0, "restaurant_id": 34018349118254692, "cuisines": [""], "address": {"city": "Los Angeles", "state": "CA", "postal_code": "90011", "street": "2604 S Central Ave", "formatted": "2604 S Central Ave Los Angeles, CA 90011"}, "geo": {"lat": 34.018349, "lon": -118.254692}, "menus": [], "last_updated": "2020-12-28T19:25:12.271Z"}, {"restaurant_name": "Subway", "restaurant_phone": "(323) 521-1957", "restaurant_website": "https://restaurants.subway.com/united-states/ca/los-angeles/5701-south-central-avenue?utm_source=yext-other&utm_medium=local&utm_term=acq&utm_content=55449&utm_campaign=evergreen-2020&y_source=1_MTQ5M", "hours": "", "price_range": "", "price_range_num": 0, "restaurant_id": 33990600118256900, "cuisines": [""], "address": {"city": "Los Angeles", "state": "CA", "postal_code": "90011", "street": "5701 South Central Avenue", "formatted": "5701 South Central Avenue Los Angeles, CA 90011"}, "geo": {"lat": 33.9906, "lon": -118.2569}, "menus": [], "last_updated": "2020-12-28T19:25:14.060Z"}, {"restaurant_name": "The Original Snack Shack", "restaurant_phone": "(323) 233-3509", "restaurant_website": "", "hours": "Mon-Sat: 10am-7pm Sun: 10am-5pm", "price_range": "$$", "price_range_num": 2, "restaurant_id": 33991413118256096, "cuisines": ["Burgers", "Hot Dogs"], "address": {"city": "Los Angeles", "state": "CA", "postal_code": "90011", "street": "5630 S Central Ave", "formatted": "5630 S Central Ave Los Angeles, CA 90011"}, "geo": {"lat": 33.991413, "lon": -118.256098}, "menus": [], "last_updated": "2020-12-29T06:49:38.776Z"}, {"restaurant_name": "King Taco", "restaurant_phone": "(213) 747-9915", "restaurant_website": "", "hours": "", "price_range": "$$$", "price_range_num": 3, "restaurant_id": 34028137118257510, "cuisines": ["Mexican"], "address": {"city": "Los Angeles", "state": "CA", "postal_code": "90011", "street": "645 E Washington Blvd", "formatted": "645 E Washington Blvd Los Angeles, CA 90011"}, "geo": {"lat": 34.028137, "lon": -118.257513}, "menus": [], "last_updated": "2020-12-29T06:49:59.925Z"}, {"restaurant_name": "King Taco", "restaurant_phone": "(213) 747-3176", "restaurant_website": "", "hours": "", "price_range": "$$$", "price_range_num": 3, "restaurant_id": 34027173118257750, "cuisines": ["Mexican"], "address": {"city": "Los Angeles", "state": "CA", "postal_code": "90011", "street": "1951 S San Pedro St", "formatted": "1951 S San Pedro St Los Angeles, CA 90011"}, "geo": {"lat": 34.027173, "lon": -118.257752}, "menus": [], "last_updated": "2020-12-29T06:49:59.948Z"}, {"restaurant_name": "Lady Effie's Tea Parlor", "restaurant_phone": "(213) 749-2204", "restaurant_website": "", "hours": "Tue-Sun: 12pm-4pm", "price_range": "$", "price_range_num": 1, "restaurant_id": 34022970118263620, "cuisines": ["Bakery & Pastries", "Coffee & Tea", "Teahouses"], "address": {"city": "Los Angeles", "state": "CA", "postal_code": "90011", "street": "453 E Adams Blvd", "formatted": "453 E Adams Blvd Los Angeles, CA 90011"}, "geo": {"lat": 34.02297, "lon": -118.263621}, "menus": [], "last_updated": "2020-12-29T06:50:00.384Z"}, {"restaurant_name": "El Taco Mexicano", "restaurant_phone": "(323) 233-1677", "restaurant_website": "", "hours": "Mon-Sat: 10am-7pm", "price_range": "$", "price_range_num": 1, "restaurant_id": 34003700118251770, "cuisines": ["Mexican"], "address": {"city": "Los Angeles", "state": "CA", "postal_code": "90011", "street": "1300 East Vernon Avenue", "formatted": "1300 East Vernon Avenue Los Angeles, CA 90011"}, "geo": {"lat": 34.0037, "lon": -118.25177}, "menus": [], "last_updated": "2020-12-29T06:50:00.560Z"}, {"restaurant_name": "McDonald's", "restaurant_phone": "", "restaurant_website": "http://www.mcdonalds.com", "hours": "", "price_range": "", "price_range_num": 0, "restaurant_id": 34010549118256870, "cuisines": ["American", "Burgers"], "address": {"city": "LOS ANGELES", "state": "CA", "postal_code": "90011", "street": "4011 S Central Ave", "formatted": "4011 S Central Ave LOS ANGELES, CA 90011"}, "geo": {"lat": 34.010549, "lon": -118.25687}, "menus": [], "last_updated": "2020-12-29T06:51:31.541Z"}, {"restaurant_name": "McDonald's", "restaurant_phone": "", "restaurant_website": "http://www.mcdonalds.com", "hours": "", "price_range": "", "price_range_num": 0, "restaurant_id": 33989012118256080, "cuisines": ["American", "Burgers"], "address": {"city": "LOS ANGELES", "state": "CA", "postal_code": "90011", "street": "1118 E Slauson Ave", "formatted": "1118 E Slauson Ave LOS ANGELES, CA 90011"}, "geo": {"lat": 33.989012, "lon": -118.256081}, "menus": [], "last_updated": "2020-12-29T06:51:31.887Z"}, {"restaurant_name": "Taco Bell", "restaurant_phone": "(323) 231-9171", "restaurant_website": "http://www.tacobell.com", "hours": "", "price_range": "", "price_range_num": 0, "restaurant_id": 34006033118256252, "cuisines": ["Mexican"], "address": {"city": "LOS ANGELES", "state": "CA", "postal_code": "90011", "street": "4270 S Central Ave", "formatted": "4270 S Central Ave LOS ANGELES, CA 90011"}, "geo": {"lat": 34.006033, "lon": -118.256251}, "menus": [], "last_updated": "2020-12-29T06:51:32.575Z"}, {"restaurant_name": "Jack in the Box", "restaurant_phone": "(323) 233-4440", "restaurant_website": "", "hours": "", "price_range": "", "price_range_num": 0, "restaurant_id": 34003651118256790, "cuisines": ["American", "Burgers"], "address": {"city": "Los Angeles", "state": "CA", "postal_code": "90011", "street": "4407 S Central Ave", "formatted": "4407 S Central Ave Los Angeles, CA 90011"}, "geo": {"lat": 34.003651, "lon": -118.25679}, "menus": [], "last_updated": "2020-12-29T06:51:33.613Z"}, {"restaurant_name": "Burger King", "restaurant_phone": "(213) 748-2821", "restaurant_website": "", "hours": "", "price_range": "", "price_range_num": 0, "restaurant_id": 34022343118261260, "cuisines": ["American", "Burgers"], "address": {"city": "Los Angeles", "state": "CA", "postal_code": "90011", "street": "2511 S San Pedro St", "formatted": "2511 S San Pedro St Los Angeles, CA 90011"}, "geo": {"lat": 34.022343, "lon": -118.261261}, "menus": [], "last_updated": "2020-12-29T06:51:34.260Z"}, {"restaurant_name": "El Pollo Loco", "restaurant_phone": "(323) 846-8488", "restaurant_website": "http://www.elpolloloco.com", "hours": "", "price_range": "", "price_range_num": 0, "restaurant_id": 34003653118265624, "cuisines": ["Chicken", "Mexican"], "address": {"city": "LOS ANGELES", "state": "CA", "postal_code": "90011", "street": "4405 Avalon Blvd", "formatted": "4405 Avalon Blvd LOS ANGELES, CA 90011"}, "geo": {"lat": 34.003653, "lon": -118.265625}, "menus": [], "last_updated": "2020-12-29T06:51:34.856Z"}], "numResults": 25}