{"totalResults": 61, "page": 1, "total_pages": 3, "more_pages": true, "data": [{"restaurant_name": "La Pizza del Sol", "restaurant_phone": "(323) 224-1100", "restaurant_website": "http:///ca/los-angeles/569746-la-pizza-del-sol/", "hours": "", "price_range": "", "price_range_num": 0, "restaurant_id": 34065605118215704, "cuisines": [""], "address": {"city": "Los Angeles", "state": "CA", "postal_code": "90031", "street": "1883 Daly St", "formatted": "1883 Daly St Los Angeles, CA 90031"}, "geo": {"lat": 34.065605, "lon": -118.215706}, "menus": [], "last_updated": "2020-12-28T19:25:11.500Z"}, {"restaurant_name": "Wendy's Tortas", "restaurant_phone": "(323) 224-1619", "restaurant_website": "", "hours": "Mon-Fri: 8am-7pm Sat: 7am-7pm Sun: 7am-5pm", "price_range": "$", "price_range_num": 1, "restaurant_id": 34066189118215230, "cuisines": ["Mexican"], "address": {"city": "Los Angeles", "state": "CA", "postal_code": "90031", "street": "2603 N Main St", "formatted": "2603 N Main St Los Angeles, CA 90031"}, "geo": {"lat": 34.066189, "lon": -118.215233}, "menus": [], "last_updated": "2020-12-29T06:49:38.653Z"}, {"restaurant_name": "Tom's Jr", "restaurant_phone": "(323) 227-0048", "restaurant_website": "", "hours": "", "price_range": "$", "price_range_num": 1, "restaurant_id": 34065593118215692, "cuisines": ["Diner"], "address": {"city": "Los Angeles", "state": "CA", "postal_code": "90031", "street": "1883 Daly St", "formatted": "1883 Daly St Los Angeles, CA 90031"}, "geo": {"lat": 34.065593, "lon": -118.215692}, "menus": [], "last_updated": "2020-12-29T06:49:38.734Z"}, {"restaurant_name": "McDonald's", "restaurant_phone": "", "restaurant_website": "http://www.mcdonalds.com", "hours": "", "price_range": "", "price_range_num": 0, "restaurant_id": 34073858118208924, "cuisines": ["American", "Burgers"], "address": {"city": "LOS ANGELES", "state": "CA", "postal_code": "90031", "street": "3105 N Broadway", "formatted": "3105 N Broadway LOS ANGELES, CA 90031"}, "geo": {"lat": 34.073858, "lon": -118.208924}, "menus": [], "last_updated": "2020-12-29T06:51:31.437Z"}, {"restaurant_name": "Taco Bell", "restaurant_phone": "(323) 221-0478", "restaurant_website": "http://www.tacobell.com", "hours": "", "price_range": "", "price_range_num": 0, "restaurant_id": 34073870118212880, "cuisines": ["Mexican"], "address": {"city": "LOS ANGELES", "state": "CA", "postal_code": "90031", "street": "2801 N Broadway", "formatted": "2801 N Broadway LOS ANGELES, CA 90031"}, "geo": {"lat": 34.07387, "lon": -118.21288}, "menus": [], "last_updated": "2020-12-29T06:51:32.120Z"}, {"restaurant_name": "Jack in the Box", "restaurant_phone": "(323) 223-6094", "restaurant_website": "", "hours": "", "price_range": "", "price_range_num": 0, "restaurant_id": 34076703118216040, "cuisines": ["American", "Burgers"], "address": {"city": "Los Angeles", "state": "CA", "postal_code": "90031", "street": "2521 Pasadena Ave", "formatted": "2521 Pasadena Ave Los Angeles, CA 90031"}, "geo": {"lat": 34.076703, "lon": -118.216041}, "menus": [], "last_updated": "2020-12-29T06:51:33.150Z"}, {"restaurant_name": "Carl's Jr.", "restaurant_phone": "(323) 441-8878", "restaurant_website": "", "hours": "", "price_range": "", "price_range_num": 0, "restaurant_id": 34074052118207188, "cuisines": ["American", "Burgers"], "address": {"city": "LOS ANGELES", "state": "CA", "postal_code": "90031", "street": "3215 N Broadway", "formatted": "3215 N Broadway LOS ANGELES, CA 90031"}, "geo": {"lat": 34.074052, "lon": -118.207187}, "menus": [], "last_updated": "2020-12-29T06:51:34.518Z"}, {"restaurant_name": "El Pollo Loco", "restaurant_phone": "(323) 227-9991", "restaurant_website": "http://www.elpolloloco.com", "hours": "", "price_range": "", "price_range_num": 0, "restaurant_id": 34073832118217744, "cuisines": ["Chicken", "Mexican"], "address": {"city": "LOS ANGELES", "state": "CA", "postal_code": "90031", "street": "2201 N Broadway", "formatted": "2201 N Broadway LOS ANGELES, CA 90031"}, "geo": {"lat": 34.073832, "lon": -118.217743}, "menus": [], "last_updated": "2020-12-29T06:51:34.704Z"}, {"restaurant_name": "Yoshinoya", "restaurant_phone": "(323) 222-9705", "restaurant_website": "", "hours": "", "price_range": "", "price_range_num": 0, "restaurant_id": 34076144118216040, "cuisines": ["Japanese"], "address": {"city": "Los Angeles", "state": "CA", "postal_code": "90031", "street": "2500 Pasadena Ave", "formatted": "2500 Pasadena Ave Los Angeles, CA 90031"}, "geo": {"lat": 34.076144, "lon": -118.21604}, "menus": [], "last_updated": "2020-12-29T06:50:39.061Z"}, {"restaurant_name": "Dino?s Burgers", "restaurant_phone": "(323) 223-1843", "restaurant_website": "", "hours": "Daily: 5am-12am", "price_range": "$", "price_range_num": 1, "restaurant_id": 34066119118212270, "cuisines": ["American", "Burgers", "Hot Dogs", "Mexican"], "address": {"city": "Los Angeles", "state": "CA", "postal_code": "90031", "street": "2817 N Main St", "formatted": "2817 N Main St Los Angeles, CA 90031"}, "geo": {"lat": 34.066119, "lon": -118.212271}, "menus": [], "last_updated": "2020-12-29T06:50:01.380Z"}, {"restaurant_name": "Carnes Asadas Pancho Lopez", "restaurant_phone": "(877) 585-1085", "restaurant_website": "http:///ca/los-angeles/704592-carnes-asadas-pancho-lopez/", "hours": "", "price_range": "", "price_range_num": 0, "restaurant_id": 34083786118213120, "cuisines": [""], "address": {"city": "Los Angeles", "state": "CA", "postal_code": "90031", "street": "3328 Pasadena Avenue", "formatted": "3328 Pasadena Avenue Los Angeles, CA 90031"}, "geo": {"lat": 34.083786, "lon": -118.21312}, "menus": [], "last_updated": "2020-12-29T06:46:32.550Z"}, {"restaurant_name": "The Heights Fish Taco", "restaurant_phone": "(323) 576-2333", "restaurant_website": "http:///ca/los-angeles/622373-the-heights-smoke-shack/", "hours": "", "price_range": "", "price_range_num": 0, "restaurant_id": 34074005118210630, "cuisines": [""], "address": {"city": "Los Angeles", "state": "CA", "postal_code": "90031", "street": "2929 N Broadway", "formatted": "2929 N Broadway Los Angeles, CA 90031"}, "geo": {"lat": 34.074005, "lon": -118.210632}, "menus": [], "last_updated": "2020-12-29T06:46:54.172Z"}, {"restaurant_name": "Burrito Clasico", "restaurant_phone": "(323) 223-1843", "restaurant_website": "http:///ca/los-angeles/640349-burrito-clasico/", "hours": "", "price_range": "", "price_range_num": 0, "restaurant_id": 34066172118212316, "cuisines": [""], "address": {"city": "Los Angeles", "state": "CA", "postal_code": "90031", "street": "2817 N Main St", "formatted": "2817 N Main St Los Angeles, CA 90031"}, "geo": {"lat": 34.066172, "lon": -118.212315}, "menus": [], "last_updated": "2020-12-29T06:46:33.886Z"}, {"restaurant_name": "Correa's Market & Mariscos", "restaurant_phone": "(626) 232-0280", "restaurant_website": "http:///ca/los-angeles/717956-correas-market-mariscos/", "hours": "", "price_range": "", "price_range_num": 0, "restaurant_id": 34066181118213896, "cuisines": [""], "address": {"city": "Los Angeles", "state": "CA", "postal_code": "90031", "street": "2707 N Main St", "formatted": "2707 N Main St Los Angeles, CA 90031"}, "geo": {"lat": 34.066181, "lon": -118.213898}, "menus": [], "last_updated": "2020-12-29T06:46:27.906Z"}, {"restaurant_name": "El Camaron Pelado", "restaurant_phone": "(323) 505-7544", "restaurant_website": "http:///ca/los-angeles/717876-el-camaron-pelado/", "hours": "", "price_range": "", "price_range_num": 0, "restaurant_id": 34078693118214770, "cuisines": [""], "address": {"city": "Los Angeles", "state": "CA", "postal_code": "90031", "street": "2676 Pasadena Avenue", "formatted": "2676 Pasadena Avenue Los Angeles, CA 90031"}, "geo": {"lat": 34.078693, "lon": -118.214768}, "menus": [], "last_updated": "2020-12-29T06:46:28.304Z"}, {"restaurant_name": "El Milagro", "restaurant_phone": "(323) 268-3897", "restaurant_website": "http:///ca/los-angeles/718237-el-milagro/", "hours": "", "price_range": "", "price_range_num": 0, "restaurant_id": 34077900118225310, "cuisines": [""], "address": {"city": "Los Angeles", "state": "CA", "postal_code": "90031", "street": "419 North Avenue 19", "formatted": "419 North Avenue 19 Los Angeles, CA 90031"}, "geo": {"lat": 34.0779, "lon": -118.225311}, "menus": [], "last_updated": "2020-12-29T06:46:12.485Z"}, {"restaurant_name": "Maya's Restaurant", "restaurant_phone": "(877) 585-1085", "restaurant_website": "http:///ca/los-angeles/717717-mayas-restaurant/", "hours": "", "price_range": "", "price_range_num": 0, "restaurant_id": 34072063118220976, "cuisines": [""], "address": {"city": "Los Angeles", "state": "CA", "postal_code": "90031", "street": "200 South Avenue 19", "formatted": "200 South Avenue 19 Los Angeles, CA 90031"}, "geo": {"lat": 34.072063, "lon": -118.220978}, "menus": [], "last_updated": "2020-12-29T06:46:29.061Z"}, {"restaurant_name": "Maracas Cafe & Catering", "restaurant_phone": "(323) 225-0506", "restaurant_website": "http:///ca/los-angeles/718190-maracas-cafe-catering/", "hours": "", "price_range": "", "price_range_num": 0, "restaurant_id": 34073547118206330, "cuisines": [""], "address": {"city": "Los Angeles", "state": "CA", "postal_code": "90031", "street": "3300 North Broadway", "formatted": "3300 North Broadway Los Angeles, CA 90031"}, "geo": {"lat": 34.073547, "lon": -118.206329}, "menus": [], "last_updated": "2020-12-29T06:46:12.860Z"}, {"restaurant_name": "Lincoln Vegan Kitchen", "restaurant_phone": "(323) 352-3331", "restaurant_website": "http:///ca/los-angeles/624707-lincoln-vegan-kitchen/", "hours": "", "price_range": "", "price_range_num": 0, "restaurant_id": 34073238118218190, "cuisines": [""], "address": {"city": "Los Angeles", "state": "CA", "postal_code": "90031", "street": "2118 N Broadway", "formatted": "2118 N Broadway Los Angeles, CA 90031"}, "geo": {"lat": 34.073238, "lon": -118.218193}, "menus": [], "last_updated": "2020-12-29T06:46:53.728Z"}, {"restaurant_name": "Vegan Me", "restaurant_phone": "(323) 352-8566", "restaurant_website": "http:///ca/los-angeles/624602-vegan-me/", "hours": "", "price_range": "", "price_range_num": 0, "restaurant_id": 34073803118217104, "cuisines": [""], "address": {"city": "Los Angeles", "state": "CA", "postal_code": "90031", "street": "2223 N Broadway", "formatted": "2223 N Broadway Los Angeles, CA 90031"}, "geo": {"lat": 34.073803, "lon": -118.217102}, "menus": [], "last_updated": "2020-12-29T06:46:53.757Z"}, {"restaurant_name": "Burger Mansion", "restaurant_phone": "(323) 223-1843", "restaurant_website": "http:///ca/los-angeles/640350-burger-mansion/", "hours": "", "price_range": "", "price_range_num": 0, "restaurant_id": 34066178118212300, "cuisines": [""], "address": {"city": "Los Angeles", "state": "CA", "postal_code": "90031", "street": "2817 N Main St", "formatted": "2817 N Main St Los Angeles, CA 90031"}, "geo": {"lat": 34.066178, "lon": -118.212301}, "menus": [], "last_updated": "2020-12-29T06:46:33.847Z"}, {"restaurant_name": "Maddalena Restaurant (san", "restaurant_phone": "(323) 223-1401", "restaurant_website": "http:///ca/los-angeles/717824-maddalena-restaurant-san/", "hours": "", "price_range": "", "price_range_num": 0, "restaurant_id": 34064282118224336, "cuisines": [""], "address": {"city": "Los Angeles", "state": "CA", "postal_code": "90031", "street": "737 Lamar Street", "formatted": "737 Lamar Street Los Angeles, CA 90031"}, "geo": {"lat": 34.064282, "lon": -118.224335}, "menus": [], "last_updated": "2020-12-29T06:46:28.514Z"}, {"restaurant_name": "La Monarca Bakery", "restaurant_phone": "(323) 352-3988", "restaurant_website": "http:///ca/los-angeles/718143-la-monarca-bakery/", "hours": "", "price_range": "", "price_range_num": 0, "restaurant_id": 34073322118215450, "cuisines": [""], "address": {"city": "Los Angeles", "state": "CA", "postal_code": "90031", "street": "2602 North Broadway", "formatted": "2602 North Broadway Los Angeles, CA 90031"}, "geo": {"lat": 34.073322, "lon": -118.215447}, "menus": [], "last_updated": "2020-12-29T06:46:12.940Z"}, {"restaurant_name": "Rico Tejuino Los Reyes", "restaurant_phone": "(323) 221-7731", "restaurant_website": "http:///ca/los-angeles/718072-rico-tejuino-los-reyes/", "hours": "", "price_range": "", "price_range_num": 0, "restaurant_id": 34073990118213988, "cuisines": [""], "address": {"city": "Los Angeles", "state": "CA", "postal_code": "90031", "street": "2707 North Broadway", "formatted": "2707 North Broadway Los Angeles, CA 90031"}, "geo": {"lat": 34.07399, "lon": -118.213989}, "menus": [], "last_updated": "2020-12-29T06:46:13.254Z"}, {"restaurant_name": "EOLA", "restaurant_phone": "(323) 332-2568", "restaurant_website": "http:///ca/los-angeles/598913-eola/", "hours": "", "price_range": "", "price_range_num": 0, "restaurant_id": 34073395118211930, "cuisines": [""], "address": {"city": "Los Angeles", "state": "CA", "postal_code": "90031", "street": "2834 N Broadway", "formatted": "2834 N Broadway Los Angeles, CA 90031"}, "geo": {"lat": 34.073395, "lon": -118.211929}, "menus": [], "last_updated": "2020-12-29T06:46:55.530Z"}], "numResults": 25}