{"totalResults": 191, "page": 1, "total_pages": 8, "more_pages": true, "data": [{"restaurant_name": "Which Wich?", "restaurant_phone": "(310) 268-9424", "restaurant_website": "", "hours": "Daily: 9am-9pm", "price_range": "$", "price_range_num": 1, "restaurant_id": 34036713118439984, "cuisines": ["Sandwiches"], "address": {"city": "Los Angeles", "state": "CA", "postal_code": "90064", "street": "2212 Sawtelle Blvd", "formatted": "2212 Sawtelle Blvd Los Angeles, CA 90064"}, "geo": {"lat": 34.036713, "lon": -118.439983}, "menus": [], "last_updated": "2020-12-29T06:50:32.184Z"}, {"restaurant_name": "Lin's Chinese Cuisine", "restaurant_phone": "(310) 478-8892", "restaurant_website": "", "hours": "Mon-Sat: 11am-10pm Sun: 4pm-10pm", "price_range": "$$", "price_range_num": 2, "restaurant_id": 34031827118445250, "cuisines": ["Chinese"], "address": {"city": "Los Angeles", "state": "CA", "postal_code": "90064", "street": "11668 W Pico Blvd", "formatted": "11668 W Pico Blvd Los Angeles, CA 90064"}, "geo": {"lat": 34.031827, "lon": -118.445248}, "menus": [], "last_updated": "2020-12-29T06:50:32.239Z"}, {"restaurant_name": "Mozzarella", "restaurant_phone": "(310) 913-3235", "restaurant_website": "", "hours": "Mon-Fri: 9am-6pm", "price_range": "$$", "price_range_num": 2, "restaurant_id": 34038197118441284, "cuisines": ["Italian", "Sandwiches"], "address": {"city": "Los Angeles", "state": "CA", "postal_code": "90064", "street": "11301 W Olympic Blvd", "formatted": "11301 W Olympic Blvd Los Angeles, CA 90064"}, "geo": {"lat": 34.038197, "lon": -118.441283}, "menus": [], "last_updated": "2020-12-29T06:50:33.995Z"}, {"restaurant_name": "Crossroads BBQ & Grill", "restaurant_phone": "(424) 832-7300", "restaurant_website": "", "hours": "Sun-Mon: 11:30am-9pm Tue-Sat: 11:30am-10pm ", "price_range": "$$", "price_range_num": 2, "restaurant_id": 34028111118429220, "cuisines": ["Barbecue", "Ribs"], "address": {"city": "Los Angeles", "state": "CA", "postal_code": "90064", "street": "2927 S Sepulveda Blvd", "formatted": "2927 S Sepulveda Blvd Los Angeles, CA 90064"}, "geo": {"lat": 34.028111, "lon": -118.42922}, "menus": [], "last_updated": "2020-12-29T06:50:32.553Z"}, {"restaurant_name": "Century Dragon", "restaurant_phone": "(310) 842-8222", "restaurant_website": "", "hours": "Tue-Fri: 11am-10pm Sat-Sun: 11:30am-10pm", "price_range": "$$", "price_range_num": 2, "restaurant_id": 34042995118422340, "cuisines": ["Chinese"], "address": {"city": "Los Angeles", "state": "CA", "postal_code": "90064", "street": "10614 W Pico Blvd", "formatted": "10614 W Pico Blvd Los Angeles, CA 90064"}, "geo": {"lat": 34.042995, "lon": -118.42234}, "menus": [], "last_updated": "2020-12-29T06:50:32.684Z"}, {"restaurant_name": "Cafe Mangia Los Angeles", "restaurant_phone": "(310) 474-4475", "restaurant_website": "", "hours": "Mon-Fri: 8am-5pm", "price_range": "$", "price_range_num": 1, "restaurant_id": 34031294118420360, "cuisines": ["Breakfast", "Healthy", "Lunch Specials", "Salads", "Sandwiches"], "address": {"city": "Los Angeles", "state": "CA", "postal_code": "90064", "street": "10801 National Boulevard", "formatted": "10801 National Boulevard Los Angeles, CA 90064"}, "geo": {"lat": 34.031294, "lon": -118.420362}, "menus": [], "last_updated": "2020-12-29T06:50:32.751Z"}, {"restaurant_name": "California Mexican Grill", "restaurant_phone": "(310) 473-0501", "restaurant_website": "", "hours": "", "price_range": "$", "price_range_num": 1, "restaurant_id": 34039978118438250, "cuisines": ["Breakfast", "Grill", "Mexican"], "address": {"city": "Los Angeles", "state": "CA", "postal_code": "90064", "street": "11106 Olympic Blvd", "formatted": "11106 Olympic Blvd Los Angeles, CA 90064"}, "geo": {"lat": 34.039978, "lon": -118.438249}, "menus": [], "last_updated": "2020-12-29T06:50:34.572Z"}, {"restaurant_name": "Pazzo Pizzeria", "restaurant_phone": "(310) 473-3832", "restaurant_website": "", "hours": "Daily: 11am-10pm", "price_range": "$$$$", "price_range_num": 4, "restaurant_id": 34039985118438240, "cuisines": ["Pizza", "Sandwiches"], "address": {"city": "Los Angeles", "state": "CA", "postal_code": "90064", "street": "11104 W Olympic Blvd", "formatted": "11104 W Olympic Blvd Los Angeles, CA 90064"}, "geo": {"lat": 34.039985, "lon": -118.438238}, "menus": [], "last_updated": "2020-12-29T06:50:34.659Z"}, {"restaurant_name": "Nishi Poke & Ramen Bistro", "restaurant_phone": "(310) 837-6278", "restaurant_website": "", "hours": "Sun-Thu: 11am-9:45pm Fri-Sat: 11am-10:15pm", "price_range": "$$", "price_range_num": 2, "restaurant_id": 34039735118423180, "cuisines": ["Chinese", "Japanese", "Sushi"], "address": {"city": "Los Angeles", "state": "CA", "postal_code": "90064", "street": "2536 Overland Ave", "formatted": "2536 Overland Ave Los Angeles, CA 90064"}, "geo": {"lat": 34.039735, "lon": -118.423179}, "menus": [], "last_updated": "2020-12-29T06:50:34.708Z"}, {"restaurant_name": "Louise's Trattoria", "restaurant_phone": "(310) 475-6084", "restaurant_website": "", "hours": "Mon-Thu: 11am-10pm Fri-Sat: 11am-10:30pm Sun: 12pm-9:30pm", "price_range": "$$$", "price_range_num": 3, "restaurant_id": 34042854118423544, "cuisines": ["Italian"], "address": {"city": "Los Angeles", "state": "CA", "postal_code": "90064", "street": "10645 W Pico Blvd", "formatted": "10645 W Pico Blvd Los Angeles, CA 90064"}, "geo": {"lat": 34.042854, "lon": -118.423546}, "menus": [], "last_updated": "2020-12-29T06:50:34.938Z"}, {"restaurant_name": "Pastina Trattoria", "restaurant_phone": "(310) 441-4655", "restaurant_website": "", "hours": "Mon-Thu: 11:30am-2:30pm+5:30pm-10pm Fri: 11:30am-2:30pm+5:30pm-10:30pm Sat: 5:30pm-10:30pm", "price_range": "$$$", "price_range_num": 3, "restaurant_id": 34043137118430656, "cuisines": ["Healthy", "Italian", "Pasta", "Pizza", "Salads", "Sandwiches"], "address": {"city": "Los Angeles", "state": "CA", "postal_code": "90064", "street": "2260 Westwood Blvd", "formatted": "2260 Westwood Blvd Los Angeles, CA 90064"}, "geo": {"lat": 34.043137, "lon": -118.430656}, "menus": [], "last_updated": "2020-12-29T06:50:33.283Z"}, {"restaurant_name": "Habayit", "restaurant_phone": "(310) 479-7173", "restaurant_website": "http:///ca/los-angeles/756477-habayit/", "hours": "", "price_range": "", "price_range_num": 0, "restaurant_id": 34030438118448990, "cuisines": [""], "address": {"city": "Los Angeles", "state": "CA", "postal_code": "90064", "street": "11921 West Pico Boulevard", "formatted": "11921 West Pico Boulevard Los Angeles, CA 90064"}, "geo": {"lat": 34.030438, "lon": -118.44899}, "menus": [], "last_updated": "2020-12-29T06:46:06.505Z"}, {"restaurant_name": "Flaming Pot", "restaurant_phone": "(424) 372-9039", "restaurant_website": "http:///ca/los-angeles/755475-flaming-pot/", "hours": "", "price_range": "", "price_range_num": 0, "restaurant_id": 34037567118440424, "cuisines": [""], "address": {"city": "Los Angeles", "state": "CA", "postal_code": "90064", "street": "2222 Sawtelle Blvd", "formatted": "2222 Sawtelle Blvd Los Angeles, CA 90064"}, "geo": {"lat": 34.037567, "lon": -118.440422}, "menus": [], "last_updated": "2020-12-29T06:46:06.602Z"}, {"restaurant_name": "Domino's Pizza", "restaurant_phone": "(310) 839-0800", "restaurant_website": "http://www.dominos.com", "hours": "", "price_range": "", "price_range_num": 0, "restaurant_id": 34043100118422000, "cuisines": ["American", "Pizza", "Wings"], "address": {"city": "Los Angeles", "state": "CA", "postal_code": "90064", "street": "10616 W Pico Blvd", "formatted": "10616 W Pico Blvd Los Angeles, CA 90064"}, "geo": {"lat": 34.0431, "lon": -118.422}, "menus": [], "last_updated": "2020-12-29T06:46:06.759Z"}, {"restaurant_name": "Pho Ever", "restaurant_phone": "(424) 273-1143", "restaurant_website": "http:///ca/los-angeles/722654-pho-ever/", "hours": "", "price_range": "", "price_range_num": 0, "restaurant_id": 34031502118445130, "cuisines": [""], "address": {"city": "Los Angeles", "state": "CA", "postal_code": "90064", "street": "2404 South Barrington Avenue", "formatted": "2404 South Barrington Avenue Los Angeles, CA 90064"}, "geo": {"lat": 34.031502, "lon": -118.445129}, "menus": [], "last_updated": "2020-12-29T06:46:07.934Z"}, {"restaurant_name": "CoCo King", "restaurant_phone": "(626) 262-9255", "restaurant_website": "http:///ca/los-angeles/722530-coco-king/", "hours": "", "price_range": "", "price_range_num": 0, "restaurant_id": 34031654118445068, "cuisines": [""], "address": {"city": "Los Angeles", "state": "CA", "postal_code": "90064", "street": "11668 West Pico Boulevard", "formatted": "11668 West Pico Boulevard Los Angeles, CA 90064"}, "geo": {"lat": 34.031654, "lon": -118.445068}, "menus": [], "last_updated": "2020-12-29T06:46:08.368Z"}, {"restaurant_name": "Mogumogu", "restaurant_phone": "(424) 371-5085", "restaurant_website": "http:///ca/los-angeles/722522-mogumogu/", "hours": "", "price_range": "", "price_range_num": 0, "restaurant_id": 34035992118445380, "cuisines": [""], "address": {"city": "Los Angeles", "state": "CA", "postal_code": "90064", "street": "11555 West Olympic Boulevard", "formatted": "11555 West Olympic Boulevard Los Angeles, CA 90064"}, "geo": {"lat": 34.035992, "lon": -118.445381}, "menus": [], "last_updated": "2020-12-29T06:46:08.383Z"}, {"restaurant_name": "Sushi Stop Izakaya", "restaurant_phone": "(310) 479-1001", "restaurant_website": "http:///ca/los-angeles/719686-sushi-stop-izakaya/", "hours": "", "price_range": "", "price_range_num": 0, "restaurant_id": 34037632118440544, "cuisines": [""], "address": {"city": "Los Angeles", "state": "CA", "postal_code": "90064", "street": "2218 Sawtelle Boulevard", "formatted": "2218 Sawtelle Boulevard Los Angeles, CA 90064"}, "geo": {"lat": 34.037632, "lon": -118.440544}, "menus": [], "last_updated": "2020-12-29T06:46:09.140Z"}, {"restaurant_name": "Pop's Hot Dogs", "restaurant_phone": "(310) 478-0010", "restaurant_website": "http:///ca/los-angeles/719650-pops-hot-dogs/", "hours": "", "price_range": "", "price_range_num": 0, "restaurant_id": 34022099118438896, "cuisines": [""], "address": {"city": "Los Angeles", "state": "CA", "postal_code": "90064", "street": "11700 National Boulevard", "formatted": "11700 National Boulevard Los Angeles, CA 90064"}, "geo": {"lat": 34.022099, "lon": -118.438896}, "menus": [], "last_updated": "2020-12-29T06:46:09.289Z"}, {"restaurant_name": "Boba Time", "restaurant_phone": "(310) 445-9882", "restaurant_website": "http:///ca/los-angeles/719664-boba-time/", "hours": "", "price_range": "", "price_range_num": 0, "restaurant_id": 34027432118429452, "cuisines": [""], "address": {"city": "Los Angeles", "state": "CA", "postal_code": "90064", "street": "11207 National Boulevard", "formatted": "11207 National Boulevard Los Angeles, CA 90064"}, "geo": {"lat": 34.027432, "lon": -118.429451}, "menus": [], "last_updated": "2020-12-29T06:46:09.319Z"}, {"restaurant_name": "Winchells Donut Shop", "restaurant_phone": "(323) 683-8138", "restaurant_website": "http:///ca/los-angeles/719577-winchells-donut-shop/", "hours": "", "price_range": "", "price_range_num": 0, "restaurant_id": 34030781118421340, "cuisines": [""], "address": {"city": "Los Angeles", "state": "CA", "postal_code": "90064", "street": "10833 National Boulevard", "formatted": "10833 National Boulevard Los Angeles, CA 90064"}, "geo": {"lat": 34.030781, "lon": -118.421341}, "menus": [], "last_updated": "2020-12-29T06:46:09.662Z"}, {"restaurant_name": "Maria's Italian Kitchen", "restaurant_phone": "(310) 441-3663", "restaurant_website": "http://www.mariasitaliankitchen.com", "hours": "Sun-Thu: 11:30am-9:30pm Fri.-Sat: 11:30am-10:30pm", "price_range": "$", "price_range_num": 1, "restaurant_id": 34041144118426870, "cuisines": ["Italian", "Pizza"], "address": {"city": "Rancho Park", "state": "CA", "postal_code": "90064", "street": "10761 W. Pico Blvd", "formatted": "10761 W. Pico Blvd Rancho Park, CA 90064"}, "geo": {"lat": 34.041144, "lon": -118.426871}, "menus": [], "last_updated": "2021-01-05T07:46:34.702Z"}, {"restaurant_name": "Which Wich Superior Sandwiches", "restaurant_phone": "(310) 268-9424", "restaurant_website": "", "hours": "", "price_range": "", "price_range_num": 0, "restaurant_id": 34037731118440510, "cuisines": [""], "address": {"city": "Rancho Park", "state": "CA", "postal_code": "90064", "street": "2212 Sawtelle Blvd", "formatted": "2212 Sawtelle Blvd Rancho Park, CA 90064"}, "geo": {"lat": 34.037731, "lon": -118.440514}, "menus": [], "last_updated": "2021-01-05T07:46:34.623Z"}, {"restaurant_name": "Zen Bakery", "restaurant_phone": "(310) 475-6727", "restaurant_website": "http:///ca/los-angeles/999315-zen-bakery/", "hours": "", "price_range": "", "price_range_num": 0, "restaurant_id": 34038155118432076, "cuisines": [""], "address": {"city": "Los Angeles", "state": "CA", "postal_code": "90064", "street": "10988 West Pico Boulevard", "formatted": "10988 West Pico Boulevard Los Angeles, CA 90064"}, "geo": {"lat": 34.038155, "lon": -118.432076}, "menus": [], "last_updated": "2021-01-05T08:01:27.819Z"}, {"restaurant_name": "La Salsa", "restaurant_phone": "(877) 585-1085", "restaurant_website": "http:///ca/los-angeles/997180-la-salsa/", "hours": "", "price_range": "", "price_range_num": 0, "restaurant_id": 34037396118435028, "cuisines": [""], "address": {"city": "Los Angeles", "state": "CA", "postal_code": "90064", "street": "11077 West Pico Boulevard", "formatted": "11077 West Pico Boulevard Los Angeles, CA 90064"}, "geo": {"lat": 34.037396, "lon": -118.435028}, "menus": [], "last_updated": "2021-01-05T08:01:28.052Z"}], "numResults": 25}