{"totalResults": 83, "page": 1, "total_pages": 4, "more_pages": true, "data": [{"restaurant_name": "Joe K's Deli Restaurant", "restaurant_phone": "(323) 268-5772", "restaurant_website": "", "hours": "Mon-Fri: 5am-4pm", "price_range": "$$", "price_range_num": 2, "restaurant_id": 34014196118219930, "cuisines": ["Deli Food", "Diner"], "address": {"city": "Los Angeles", "state": "CA", "postal_code": "90023", "street": "2601 S Soto St", "formatted": "2601 S Soto St Los Angeles, CA 90023"}, "geo": {"lat": 34.014196, "lon": -118.219928}, "menus": [], "last_updated": "2020-12-29T06:50:33.440Z"}, {"restaurant_name": "Huli Huli Hawaiian Grill & Teabar", "restaurant_phone": "(877) 585-1085", "restaurant_website": "http:///ca/los-angeles/756465-huli-huli-hawaiian-grill-teabar/", "hours": "", "price_range": "", "price_range_num": 0, "restaurant_id": 34034344118215148, "cuisines": [""], "address": {"city": "Los Angeles", "state": "CA", "postal_code": "90023", "street": "2411 Whittier Boulevard", "formatted": "2411 Whittier Boulevard Los Angeles, CA 90023"}, "geo": {"lat": 34.034344, "lon": -118.215149}, "menus": [], "last_updated": "2020-12-29T06:46:06.516Z"}, {"restaurant_name": "Domino's Pizza", "restaurant_phone": "(323) 268-2000", "restaurant_website": "http://www.dominos.com", "hours": "", "price_range": "", "price_range_num": 0, "restaurant_id": 34035900118219000, "cuisines": ["American", "Pizza", "Wings"], "address": {"city": "Los Angeles", "state": "CA", "postal_code": "90023", "street": "2193 Whittier Blvd", "formatted": "2193 Whittier Blvd Los Angeles, CA 90023"}, "geo": {"lat": 34.0359, "lon": -118.219}, "menus": [], "last_updated": "2020-12-29T06:46:06.840Z"}, {"restaurant_name": "Tila's Kitchen", "restaurant_phone": "(323) 264-5513", "restaurant_website": "http:///ca/los-angeles/722659-tilas-kitchen/", "hours": "", "price_range": "", "price_range_num": 0, "restaurant_id": 34024082118188920, "cuisines": [""], "address": {"city": "Los Angeles", "state": "CA", "postal_code": "90023", "street": "3909 Whittier Blvd", "formatted": "3909 Whittier Blvd Los Angeles, CA 90023"}, "geo": {"lat": 34.024082, "lon": -118.188919}, "menus": [], "last_updated": "2020-12-29T06:46:07.895Z"}, {"restaurant_name": "Barba Kush", "restaurant_phone": "(323) 245-1683", "restaurant_website": "http:///ca/los-angeles/722642-barba-kush/", "hours": "", "price_range": "", "price_range_num": 0, "restaurant_id": 34032929118211944, "cuisines": [""], "address": {"city": "Los Angeles", "state": "CA", "postal_code": "90023", "street": "2635 Whittier Boulevard", "formatted": "2635 Whittier Boulevard Los Angeles, CA 90023"}, "geo": {"lat": 34.032929, "lon": -118.211945}, "menus": [], "last_updated": "2020-12-29T06:46:08.005Z"}, {"restaurant_name": "Tacos Los Gueros", "restaurant_phone": "(323) 568-6225", "restaurant_website": "http:///ca/los-angeles/722580-tacos-los-gueros/", "hours": "", "price_range": "", "price_range_num": 0, "restaurant_id": 34018826118199508, "cuisines": [""], "address": {"city": "Los Angeles", "state": "CA", "postal_code": "90023", "street": "1300 Mirasol Street", "formatted": "1300 Mirasol Street Los Angeles, CA 90023"}, "geo": {"lat": 34.018826, "lon": -118.199509}, "menus": [], "last_updated": "2020-12-29T06:46:08.193Z"}, {"restaurant_name": "Alma's Sports Bar & Grill", "restaurant_phone": "(323) 604-9015", "restaurant_website": "http:///ca/los-angeles/722477-almas-sports-bar-grill/", "hours": "", "price_range": "", "price_range_num": 0, "restaurant_id": 34023998118190910, "cuisines": [""], "address": {"city": "Los Angeles", "state": "CA", "postal_code": "90023", "street": "3839 Whittier Boulevard", "formatted": "3839 Whittier Boulevard Los Angeles, CA 90023"}, "geo": {"lat": 34.023998, "lon": -118.19091}, "menus": [], "last_updated": "2020-12-29T06:46:08.590Z"}, {"restaurant_name": "Octavio's Restaurant", "restaurant_phone": "(323) 799-6877", "restaurant_website": "http:///ca/los-angeles/780008-octavios-restaurant/", "hours": "", "price_range": "", "price_range_num": 0, "restaurant_id": 34023754118187156, "cuisines": [""], "address": {"city": "Los Angeles", "state": "CA", "postal_code": "90023", "street": "3960 Whittier Boulevard", "formatted": "3960 Whittier Boulevard Los Angeles, CA 90023"}, "geo": {"lat": 34.023754, "lon": -118.187157}, "menus": [], "last_updated": "2020-12-28T19:27:17.466Z"}, {"restaurant_name": "Chinese Kitchen", "restaurant_phone": "(323) 260-7987", "restaurant_website": "http:///ca/los-angeles/780338-chinese-kitchen/", "hours": "", "price_range": "", "price_range_num": 0, "restaurant_id": 34027397118199590, "cuisines": [""], "address": {"city": "Los Angeles", "state": "CA", "postal_code": "90023", "street": "3441 Whittier Boulevard", "formatted": "3441 Whittier Boulevard Los Angeles, CA 90023"}, "geo": {"lat": 34.027397, "lon": -118.199593}, "menus": [], "last_updated": "2020-12-28T19:27:17.882Z"}, {"restaurant_name": "Burger King", "restaurant_phone": "(323) 526-7973", "restaurant_website": "http:///ca/los-angeles/575345-burger-king/", "hours": "", "price_range": "", "price_range_num": 0, "restaurant_id": 34026894118198176, "cuisines": [""], "address": {"city": "Los Angeles", "state": "CA", "postal_code": "90023", "street": "3501 Whittier Blvd", "formatted": "3501 Whittier Blvd Los Angeles, CA 90023"}, "geo": {"lat": 34.026894, "lon": -118.198174}, "menus": [], "last_updated": "2020-12-28T19:25:12.694Z"}, {"restaurant_name": "Subway", "restaurant_phone": "(323) 265-1311", "restaurant_website": "https://restaurants.subway.com/united-states/ca/los-angeles/3476-whittier-blvd?utm_source=yext-other&utm_medium=local&utm_term=acq&utm_content=40345&utm_campaign=evergreen-2020&y_source=1_MTQ4OTU0NTct", "hours": "", "price_range": "", "price_range_num": 0, "restaurant_id": 34026400118199000, "cuisines": [""], "address": {"city": "Los Angeles", "state": "CA", "postal_code": "90023", "street": "3476 Whittier Blvd", "formatted": "3476 Whittier Blvd Los Angeles, CA 90023"}, "geo": {"lat": 34.0264, "lon": -118.199}, "menus": [], "last_updated": "2020-12-28T19:25:12.908Z"}, {"restaurant_name": "Bison Burger", "restaurant_phone": "(323) 406-2303", "restaurant_website": "http:///ca/los-angeles/587379-bison-burger/", "hours": "", "price_range": "", "price_range_num": 0, "restaurant_id": 34023846118218080, "cuisines": [""], "address": {"city": "Los Angeles", "state": "CA", "postal_code": "90023", "street": "2765 E Olympic Blvd", "formatted": "2765 E Olympic Blvd Los Angeles, CA 90023"}, "geo": {"lat": 34.023846, "lon": -118.218079}, "menus": [], "last_updated": "2020-12-28T19:25:14.155Z"}, {"restaurant_name": "Subway", "restaurant_phone": "(323) 264-8800", "restaurant_website": "https://restaurants.subway.com/united-states/ca/los-angeles/2806-east-washington-blvd?utm_source=yext-other&utm_medium=local&utm_term=acq&utm_content=62289&utm_campaign=evergreen-2020", "hours": "", "price_range": "", "price_range_num": 0, "restaurant_id": 34016800118219500, "cuisines": [""], "address": {"city": "Los Angeles", "state": "CA", "postal_code": "90023", "street": "2806 East Washington Blvd", "formatted": "2806 East Washington Blvd Los Angeles, CA 90023"}, "geo": {"lat": 34.0168, "lon": -118.2195}, "menus": [], "last_updated": "2020-12-28T19:25:13.698Z"}, {"restaurant_name": "King Cole Pizza", "restaurant_phone": "(323) 268-4145", "restaurant_website": "", "hours": "", "price_range": "$$$", "price_range_num": 3, "restaurant_id": 34030551118199056, "cuisines": ["Italian", "Pizza"], "address": {"city": "Los Angeles", "state": "CA", "postal_code": "90023", "street": "612 Lorena St", "formatted": "612 Lorena St Los Angeles, CA 90023"}, "geo": {"lat": 34.030551, "lon": -118.199054}, "menus": [], "last_updated": "2020-12-29T06:50:09.045Z"}, {"restaurant_name": "Lorena Kabob House", "restaurant_phone": "(323) 262-2626", "restaurant_website": "", "hours": "", "price_range": "$", "price_range_num": 1, "restaurant_id": 34016694118209436, "cuisines": ["Grill", "Mediterranean", "Middle Eastern"], "address": {"city": "Los Angeles", "state": "CA", "postal_code": "90023", "street": "1547 S Grande Vista Ave", "formatted": "1547 S Grande Vista Ave Los Angeles, CA 90023"}, "geo": {"lat": 34.016694, "lon": -118.209437}, "menus": [], "last_updated": "2020-12-29T06:50:31.695Z"}, {"restaurant_name": "King Taco", "restaurant_phone": "(323) 264-9051", "restaurant_website": "", "hours": "", "price_range": "$", "price_range_num": 1, "restaurant_id": 34018643118179716, "cuisines": ["Mexican"], "address": {"city": "Los Angeles", "state": "CA", "postal_code": "90023", "street": "4300 E Olympic Blvd", "formatted": "4300 E Olympic Blvd Los Angeles, CA 90023"}, "geo": {"lat": 34.018643, "lon": -118.179717}, "menus": [], "last_updated": "2020-12-29T06:50:00.629Z"}, {"restaurant_name": "Mo Mo Korean BBQ", "restaurant_phone": "(323) 268-5225", "restaurant_website": "", "hours": "", "price_range": "$$", "price_range_num": 2, "restaurant_id": 34017519118219704, "cuisines": ["Barbecue", "Korean"], "address": {"city": "Los Angeles", "state": "CA", "postal_code": "90023", "street": "1720 S Soto St", "formatted": "1720 S Soto St Los Angeles, CA 90023"}, "geo": {"lat": 34.017519, "lon": -118.219705}, "menus": [], "last_updated": "2020-12-29T06:50:00.831Z"}, {"restaurant_name": "Ostioneria Colima", "restaurant_phone": "(323) 261-1300", "restaurant_website": "", "hours": "", "price_range": "$$", "price_range_num": 2, "restaurant_id": 34018176118206840, "cuisines": ["Mexican", "Seafood"], "address": {"city": "Los Angeles", "state": "CA", "postal_code": "90023", "street": "1412 S Lorena St", "formatted": "1412 S Lorena St Los Angeles, CA 90023"}, "geo": {"lat": 34.018176, "lon": -118.206838}, "menus": [], "last_updated": "2020-12-29T06:50:02.446Z"}, {"restaurant_name": "McDonald's", "restaurant_phone": "", "restaurant_website": "http://www.mcdonalds.com", "hours": "", "price_range": "", "price_range_num": 0, "restaurant_id": 34018523118174212, "cuisines": ["American", "Burgers"], "address": {"city": "LOS ANGELES", "state": "CA", "postal_code": "90023", "street": "4480 E Olympic Blvd", "formatted": "4480 E Olympic Blvd LOS ANGELES, CA 90023"}, "geo": {"lat": 34.018523, "lon": -118.174211}, "menus": [], "last_updated": "2020-12-29T06:51:31.475Z"}, {"restaurant_name": "McDonald's", "restaurant_phone": "", "restaurant_website": "http://www.mcdonalds.com", "hours": "", "price_range": "", "price_range_num": 0, "restaurant_id": 34026643118199308, "cuisines": ["American", "Burgers"], "address": {"city": "LOS ANGELES", "state": "CA", "postal_code": "90023", "street": "3458 Whittier Blvd", "formatted": "3458 Whittier Blvd LOS ANGELES, CA 90023"}, "geo": {"lat": 34.026643, "lon": -118.199307}, "menus": [], "last_updated": "2020-12-29T06:51:31.574Z"}, {"restaurant_name": "McDonald's", "restaurant_phone": "", "restaurant_website": "http://www.mcdonalds.com", "hours": "", "price_range": "", "price_range_num": 0, "restaurant_id": 34027227118219544, "cuisines": ["American", "Burgers"], "address": {"city": "LOS ANGELES", "state": "CA", "postal_code": "90023", "street": "1210 S Soto St", "formatted": "1210 S Soto St LOS ANGELES, CA 90023"}, "geo": {"lat": 34.027227, "lon": -118.219545}, "menus": [], "last_updated": "2020-12-29T06:51:31.805Z"}, {"restaurant_name": "KFC - Kentucky Fried Chicken", "restaurant_phone": "(323) 262-4767", "restaurant_website": "http://www.kfc.com", "hours": "", "price_range": "", "price_range_num": 0, "restaurant_id": 34025901118220040, "cuisines": ["American", "Chicken"], "address": {"city": "LOS ANGELES", "state": "CA", "postal_code": "90023", "street": "1301 S Soto St", "formatted": "1301 S Soto St LOS ANGELES, CA 90023"}, "geo": {"lat": 34.025901, "lon": -118.220039}, "menus": [], "last_updated": "2020-12-29T06:51:32.716Z"}, {"restaurant_name": "KFC", "restaurant_phone": "(323) 268-1197", "restaurant_website": "http://www.kfc.com", "hours": "", "price_range": "", "price_range_num": 0, "restaurant_id": 34030178118199136, "cuisines": ["American", "Chicken"], "address": {"city": "Los Angeles", "state": "CA", "postal_code": "90023", "street": "624 S Lorena St", "formatted": "624 S Lorena St Los Angeles, CA 90023"}, "geo": {"lat": 34.030178, "lon": -118.199135}, "menus": [], "last_updated": "2020-12-29T06:51:32.934Z"}, {"restaurant_name": "Jack in the Box", "restaurant_phone": "(323) 263-1450", "restaurant_website": "", "hours": "", "price_range": "", "price_range_num": 0, "restaurant_id": 34025365118220224, "cuisines": ["American", "Burgers"], "address": {"city": "Los Angeles", "state": "CA", "postal_code": "90023", "street": "1335 S Soto St", "formatted": "1335 S Soto St Los Angeles, CA 90023"}, "geo": {"lat": 34.025365, "lon": -118.220225}, "menus": [], "last_updated": "2020-12-29T06:51:33.263Z"}, {"restaurant_name": "Jack in the Box", "restaurant_phone": "(323) 262-3618", "restaurant_website": "", "hours": "", "price_range": "", "price_range_num": 0, "restaurant_id": 34018673118180384, "cuisines": ["American", "Burgers"], "address": {"city": "Los Angeles", "state": "CA", "postal_code": "90023", "street": "4290 E Olympic Blvd", "formatted": "4290 E Olympic Blvd Los Angeles, CA 90023"}, "geo": {"lat": 34.018673, "lon": -118.180384}, "menus": [], "last_updated": "2020-12-29T06:51:33.542Z"}], "numResults": 25}