{"totalResults": 48, "page": 1, "total_pages": 2, "more_pages": true, "data": [{"restaurant_name": "Dave's 2 For 1 Pizza", "restaurant_phone": "(323) 269-9421", "restaurant_website": "", "hours": "", "price_range": "$$", "price_range_num": 2, "restaurant_id": 34040379118189536, "cuisines": ["Pizza", "Wings"], "address": {"city": "Los Angeles", "state": "CA", "postal_code": "90063", "street": "3480 E Cesar Chavez", "formatted": "3480 E Cesar Chavez Los Angeles, CA 90063"}, "geo": {"lat": 34.040379, "lon": -118.189535}, "menus": [], "last_updated": "2020-12-29T06:50:32.755Z"}, {"restaurant_name": "A Que Tacos", "restaurant_phone": "(323) 354-4743", "restaurant_website": "http:///ca/los-angeles/722714-a-que-tacos/", "hours": "", "price_range": "", "price_range_num": 0, "restaurant_id": 34033249118192870, "cuisines": [""], "address": {"city": "Los Angeles", "state": "CA", "postal_code": "90063", "street": "3556 East 3rd Street", "formatted": "3556 East 3rd Street Los Angeles, CA 90063"}, "geo": {"lat": 34.033249, "lon": -118.192871}, "menus": [], "last_updated": "2020-12-29T06:46:07.678Z"}, {"restaurant_name": "Cemitas Poblanas", "restaurant_phone": "(323) 725-6471", "restaurant_website": "http:///ca/los-angeles/722671-cemitas-poblanas/", "hours": "", "price_range": "", "price_range_num": 0, "restaurant_id": 34036385118201750, "cuisines": [""], "address": {"city": "Los Angeles", "state": "CA", "postal_code": "90063", "street": "3049 East 4th Street", "formatted": "3049 East 4th Street Los Angeles, CA 90063"}, "geo": {"lat": 34.036385, "lon": -118.201752}, "menus": [], "last_updated": "2020-12-29T06:46:07.879Z"}, {"restaurant_name": "Mariscos Linda Truck", "restaurant_phone": "(877) 585-1085", "restaurant_website": "http:///ca/los-angeles/722633-mariscos-linda-truck/", "hours": "", "price_range": "", "price_range_num": 0, "restaurant_id": 34056030118179144, "cuisines": [""], "address": {"city": "Los Angeles", "state": "CA", "postal_code": "90063", "street": "3945 City Terrace Drive", "formatted": "3945 City Terrace Drive Los Angeles, CA 90063"}, "geo": {"lat": 34.05603, "lon": -118.179146}, "menus": [], "last_updated": "2020-12-29T06:46:08.039Z"}, {"restaurant_name": "Tiki Shack", "restaurant_phone": "(323) 406-2179", "restaurant_website": "http:///ca/los-angeles/722526-tiki-shack/", "hours": "", "price_range": "", "price_range_num": 0, "restaurant_id": 34033566118186480, "cuisines": [""], "address": {"city": "Los Angeles", "state": "CA", "postal_code": "90063", "street": "3787 East 3rd Street", "formatted": "3787 East 3rd Street Los Angeles, CA 90063"}, "geo": {"lat": 34.033566, "lon": -118.186478}, "menus": [], "last_updated": "2020-12-29T06:46:08.359Z"}, {"restaurant_name": "La Chuperia", "restaurant_phone": "(877) 585-1085", "restaurant_website": "http:///ca/los-angeles/719602-la-chuperia/", "hours": "", "price_range": "", "price_range_num": 0, "restaurant_id": 34059582118185884, "cuisines": [""], "address": {"city": "Los Angeles", "state": "CA", "postal_code": "90063", "street": "3702 Medford Street", "formatted": "3702 Medford Street Los Angeles, CA 90063"}, "geo": {"lat": 34.059582, "lon": -118.185883}, "menus": [], "last_updated": "2020-12-29T06:46:09.507Z"}, {"restaurant_name": "Cafe Rebelde", "restaurant_phone": "(323) 685-5353", "restaurant_website": "http:///ca/los-angeles/841247-cafe-rebelde/", "hours": "", "price_range": "", "price_range_num": 0, "restaurant_id": 34049954118196212, "cuisines": [""], "address": {"city": "Los Angeles", "state": "CA", "postal_code": "90063", "street": "3025 Wabash Ave", "formatted": "3025 Wabash Ave Los Angeles, CA 90063"}, "geo": {"lat": 34.049954, "lon": -118.196213}, "menus": [], "last_updated": "2021-01-05T08:01:29.831Z"}, {"restaurant_name": "The Tropic Truck", "restaurant_phone": "(323) 477-6764", "restaurant_website": "http:///ca/los-angeles/837142-the-tropic-truck/", "hours": "", "price_range": "", "price_range_num": 0, "restaurant_id": 34058544118190116, "cuisines": [""], "address": {"city": "Los Angeles", "state": "CA", "postal_code": "90063", "street": "1542 Fishburn Ave", "formatted": "1542 Fishburn Ave Los Angeles, CA 90063"}, "geo": {"lat": 34.058544, "lon": -118.190117}, "menus": [], "last_updated": "2021-01-05T08:01:30.464Z"}, {"restaurant_name": "El Gallito", "restaurant_phone": "(323) 266-0127", "restaurant_website": "http:///ca/los-angeles/818342-el-gallito/", "hours": "", "price_range": "", "price_range_num": 0, "restaurant_id": 34037026118193900, "cuisines": [""], "address": {"city": "Los Angeles", "state": "CA", "postal_code": "90063", "street": "3425 East 1st Street", "formatted": "3425 East 1st Street Los Angeles, CA 90063"}, "geo": {"lat": 34.037026, "lon": -118.193901}, "menus": [], "last_updated": "2021-01-05T08:02:03.564Z"}, {"restaurant_name": "The Big Burrito", "restaurant_phone": "(323) 265-2828", "restaurant_website": "http:///ca/los-angeles/818162-the-big-burrito/", "hours": "", "price_range": "", "price_range_num": 0, "restaurant_id": 34049004118194184, "cuisines": [""], "address": {"city": "Los Angeles", "state": "CA", "postal_code": "90063", "street": "3101 Wabash Avenue", "formatted": "3101 Wabash Avenue Los Angeles, CA 90063"}, "geo": {"lat": 34.049004, "lon": -118.194183}, "menus": [], "last_updated": "2021-01-05T08:02:03.818Z"}, {"restaurant_name": "Troy Drive In", "restaurant_phone": "(323) 269-9950", "restaurant_website": "http:///ca/los-angeles/818201-troy-drive-in/", "hours": "", "price_range": "", "price_range_num": 0, "restaurant_id": 34040371118173910, "cuisines": [""], "address": {"city": "Los Angeles", "state": "CA", "postal_code": "90063", "street": "4260 East Cesar E Chavez Avenue", "formatted": "4260 East Cesar E Chavez Avenue Los Angeles, CA 90063"}, "geo": {"lat": 34.040371, "lon": -118.173912}, "menus": [], "last_updated": "2021-01-05T08:02:03.837Z"}, {"restaurant_name": "Mary Alicia Restaurant", "restaurant_phone": "(323) 269-0339", "restaurant_website": "http:///ca/los-angeles/814723-mary-alicia-restaurant/", "hours": "", "price_range": "", "price_range_num": 0, "restaurant_id": 34035660118201172, "cuisines": [""], "address": {"city": "Los Angeles", "state": "CA", "postal_code": "90063", "street": "3100 East 4th Street", "formatted": "3100 East 4th Street Los Angeles, CA 90063"}, "geo": {"lat": 34.03566, "lon": -118.201172}, "menus": [], "last_updated": "2021-01-05T08:02:04.082Z"}, {"restaurant_name": "1st Street Burgers", "restaurant_phone": "(323) 263-2496", "restaurant_website": "http:///ca/los-angeles/789214-1st-street-burgers/", "hours": "", "price_range": "", "price_range_num": 0, "restaurant_id": 34036224118185610, "cuisines": [""], "address": {"city": "Los Angeles", "state": "CA", "postal_code": "90063", "street": "3737 East 1st Street", "formatted": "3737 East 1st Street Los Angeles, CA 90063"}, "geo": {"lat": 34.036224, "lon": -118.185608}, "menus": [], "last_updated": "2020-12-29T04:27:10.809Z"}, {"restaurant_name": "Enjoyer", "restaurant_phone": "(747) 231-9688", "restaurant_website": "", "hours": "", "price_range": "", "price_range_num": 0, "restaurant_id": 34058395118191210, "cuisines": [""], "address": {"city": "Los Angeles", "state": "CA", "postal_code": "90063", "street": "1539 Fishburn Ave", "formatted": "1539 Fishburn Ave Los Angeles, CA 90063"}, "geo": {"lat": 34.058395, "lon": -118.191208}, "menus": [], "last_updated": "2021-01-05T08:05:43.626Z"}, {"restaurant_name": "Bock Box", "restaurant_phone": "(626) 592-1357", "restaurant_website": "", "hours": "", "price_range": "", "price_range_num": 0, "restaurant_id": 34058426118191256, "cuisines": [""], "address": {"city": "Los Angeles", "state": "CA", "postal_code": "90063", "street": "1539 Fishburn Ave", "formatted": "1539 Fishburn Ave Los Angeles, CA 90063"}, "geo": {"lat": 34.058426, "lon": -118.191256}, "menus": [], "last_updated": "2021-01-05T08:05:44.079Z"}, {"restaurant_name": "El Kiosko Mexican Grill & Events", "restaurant_phone": "(323) 266-3301", "restaurant_website": "http:///ca/los-angeles/791102-el-kiosko-mexican-grill-events/", "hours": "", "price_range": "", "price_range_num": 0, "restaurant_id": 34035839118191224, "cuisines": [""], "address": {"city": "Los Angeles", "state": "CA", "postal_code": "90063", "street": "3534 East 1st Street", "formatted": "3534 East 1st Street Los Angeles, CA 90063"}, "geo": {"lat": 34.035839, "lon": -118.191223}, "menus": [], "last_updated": "2021-01-05T08:02:06.449Z"}, {"restaurant_name": "Cemitas Poblanas Mi Magdalena Restaurant 1", "restaurant_phone": "(323) 266-6068", "restaurant_website": "http:///ca/los-angeles/790826-cemitas-poblanas-mi-magdalena-restaurant-1/", "hours": "", "price_range": "", "price_range_num": 0, "restaurant_id": 34031818118192588, "cuisines": [""], "address": {"city": "Los Angeles", "state": "CA", "postal_code": "90063", "street": "401 South Indiana Street", "formatted": "401 South Indiana Street Los Angeles, CA 90063"}, "geo": {"lat": 34.031818, "lon": -118.192589}, "menus": [], "last_updated": "2021-01-05T08:02:06.703Z"}, {"restaurant_name": "Taqueria La Que Si Llena", "restaurant_phone": "(323) 261-1864", "restaurant_website": "http:///ca/los-angeles/790230-taqueria-la-que-si-llena/", "hours": "", "price_range": "", "price_range_num": 0, "restaurant_id": 34040325118186020, "cuisines": [""], "address": {"city": "Los Angeles", "state": "CA", "postal_code": "90063", "street": "3630 East Cesar E Chavez Avenue", "formatted": "3630 East Cesar E Chavez Avenue Los Angeles, CA 90063"}, "geo": {"lat": 34.040325, "lon": -118.18602}, "menus": [], "last_updated": "2021-01-05T08:02:07.289Z"}, {"restaurant_name": "Los Reyes Panaderia", "restaurant_phone": "(323) 261-0735", "restaurant_website": "http:///ca/los-angeles/789886-los-reyes-panaderia/", "hours": "", "price_range": "", "price_range_num": 0, "restaurant_id": 34040375118174744, "cuisines": [""], "address": {"city": "Los Angeles", "state": "CA", "postal_code": "90063", "street": "4230 East Cesar E Chavez Avenue", "formatted": "4230 East Cesar E Chavez Avenue Los Angeles, CA 90063"}, "geo": {"lat": 34.040375, "lon": -118.174744}, "menus": [], "last_updated": "2021-01-05T08:02:07.807Z"}, {"restaurant_name": "Tom's Burgers", "restaurant_phone": "(323) 261-7536", "restaurant_website": "", "hours": "", "price_range": "$$", "price_range_num": 2, "restaurant_id": 34035931118190076, "cuisines": [""], "address": {"city": "Los Angeles", "state": "CA", "postal_code": "90063", "street": "3566 E 1st St", "formatted": "3566 E 1st St Los Angeles, CA 90063"}, "geo": {"lat": 34.035931, "lon": -118.190077}, "menus": [], "last_updated": "2021-01-05T08:06:18.003Z"}, {"restaurant_name": "Tacos El Veneno Restaurant", "restaurant_phone": "(323) 264-4762", "restaurant_website": "http:///ca/los-angeles/605200-tacos-el-veneno-restaurant/", "hours": "", "price_range": "", "price_range_num": 0, "restaurant_id": 34028793118192468, "cuisines": [""], "address": {"city": "Los Angeles", "state": "CA", "postal_code": "90063", "street": "541 S Indiana St", "formatted": "541 S Indiana St Los Angeles, CA 90063"}, "geo": {"lat": 34.028793, "lon": -118.192467}, "menus": [], "last_updated": "2020-12-29T06:46:54.811Z"}, {"restaurant_name": "Birrieria Chalio", "restaurant_phone": "(323) 268-5349", "restaurant_website": "http:///ca/los-angeles/590411-birrieria-chalio/", "hours": "", "price_range": "", "price_range_num": 0, "restaurant_id": 34035778118189696, "cuisines": [""], "address": {"city": "Los Angeles", "state": "CA", "postal_code": "90063", "street": "3580 E 1st St", "formatted": "3580 E 1st St Los Angeles, CA 90063"}, "geo": {"lat": 34.035778, "lon": -118.189697}, "menus": [], "last_updated": "2020-12-29T06:46:57.011Z"}, {"restaurant_name": "Cemitas Juquilita", "restaurant_phone": "(323) 261-0390", "restaurant_website": "http:///ca/los-angeles/780108-juquilita-restaurant/", "hours": "", "price_range": "", "price_range_num": 0, "restaurant_id": 34031448118198440, "cuisines": [""], "address": {"city": "Los Angeles", "state": "CA", "postal_code": "90063", "street": "532 S Lorena St", "formatted": "532 S Lorena St Los Angeles, CA 90063"}, "geo": {"lat": 34.031448, "lon": -118.198441}, "menus": [], "last_updated": "2020-12-28T19:27:17.536Z"}, {"restaurant_name": "Granny's Donuts", "restaurant_phone": "(323) 266-6918", "restaurant_website": "http:///ca/los-angeles/780194-grannys-donuts/", "hours": "", "price_range": "", "price_range_num": 0, "restaurant_id": 34061028118174148, "cuisines": [""], "address": {"city": "Los Angeles", "state": "CA", "postal_code": "90063", "street": "1681 North Eastern Avenue", "formatted": "1681 North Eastern Avenue Los Angeles, CA 90063"}, "geo": {"lat": 34.061028, "lon": -118.174149}, "menus": [], "last_updated": "2020-12-28T19:27:17.641Z"}, {"restaurant_name": "Rockys Tacos & Bionicos", "restaurant_phone": "(323) 260-4642", "restaurant_website": "http:///ca/los-angeles/586993-rockys-tacos-bionicos/", "hours": "", "price_range": "", "price_range_num": 0, "restaurant_id": 34036175118192292, "cuisines": [""], "address": {"city": "Los Angeles", "state": "CA", "postal_code": "90063", "street": "3501 E 1st St", "formatted": "3501 E 1st St Los Angeles, CA 90063"}, "geo": {"lat": 34.036175, "lon": -118.192291}, "menus": [], "last_updated": "2020-12-28T19:25:14.150Z"}], "numResults": 25}