{"totalResults": 28, "page": 1, "total_pages": 2, "more_pages": true, "data": [{"restaurant_name": "Caesar's Restaurant", "restaurant_phone": "(310) 515-0080", "restaurant_website": "http:///ca/los-angeles/721299-caesars-restaurant/", "hours": "", "price_range": "", "price_range_num": 0, "restaurant_id": 33914238118264268, "cuisines": [""], "address": {"city": "Los Angeles", "state": "CA", "postal_code": "90061", "street": "13000 South Avalon Boulevard", "formatted": "13000 South Avalon Boulevard Los Angeles, CA 90061"}, "geo": {"lat": 33.914238, "lon": -118.264267}, "menus": [], "last_updated": "2020-12-29T06:46:08.741Z"}, {"restaurant_name": "Tom's Junior Burger", "restaurant_phone": "(323) 756-1097", "restaurant_website": "http:///ca/los-angeles/812852-toms-junior-burger/", "hours": "", "price_range": "", "price_range_num": 0, "restaurant_id": 33916672118269860, "cuisines": [""], "address": {"city": "Los Angeles", "state": "CA", "postal_code": "90061", "street": "245 East El Segundo Boulevard", "formatted": "245 East El Segundo Boulevard Los Angeles, CA 90061"}, "geo": {"lat": 33.916672, "lon": -118.269859}, "menus": [], "last_updated": "2021-01-05T08:02:04.259Z"}, {"restaurant_name": "A & T Burgers", "restaurant_phone": "", "restaurant_website": "http://www.aandtburgers.com/", "hours": "Daily: 6am-11pm", "price_range": "$$", "price_range_num": 2, "restaurant_id": 33931742118264810, "cuisines": ["American", "Burgers"], "address": {"city": "Los Angeles", "state": "CA", "postal_code": "90061", "street": "11318 Avalon Blvd", "formatted": "11318 Avalon Blvd Los Angeles, CA 90061"}, "geo": {"lat": 33.931742, "lon": -118.264807}, "menus": [], "last_updated": "2021-01-05T08:08:28.419Z"}, {"restaurant_name": "Louisiana Fried Chicken", "restaurant_phone": "(323) 757-8473", "restaurant_website": "http:///ca/los-angeles/785885-louisiana-fried-chicken/", "hours": "", "price_range": "", "price_range_num": 0, "restaurant_id": 33931423118273696, "cuisines": [""], "address": {"city": "Los Angeles", "state": "CA", "postal_code": "90061", "street": "11318 South Main Street", "formatted": "11318 South Main Street Los Angeles, CA 90061"}, "geo": {"lat": 33.931423, "lon": -118.273697}, "menus": [], "last_updated": "2021-01-05T08:02:08.668Z"}, {"restaurant_name": "Pepper's Jr Jamaican Belizean Cuisine", "restaurant_phone": "(323) 302-0412", "restaurant_website": "http:///ca/los-angeles/633600-peppers-jr-jamaican-belizean-cuisine/", "hours": "", "price_range": "", "price_range_num": 0, "restaurant_id": 33931801118283052, "cuisines": [""], "address": {"city": "Los Angeles", "state": "CA", "postal_code": "90061", "street": "11315 S Figueroa St", "formatted": "11315 S Figueroa St Los Angeles, CA 90061"}, "geo": {"lat": 33.931801, "lon": -118.283051}, "menus": [], "last_updated": "2020-12-29T06:46:34.172Z"}, {"restaurant_name": "Izzyhana", "restaurant_phone": "(877) 585-1085", "restaurant_website": "http:///ca/los-angeles/716240-izzyhana/", "hours": "", "price_range": "", "price_range_num": 0, "restaurant_id": 33909164118274000, "cuisines": [""], "address": {"city": "Los Angeles", "state": "CA", "postal_code": "90061", "street": "13500 South Main Street", "formatted": "13500 South Main Street Los Angeles, CA 90061"}, "geo": {"lat": 33.909164, "lon": -118.274002}, "menus": [], "last_updated": "2020-12-29T06:46:29.339Z"}, {"restaurant_name": "Balbuena's Mexican Restaurant", "restaurant_phone": "(323) 418-8502", "restaurant_website": "http:///ca/los-angeles/708934-balbuenas-mexican-restaurant/", "hours": "", "price_range": "", "price_range_num": 0, "restaurant_id": 33936665118282852, "cuisines": [""], "address": {"city": "Los Angeles", "state": "CA", "postal_code": "90061", "street": "10925 South Figueroa Street", "formatted": "10925 South Figueroa Street Los Angeles, CA 90061"}, "geo": {"lat": 33.936665, "lon": -118.282852}, "menus": [], "last_updated": "2020-12-29T06:46:30.570Z"}, {"restaurant_name": "Dona Ana's Kitchen", "restaurant_phone": "(323) 242-2231", "restaurant_website": "http:///ca/los-angeles/708696-dona-anas-kitchen/", "hours": "", "price_range": "", "price_range_num": 0, "restaurant_id": 33931721118265428, "cuisines": [""], "address": {"city": "Los Angeles", "state": "CA", "postal_code": "90061", "street": "11313 South Avalon Boulevard", "formatted": "11313 South Avalon Boulevard Los Angeles, CA 90061"}, "geo": {"lat": 33.931721, "lon": -118.265427}, "menus": [], "last_updated": "2020-12-29T06:46:30.628Z"}, {"restaurant_name": "Subway", "restaurant_phone": "(323) 242-8080", "restaurant_website": "https://restaurants.subway.com/united-states/ca/los-angeles/12730-s-figueroa-st?utm_source=yext-other&utm_medium=local&utm_term=acq&utm_content=47433&utm_campaign=evergreen-2020&y_source=1_MTQ5MDUwODM", "hours": "", "price_range": "", "price_range_num": 0, "restaurant_id": 33916800118282500, "cuisines": [""], "address": {"city": "Los Angeles", "state": "CA", "postal_code": "90061", "street": "12730 S Figueroa St", "formatted": "12730 S Figueroa St Los Angeles, CA 90061"}, "geo": {"lat": 33.9168, "lon": -118.2825}, "menus": [], "last_updated": "2020-12-29T06:46:56.710Z"}, {"restaurant_name": "La Pizza Loca", "restaurant_phone": "(323) 757-5841", "restaurant_website": "http://www.lapizzaloca.com/", "hours": "", "price_range": "$", "price_range_num": 1, "restaurant_id": 33933922118265160, "cuisines": ["Pizza", "Wings"], "address": {"city": "LOS ANGELES", "state": "CA", "postal_code": "90061", "street": "11151 Avalon Blvd", "formatted": "11151 Avalon Blvd LOS ANGELES, CA 90061"}, "geo": {"lat": 33.933922, "lon": -118.265162}, "menus": [], "last_updated": "2020-12-29T06:50:30.702Z"}, {"restaurant_name": "Taco Bell", "restaurant_phone": "(310) 327-8387", "restaurant_website": "http://www.tacobell.com", "hours": "", "price_range": "", "price_range_num": 0, "restaurant_id": 33916122118282196, "cuisines": ["Mexican"], "address": {"city": "Los Angeles", "state": "CA", "postal_code": "90061", "street": "12800 S Figueroa St", "formatted": "12800 S Figueroa St Los Angeles, CA 90061"}, "geo": {"lat": 33.916122, "lon": -118.282196}, "menus": [], "last_updated": "2020-12-29T06:51:32.048Z"}, {"restaurant_name": "Jack in the Box", "restaurant_phone": "(323) 757-2677", "restaurant_website": "", "hours": "", "price_range": "", "price_range_num": 0, "restaurant_id": 33930550118282370, "cuisines": ["American", "Burgers"], "address": {"city": "LOS ANGELES", "state": "CA", "postal_code": "90061", "street": "11400 S Figueroa St", "formatted": "11400 S Figueroa St LOS ANGELES, CA 90061"}, "geo": {"lat": 33.93055, "lon": -118.282367}, "menus": [], "last_updated": "2020-12-29T06:51:33.297Z"}, {"restaurant_name": "Jack in the Box", "restaurant_phone": "(323) 820-1865", "restaurant_website": "", "hours": "", "price_range": "", "price_range_num": 0, "restaurant_id": 33916836118274268, "cuisines": ["American", "Burgers"], "address": {"city": "Los Angeles", "state": "CA", "postal_code": "90061", "street": "12735 S Main St", "formatted": "12735 S Main St Los Angeles, CA 90061"}, "geo": {"lat": 33.916836, "lon": -118.274269}, "menus": [], "last_updated": "2020-12-29T06:51:33.318Z"}, {"restaurant_name": "Popeyes", "restaurant_phone": "(323) 779-6847", "restaurant_website": "http://www.popeyes.com", "hours": "", "price_range": "", "price_range_num": 0, "restaurant_id": 33916668118265520, "cuisines": ["American", "Wings"], "address": {"city": "Los Angeles", "state": "CA", "postal_code": "90061", "street": "451 E El Segundo Blvd", "formatted": "451 E El Segundo Blvd Los Angeles, CA 90061"}, "geo": {"lat": 33.916668, "lon": -118.265518}, "menus": [], "last_updated": "2020-12-29T06:51:33.714Z"}, {"restaurant_name": "Burger King", "restaurant_phone": "(323) 754-1373", "restaurant_website": "", "hours": "", "price_range": "", "price_range_num": 0, "restaurant_id": 33916801118264776, "cuisines": ["American", "Burgers"], "address": {"city": "Los Angeles", "state": "CA", "postal_code": "90061", "street": "12736 S Avalon Blvd", "formatted": "12736 S Avalon Blvd Los Angeles, CA 90061"}, "geo": {"lat": 33.916801, "lon": -118.264778}, "menus": [], "last_updated": "2020-12-29T06:51:34.501Z"}, {"restaurant_name": "El Pollo Loco", "restaurant_phone": "(310) 532-0060", "restaurant_website": "http://www.elpolloloco.com", "hours": "", "price_range": "", "price_range_num": 0, "restaurant_id": 33916111118264704, "cuisines": ["Chicken", "Mexican"], "address": {"city": "Los Angeles", "state": "CA", "postal_code": "90061", "street": "12800 Avalon Blvd", "formatted": "12800 Avalon Blvd Los Angeles, CA 90061"}, "geo": {"lat": 33.916111, "lon": -118.264702}, "menus": [], "last_updated": "2020-12-29T06:51:34.740Z"}, {"restaurant_name": "Golden Bird", "restaurant_phone": "(310) 324-2486", "restaurant_website": "http:///ca/compton/705350-golden-bird/", "hours": "", "price_range": "", "price_range_num": 0, "restaurant_id": 33908951118265610, "cuisines": [""], "address": {"city": "Los Angeles", "state": "CA", "postal_code": "90061", "street": "13501 S Avalon Blvd", "formatted": "13501 S Avalon Blvd Los Angeles, CA 90061"}, "geo": {"lat": 33.908951, "lon": -118.26561}, "menus": [], "last_updated": "2020-12-29T06:46:32.320Z"}, {"restaurant_name": "Monster Burger", "restaurant_phone": "(323) 755-2656", "restaurant_website": "http:///ca/los-angeles/704776-monster-burger/", "hours": "", "price_range": "", "price_range_num": 0, "restaurant_id": 33937252118274108, "cuisines": [""], "address": {"city": "Los Angeles", "state": "CA", "postal_code": "90061", "street": "10901 South Main Street", "formatted": "10901 South Main Street Los Angeles, CA 90061"}, "geo": {"lat": 33.937252, "lon": -118.274109}, "menus": [], "last_updated": "2020-12-29T06:46:32.640Z"}, {"restaurant_name": "Cluck's Chicken", "restaurant_phone": "(323) 345-7717", "restaurant_website": "http:///ca/los-angeles/713796-clucks-chicken/", "hours": "", "price_range": "", "price_range_num": 0, "restaurant_id": 33923187118266136, "cuisines": [""], "address": {"city": "Los Angeles", "state": "CA", "postal_code": "90061", "street": "12003 South Avalon Boulevard", "formatted": "12003 South Avalon Boulevard Los Angeles, CA 90061"}, "geo": {"lat": 33.923187, "lon": -118.266136}, "menus": [], "last_updated": "2020-12-29T06:46:29.547Z"}, {"restaurant_name": "Love Burger", "restaurant_phone": "(877) 585-1085", "restaurant_website": "http:///ca/los-angeles/713630-love-burger/", "hours": "", "price_range": "", "price_range_num": 0, "restaurant_id": 33924103118282332, "cuisines": [""], "address": {"city": "Los Angeles", "state": "CA", "postal_code": "90061", "street": "11916 South Figueroa Street", "formatted": "11916 South Figueroa Street Los Angeles, CA 90061"}, "geo": {"lat": 33.924103, "lon": -118.282333}, "menus": [], "last_updated": "2020-12-29T06:46:29.578Z"}, {"restaurant_name": "El Antojito Grill", "restaurant_phone": "(877) 585-1085", "restaurant_website": "http:///ca/los-angeles/713879-el-antojito-grill/", "hours": "", "price_range": "", "price_range_num": 0, "restaurant_id": 33916813118282430, "cuisines": [""], "address": {"city": "Los Angeles", "state": "CA", "postal_code": "90061", "street": "12730 S Figueroa St", "formatted": "12730 S Figueroa St Los Angeles, CA 90061"}, "geo": {"lat": 33.916813, "lon": -118.282433}, "menus": [], "last_updated": "2020-12-29T06:46:29.604Z"}, {"restaurant_name": "Imperial Fish Market", "restaurant_phone": "(323) 779-9001", "restaurant_website": "", "hours": "Mon-Thu, Sat: 10:30am-8pm Fri: 10:30am-9pm Sun: 11:30am-6pm", "price_range": "$", "price_range_num": 1, "restaurant_id": 33931412118278084, "cuisines": ["Seafood"], "address": {"city": "Los Angeles", "state": "CA", "postal_code": "90061", "street": "257 West Imperial Highway", "formatted": "257 West Imperial Highway Los Angeles, CA 90061"}, "geo": {"lat": 33.931412, "lon": -118.278084}, "menus": [], "last_updated": "2021-01-05T08:07:00.125Z"}, {"restaurant_name": "Mariscos El Pariente", "restaurant_phone": "(323) 242-0993", "restaurant_website": "", "hours": "Daily: 9am-7pm", "price_range": "$", "price_range_num": 1, "restaurant_id": 33934362118273896, "cuisines": ["Mexican"], "address": {"city": "Los Angeles", "state": "CA", "postal_code": "90061", "street": "11125 S Main St", "formatted": "11125 S Main St Los Angeles, CA 90061"}, "geo": {"lat": 33.934362, "lon": -118.273894}, "menus": [], "last_updated": "2021-01-05T08:07:00.924Z"}, {"restaurant_name": "Bernard Burgers", "restaurant_phone": "(323) 777-2695", "restaurant_website": "", "hours": "Mon-Sat: 9am-5pm", "price_range": "$", "price_range_num": 1, "restaurant_id": 33924278118265380, "cuisines": ["Burgers", "Hot Dogs"], "address": {"city": "Los Angeles", "state": "CA", "postal_code": "90061", "street": "11913 South Avalon Boulevard", "formatted": "11913 South Avalon Boulevard Los Angeles, CA 90061"}, "geo": {"lat": 33.924278, "lon": -118.265381}, "menus": [], "last_updated": "2021-01-05T08:07:03.459Z"}, {"restaurant_name": "A & T Burgers", "restaurant_phone": "(323) 757-0710", "restaurant_website": "http://www.aandtburgers.com/", "hours": "", "price_range": "$$", "price_range_num": 2, "restaurant_id": 33931768118264840, "cuisines": [""], "address": {"city": "Los Angeles", "state": "CA", "postal_code": "90061", "street": "11318 Avalon Boulevard", "formatted": "11318 Avalon Boulevard Los Angeles, CA 90061"}, "geo": {"lat": 33.931768, "lon": -118.264842}, "menus": [], "last_updated": "2021-01-05T08:06:23.342Z"}], "numResults": 25}