{"totalResults": 44, "page": 1, "total_pages": 2, "more_pages": true, "data": [{"restaurant_name": "Barham Plaza Deli", "restaurant_phone": "(323) 969-4300", "restaurant_website": "http:///ca/burbank/823013-barham-plaza-deli/", "hours": "", "price_range": "", "price_range_num": 0, "restaurant_id": 34143768118340844, "cuisines": [""], "address": {"city": "Burbank", "state": "CA", "postal_code": "90068", "street": "3800 Barham Boulevard", "formatted": "3800 Barham Boulevard Burbank, CA 90068"}, "geo": {"lat": 34.143768, "lon": -118.340843}, "menus": [], "last_updated": "2021-01-05T08:33:35.088Z"}, {"restaurant_name": "GC Marketplace", "restaurant_phone": "(323) 645-5269", "restaurant_website": "http://www.gcmarketplace.com", "hours": "8am-11am Breakfast M-F 8am-2pm Brunch Sat - Sun 11am - 9pm Lunch/Dinner M-Sat 11am-8pm Lunch/Dinner Sunday", "price_range": "$$", "price_range_num": 2, "restaurant_id": 34130447118350652, "cuisines": ["American (New)", "Asian Fusion", "Eclectic & International"], "address": {"city": "Studio City", "state": "CA", "postal_code": "90068", "street": "3315 Cahuenga Blvd", "formatted": "3315 Cahuenga Blvd Studio City, CA 90068"}, "geo": {"lat": 34.130447, "lon": -118.350651}, "menus": [], "last_updated": "2021-01-05T07:30:18.662Z"}, {"restaurant_name": "Henry's Hat", "restaurant_phone": "(323) 512-2500", "restaurant_website": "", "hours": "", "price_range": "$$$", "price_range_num": 3, "restaurant_id": 34131842118352396, "cuisines": ["American", "Burgers", "Healthy", "Salads", "Sandwiches"], "address": {"city": "Los Angeles", "state": "CA", "postal_code": "90068", "street": "3413 Cahuenga Blvd. West", "formatted": "3413 Cahuenga Blvd. West Los Angeles, CA 90068"}, "geo": {"lat": 34.131842, "lon": -118.352395}, "menus": [], "last_updated": "2020-12-29T06:50:33.976Z"}, {"restaurant_name": "Send Noods", "restaurant_phone": "(323) 366-2233", "restaurant_website": "http:///ca/los-angeles/724150-send-noods/", "hours": "", "price_range": "", "price_range_num": 0, "restaurant_id": 34128071118347268, "cuisines": [""], "address": {"city": "Los Angeles", "state": "CA", "postal_code": "90068", "street": "3175 Cahuenga Blvd W", "formatted": "3175 Cahuenga Blvd W Los Angeles, CA 90068"}, "geo": {"lat": 34.128071, "lon": -118.347267}, "menus": [], "last_updated": "2020-12-29T06:46:07.017Z"}, {"restaurant_name": "NrGize Lifestyle Cafe", "restaurant_phone": "(877) 585-1085", "restaurant_website": "http:///ca/los-angeles/997164-nrgize-lifestyle-cafe/", "hours": "", "price_range": "", "price_range_num": 0, "restaurant_id": 34131989118351816, "cuisines": [""], "address": {"city": "Los Angeles", "state": "CA", "postal_code": "90068", "street": "3400 Cahuenga Boulevard West", "formatted": "3400 Cahuenga Boulevard West Los Angeles, CA 90068"}, "geo": {"lat": 34.131989, "lon": -118.351814}, "menus": [], "last_updated": "2021-01-05T08:01:28.070Z"}, {"restaurant_name": "Good Service Mobil", "restaurant_phone": "(818) 294-0469", "restaurant_website": "http:///ca/los-angeles/843583-good-service-mobil/", "hours": "", "price_range": "", "price_range_num": 0, "restaurant_id": 34129395118348170, "cuisines": [""], "address": {"city": "Los Angeles", "state": "CA", "postal_code": "90068", "street": "3240 Cahuenga Blvd W", "formatted": "3240 Cahuenga Blvd W Los Angeles, CA 90068"}, "geo": {"lat": 34.129395, "lon": -118.348167}, "menus": [], "last_updated": "2021-01-05T08:01:29.013Z"}, {"restaurant_name": "The Pie Space", "restaurant_phone": "(323) 851-6161", "restaurant_website": "", "hours": "", "price_range": "$$", "price_range_num": 2, "restaurant_id": 34129717118349030, "cuisines": [""], "address": {"city": "Los Angeles", "state": "CA", "postal_code": "90068", "street": "3252 Cahuenga Blvd W", "formatted": "3252 Cahuenga Blvd W Los Angeles, CA 90068"}, "geo": {"lat": 34.129717, "lon": -118.34903}, "menus": [], "last_updated": "2021-01-05T08:08:28.701Z"}, {"restaurant_name": "Ramsey's At the Club", "restaurant_phone": "(323) 512-4170", "restaurant_website": "", "hours": "Mon-Fri: 11:30am-9:30pm Happy Hour: 4:30pm-6:30pm Bar Menu: 3pm-9pm", "price_range": "$$", "price_range_num": 2, "restaurant_id": 34144930118339350, "cuisines": ["American (New)"], "address": {"city": "Los Angeles", "state": "CA", "postal_code": "90068", "street": "6711 Forest Lawn Dr", "formatted": "6711 Forest Lawn Dr Los Angeles, CA 90068"}, "geo": {"lat": 34.14493, "lon": -118.339354}, "menus": [], "last_updated": "2021-01-05T08:07:43.038Z"}, {"restaurant_name": "Heirloom LA Truck", "restaurant_phone": "", "restaurant_website": "", "hours": "", "price_range": "$$", "price_range_num": 2, "restaurant_id": 34105578118342130, "cuisines": ["Italian"], "address": {"city": "Los Angeles", "state": "CA", "postal_code": "90068", "street": "Location Varies", "formatted": "Location Varies Los Angeles, CA 90068"}, "geo": {"lat": 34.105578, "lon": -118.342127}, "menus": [], "last_updated": "2021-01-05T08:07:44.799Z"}, {"restaurant_name": "Tokyo Cube", "restaurant_phone": "(323) 916-3088", "restaurant_website": "", "hours": "", "price_range": "", "price_range_num": 0, "restaurant_id": 34128220118347000, "cuisines": [""], "address": {"city": "Los Angeles", "state": "CA", "postal_code": "90068", "street": "3173 Cahuenga Blvd W", "formatted": "3173 Cahuenga Blvd W Los Angeles, CA 90068"}, "geo": {"lat": 34.12822, "lon": -118.347}, "menus": [], "last_updated": "2021-01-05T08:06:16.017Z"}, {"restaurant_name": "Pagoda Bar at Yamashiro Hollywood", "restaurant_phone": "(323) 466-5125", "restaurant_website": "http:///ca/los-angeles/789927-pagoda-bar-at-yamashiro-hollywood/", "hours": "", "price_range": "", "price_range_num": 0, "restaurant_id": 34105866118342156, "cuisines": [""], "address": {"city": "Los Angeles", "state": "CA", "postal_code": "90068", "street": "1999 North Sycamore Avenue", "formatted": "1999 North Sycamore Avenue Los Angeles, CA 90068"}, "geo": {"lat": 34.105866, "lon": -118.342156}, "menus": [], "last_updated": "2021-01-05T08:02:07.584Z"}, {"restaurant_name": "Mercado", "restaurant_phone": "(323) 512-2500", "restaurant_website": "http://www.mercadorestaurant.com", "hours": "Dinner Mon-Wed: 5pm-10pm Thu-Fri: 5pm-11pm Sat: 4pm-11pm Sun: 4pm-10pm Brunch Sun: 11am-3pm", "price_range": "$$", "price_range_num": 2, "restaurant_id": 34131672118352516, "cuisines": ["Mexican", "Nuevo Latino", "Tapas", "Vegetarian"], "address": {"city": "Los Angeles", "state": "CA", "postal_code": "90068", "street": "3413 Cahuenga Blvd W", "formatted": "3413 Cahuenga Blvd W Los Angeles, CA 90068"}, "geo": {"lat": 34.131672, "lon": -118.352516}, "menus": [], "last_updated": "2021-01-05T08:06:18.962Z"}, {"restaurant_name": "Spice", "restaurant_phone": "(323) 876-0497", "restaurant_website": "", "hours": "Mon-Sat: 7am-12pm, 5pm-10pm Sun: 7am-12pm, 5pm-8pm", "price_range": "$", "price_range_num": 1, "restaurant_id": 34107293118337664, "cuisines": ["American", "Italian"], "address": {"city": "Los Angeles", "state": "CA", "postal_code": "90068", "street": "2011 N Highland Ave", "formatted": "2011 N Highland Ave Los Angeles, CA 90068"}, "geo": {"lat": 34.107293, "lon": -118.337663}, "menus": [], "last_updated": "2021-01-05T08:08:25.852Z"}, {"restaurant_name": "Kaban Persian Restaurant", "restaurant_phone": "(323) 498-0080", "restaurant_website": "http:///ca/los-angeles/629360-kaban-persian-restaurant/", "hours": "", "price_range": "", "price_range_num": 0, "restaurant_id": 34129883118348732, "cuisines": [""], "address": {"city": "Los Angeles", "state": "CA", "postal_code": "90068", "street": "3250 Cahuenga Blvd W", "formatted": "3250 Cahuenga Blvd W Los Angeles, CA 90068"}, "geo": {"lat": 34.129883, "lon": -118.348732}, "menus": [], "last_updated": "2020-12-29T06:46:34.762Z"}, {"restaurant_name": "Vegetable", "restaurant_phone": "(818) 754-1149", "restaurant_website": "http:///ca/los-angeles/709401-vegetable/", "hours": "", "price_range": "", "price_range_num": 0, "restaurant_id": 34134987118361640, "cuisines": [""], "address": {"city": "Los Angeles", "state": "CA", "postal_code": "90068", "street": "3711 Cahuenga Boulevard", "formatted": "3711 Cahuenga Boulevard Los Angeles, CA 90068"}, "geo": {"lat": 34.134987, "lon": -118.361641}, "menus": [], "last_updated": "2020-12-29T06:46:30.280Z"}, {"restaurant_name": "Santuari Restaurant", "restaurant_phone": "(323) 902-9700", "restaurant_website": "http:///ca/los-angeles/707449-santuari-restaurant/", "hours": "", "price_range": "", "price_range_num": 0, "restaurant_id": 34145336118338816, "cuisines": [""], "address": {"city": "Los Angeles", "state": "CA", "postal_code": "90068", "street": "6711 Forest Lawn Drive", "formatted": "6711 Forest Lawn Drive Los Angeles, CA 90068"}, "geo": {"lat": 34.145336, "lon": -118.338814}, "menus": [], "last_updated": "2020-12-29T06:46:30.775Z"}, {"restaurant_name": "The Sandwich Shoppe", "restaurant_phone": "(323) 822-5171", "restaurant_website": "http:///ca/los-angeles/588117-the-sandwich-shoppe/", "hours": "", "price_range": "", "price_range_num": 0, "restaurant_id": 34128201118346976, "cuisines": [""], "address": {"city": "Los Angeles", "state": "CA", "postal_code": "90068", "street": "3171 Cahuenga Blvd W", "formatted": "3171 Cahuenga Blvd W Los Angeles, CA 90068"}, "geo": {"lat": 34.128201, "lon": -118.346977}, "menus": [], "last_updated": "2020-12-28T19:25:14.238Z"}, {"restaurant_name": "Little China Restaurant", "restaurant_phone": "(323) 969-8838", "restaurant_website": "http://www.littlechinala.com", "hours": "Mon-Fri: 11am-10pm Sat: 12pm-10pm", "price_range": "$$", "price_range_num": 2, "restaurant_id": 34133550118357170, "cuisines": ["Chinese"], "address": {"city": "Los Angeles", "state": "CA", "postal_code": "90068", "street": "3535 Cahuenga Blvd W Ste 107", "formatted": "3535 Cahuenga Blvd W Ste 107 Los Angeles, CA 90068"}, "geo": {"lat": 34.13355, "lon": -118.35717}, "menus": [], "last_updated": "2020-12-29T06:50:30.254Z"}, {"restaurant_name": "Veggie House", "restaurant_phone": "(323) 851-8837", "restaurant_website": "", "hours": "Mon-Thu: 11am-9pm Fri-Sat: 11am-10pm", "price_range": "$$", "price_range_num": 2, "restaurant_id": 34128643118347870, "cuisines": ["Vegan", "Vegetarian"], "address": {"city": "Los Angeles", "state": "CA", "postal_code": "90068", "street": "3217 Cahuenga Blvd W", "formatted": "3217 Cahuenga Blvd W Los Angeles, CA 90068"}, "geo": {"lat": 34.128643, "lon": -118.34787}, "menus": [], "last_updated": "2020-12-29T06:50:30.835Z"}, {"restaurant_name": "Joe's Falafel", "restaurant_phone": "(323) 512-4447", "restaurant_website": "", "hours": "Daily: 11am-10pm", "price_range": "$$", "price_range_num": 2, "restaurant_id": 34133304118357350, "cuisines": ["Middle Eastern"], "address": {"city": "Los Angeles", "state": "CA", "postal_code": "90068", "street": "3535 Cahuenga Blvd W Ste 105", "formatted": "3535 Cahuenga Blvd W Ste 105 Los Angeles, CA 90068"}, "geo": {"lat": 34.133304, "lon": -118.357354}, "menus": [], "last_updated": "2020-12-29T06:50:31.937Z"}, {"restaurant_name": "Boca's Munchies", "restaurant_phone": "(323) 850-9100", "restaurant_website": "", "hours": "Mon-Thu: 11am-11pm Fri-Sat: 11am-12am Sun: 2pm-11pm", "price_range": "$$", "price_range_num": 2, "restaurant_id": 34128089118346856, "cuisines": ["American", "Burgers", "Pasta", "Pizza", "Sandwiches"], "address": {"city": "Los Angeles", "state": "CA", "postal_code": "90068", "street": "3175 Cahuenga Blvd W", "formatted": "3175 Cahuenga Blvd W Los Angeles, CA 90068"}, "geo": {"lat": 34.128089, "lon": -118.346855}, "menus": [], "last_updated": "2020-12-29T06:50:32.041Z"}, {"restaurant_name": "Victorio's Ristorante", "restaurant_phone": "(323) 850-9100", "restaurant_website": "", "hours": "", "price_range": "$$", "price_range_num": 2, "restaurant_id": 34128088118346856, "cuisines": ["Italian"], "address": {"city": "Los Angeles", "state": "CA", "postal_code": "90068", "street": "3175 Cahuenga Blvd", "formatted": "3175 Cahuenga Blvd Los Angeles, CA 90068"}, "geo": {"lat": 34.128088, "lon": -118.346855}, "menus": [], "last_updated": "2020-12-29T06:50:34.074Z"}, {"restaurant_name": "Gala Thai", "restaurant_phone": "(323) 969-9169", "restaurant_website": "", "hours": "Daily: 11am-10pm", "price_range": "$$", "price_range_num": 2, "restaurant_id": 34132127118344560, "cuisines": ["Thai"], "address": {"city": "Los Angeles", "state": "CA", "postal_code": "90068", "street": "3353 Barham Blvd", "formatted": "3353 Barham Blvd Los Angeles, CA 90068"}, "geo": {"lat": 34.132127, "lon": -118.344562}, "menus": [], "last_updated": "2020-12-29T06:50:32.486Z"}, {"restaurant_name": "Miceli's", "restaurant_phone": "(323) 851-3344", "restaurant_website": "", "hours": "Mon-Thu: 11:30am-10pm Fri-Sat: 11:30am-11pm", "price_range": "$$$$", "price_range_num": 4, "restaurant_id": 34134617118361092, "cuisines": ["Italian", "Pizza"], "address": {"city": "Los Angeles", "state": "CA", "postal_code": "90068", "street": "3655 Cahuenga Blvd W", "formatted": "3655 Cahuenga Blvd W Los Angeles, CA 90068"}, "geo": {"lat": 34.134617, "lon": -118.361092}, "menus": [], "last_updated": "2020-12-29T06:50:33.410Z"}, {"restaurant_name": "Starbucks Coffee", "restaurant_phone": "(323) 850-7360", "restaurant_website": "http://www.starbucks.com", "hours": "", "price_range": "", "price_range_num": 0, "restaurant_id": 34105656118336970, "cuisines": ["American", "Coffee & Tea"], "address": {"city": "LOS ANGELES", "state": "CA", "postal_code": "90068", "street": "1900 N Highland Ave", "formatted": "1900 N Highland Ave LOS ANGELES, CA 90068"}, "geo": {"lat": 34.105656, "lon": -118.336966}, "menus": [], "last_updated": "2020-12-29T06:51:36.122Z"}], "numResults": 25}