{"totalResults": 174, "page": 1, "total_pages": 7, "more_pages": true, "data": [{"restaurant_name": "Cafe Dabang", "restaurant_phone": "(877) 585-1085", "restaurant_website": "http:///ca/los-angeles/755920-design-cafe-dabang/", "hours": "", "price_range": "", "price_range_num": 0, "restaurant_id": 34047428118319084, "cuisines": [""], "address": {"city": "Los Angeles", "state": "CA", "postal_code": "90019", "street": "3501 W Pico Blvd", "formatted": "3501 W Pico Blvd Los Angeles, CA 90019"}, "geo": {"lat": 34.047428, "lon": -118.319084}, "menus": [], "last_updated": "2020-12-29T06:46:06.563Z"}, {"restaurant_name": "Domino's Pizza", "restaurant_phone": "(323) 934-3030", "restaurant_website": "http://www.dominos.com", "hours": "", "price_range": "", "price_range_num": 0, "restaurant_id": 34048200118351000, "cuisines": ["American", "Pizza", "Wings"], "address": {"city": "Los Angeles", "state": "CA", "postal_code": "90019", "street": "5151 W Pico Blvd", "formatted": "5151 W Pico Blvd Los Angeles, CA 90019"}, "geo": {"lat": 34.0482, "lon": -118.351}, "menus": [], "last_updated": "2020-12-29T06:46:06.835Z"}, {"restaurant_name": "Domino's Pizza", "restaurant_phone": "(323) 735-8008", "restaurant_website": "http://www.dominos.com", "hours": "", "price_range": "", "price_range_num": 0, "restaurant_id": 34047300118316000, "cuisines": ["American", "Pizza", "Wings"], "address": {"city": "Los Angeles", "state": "CA", "postal_code": "90019", "street": "3309 W Pico Blvd", "formatted": "3309 W Pico Blvd Los Angeles, CA 90019"}, "geo": {"lat": 34.0473, "lon": -118.316}, "menus": [], "last_updated": "2020-12-29T06:46:06.861Z"}, {"restaurant_name": "My Taco Guy", "restaurant_phone": "(310) 906-5011", "restaurant_website": "http:///ca/los-angeles/571814-my-taco-guy/", "hours": "", "price_range": "", "price_range_num": 0, "restaurant_id": 34054726118344070, "cuisines": [""], "address": {"city": "Los Angeles", "state": "CA", "postal_code": "90019", "street": "1105 S La Brea Ave", "formatted": "1105 S La Brea Ave Los Angeles, CA 90019"}, "geo": {"lat": 34.054726, "lon": -118.34407}, "menus": [], "last_updated": "2020-12-28T19:25:11.910Z"}, {"restaurant_name": "Alfredo's Pizza", "restaurant_phone": "(323) 424-7600", "restaurant_website": "http:///ca/los-angeles/573572-alfredos-pizza/", "hours": "", "price_range": "", "price_range_num": 0, "restaurant_id": 34048424118357308, "cuisines": [""], "address": {"city": "Los Angeles", "state": "CA", "postal_code": "90019", "street": "5450 W Pico Blvd Ste 101", "formatted": "5450 W Pico Blvd Ste 101 Los Angeles, CA 90019"}, "geo": {"lat": 34.048424, "lon": -118.357307}, "menus": [], "last_updated": "2020-12-28T19:25:12.238Z"}, {"restaurant_name": "Little Amsterdam Coffee", "restaurant_phone": "(323) 452-9124", "restaurant_website": "http:///ca/los-angeles/575040-little-amsterdam-coffee/", "hours": "", "price_range": "", "price_range_num": 0, "restaurant_id": 34047569118349244, "cuisines": [""], "address": {"city": "Los Angeles", "state": "CA", "postal_code": "90019", "street": "1412 S Redondo Blvd", "formatted": "1412 S Redondo Blvd Los Angeles, CA 90019"}, "geo": {"lat": 34.047569, "lon": -118.349243}, "menus": [], "last_updated": "2020-12-28T19:25:12.527Z"}, {"restaurant_name": "Restaurant Del Valle", "restaurant_phone": "(323) 930-2133", "restaurant_website": "", "hours": "", "price_range": "$$", "price_range_num": 2, "restaurant_id": 34048364118333800, "cuisines": ["French", "Italian", "Mediterranean", "Seafood", "Spanish"], "address": {"city": "Los Angeles", "state": "CA", "postal_code": "90019", "street": "4506 W Pico Blvd", "formatted": "4506 W Pico Blvd Los Angeles, CA 90019"}, "geo": {"lat": 34.048364, "lon": -118.333799}, "menus": [], "last_updated": "2020-12-29T06:50:09.194Z"}, {"restaurant_name": "Chocolate Cafe", "restaurant_phone": "(323) 734-7679", "restaurant_website": "", "hours": "Daily: 7am-9pm ", "price_range": "$$", "price_range_num": 2, "restaurant_id": 34047262118315776, "cuisines": ["Coffee & Tea", "Smoothies & Juices"], "address": {"city": "Los Angeles", "state": "CA", "postal_code": "90019", "street": "3319 W Pico Blvd", "formatted": "3319 W Pico Blvd Los Angeles, CA 90019"}, "geo": {"lat": 34.047262, "lon": -118.315777}, "menus": [], "last_updated": "2020-12-29T06:50:09.327Z"}, {"restaurant_name": "Canton Chef Express", "restaurant_phone": "(323) 938-8998", "restaurant_website": "", "hours": "Daily: 11am-9:30pm", "price_range": "$$", "price_range_num": 2, "restaurant_id": 34047615118344292, "cuisines": ["Chinese"], "address": {"city": "Los Angeles", "state": "CA", "postal_code": "90019", "street": "4934 W Pico Blvd", "formatted": "4934 W Pico Blvd Los Angeles, CA 90019"}, "geo": {"lat": 34.047615, "lon": -118.344292}, "menus": [], "last_updated": "2020-12-29T06:50:09.408Z"}, {"restaurant_name": "Little Kitchen Restaurant", "restaurant_phone": "(323) 939-0161", "restaurant_website": "", "hours": "", "price_range": "$", "price_range_num": 1, "restaurant_id": 34050378118344050, "cuisines": ["American", "Burgers", "Lunch Specials", "Mexican", "Sandwiches"], "address": {"city": "Los Angeles", "state": "CA", "postal_code": "90019", "street": "1292 S La Brea Ave", "formatted": "1292 S La Brea Ave Los Angeles, CA 90019"}, "geo": {"lat": 34.050378, "lon": -118.344049}, "menus": [], "last_updated": "2020-12-29T06:50:09.623Z"}, {"restaurant_name": "Consabor Restaurant", "restaurant_phone": "(323) 936-0231", "restaurant_website": "", "hours": "Mon-Fri: 8am-9:30pm Sat-Sun: 7am-9:30pm", "price_range": "$$", "price_range_num": 2, "restaurant_id": 34045643118350650, "cuisines": ["Central American", "Latin American"], "address": {"city": "Los Angeles", "state": "CA", "postal_code": "90019", "street": "5105 Venice Boulevard", "formatted": "5105 Venice Boulevard Los Angeles, CA 90019"}, "geo": {"lat": 34.045643, "lon": -118.350647}, "menus": [], "last_updated": "2020-12-29T06:50:30.059Z"}, {"restaurant_name": "City Best Chicken", "restaurant_phone": "(323) 938-7409", "restaurant_website": "http://www.citybestchicken.com", "hours": "", "price_range": "$", "price_range_num": 1, "restaurant_id": 34048481118353948, "cuisines": ["Breakfast", "Burgers", "Greek", "Mediterranean", "Sandwiches"], "address": {"city": "LOS ANGELES", "state": "CA", "postal_code": "90019", "street": "5303 W Pico Blvd", "formatted": "5303 W Pico Blvd LOS ANGELES, CA 90019"}, "geo": {"lat": 34.048481, "lon": -118.353947}, "menus": [], "last_updated": "2020-12-29T06:50:30.184Z"}, {"restaurant_name": "Bloom Cafe", "restaurant_phone": "(323) 934-6900", "restaurant_website": "http://www.bloomcafe.com", "hours": "Daily: 9am-9pm", "price_range": "$", "price_range_num": 1, "restaurant_id": 34049428118359344, "cuisines": ["Californian", "Coffee & Tea", "Local/Organic", "Pizza", "Smoothies & Juices"], "address": {"city": "Los Angeles", "state": "CA", "postal_code": "90019", "street": "5544 Pico Blvd", "formatted": "5544 Pico Blvd Los Angeles, CA 90019"}, "geo": {"lat": 34.049428, "lon": -118.359342}, "menus": [], "last_updated": "2020-12-29T06:50:31.437Z"}, {"restaurant_name": "Sky's Gourmet Tacos", "restaurant_phone": "(323) 932-6253", "restaurant_website": "http://www.skysgourmettacos.com", "hours": "Mon-Sat: 9am-9pm Sun: 9am-7pm", "price_range": "$$", "price_range_num": 2, "restaurant_id": 34048702118353800, "cuisines": ["Mexican", "Vegan", "Vegetarian"], "address": {"city": "Los Angeles", "state": "CA", "postal_code": "90019", "street": "5303 W Pico Blvd", "formatted": "5303 W Pico Blvd Los Angeles, CA 90019"}, "geo": {"lat": 34.048702, "lon": -118.353798}, "menus": [], "last_updated": "2020-12-29T06:50:31.500Z"}, {"restaurant_name": "BBQ Fiesta", "restaurant_phone": "(323) 733-7515", "restaurant_website": "", "hours": "", "price_range": "$", "price_range_num": 1, "restaurant_id": 34046875118310580, "cuisines": ["Barbecue", "Korean", "Mexican"], "address": {"city": "Los Angeles", "state": "CA", "postal_code": "90019", "street": "3138 W Pico Blvd", "formatted": "3138 W Pico Blvd Los Angeles, CA 90019"}, "geo": {"lat": 34.046875, "lon": -118.31058}, "menus": [], "last_updated": "2020-12-29T06:50:32.834Z"}, {"restaurant_name": "East India Grill", "restaurant_phone": "(323) 936-8844", "restaurant_website": "", "hours": "Sun-Thu: 10:30am-10:30pm Fri-Sat: 10:30am-11pm", "price_range": "$$", "price_range_num": 2, "restaurant_id": 34052090118366844, "cuisines": ["Indian", "Pakistani"], "address": {"city": "Los Angeles", "state": "CA", "postal_code": "90019", "street": "1247 S Fairfax Ave", "formatted": "1247 S Fairfax Ave Los Angeles, CA 90019"}, "geo": {"lat": 34.05209, "lon": -118.366844}, "menus": [], "last_updated": "2020-12-29T06:50:35.044Z"}, {"restaurant_name": "Starbucks Coffee", "restaurant_phone": "(323) 936-5040", "restaurant_website": "http://www.starbucks.com", "hours": "", "price_range": "", "price_range_num": 0, "restaurant_id": 34048602118338310, "cuisines": ["American", "Coffee & Tea"], "address": {"city": "LOS ANGELES", "state": "CA", "postal_code": "90019", "street": "4700 W Pico Blvd", "formatted": "4700 W Pico Blvd LOS ANGELES, CA 90019"}, "geo": {"lat": 34.048602, "lon": -118.338312}, "menus": [], "last_updated": "2020-12-29T06:51:36.790Z"}, {"restaurant_name": "Starbucks", "restaurant_phone": "(323) 934-2408", "restaurant_website": "http://www.starbucks.com", "hours": "", "price_range": "", "price_range_num": 0, "restaurant_id": 34051666118343956, "cuisines": ["American", "Coffee & Tea"], "address": {"city": "Los Angeles", "state": "CA", "postal_code": "90019", "street": "1250 South La Brea Avenue", "formatted": "1250 South La Brea Avenue Los Angeles, CA 90019"}, "geo": {"lat": 34.051666, "lon": -118.343956}, "menus": [], "last_updated": "2020-12-29T06:51:37.049Z"}, {"restaurant_name": "Tom's No. 5", "restaurant_phone": "(323) 937-2489", "restaurant_website": "", "hours": "Mon-Sat: 5am-9pm Sun: 5am-7pm", "price_range": "$", "price_range_num": 1, "restaurant_id": 34048612118333656, "cuisines": ["American", "Burgers", "Mexican"], "address": {"city": "Los Angeles", "state": "CA", "postal_code": "90019", "street": "4497 W Pico Blvd", "formatted": "4497 W Pico Blvd Los Angeles, CA 90019"}, "geo": {"lat": 34.048612, "lon": -118.333658}, "menus": [], "last_updated": "2020-12-29T06:49:38.716Z"}, {"restaurant_name": "Tawada Cafe", "restaurant_phone": "(323) 964-8199", "restaurant_website": "", "hours": "Mon-Thu: 11am-8pm Fri: 11am-9pm Sat: 12pm-8pm", "price_range": "$", "price_range_num": 1, "restaurant_id": 34048865118335764, "cuisines": ["Japanese", "Sushi"], "address": {"city": "Los Angeles", "state": "CA", "postal_code": "90019", "street": "4601 W Pico Blvd", "formatted": "4601 W Pico Blvd Los Angeles, CA 90019"}, "geo": {"lat": 34.048865, "lon": -118.335764}, "menus": [], "last_updated": "2020-12-29T06:49:38.863Z"}, {"restaurant_name": "Roscoe's House of Chicken 'n Waffles", "restaurant_phone": "(323) 934-4405", "restaurant_website": "", "hours": "Mon-Fri: 8am-1am Sat-Sun: 8am-2am", "price_range": "$$", "price_range_num": 2, "restaurant_id": 34047446118346230, "cuisines": ["Chicken", "Soul Food"], "address": {"city": "Los Angeles", "state": "CA", "postal_code": "90019", "street": "5006 W Pico Blvd", "formatted": "5006 W Pico Blvd Los Angeles, CA 90019"}, "geo": {"lat": 34.047446, "lon": -118.346232}, "menus": [], "last_updated": "2020-12-29T06:50:00.602Z"}, {"restaurant_name": "Messob", "restaurant_phone": "(323) 938-8827", "restaurant_website": "", "hours": "Daily: 11am-11pm ", "price_range": "$$$", "price_range_num": 3, "restaurant_id": 34056999118364700, "cuisines": ["Ethiopian", "Vegetarian"], "address": {"city": "Los Angeles", "state": "CA", "postal_code": "90019", "street": "1041 S Fairfax Ave", "formatted": "1041 S Fairfax Ave Los Angeles, CA 90019"}, "geo": {"lat": 34.056999, "lon": -118.3647}, "menus": [], "last_updated": "2020-12-29T06:50:02.655Z"}, {"restaurant_name": "Kang Nam Restaurant", "restaurant_phone": "(323) 937-1070", "restaurant_website": "", "hours": "Mon-Sat: 11am-10:30pm Sun: 11am-10pm ", "price_range": "$$$", "price_range_num": 3, "restaurant_id": 34054573118322076, "cuisines": ["Japanese", "Korean", "Sushi"], "address": {"city": "Los Angeles", "state": "CA", "postal_code": "90019", "street": "4103 West Olympic Boulevard", "formatted": "4103 West Olympic Boulevard Los Angeles, CA 90019"}, "geo": {"lat": 34.054573, "lon": -118.322075}, "menus": [], "last_updated": "2020-12-29T06:50:02.709Z"}, {"restaurant_name": "McDonald's", "restaurant_phone": "", "restaurant_website": "http://www.mcdonalds.com", "hours": "", "price_range": "", "price_range_num": 0, "restaurant_id": 34052407118344348, "cuisines": ["American", "Burgers"], "address": {"city": "LOS ANGELES", "state": "CA", "postal_code": "90019", "street": "1231 S La Brea Ave", "formatted": "1231 S La Brea Ave LOS ANGELES, CA 90019"}, "geo": {"lat": 34.052407, "lon": -118.344347}, "menus": [], "last_updated": "2020-12-29T06:51:31.836Z"}, {"restaurant_name": "Taco Bell", "restaurant_phone": "(323) 735-7702", "restaurant_website": "http://www.tacobell.com", "hours": "", "price_range": "", "price_range_num": 0, "restaurant_id": 34044536118328950, "cuisines": ["Mexican"], "address": {"city": "LOS ANGELES", "state": "CA", "postal_code": "90019", "street": "1601 Crenshaw Blvd", "formatted": "1601 Crenshaw Blvd LOS ANGELES, CA 90019"}, "geo": {"lat": 34.044536, "lon": -118.328952}, "menus": [], "last_updated": "2020-12-29T06:51:32.195Z"}], "numResults": 25}