{"totalResults": 109, "page": 1, "total_pages": 5, "more_pages": true, "data": [{"restaurant_name": "Round Table Pizza", "restaurant_phone": "(323) 663-8301", "restaurant_website": "http://www.roundtablepizza.com/", "hours": "", "price_range": "", "price_range_num": 0, "restaurant_id": 34103490118259164, "cuisines": ["American", "Pizza"], "address": {"city": "LOS ANGELES", "state": "CA", "postal_code": "90039", "street": "2524 Glendale Blvd", "formatted": "2524 Glendale Blvd LOS ANGELES, CA 90039"}, "geo": {"lat": 34.10349, "lon": -118.259163}, "menus": [], "last_updated": "2020-12-29T06:46:06.624Z"}, {"restaurant_name": "Viva Taco Azteca Original", "restaurant_phone": "(818) 221-5972", "restaurant_website": "http:///ca/los-angeles/723110-viva-taco-azteca-original/", "hours": "", "price_range": "", "price_range_num": 0, "restaurant_id": 34125477118265344, "cuisines": [""], "address": {"city": "Los Angeles", "state": "CA", "postal_code": "90039", "street": "3013 Los Feliz Boulevard", "formatted": "3013 Los Feliz Boulevard Los Angeles, CA 90039"}, "geo": {"lat": 34.125477, "lon": -118.265343}, "menus": [], "last_updated": "2020-12-29T06:46:07.117Z"}, {"restaurant_name": "Hail Mary Pizza", "restaurant_phone": "(323) 284-8879", "restaurant_website": "http:///ca/los-angeles/721307-hail-mary-pizza/", "hours": "", "price_range": "", "price_range_num": 0, "restaurant_id": 34118397118260830, "cuisines": [""], "address": {"city": "Los Angeles", "state": "CA", "postal_code": "90039", "street": "3219 Glendale Boulevard", "formatted": "3219 Glendale Boulevard Los Angeles, CA 90039"}, "geo": {"lat": 34.118397, "lon": -118.260834}, "menus": [], "last_updated": "2020-12-29T06:46:08.713Z"}, {"restaurant_name": "Crispy Crust", "restaurant_phone": "(323) 661-3111", "restaurant_website": "http://crispycrust.com", "hours": "", "price_range": "$$$", "price_range_num": 3, "restaurant_id": 34116492118263052, "cuisines": [""], "address": {"city": "Los Angeles", "state": "CA", "postal_code": "90039", "street": "3111 N Glendale Boulevard #4", "formatted": "3111 N Glendale Boulevard #4 Los Angeles, CA 90039"}, "geo": {"lat": 34.116492, "lon": -118.263053}, "menus": [], "last_updated": "2020-12-28T19:23:55.217Z"}, {"restaurant_name": "Rosellin Pizza", "restaurant_phone": "(323) 644-4930", "restaurant_website": "", "hours": "Daily: 11am-9:45pm", "price_range": "$$$", "price_range_num": 3, "restaurant_id": 34104649118258256, "cuisines": ["Italian", "Late Night", "Pizza"], "address": {"city": "Los Angeles", "state": "CA", "postal_code": "90039", "street": "2320 Fletcher Dr", "formatted": "2320 Fletcher Dr Los Angeles, CA 90039"}, "geo": {"lat": 34.104649, "lon": -118.258256}, "menus": [], "last_updated": "2020-12-29T06:50:09.351Z"}, {"restaurant_name": "Sepan Chicken", "restaurant_phone": "(323) 669-0616", "restaurant_website": "http://www.sepan-chicken.com", "hours": "Daily: 10am-10pm", "price_range": "$$", "price_range_num": 2, "restaurant_id": 34119328118259110, "cuisines": ["Chicken", "Middle Eastern"], "address": {"city": "Los Angeles", "state": "CA", "postal_code": "90039", "street": "3324 Glendale Blvd", "formatted": "3324 Glendale Blvd Los Angeles, CA 90039"}, "geo": {"lat": 34.119328, "lon": -118.259111}, "menus": [], "last_updated": "2020-12-29T06:50:30.451Z"}, {"restaurant_name": "Bigmista's Barbecue", "restaurant_phone": "(562) 423-4244", "restaurant_website": "http://www.bigmista.com", "hours": "Sun: 10am-2pm", "price_range": "$$", "price_range_num": 2, "restaurant_id": 34118006118260420, "cuisines": ["Barbecue"], "address": {"city": "Los Angeles", "state": "CA", "postal_code": "90039", "street": "3250 Glendale Blvd", "formatted": "3250 Glendale Blvd Los Angeles, CA 90039"}, "geo": {"lat": 34.118006, "lon": -118.26042}, "menus": [], "last_updated": "2020-12-29T06:50:30.553Z"}, {"restaurant_name": "Thai Taste Restaurant", "restaurant_phone": "(323) 666-2464", "restaurant_website": "", "hours": "Daily: 11am-10pm", "price_range": "$$", "price_range_num": 2, "restaurant_id": 34104915118258170, "cuisines": ["Thai"], "address": {"city": "Los Angeles", "state": "CA", "postal_code": "90039", "street": "2328 Fletcher Dr", "formatted": "2328 Fletcher Dr Los Angeles, CA 90039"}, "geo": {"lat": 34.104915, "lon": -118.258169}, "menus": [], "last_updated": "2020-12-29T06:50:34.789Z"}, {"restaurant_name": "Starbucks Coffee", "restaurant_phone": "(323) 665-1347", "restaurant_website": "http://www.starbucks.com", "hours": "", "price_range": "", "price_range_num": 0, "restaurant_id": 34125878118263990, "cuisines": ["American", "Coffee & Tea"], "address": {"city": "LOS ANGELES", "state": "CA", "postal_code": "90039", "street": "2919 Los Feliz Blvd", "formatted": "2919 Los Feliz Blvd LOS ANGELES, CA 90039"}, "geo": {"lat": 34.125878, "lon": -118.263994}, "menus": [], "last_updated": "2020-12-29T06:51:37.014Z"}, {"restaurant_name": "Starbucks Coffee", "restaurant_phone": "(323) 913-3506", "restaurant_website": "http://www.starbucks.com", "hours": "", "price_range": "", "price_range_num": 0, "restaurant_id": 34104116118258924, "cuisines": ["American", "Coffee & Tea"], "address": {"city": "LOS ANGELES", "state": "CA", "postal_code": "90039", "street": "2560 Glendale Blvd", "formatted": "2560 Glendale Blvd LOS ANGELES, CA 90039"}, "geo": {"lat": 34.104116, "lon": -118.258923}, "menus": [], "last_updated": "2020-12-29T06:51:37.097Z"}, {"restaurant_name": "Mimi?s Bistro & Bakery", "restaurant_phone": "(323) 668-1715", "restaurant_website": "", "hours": "Daily: 7am-11pm", "price_range": "", "price_range_num": 0, "restaurant_id": 34126076118264276, "cuisines": ["Diner"], "address": {"city": "Los Angeles", "state": "CA", "postal_code": "90039", "street": "2925 Los Feliz Blvd", "formatted": "2925 Los Feliz Blvd Los Angeles, CA 90039"}, "geo": {"lat": 34.126076, "lon": -118.264275}, "menus": [], "last_updated": "2020-12-29T06:51:37.776Z"}, {"restaurant_name": "Indochine Vien", "restaurant_phone": "(323) 667-9591", "restaurant_website": "", "hours": "Sun-Thu: 11:30am-10pm Fri-Sat: 11:30am-11pm", "price_range": "$$", "price_range_num": 2, "restaurant_id": 34116403118262236, "cuisines": ["Noodles", "Sandwiches", "Vegetarian", "Vietnamese"], "address": {"city": "Los Angeles", "state": "CA", "postal_code": "90039", "street": "3110 Glendale Blvd", "formatted": "3110 Glendale Blvd Los Angeles, CA 90039"}, "geo": {"lat": 34.116403, "lon": -118.262237}, "menus": [], "last_updated": "2020-12-29T06:49:39.009Z"}, {"restaurant_name": "Kaldi Coffee & Tea", "restaurant_phone": "(323) 660-6005", "restaurant_website": "", "hours": "Mon-Fri: 6:30am-8pm Sat-Sun: 7:30am-8pm", "price_range": "$", "price_range_num": 1, "restaurant_id": 34117203118262252, "cuisines": ["Coffee & Tea"], "address": {"city": "Los Angeles", "state": "CA", "postal_code": "90039", "street": "3147 Glendale Boulevard", "formatted": "3147 Glendale Boulevard Los Angeles, CA 90039"}, "geo": {"lat": 34.117203, "lon": -118.262253}, "menus": [], "last_updated": "2020-12-29T06:49:39.034Z"}, {"restaurant_name": "India Sweets & Spices", "restaurant_phone": "(323) 345-0360", "restaurant_website": "", "hours": "Daily: 10am-9:30pm", "price_range": "$", "price_range_num": 1, "restaurant_id": 34123902118267236, "cuisines": ["Indian"], "address": {"city": "Los Angeles", "state": "CA", "postal_code": "90039", "street": "3126 Los Feliz Blvd", "formatted": "3126 Los Feliz Blvd Los Angeles, CA 90039"}, "geo": {"lat": 34.123902, "lon": -118.267236}, "menus": [], "last_updated": "2020-12-29T06:49:39.043Z"}, {"restaurant_name": "Giamela's Submarine Sandwiches", "restaurant_phone": "(323) 661-9444", "restaurant_website": "", "hours": "Sun: 10:30am-9pm Mon-Sat: 10am-9pm", "price_range": "$", "price_range_num": 1, "restaurant_id": 34123515118268164, "cuisines": ["Pizza", "Sandwiches"], "address": {"city": "Los Angeles", "state": "CA", "postal_code": "90039", "street": "3178 Los Feliz Blvd", "formatted": "3178 Los Feliz Blvd Los Angeles, CA 90039"}, "geo": {"lat": 34.123515, "lon": -118.268165}, "menus": [], "last_updated": "2020-12-29T06:49:39.065Z"}, {"restaurant_name": "Los Feliz Cafe", "restaurant_phone": "(323) 661-2355", "restaurant_website": "http://www.losfelizcafe.com/index.html", "hours": "Daily: 7am-7pm", "price_range": "$", "price_range_num": 1, "restaurant_id": 34123325118269348, "cuisines": ["Coffee & Tea"], "address": {"city": "Los Angeles", "state": "CA", "postal_code": "90039", "street": "3207 Los Feliz Blvd", "formatted": "3207 Los Feliz Blvd Los Angeles, CA 90039"}, "geo": {"lat": 34.123325, "lon": -118.269348}, "menus": [], "last_updated": "2020-12-29T06:49:41.432Z"}, {"restaurant_name": "Lu Subs", "restaurant_phone": "(323) 660-8313", "restaurant_website": "", "hours": "Daily: 9am-8:30pm", "price_range": "$", "price_range_num": 1, "restaurant_id": 34101814118259108, "cuisines": ["Sandwiches", "Vietnamese"], "address": {"city": "Los Angeles", "state": "CA", "postal_code": "90039", "street": "2470 Glendale Blvd", "formatted": "2470 Glendale Blvd Los Angeles, CA 90039"}, "geo": {"lat": 34.101814, "lon": -118.259108}, "menus": [], "last_updated": "2020-12-29T06:49:59.793Z"}, {"restaurant_name": "Baracoa Cuban Cafe", "restaurant_phone": "(323) 665-9590", "restaurant_website": "", "hours": "Daily: 7am-9pm", "price_range": "$$", "price_range_num": 2, "restaurant_id": 34117648118261780, "cuisines": ["Cuban"], "address": {"city": "Los Angeles", "state": "CA", "postal_code": "90039", "street": "3175 Glendale Blvd", "formatted": "3175 Glendale Blvd Los Angeles, CA 90039"}, "geo": {"lat": 34.117648, "lon": -118.26178}, "menus": [], "last_updated": "2020-12-29T06:50:01.074Z"}, {"restaurant_name": "California Roll & Sushi", "restaurant_phone": "(323) 666-1266", "restaurant_website": "", "hours": "Daily: 11am-9:45pm", "price_range": "$$", "price_range_num": 2, "restaurant_id": 34126849118263572, "cuisines": ["Japanese", "Sushi"], "address": {"city": "Los Angeles", "state": "CA", "postal_code": "90039", "street": "2919 Los Feliz Blvd", "formatted": "2919 Los Feliz Blvd Los Angeles, CA 90039"}, "geo": {"lat": 34.126849, "lon": -118.263571}, "menus": [], "last_updated": "2020-12-29T06:50:01.125Z"}, {"restaurant_name": "The Red Lion Tavern", "restaurant_phone": "(323) 662-5337", "restaurant_website": "", "hours": "Daily: 11am-2am ", "price_range": "$$", "price_range_num": 2, "restaurant_id": 34099226118259108, "cuisines": ["Bar Food", "German"], "address": {"city": "Los Angeles", "state": "CA", "postal_code": "90039", "street": "2366 Glendale Blvd", "formatted": "2366 Glendale Blvd Los Angeles, CA 90039"}, "geo": {"lat": 34.099226, "lon": -118.259109}, "menus": [], "last_updated": "2020-12-29T06:50:01.735Z"}, {"restaurant_name": "KFC - Kentucky Fried Chicken", "restaurant_phone": "(323) 666-1462", "restaurant_website": "http://www.kfc.com", "hours": "", "price_range": "", "price_range_num": 0, "restaurant_id": 34104013118259156, "cuisines": ["American", "Chicken"], "address": {"city": "LOS ANGELES", "state": "CA", "postal_code": "90039", "street": "2554 Glendale Blvd", "formatted": "2554 Glendale Blvd LOS ANGELES, CA 90039"}, "geo": {"lat": 34.104013, "lon": -118.259157}, "menus": [], "last_updated": "2020-12-29T06:51:32.579Z"}, {"restaurant_name": "Cold Stone Creamery", "restaurant_phone": "(323) 667-9854", "restaurant_website": "http://www.coldstonecreamery.com/", "hours": "", "price_range": "", "price_range_num": 0, "restaurant_id": 34116662118262104, "cuisines": ["American", "Ice Cream", "Smoothies & Juices"], "address": {"city": "LOS ANGELES", "state": "CA", "postal_code": "90039", "street": "3134 Glendale Blvd", "formatted": "3134 Glendale Blvd LOS ANGELES, CA 90039"}, "geo": {"lat": 34.116662, "lon": -118.262105}, "menus": [], "last_updated": "2020-12-29T06:51:33.074Z"}, {"restaurant_name": "Del Taco", "restaurant_phone": "(323) 665-1702", "restaurant_website": "http://www.deltaco.com", "hours": "", "price_range": "", "price_range_num": 0, "restaurant_id": 34125019118265160, "cuisines": ["American", "Mexican", "Tex-Mex"], "address": {"city": "Los Angeles", "state": "CA", "postal_code": "90039", "street": "3020 Los Feliz Blvd", "formatted": "3020 Los Feliz Blvd Los Angeles, CA 90039"}, "geo": {"lat": 34.125019, "lon": -118.26516}, "menus": [], "last_updated": "2020-12-29T06:51:35.017Z"}, {"restaurant_name": "Togo's", "restaurant_phone": "(323) 665-4566", "restaurant_website": "http://order.togos.com/Menu.aspx?StoreNum=335617", "hours": "Daily: 10am-9:30pm", "price_range": "", "price_range_num": 0, "restaurant_id": 34126849118263580, "cuisines": ["Deli Food", "Sandwiches"], "address": {"city": "Los Angeles", "state": "CA", "postal_code": "90039", "street": "2919 Los Feliz Blvd", "formatted": "2919 Los Feliz Blvd Los Angeles, CA 90039"}, "geo": {"lat": 34.126849, "lon": -118.263581}, "menus": [], "last_updated": "2020-12-29T06:51:35.056Z"}, {"restaurant_name": "Jamba", "restaurant_phone": "(323) 667-1724", "restaurant_website": "http://www.jambajuice.com", "hours": "Mon-Fri: 7am-9pm Sat: 7:30am-9pm Sun: 9am-8:30pm", "price_range": "", "price_range_num": 0, "restaurant_id": 34126662118263380, "cuisines": ["Healthy", "Smoothies & Juices"], "address": {"city": "Los Angeles", "state": "CA", "postal_code": "90039", "street": "2919 Los Feliz Blvd Ste 2", "formatted": "2919 Los Feliz Blvd Ste 2 Los Angeles, CA 90039"}, "geo": {"lat": 34.126662, "lon": -118.26338}, "menus": [], "last_updated": "2020-12-29T06:51:35.526Z"}], "numResults": 25}