{"totalResults": 276, "page": 1, "total_pages": 12, "more_pages": true, "data": [{"restaurant_name": "Windows Lounge", "restaurant_phone": "(310) 273-2222", "restaurant_website": "", "hours": "Mon-Sat: 11am-12:30am Sun: 5pm-12:30am ", "price_range": "$$$$", "price_range_num": 4, "restaurant_id": 34073509118389910, "cuisines": ["American (New)", "Californian"], "address": {"city": "Beverly Hills", "state": "CA", "postal_code": "90048", "street": "300 S Doheny Dr", "formatted": "300 S Doheny Dr Beverly Hills, CA 90048"}, "geo": {"lat": 34.073509, "lon": -118.389911}, "menus": [], "last_updated": "2021-01-05T08:34:40.854Z"}, {"restaurant_name": "Shah Abbas Restaurant", "restaurant_phone": "(310) 659-3246", "restaurant_website": "", "hours": "Mon-Fri: 10:30am-10pm Sat: 11am-12am Sun: 11am-10pm", "price_range": "$", "price_range_num": 1, "restaurant_id": 34070999118376160, "cuisines": ["Lunch Specials", "Persian"], "address": {"city": "Beverly Hills", "state": "CA", "postal_code": "90048", "street": "400 S San Vicente Blvd", "formatted": "400 S San Vicente Blvd Beverly Hills, CA 90048"}, "geo": {"lat": 34.070999, "lon": -118.376162}, "menus": [], "last_updated": "2021-01-05T08:34:41.958Z"}, {"restaurant_name": "Asakuma Beverly Hills", "restaurant_phone": "(310) 659-1092", "restaurant_website": "", "hours": "Daily: 10:30am-9:30pm", "price_range": "$$$", "price_range_num": 3, "restaurant_id": 34066071118383930, "cuisines": ["Japanese", "Sushi"], "address": {"city": "Beverly Hills", "state": "CA", "postal_code": "90048", "street": "141 S Robertson Blvd", "formatted": "141 S Robertson Blvd Beverly Hills, CA 90048"}, "geo": {"lat": 34.066071, "lon": -118.383926}, "menus": [], "last_updated": "2021-01-05T08:34:42.269Z"}, {"restaurant_name": "D'Amore's Pizza", "restaurant_phone": "(323) 951-0070", "restaurant_website": "", "hours": "Mon-Tue, Sun: 11am-11pm Wed-Sat: 11am-4am ", "price_range": "$$", "price_range_num": 2, "restaurant_id": 34072951118372484, "cuisines": ["Pizza"], "address": {"city": "Los Angeles", "state": "CA", "postal_code": "90048", "street": "8369 W 3rd St", "formatted": "8369 W 3rd St Los Angeles, CA 90048"}, "geo": {"lat": 34.072951, "lon": -118.372485}, "menus": [], "last_updated": "2020-12-29T06:50:33.931Z"}, {"restaurant_name": "Johnny Rockets (#406)", "restaurant_phone": "(310) 289-0400", "restaurant_website": "", "hours": "", "price_range": "$$", "price_range_num": 2, "restaurant_id": 34073362118376468, "cuisines": ["Burgers", "Diner", "Hot Dogs"], "address": {"city": "Los Angeles", "state": "CA", "postal_code": "90048", "street": "100 N La Cienega Blvd #C123", "formatted": "100 N La Cienega Blvd #C123 Los Angeles, CA 90048"}, "geo": {"lat": 34.073362, "lon": -118.376469}, "menus": [], "last_updated": "2020-12-29T06:50:33.060Z"}, {"restaurant_name": "Mika Sushi", "restaurant_phone": "(310) 657-6452", "restaurant_website": "", "hours": "Daily: 11am-10pm", "price_range": "$$", "price_range_num": 2, "restaurant_id": 34073408118376964, "cuisines": ["Japanese", "Sushi"], "address": {"city": "Los Angeles", "state": "CA", "postal_code": "90048", "street": "8510 W 3rd St", "formatted": "8510 W 3rd St Los Angeles, CA 90048"}, "geo": {"lat": 34.073408, "lon": -118.376965}, "menus": [], "last_updated": "2020-12-29T06:50:34.915Z"}, {"restaurant_name": "La Cienega Kabob House", "restaurant_phone": "(310) 659-3333", "restaurant_website": "", "hours": "Lunch Mon-Sat: 11am-4pm Dinner Mon-Sat: 4pm-9pm ", "price_range": "$$", "price_range_num": 2, "restaurant_id": 34079353118376428, "cuisines": ["Middle Eastern"], "address": {"city": "Los Angeles", "state": "CA", "postal_code": "90048", "street": "444-12 N La Cienega Blvd", "formatted": "444-12 N La Cienega Blvd Los Angeles, CA 90048"}, "geo": {"lat": 34.079353, "lon": -118.376428}, "menus": [], "last_updated": "2020-12-29T06:50:33.401Z"}, {"restaurant_name": "India's Grill", "restaurant_phone": "(310) 659-3903", "restaurant_website": "", "hours": "Mon-Fri: 11am-11pm Sat-Sun: 12pm-11pm", "price_range": "$$$", "price_range_num": 3, "restaurant_id": 34067285118373780, "cuisines": ["Indian", "Vegetarian"], "address": {"city": "Los Angeles", "state": "CA", "postal_code": "90048", "street": "428 S San Vicente Blvd", "formatted": "428 S San Vicente Blvd Los Angeles, CA 90048"}, "geo": {"lat": 34.067285, "lon": -118.373779}, "menus": [], "last_updated": "2020-12-29T06:50:35.072Z"}, {"restaurant_name": "Pizzana", "restaurant_phone": "(310) 657-4662", "restaurant_website": "http:///ca/west-hollywood/722504-pizzana/", "hours": "", "price_range": "", "price_range_num": 0, "restaurant_id": 34079704118384570, "cuisines": [""], "address": {"city": "West Hollywood", "state": "CA", "postal_code": "90048", "street": "460 North Robertson Boulevard", "formatted": "460 North Robertson Boulevard West Hollywood, CA 90048"}, "geo": {"lat": 34.079704, "lon": -118.384567}, "menus": [], "last_updated": "2021-01-05T07:26:12.324Z"}, {"restaurant_name": "Cha Cha Matcha", "restaurant_phone": "(855) 924-2242", "restaurant_website": "http:///ca/west-hollywood/719077-cha-cha-matcha/", "hours": "", "price_range": "", "price_range_num": 0, "restaurant_id": 34080402118384980, "cuisines": [""], "address": {"city": "West Hollywood", "state": "CA", "postal_code": "90048", "street": "510 North Robertson Boulevard", "formatted": "510 North Robertson Boulevard West Hollywood, CA 90048"}, "geo": {"lat": 34.080402, "lon": -118.384979}, "menus": [], "last_updated": "2021-01-05T07:26:12.486Z"}, {"restaurant_name": "A.o.c.", "restaurant_phone": "(310) 859-9859", "restaurant_website": "http:///ca/west-hollywood/719090-aoc/", "hours": "", "price_range": "", "price_range_num": 0, "restaurant_id": 34073406118381970, "cuisines": [""], "address": {"city": "West Hollywood", "state": "CA", "postal_code": "90048", "street": "8700 West 3rd Street", "formatted": "8700 West 3rd Street West Hollywood, CA 90048"}, "geo": {"lat": 34.073406, "lon": -118.381966}, "menus": [], "last_updated": "2021-01-05T07:26:12.516Z"}, {"restaurant_name": "Sushi Fumi", "restaurant_phone": "(541) 444-6631", "restaurant_website": "http:///ca/west-hollywood/719123-sushi-fumi/", "hours": "", "price_range": "", "price_range_num": 0, "restaurant_id": 34077747118376864, "cuisines": [""], "address": {"city": "West Hollywood", "state": "CA", "postal_code": "90048", "street": "359 North La Cienega Boulevard", "formatted": "359 North La Cienega Boulevard West Hollywood, CA 90048"}, "geo": {"lat": 34.077747, "lon": -118.376862}, "menus": [], "last_updated": "2021-01-05T07:26:12.528Z"}, {"restaurant_name": "The Nice Guy", "restaurant_phone": "(310) 360-9500", "restaurant_website": "http:///ca/west-hollywood/719043-the-nice-guy/", "hours": "", "price_range": "", "price_range_num": 0, "restaurant_id": 34078724118376856, "cuisines": [""], "address": {"city": "West Hollywood", "state": "CA", "postal_code": "90048", "street": "401 N La Cienega Blvd", "formatted": "401 N La Cienega Blvd West Hollywood, CA 90048"}, "geo": {"lat": 34.078724, "lon": -118.376854}, "menus": [], "last_updated": "2021-01-05T07:26:12.561Z"}, {"restaurant_name": "Starbucks", "restaurant_phone": "(310) 423-4531", "restaurant_website": "http:///ca/west-hollywood/719218-starbucks/", "hours": "", "price_range": "", "price_range_num": 0, "restaurant_id": 34075234118380172, "cuisines": [""], "address": {"city": "West Hollywood", "state": "CA", "postal_code": "90048", "street": "8700 Beverly Boulevard", "formatted": "8700 Beverly Boulevard West Hollywood, CA 90048"}, "geo": {"lat": 34.075234, "lon": -118.380173}, "menus": [], "last_updated": "2021-01-05T07:26:12.694Z"}, {"restaurant_name": "Plaza Cafe", "restaurant_phone": "(310) 423-4864", "restaurant_website": "", "hours": "Mon-Fri: 7am-7pm", "price_range": "$$", "price_range_num": 2, "restaurant_id": 34075233118380172, "cuisines": ["American", "Coffee & Tea"], "address": {"city": "West Hollywood", "state": "CA", "postal_code": "90048", "street": "8700 Beverly Boulevard", "formatted": "8700 Beverly Boulevard West Hollywood, CA 90048"}, "geo": {"lat": 34.075233, "lon": -118.380173}, "menus": [], "last_updated": "2021-01-05T07:26:13.532Z"}, {"restaurant_name": "Sushi on La Cienega", "restaurant_phone": "(310) 855-0006", "restaurant_website": "", "hours": "Tue-Thu: 5:30pm-10:30pm Fri-Sat: 5:30pm-11pm Sun: 5pm-10pm", "price_range": "$$", "price_range_num": 2, "restaurant_id": 34077750118376772, "cuisines": ["Japanese", "Sushi"], "address": {"city": "West Hollywood", "state": "CA", "postal_code": "90048", "street": "359 N La Cienega Blvd", "formatted": "359 N La Cienega Blvd West Hollywood, CA 90048"}, "geo": {"lat": 34.07775, "lon": -118.376771}, "menus": [], "last_updated": "2021-01-05T07:26:13.674Z"}, {"restaurant_name": "fonuts", "restaurant_phone": "(323) 592-3075", "restaurant_website": "", "hours": "Sun-Mon, Wed-Sat: 7am-6pm", "price_range": "$", "price_range_num": 1, "restaurant_id": 34072050118366136, "cuisines": ["Coffee & Tea", "Desserts"], "address": {"city": "West Hollywood", "state": "CA", "postal_code": "90048", "street": "8104 W 3rd St", "formatted": "8104 W 3rd St West Hollywood, CA 90048"}, "geo": {"lat": 34.07205, "lon": -118.366135}, "menus": [], "last_updated": "2021-01-05T07:26:13.768Z"}, {"restaurant_name": "Petrossian", "restaurant_phone": "(310) 271-6300", "restaurant_website": "http://www.petrossian.com/restaurant-west-hollywood-restaurant-and-boutique-7.html", "hours": "Mon-Fri: 11am-10pm Sat: 10am-10pm Sun: 10am-4pm", "price_range": "$$$", "price_range_num": 3, "restaurant_id": 34077450118383860, "cuisines": [""], "address": {"city": "West Hollywood", "state": "CA", "postal_code": "90048", "street": "321 N Robertson Blvd", "formatted": "321 N Robertson Blvd West Hollywood, CA 90048"}, "geo": {"lat": 34.07745, "lon": -118.38386}, "menus": [], "last_updated": "2021-01-05T07:26:14.212Z"}, {"restaurant_name": "Shila", "restaurant_phone": "", "restaurant_website": "", "hours": "", "price_range": "$$", "price_range_num": 2, "restaurant_id": 34079256118376484, "cuisines": ["Asian", "Korean"], "address": {"city": "West Hollywood", "state": "CA", "postal_code": "90048", "street": "440 N La Cienega", "formatted": "440 N La Cienega West Hollywood, CA 90048"}, "geo": {"lat": 34.079256, "lon": -118.376483}, "menus": [], "last_updated": "2021-01-05T07:26:14.405Z"}, {"restaurant_name": "Chili Addiction", "restaurant_phone": "(323) 203-1793", "restaurant_website": "http://www.chiliaddiction.com", "hours": "", "price_range": "$$", "price_range_num": 2, "restaurant_id": 34078409118376440, "cuisines": ["American", "Burgers", "Hot Dogs"], "address": {"city": "WEST HOLLYWOOD", "state": "CA", "postal_code": "90048", "street": "408 N La Cienega Blvd", "formatted": "408 N La Cienega Blvd WEST HOLLYWOOD, CA 90048"}, "geo": {"lat": 34.078409, "lon": -118.376442}, "menus": [], "last_updated": "2021-01-05T07:26:14.729Z"}, {"restaurant_name": "Sona", "restaurant_phone": "(310) 659-7708", "restaurant_website": "http://sonarestaurant.com/", "hours": "Tue-Thu: 6pm-10:30pm Fri: 6pm-11:30pm Sat: 6pm-11:30pm", "price_range": "", "price_range_num": 0, "restaurant_id": 34076580118376610, "cuisines": ["French"], "address": {"city": "WEST HOLLYWOOD", "state": "CA", "postal_code": "90048", "street": "401 N La Cienega Blvd", "formatted": "401 N La Cienega Blvd WEST HOLLYWOOD, CA 90048"}, "geo": {"lat": 34.07658, "lon": -118.376609}, "menus": [], "last_updated": "2021-01-05T07:26:15.138Z"}, {"restaurant_name": "Yabu Restaurant", "restaurant_phone": "(310) 854-0400", "restaurant_website": "http://www.yaburestaurant.com", "hours": "Lunch Mon-Sat: 12pm-2:30pm Dinner Sun-Thu: 6pm-10:30pm Fri-Sat: 6pm-10pm", "price_range": "$", "price_range_num": 1, "restaurant_id": 34080788118376900, "cuisines": ["Japanese", "Sushi"], "address": {"city": "West Hollywood", "state": "CA", "postal_code": "90048", "street": "521 North La Cienega Boulevard", "formatted": "521 North La Cienega Boulevard West Hollywood, CA 90048"}, "geo": {"lat": 34.080788, "lon": -118.3769}, "menus": [], "last_updated": "2021-01-05T07:26:15.156Z"}, {"restaurant_name": "Real Food Daily", "restaurant_phone": "(310) 289-9910", "restaurant_website": "http://www.realfood.com/", "hours": "Mon-Fri: 11am-10pm Sat-Sun: 10am-10pm", "price_range": "$$$", "price_range_num": 3, "restaurant_id": 34078621118376570, "cuisines": ["Healthy", "Vegan", "Vegetarian"], "address": {"city": "West Hollywood", "state": "CA", "postal_code": "90048", "street": "414 N La Cienega Blvd", "formatted": "414 N La Cienega Blvd West Hollywood, CA 90048"}, "geo": {"lat": 34.078621, "lon": -118.37657}, "menus": [], "last_updated": "2021-01-05T07:26:15.285Z"}, {"restaurant_name": "Dominick's", "restaurant_phone": "(310) 652-2335", "restaurant_website": "http://www.dominicksrestaurant.com/", "hours": "Sun-Thu: 5pm-11pm Fri-Sat: 5pm-1am", "price_range": "$", "price_range_num": 1, "restaurant_id": 34077131118381056, "cuisines": ["American (New)", "Cocktails", "Italian"], "address": {"city": "West Hollywood", "state": "CA", "postal_code": "90048", "street": "8715 Beverly Blvd", "formatted": "8715 Beverly Blvd West Hollywood, CA 90048"}, "geo": {"lat": 34.077131, "lon": -118.381055}, "menus": [], "last_updated": "2021-01-05T07:26:15.817Z"}, {"restaurant_name": "Blue Bottle Coffee", "restaurant_phone": "(510) 653-3394", "restaurant_website": "http:///ca/los-angeles/722755-blue-bottle-coffee/", "hours": "", "price_range": "", "price_range_num": 0, "restaurant_id": 34076283118370224, "cuisines": [""], "address": {"city": "Los Angeles", "state": "CA", "postal_code": "90048", "street": "8301 Beverly Boulevard", "formatted": "8301 Beverly Boulevard Los Angeles, CA 90048"}, "geo": {"lat": 34.076283, "lon": -118.370224}, "menus": [], "last_updated": "2020-12-29T06:46:07.444Z"}], "numResults": 25}