{"totalResults": 116, "page": 1, "total_pages": 5, "more_pages": true, "data": [{"restaurant_name": "Tennessee Hot Chicken THC", "restaurant_phone": "(669) 777-9123", "restaurant_website": "http:///ca/los-angeles/777390-tennessee-hot-chicken-thc/", "hours": "", "price_range": "", "price_range_num": 0, "restaurant_id": 34121201118203476, "cuisines": [""], "address": {"city": "Los Angeles", "state": "CA", "postal_code": "90042", "street": "5133 York Blvd", "formatted": "5133 York Blvd Los Angeles, CA 90042"}, "geo": {"lat": 34.121201, "lon": -118.203476}, "menus": [], "last_updated": "2020-12-29T06:46:06.159Z"}, {"restaurant_name": "Domino's Pizza", "restaurant_phone": "(323) 255-5999", "restaurant_website": "http://www.dominos.com", "hours": "", "price_range": "", "price_range_num": 0, "restaurant_id": 34119400118197000, "cuisines": ["American", "Pizza", "Wings"], "address": {"city": "Los Angeles", "state": "CA", "postal_code": "90042", "street": "5524 York Blvd", "formatted": "5524 York Blvd Los Angeles, CA 90042"}, "geo": {"lat": 34.1194, "lon": -118.197}, "menus": [], "last_updated": "2020-12-29T06:46:06.771Z"}, {"restaurant_name": "Dave's Chillin & Grillin", "restaurant_phone": "(323) 490-0988", "restaurant_website": "http:///ca/los-angeles/571404-daves-chillin-grillin/", "hours": "", "price_range": "", "price_range_num": 0, "restaurant_id": 34110115118192560, "cuisines": [""], "address": {"city": "Los Angeles", "state": "CA", "postal_code": "90042", "street": "5715 N Figueroa St Ste 102", "formatted": "5715 N Figueroa St Ste 102 Los Angeles, CA 90042"}, "geo": {"lat": 34.110115, "lon": -118.192558}, "menus": [], "last_updated": "2020-12-28T19:25:11.853Z"}, {"restaurant_name": "C\u00f4t\u00e9 Est", "restaurant_phone": "(323) 739-6762", "restaurant_website": "http:///ca/los-angeles/580031-cote-est/", "hours": "", "price_range": "", "price_range_num": 0, "restaurant_id": 34121090118206176, "cuisines": [""], "address": {"city": "Los Angeles", "state": "CA", "postal_code": "90042", "street": "5022 York Blvd", "formatted": "5022 York Blvd Los Angeles, CA 90042"}, "geo": {"lat": 34.12109, "lon": -118.206177}, "menus": [], "last_updated": "2020-12-28T19:25:13.221Z"}, {"restaurant_name": "Thai Fantasy", "restaurant_phone": "(323) 257-0580", "restaurant_website": "", "hours": "Mon-Sat: 11am-9:30pm Sun: 4:30pm-9:30pm", "price_range": "$$", "price_range_num": 2, "restaurant_id": 34104348118184984, "cuisines": ["Thai"], "address": {"city": "Los Angeles", "state": "CA", "postal_code": "90042", "street": "5900 Monterey Rd", "formatted": "5900 Monterey Rd Los Angeles, CA 90042"}, "geo": {"lat": 34.104348, "lon": -118.184983}, "menus": [], "last_updated": "2020-12-29T06:50:30.739Z"}, {"restaurant_name": "El Pescador", "restaurant_phone": "(323) 255-8164", "restaurant_website": "", "hours": "Sun-Thu: 8am-10pm Fri-Sat: 8am-11pm ", "price_range": "$", "price_range_num": 1, "restaurant_id": 34106471118198360, "cuisines": ["Mexican", "Seafood"], "address": {"city": "Los Angeles", "state": "CA", "postal_code": "90042", "street": "5230 N Figueroa St", "formatted": "5230 N Figueroa St Los Angeles, CA 90042"}, "geo": {"lat": 34.106471, "lon": -118.198358}, "menus": [], "last_updated": "2020-12-29T06:50:00.708Z"}, {"restaurant_name": "Super Panda China Buffet", "restaurant_phone": "(323) 257-7551", "restaurant_website": "", "hours": "Mon-Thu: 10:30am-9:30pm Fri-Sun: 10:30am-10pm", "price_range": "$$", "price_range_num": 2, "restaurant_id": 34114357118182610, "cuisines": ["Chinese"], "address": {"city": "Los Angeles", "state": "CA", "postal_code": "90042", "street": "6300 York Blvd", "formatted": "6300 York Blvd Los Angeles, CA 90042"}, "geo": {"lat": 34.114357, "lon": -118.18261}, "menus": [], "last_updated": "2020-12-29T06:50:00.866Z"}, {"restaurant_name": "Las Cazuelas", "restaurant_phone": "(323) 255-4719", "restaurant_website": "", "hours": "", "price_range": "$$", "price_range_num": 2, "restaurant_id": 34109790118192452, "cuisines": ["Mexican"], "address": {"city": "Los Angeles", "state": "CA", "postal_code": "90042", "street": "5707 N Figueroa St", "formatted": "5707 N Figueroa St Los Angeles, CA 90042"}, "geo": {"lat": 34.10979, "lon": -118.192451}, "menus": [], "last_updated": "2020-12-29T06:50:01.049Z"}, {"restaurant_name": "Jack in the Box", "restaurant_phone": "(323) 254-9300", "restaurant_website": "", "hours": "", "price_range": "", "price_range_num": 0, "restaurant_id": 34114704118182960, "cuisines": ["American", "Burgers"], "address": {"city": "Los Angeles", "state": "CA", "postal_code": "90042", "street": "6250 York Blvd", "formatted": "6250 York Blvd Los Angeles, CA 90042"}, "geo": {"lat": 34.114704, "lon": -118.182961}, "menus": [], "last_updated": "2020-12-29T06:51:33.411Z"}, {"restaurant_name": "Burger King", "restaurant_phone": "(213) 256-5519", "restaurant_website": "", "hours": "", "price_range": "", "price_range_num": 0, "restaurant_id": 34116459118184700, "cuisines": ["American", "Burgers"], "address": {"city": "Los Angeles", "state": "CA", "postal_code": "90042", "street": "6155 York Blvd", "formatted": "6155 York Blvd Los Angeles, CA 90042"}, "geo": {"lat": 34.116459, "lon": -118.1847}, "menus": [], "last_updated": "2020-12-29T06:51:34.060Z"}, {"restaurant_name": "El Pollo Loco", "restaurant_phone": "(323) 256-4321", "restaurant_website": "http://www.elpolloloco.com", "hours": "", "price_range": "", "price_range_num": 0, "restaurant_id": 34111276118189376, "cuisines": ["Chicken", "Mexican"], "address": {"city": "LOS ANGELES", "state": "CA", "postal_code": "90042", "street": "6009 No Figueroa Street", "formatted": "6009 No Figueroa Street LOS ANGELES, CA 90042"}, "geo": {"lat": 34.111276, "lon": -118.189375}, "menus": [], "last_updated": "2020-12-29T06:51:34.816Z"}, {"restaurant_name": "Carrows", "restaurant_phone": "(323) 256-0563", "restaurant_website": "http://www.carrows.com", "hours": "", "price_range": "", "price_range_num": 0, "restaurant_id": 34117558118187984, "cuisines": ["American", "Burgers", "Hot Dogs", "Salads", "Sandwiches", "Soups", "Wraps"], "address": {"city": "LOS ANGELES", "state": "CA", "postal_code": "90042", "street": "6040 York Blvd", "formatted": "6040 York Blvd LOS ANGELES, CA 90042"}, "geo": {"lat": 34.117558, "lon": -118.187983}, "menus": [], "last_updated": "2020-12-29T06:51:35.311Z"}, {"restaurant_name": "Huarache Azteca Restaurante", "restaurant_phone": "(323) 478-9572", "restaurant_website": "", "hours": "Daily: 8am-10:30pm", "price_range": "", "price_range_num": 0, "restaurant_id": 34120668118201960, "cuisines": ["Mexican"], "address": {"city": "Los Angeles", "state": "CA", "postal_code": "90042", "street": "5225 York Blvd", "formatted": "5225 York Blvd Los Angeles, CA 90042"}, "geo": {"lat": 34.120668, "lon": -118.201962}, "menus": [], "last_updated": "2020-12-29T06:50:37.007Z"}, {"restaurant_name": "Penny's Burgers", "restaurant_phone": "(323) 254-7223", "restaurant_website": "", "hours": "Sun-Thu: 7am-10pm Fri-Sat: 7am-11pm", "price_range": "", "price_range_num": 0, "restaurant_id": 34115536118183910, "cuisines": ["Burgers", "Mexican", "Sandwiches"], "address": {"city": "Los Angeles", "state": "CA", "postal_code": "90042", "street": "6300 N Figueroa St", "formatted": "6300 N Figueroa St Los Angeles, CA 90042"}, "geo": {"lat": 34.115536, "lon": -118.183914}, "menus": [], "last_updated": "2020-12-29T06:50:37.329Z"}, {"restaurant_name": "La Fuente", "restaurant_phone": "(323) 258-6109", "restaurant_website": "", "hours": "Daily 9am-9pm", "price_range": "$", "price_range_num": 1, "restaurant_id": 34110878118196220, "cuisines": ["American", "Mexican"], "address": {"city": "Los Angeles", "state": "CA", "postal_code": "90042", "street": "5530 Monte Vista St", "formatted": "5530 Monte Vista St Los Angeles, CA 90042"}, "geo": {"lat": 34.110878, "lon": -118.19622}, "menus": [], "last_updated": "2020-12-29T06:50:01.498Z"}, {"restaurant_name": "El Arco Iris", "restaurant_phone": "(323) 254-3401", "restaurant_website": "", "hours": "Daily: 11am-10pm", "price_range": "$$", "price_range_num": 2, "restaurant_id": 34118589118194100, "cuisines": ["Mexican"], "address": {"city": "Los Angeles", "state": "CA", "postal_code": "90042", "street": "5684 York Blvd", "formatted": "5684 York Blvd Los Angeles, CA 90042"}, "geo": {"lat": 34.118589, "lon": -118.1941}, "menus": [], "last_updated": "2020-12-29T06:50:01.551Z"}, {"restaurant_name": "Kumquat", "restaurant_phone": "(877) 585-1085", "restaurant_website": "http:///ca/los-angeles/706365-kumquat/", "hours": "", "price_range": "", "price_range_num": 0, "restaurant_id": 34121407118207790, "cuisines": [""], "address": {"city": "Los Angeles", "state": "CA", "postal_code": "90042", "street": "4936 York Boulevard", "formatted": "4936 York Boulevard Los Angeles, CA 90042"}, "geo": {"lat": 34.121407, "lon": -118.207794}, "menus": [], "last_updated": "2020-12-29T06:46:31.567Z"}, {"restaurant_name": "Go Get Em Tiger", "restaurant_phone": "(877) 585-1085", "restaurant_website": "http:///ca/los-angeles/706280-go-get-em-tiger/", "hours": "", "price_range": "", "price_range_num": 0, "restaurant_id": 34110500118190256, "cuisines": [""], "address": {"city": "Los Angeles", "state": "CA", "postal_code": "90042", "street": "5916 N Figueroa St", "formatted": "5916 N Figueroa St Los Angeles, CA 90042"}, "geo": {"lat": 34.1105, "lon": -118.190254}, "menus": [], "last_updated": "2020-12-29T06:46:31.674Z"}, {"restaurant_name": "Collage", "restaurant_phone": "(323) 628-5255", "restaurant_website": "http:///ca/los-angeles/706234-collage/", "hours": "", "price_range": "", "price_range_num": 0, "restaurant_id": 34120880118204520, "cuisines": [""], "address": {"city": "Los Angeles", "state": "CA", "postal_code": "90042", "street": "5106 York Boulevard", "formatted": "5106 York Boulevard Los Angeles, CA 90042"}, "geo": {"lat": 34.12088, "lon": -118.204521}, "menus": [], "last_updated": "2020-12-29T06:46:31.715Z"}, {"restaurant_name": "Kindness & Mischief", "restaurant_phone": "(877) 585-1085", "restaurant_website": "http:///ca/los-angeles/706041-kindness-mischief/", "hours": "", "price_range": "", "price_range_num": 0, "restaurant_id": 34108955118194604, "cuisines": [""], "address": {"city": "Los Angeles", "state": "CA", "postal_code": "90042", "street": "5537 North Figueroa Street", "formatted": "5537 North Figueroa Street Los Angeles, CA 90042"}, "geo": {"lat": 34.108955, "lon": -118.194603}, "menus": [], "last_updated": "2020-12-29T06:46:31.848Z"}, {"restaurant_name": "Joy", "restaurant_phone": "(877) 585-1085", "restaurant_website": "http:///ca/los-angeles/705804-joy/", "hours": "", "price_range": "", "price_range_num": 0, "restaurant_id": 34120812118204710, "cuisines": [""], "address": {"city": "Los Angeles", "state": "CA", "postal_code": "90042", "street": "5100 York Boulevard", "formatted": "5100 York Boulevard Los Angeles, CA 90042"}, "geo": {"lat": 34.120812, "lon": -118.204712}, "menus": [], "last_updated": "2020-12-29T06:46:32.003Z"}, {"restaurant_name": "Berry Bowl", "restaurant_phone": "(323) 474-6144", "restaurant_website": "http:///ca/los-angeles/705604-berry-bowl/", "hours": "", "price_range": "", "price_range_num": 0, "restaurant_id": 34120930118205090, "cuisines": [""], "address": {"city": "Los Angeles", "state": "CA", "postal_code": "90042", "street": "5056 York Boulevard", "formatted": "5056 York Boulevard Los Angeles, CA 90042"}, "geo": {"lat": 34.12093, "lon": -118.205086}, "menus": [], "last_updated": "2020-12-29T06:46:32.134Z"}, {"restaurant_name": "Starbucks", "restaurant_phone": "(323) 478-7365", "restaurant_website": "http:///ca/los-angeles/705819-starbucks/", "hours": "", "price_range": "", "price_range_num": 0, "restaurant_id": 34114868118183380, "cuisines": [""], "address": {"city": "Los Angeles", "state": "CA", "postal_code": "90042", "street": "6240 York Boulevard", "formatted": "6240 York Boulevard Los Angeles, CA 90042"}, "geo": {"lat": 34.114868, "lon": -118.18338}, "menus": [], "last_updated": "2020-12-29T06:46:32.158Z"}, {"restaurant_name": "Mac n Cheese Rebel", "restaurant_phone": "(323) 627-1499", "restaurant_website": "http:///ca/los-angeles/705529-mac-n-cheese-rebel/", "hours": "", "price_range": "", "price_range_num": 0, "restaurant_id": 34121540118205812, "cuisines": [""], "address": {"city": "Los Angeles", "state": "CA", "postal_code": "90042", "street": "5031 York Boulevard", "formatted": "5031 York Boulevard Los Angeles, CA 90042"}, "geo": {"lat": 34.12154, "lon": -118.205811}, "menus": [], "last_updated": "2020-12-29T06:46:32.201Z"}, {"restaurant_name": "Troy Burgers #8", "restaurant_phone": "(323) 259-8060", "restaurant_website": "http:///ca/los-angeles/624759-troy-burgers-8/", "hours": "", "price_range": "", "price_range_num": 0, "restaurant_id": 34122299118212320, "cuisines": [""], "address": {"city": "Los Angeles", "state": "CA", "postal_code": "90042", "street": "4738 York Blvd", "formatted": "4738 York Blvd Los Angeles, CA 90042"}, "geo": {"lat": 34.122299, "lon": -118.212318}, "menus": [], "last_updated": "2020-12-29T06:46:53.755Z"}], "numResults": 25}