{"totalResults": 154, "page": 1, "total_pages": 7, "more_pages": true, "data": [{"restaurant_name": "Point Dume", "restaurant_phone": "(323) 663-1078", "restaurant_website": "", "hours": "Sun-Thu: 11am-9pm Fri-Sat: 11am-9:30pm", "price_range": "$$", "price_range_num": 2, "restaurant_id": 34095789118285120, "cuisines": ["Chinese"], "address": {"city": "Los Angeles", "state": "CA", "postal_code": "90029", "street": "4366 Fountain Ave", "formatted": "4366 Fountain Ave Los Angeles, CA 90029"}, "geo": {"lat": 34.095789, "lon": -118.285119}, "menus": [], "last_updated": "2020-12-29T06:50:34.990Z"}, {"restaurant_name": "Agra Cafe", "restaurant_phone": "(323) 665-7818", "restaurant_website": "", "hours": "Lunch Daily: 11:30am-2:30pm Dinner 5:30pm-11pm", "price_range": "$$", "price_range_num": 2, "restaurant_id": 34094983118283150, "cuisines": ["Indian"], "address": {"city": "Los Angeles", "state": "CA", "postal_code": "90029", "street": "4325 W Sunset Blvd Ste 3", "formatted": "4325 W Sunset Blvd Ste 3 Los Angeles, CA 90029"}, "geo": {"lat": 34.094983, "lon": -118.283154}, "menus": [], "last_updated": "2020-12-29T06:50:35.212Z"}, {"restaurant_name": "El Unico Pollo Taquero", "restaurant_phone": "(877) 585-1085", "restaurant_website": "http:///ca/los-angeles/756485-el-unico-pollo-taquero/", "hours": "", "price_range": "", "price_range_num": 0, "restaurant_id": 34091026118286416, "cuisines": [""], "address": {"city": "Los Angeles", "state": "CA", "postal_code": "90029", "street": "4481 Santa Monica Boulevard", "formatted": "4481 Santa Monica Boulevard Los Angeles, CA 90029"}, "geo": {"lat": 34.091026, "lon": -118.286415}, "menus": [], "last_updated": "2020-12-29T06:46:06.460Z"}, {"restaurant_name": "Five Leaves", "restaurant_phone": "(323) 426-9997", "restaurant_website": "http:///ca/los-angeles/722623-five-leaves/", "hours": "", "price_range": "", "price_range_num": 0, "restaurant_id": 34095554118295204, "cuisines": [""], "address": {"city": "Los Angeles", "state": "CA", "postal_code": "90029", "street": "4845 Fountain Avenue", "formatted": "4845 Fountain Avenue Los Angeles, CA 90029"}, "geo": {"lat": 34.095554, "lon": -118.295204}, "menus": [], "last_updated": "2020-12-29T06:46:08.087Z"}, {"restaurant_name": "The Good Good", "restaurant_phone": "(323) 570-0498", "restaurant_website": "http:///ca/los-angeles/722617-the-good-good/", "hours": "", "price_range": "", "price_range_num": 0, "restaurant_id": 34091049118295732, "cuisines": [""], "address": {"city": "Los Angeles", "state": "CA", "postal_code": "90029", "street": "4871 Santa Monica Boulevard", "formatted": "4871 Santa Monica Boulevard Los Angeles, CA 90029"}, "geo": {"lat": 34.091049, "lon": -118.295731}, "menus": [], "last_updated": "2020-12-29T06:46:08.103Z"}, {"restaurant_name": "Rikis's Tacos", "restaurant_phone": "(323) 667-8260", "restaurant_website": "http:///ca/los-angeles/722548-rikiss-tacos/", "hours": "", "price_range": "", "price_range_num": 0, "restaurant_id": 34083607118296052, "cuisines": [""], "address": {"city": "Los Angeles", "state": "CA", "postal_code": "90029", "street": "700 North Edgemont Street", "formatted": "700 North Edgemont Street Los Angeles, CA 90029"}, "geo": {"lat": 34.083607, "lon": -118.296051}, "menus": [], "last_updated": "2020-12-29T06:46:08.342Z"}, {"restaurant_name": "Melody", "restaurant_phone": "(323) 922-6037", "restaurant_website": "http:///ca/los-angeles/722514-melody/", "hours": "", "price_range": "", "price_range_num": 0, "restaurant_id": 34084786118287080, "cuisines": [""], "address": {"city": "Los Angeles", "state": "CA", "postal_code": "90029", "street": "751 North Virgil Avenue", "formatted": "751 North Virgil Avenue Los Angeles, CA 90029"}, "geo": {"lat": 34.084786, "lon": -118.287079}, "menus": [], "last_updated": "2020-12-29T06:46:08.412Z"}, {"restaurant_name": "California Sun", "restaurant_phone": "(323) 800-2456", "restaurant_website": "http:///ca/los-angeles/719677-california-sun/", "hours": "", "price_range": "", "price_range_num": 0, "restaurant_id": 34092156118279724, "cuisines": [""], "address": {"city": "Los Angeles", "state": "CA", "postal_code": "90029", "street": "3903 Sunset Boulevard", "formatted": "3903 Sunset Boulevard Los Angeles, CA 90029"}, "geo": {"lat": 34.092156, "lon": -118.279724}, "menus": [], "last_updated": "2020-12-29T06:46:09.173Z"}, {"restaurant_name": "Ma'am Sir", "restaurant_phone": "(323) 741-8371", "restaurant_website": "http:///ca/los-angeles/719671-maam-sir/", "hours": "", "price_range": "", "price_range_num": 0, "restaurant_id": 34095226118283816, "cuisines": [""], "address": {"city": "Los Angeles", "state": "CA", "postal_code": "90029", "street": "4330 Sunset Boulevard", "formatted": "4330 Sunset Boulevard Los Angeles, CA 90029"}, "geo": {"lat": 34.095226, "lon": -118.283814}, "menus": [], "last_updated": "2020-12-29T06:46:09.202Z"}, {"restaurant_name": "La Monarca Bakery", "restaurant_phone": "(323) 498-0211", "restaurant_website": "http:///ca/los-angeles/719610-la-monarca-bakery/", "hours": "", "price_range": "", "price_range_num": 0, "restaurant_id": 34090515118308892, "cuisines": [""], "address": {"city": "Los Angeles", "state": "CA", "postal_code": "90029", "street": "1096 North Western Avenue", "formatted": "1096 North Western Avenue Los Angeles, CA 90029"}, "geo": {"lat": 34.090515, "lon": -118.308891}, "menus": [], "last_updated": "2020-12-29T06:46:09.583Z"}, {"restaurant_name": "sweetgreen Silver Lake", "restaurant_phone": "(323) 870-6800", "restaurant_website": "http://sweetgreen.com/", "hours": "", "price_range": "", "price_range_num": 0, "restaurant_id": 34092600118280100, "cuisines": [""], "address": {"city": "Los Angeles", "state": "CA", "postal_code": "90029", "street": "3925 Sunset Blvd", "formatted": "3925 Sunset Blvd Los Angeles, CA 90029"}, "geo": {"lat": 34.0926, "lon": -118.2801}, "menus": [], "last_updated": "2020-12-28T19:25:11.427Z"}, {"restaurant_name": "Del Sol Panaderia & Cafe", "restaurant_phone": "(323) 741-0222", "restaurant_website": "http:///ca/los-angeles/576971-del-sol-panaderia-cafe/", "hours": "", "price_range": "", "price_range_num": 0, "restaurant_id": 34090641118304908, "cuisines": [""], "address": {"city": "Los Angeles", "state": "CA", "postal_code": "90029", "street": "5248 Santa Monica Blvd", "formatted": "5248 Santa Monica Blvd Los Angeles, CA 90029"}, "geo": {"lat": 34.090641, "lon": -118.304909}, "menus": [], "last_updated": "2020-12-28T19:25:12.865Z"}, {"restaurant_name": "Waba Grill", "restaurant_phone": "(323) 952-6581", "restaurant_website": "http:///ca/los-angeles/575613-waba-grill/", "hours": "", "price_range": "", "price_range_num": 0, "restaurant_id": 34084339118308784, "cuisines": [""], "address": {"city": "Los Angeles", "state": "CA", "postal_code": "90029", "street": "726 N Western Ave", "formatted": "726 N Western Ave Los Angeles, CA 90029"}, "geo": {"lat": 34.084339, "lon": -118.308785}, "menus": [], "last_updated": "2020-12-28T19:25:12.623Z"}, {"restaurant_name": "Anna's Cuisine", "restaurant_phone": "(323) 663-0262", "restaurant_website": "", "hours": "Daily: 10am-10pm", "price_range": "$", "price_range_num": 1, "restaurant_id": 34095384118294956, "cuisines": ["Middle Eastern", "Persian"], "address": {"city": "Los Angeles", "state": "CA", "postal_code": "90029", "street": "4850 Fountain Ave", "formatted": "4850 Fountain Ave Los Angeles, CA 90029"}, "geo": {"lat": 34.095384, "lon": -118.294956}, "menus": [], "last_updated": "2020-12-29T06:50:09.499Z"}, {"restaurant_name": "Pizza House", "restaurant_phone": "(323) 668-0672", "restaurant_website": "", "hours": "", "price_range": "$", "price_range_num": 1, "restaurant_id": 34095489118302570, "cuisines": ["American", "Pizza", "Sandwiches", "Subs"], "address": {"city": "Los Angeles", "state": "CA", "postal_code": "90029", "street": "5203 Fountain Ave", "formatted": "5203 Fountain Ave Los Angeles, CA 90029"}, "geo": {"lat": 34.095489, "lon": -118.302569}, "menus": [], "last_updated": "2020-12-29T06:50:29.881Z"}, {"restaurant_name": "Khun Dang Restaurant", "restaurant_phone": "(323) 663-1086", "restaurant_website": "", "hours": "Daily: 10am-10pm", "price_range": "$", "price_range_num": 1, "restaurant_id": 34083528118301496, "cuisines": ["Thai"], "address": {"city": "Los Angeles", "state": "CA", "postal_code": "90029", "street": "4681 Melrose Ave", "formatted": "4681 Melrose Ave Los Angeles, CA 90029"}, "geo": {"lat": 34.083528, "lon": -118.301498}, "menus": [], "last_updated": "2020-12-29T06:50:30.159Z"}, {"restaurant_name": "Paros Chicken", "restaurant_phone": "(323) 469-2610", "restaurant_website": "", "hours": "Mon-Sat: 11am-8pm", "price_range": "$", "price_range_num": 1, "restaurant_id": 34091202118304740, "cuisines": ["Middle Eastern", "Sandwiches"], "address": {"city": "Los Angeles", "state": "CA", "postal_code": "90029", "street": "1117 N Hobart Blvd", "formatted": "1117 N Hobart Blvd Los Angeles, CA 90029"}, "geo": {"lat": 34.091202, "lon": -118.304741}, "menus": [], "last_updated": "2020-12-29T06:50:30.275Z"}, {"restaurant_name": "Love Shrimp Thai Thai", "restaurant_phone": "(323) 663-7079", "restaurant_website": "", "hours": "Daily: 11am-11pm", "price_range": "$$", "price_range_num": 2, "restaurant_id": 34083389118305120, "cuisines": ["Seafood"], "address": {"city": "Los Angeles", "state": "CA", "postal_code": "90029", "street": "4814 Melrose Ave", "formatted": "4814 Melrose Ave Los Angeles, CA 90029"}, "geo": {"lat": 34.083389, "lon": -118.305122}, "menus": [], "last_updated": "2020-12-29T06:50:31.184Z"}, {"restaurant_name": "O-Chai", "restaurant_phone": "(323) 463-0634", "restaurant_website": "", "hours": "Daily: 11am-11pm", "price_range": "$$", "price_range_num": 2, "restaurant_id": 34085222118309104, "cuisines": ["Thai"], "address": {"city": "Los Angeles", "state": "CA", "postal_code": "90029", "street": "820 N Western Ave", "formatted": "820 N Western Ave Los Angeles, CA 90029"}, "geo": {"lat": 34.085222, "lon": -118.309104}, "menus": [], "last_updated": "2020-12-29T06:50:31.953Z"}, {"restaurant_name": "Raffallo's Pizza", "restaurant_phone": "(323) 660-8506", "restaurant_website": "", "hours": "Daily: 11:30am-11pm", "price_range": "$$$", "price_range_num": 3, "restaurant_id": 34090546118295896, "cuisines": ["Pizza"], "address": {"city": "Los Angeles", "state": "CA", "postal_code": "90029", "street": "4874 Santa Monica Blvd", "formatted": "4874 Santa Monica Blvd Los Angeles, CA 90029"}, "geo": {"lat": 34.090546, "lon": -118.295898}, "menus": [], "last_updated": "2020-12-29T06:50:32.498Z"}, {"restaurant_name": "Big Mamas & Papas Pizzeria", "restaurant_phone": "(323) 644-0003", "restaurant_website": "", "hours": "Sun-Thu: 11am-10pm Fri-Sat: 11am-11pm", "price_range": "$$$", "price_range_num": 3, "restaurant_id": 34086054118291436, "cuisines": ["Pizza"], "address": {"city": "Los Angeles", "state": "CA", "postal_code": "90029", "street": "814 N Vermont Ave", "formatted": "814 N Vermont Ave Los Angeles, CA 90029"}, "geo": {"lat": 34.086054, "lon": -118.291435}, "menus": [], "last_updated": "2020-12-29T06:50:34.365Z"}, {"restaurant_name": "Cafe 50's", "restaurant_phone": "(323) 906-1955", "restaurant_website": "", "hours": "Sun-Thu: 7am-12am Fri-Sat: 7am-1am ", "price_range": "$$", "price_range_num": 2, "restaurant_id": 34086739118291520, "cuisines": ["Diner"], "address": {"city": "Los Angeles", "state": "CA", "postal_code": "90029", "street": "850 N Vermont Ave", "formatted": "850 N Vermont Ave Los Angeles, CA 90029"}, "geo": {"lat": 34.086739, "lon": -118.29152}, "menus": [], "last_updated": "2020-12-29T06:50:32.857Z"}, {"restaurant_name": "Bernie's Teriyaki", "restaurant_phone": "(213) 250-8413", "restaurant_website": "", "hours": "Thu-Tue: 10:30am-6:45pm Wed: 10:30am-6:30pm", "price_range": "$", "price_range_num": 1, "restaurant_id": 34066138118260196, "cuisines": ["Burgers", "Hot Dogs", "Japanese"], "address": {"city": "Los Angeles", "state": "CA", "postal_code": "90029", "street": "318 Glendale Blvd", "formatted": "318 Glendale Blvd Los Angeles, CA 90029"}, "geo": {"lat": 34.066138, "lon": -118.260195}, "menus": [], "last_updated": "2020-12-29T06:49:38.398Z"}, {"restaurant_name": "Saito's Sushi", "restaurant_phone": "(323) 663-8890", "restaurant_website": "", "hours": "", "price_range": "$", "price_range_num": 1, "restaurant_id": 34095411118283470, "cuisines": ["Japanese", "Sushi"], "address": {"city": "Los Angeles", "state": "CA", "postal_code": "90029", "street": "4339 W Sunset Blvd", "formatted": "4339 W Sunset Blvd Los Angeles, CA 90029"}, "geo": {"lat": 34.095411, "lon": -118.283472}, "menus": [], "last_updated": "2020-12-29T06:49:38.402Z"}, {"restaurant_name": "Las Glorias Del Buen Comer", "restaurant_phone": "(213) 484-9090", "restaurant_website": "", "hours": "Mon-Sat: 8am-10pm Sun: 8am-8pm", "price_range": "$$", "price_range_num": 2, "restaurant_id": 34078601118278170, "cuisines": ["Mexican"], "address": {"city": "Los Angeles", "state": "CA", "postal_code": "90029", "street": "620 Silver Lake Blvd", "formatted": "620 Silver Lake Blvd Los Angeles, CA 90029"}, "geo": {"lat": 34.078601, "lon": -118.278169}, "menus": [], "last_updated": "2020-12-29T06:49:38.424Z"}], "numResults": 25}