{"totalResults": 154, "page": 1, "total_pages": 7, "more_pages": true, "data": [{"restaurant_name": "Falafel Corner", "restaurant_phone": "(213) 252-4435", "restaurant_website": "", "hours": "Mon-Fri: 10am-7pm Sat: 11am-6pm", "price_range": "$$", "price_range_num": 2, "restaurant_id": 34060003118300450, "cuisines": ["Mediterranean", "Middle Eastern"], "address": {"city": "Los Angeles", "state": "CA", "postal_code": "90005", "street": "698 Irolo St", "formatted": "698 Irolo St Los Angeles, CA 90005"}, "geo": {"lat": 34.060003, "lon": -118.300448}, "menus": [], "last_updated": "2020-12-29T06:50:34.700Z"}, {"restaurant_name": "Winchell's Donut House", "restaurant_phone": "(213) 480-8416", "restaurant_website": "http:///ca/los-angeles/722819-winchells-donut-house/", "hours": "", "price_range": "", "price_range_num": 0, "restaurant_id": 34059959118284616, "cuisines": [""], "address": {"city": "Los Angeles", "state": "CA", "postal_code": "90005", "street": "697 South Hoover Street", "formatted": "697 South Hoover Street Los Angeles, CA 90005"}, "geo": {"lat": 34.059959, "lon": -118.284615}, "menus": [], "last_updated": "2020-12-29T06:46:07.243Z"}, {"restaurant_name": "Thai Ocean 2", "restaurant_phone": "(213) 736-5576", "restaurant_website": "http:///ca/los-angeles/722810-thai-ocean-2/", "hours": "", "price_range": "", "price_range_num": 0, "restaurant_id": 34056366118291944, "cuisines": [""], "address": {"city": "Los Angeles", "state": "CA", "postal_code": "90005", "street": "851 South Vermont Avenue", "formatted": "851 South Vermont Avenue Los Angeles, CA 90005"}, "geo": {"lat": 34.056366, "lon": -118.291946}, "menus": [], "last_updated": "2020-12-29T06:46:07.344Z"}, {"restaurant_name": "Magal BBQ", "restaurant_phone": "(213) 383-1909", "restaurant_website": "http:///ca/los-angeles/722771-magal-bbq/", "hours": "", "price_range": "", "price_range_num": 0, "restaurant_id": 34057510118305624, "cuisines": [""], "address": {"city": "Los Angeles", "state": "CA", "postal_code": "90005", "street": "3460 West 8th Street", "formatted": "3460 West 8th Street Los Angeles, CA 90005"}, "geo": {"lat": 34.05751, "lon": -118.305626}, "menus": [], "last_updated": "2020-12-29T06:46:07.425Z"}, {"restaurant_name": "Audition Family Karaoke", "restaurant_phone": "(213) 908-5077", "restaurant_website": "http:///ca/los-angeles/722729-audition-family-karaoke/", "hours": "", "price_range": "", "price_range_num": 0, "restaurant_id": 34060391118284410, "cuisines": [""], "address": {"city": "Los Angeles", "state": "CA", "postal_code": "90005", "street": "685 South Hoover Street", "formatted": "685 South Hoover Street Los Angeles, CA 90005"}, "geo": {"lat": 34.060391, "lon": -118.284409}, "menus": [], "last_updated": "2020-12-29T06:46:07.578Z"}, {"restaurant_name": "Bon Shabu", "restaurant_phone": "(213) 318-5004", "restaurant_website": "http:///ca/los-angeles/722658-bon-shabu/", "hours": "", "price_range": "", "price_range_num": 0, "restaurant_id": 34063404118302132, "cuisines": [""], "address": {"city": "Los Angeles", "state": "CA", "postal_code": "90005", "street": "601 South Ardmore Avenue", "formatted": "601 South Ardmore Avenue Los Angeles, CA 90005"}, "geo": {"lat": 34.063404, "lon": -118.302132}, "menus": [], "last_updated": "2020-12-29T06:46:07.884Z"}, {"restaurant_name": "JungTong SulNongTang", "restaurant_phone": "(213) 387-8899", "restaurant_website": "http:///ca/los-angeles/722631-jungtong-sulnongtang/", "hours": "", "price_range": "", "price_range_num": 0, "restaurant_id": 34056088118309496, "cuisines": [""], "address": {"city": "Los Angeles", "state": "CA", "postal_code": "90005", "street": "869 South Western Avenue", "formatted": "869 South Western Avenue Los Angeles, CA 90005"}, "geo": {"lat": 34.056088, "lon": -118.309494}, "menus": [], "last_updated": "2020-12-29T06:46:08.010Z"}, {"restaurant_name": "Happy Noodle", "restaurant_phone": "(213) 388-1789", "restaurant_website": "http:///ca/los-angeles/722615-happy-noodle/", "hours": "", "price_range": "", "price_range_num": 0, "restaurant_id": 34057343118309570, "cuisines": [""], "address": {"city": "Los Angeles", "state": "CA", "postal_code": "90005", "street": "833 South Western Avenue", "formatted": "833 South Western Avenue Los Angeles, CA 90005"}, "geo": {"lat": 34.057343, "lon": -118.30957}, "menus": [], "last_updated": "2020-12-29T06:46:08.078Z"}, {"restaurant_name": "8th N' Irolo Taco Truck", "restaurant_phone": "(877) 585-1085", "restaurant_website": "http:///ca/los-angeles/722539-8th-n-irolo-taco-truck/", "hours": "", "price_range": "", "price_range_num": 0, "restaurant_id": 34057880118301104, "cuisines": [""], "address": {"city": "Los Angeles", "state": "CA", "postal_code": "90005", "street": "3331 West 8th Street", "formatted": "3331 West 8th Street Los Angeles, CA 90005"}, "geo": {"lat": 34.05788, "lon": -118.301102}, "menus": [], "last_updated": "2020-12-29T06:46:08.351Z"}, {"restaurant_name": "Bulgogi Hut", "restaurant_phone": "(213) 388-1988", "restaurant_website": "http:///ca/los-angeles/722480-bulgogi-hut/", "hours": "", "price_range": "", "price_range_num": 0, "restaurant_id": 34060516118303636, "cuisines": [""], "address": {"city": "Los Angeles", "state": "CA", "postal_code": "90005", "street": "3600 Wilshire Blvd", "formatted": "3600 Wilshire Blvd Los Angeles, CA 90005"}, "geo": {"lat": 34.060516, "lon": -118.303635}, "menus": [], "last_updated": "2020-12-29T06:46:08.534Z"}, {"restaurant_name": "Buchun Gamjatang", "restaurant_phone": "(213) 380-6606", "restaurant_website": "http:///ca/los-angeles/722471-buchun-gamjatang/", "hours": "", "price_range": "", "price_range_num": 0, "restaurant_id": 34059971118290696, "cuisines": [""], "address": {"city": "Los Angeles", "state": "CA", "postal_code": "90005", "street": "3055 West 7th Street", "formatted": "3055 West 7th Street Los Angeles, CA 90005"}, "geo": {"lat": 34.059971, "lon": -118.290695}, "menus": [], "last_updated": "2020-12-29T06:46:08.614Z"}, {"restaurant_name": "Book Sae Tong", "restaurant_phone": "(877) 585-1085", "restaurant_website": "http:///ca/los-angeles/719748-book-sae-tong/", "hours": "", "price_range": "", "price_range_num": 0, "restaurant_id": 34058250118292144, "cuisines": [""], "address": {"city": "Los Angeles", "state": "CA", "postal_code": "90005", "street": "755 South Vermont Avenue", "formatted": "755 South Vermont Avenue Los Angeles, CA 90005"}, "geo": {"lat": 34.05825, "lon": -118.292145}, "menus": [], "last_updated": "2020-12-29T06:46:08.892Z"}, {"restaurant_name": "Starbucks", "restaurant_phone": "(877) 585-1085", "restaurant_website": "http:///ca/los-angeles/719779-starbucks/", "hours": "", "price_range": "", "price_range_num": 0, "restaurant_id": 34063290118286350, "cuisines": [""], "address": {"city": "Los Angeles", "state": "CA", "postal_code": "90005", "street": "620 South Virgil Avenue", "formatted": "620 South Virgil Avenue Los Angeles, CA 90005"}, "geo": {"lat": 34.06329, "lon": -118.286354}, "menus": [], "last_updated": "2020-12-29T06:46:09.072Z"}, {"restaurant_name": "Dong II Jang Restaurant", "restaurant_phone": "(213) 383-5757", "restaurant_website": "http:///ca/los-angeles/719690-dong-ii-jang-restaurant/", "hours": "", "price_range": "", "price_range_num": 0, "restaurant_id": 34057983118304984, "cuisines": [""], "address": {"city": "Los Angeles", "state": "CA", "postal_code": "90005", "street": "3455 West 8th Street", "formatted": "3455 West 8th Street Los Angeles, CA 90005"}, "geo": {"lat": 34.057983, "lon": -118.304985}, "menus": [], "last_updated": "2020-12-29T06:46:09.106Z"}, {"restaurant_name": "LA Hwaluh", "restaurant_phone": "(213) 387-8589", "restaurant_website": "http:///ca/los-angeles/719600-la-hwaluh/", "hours": "", "price_range": "", "price_range_num": 0, "restaurant_id": 34057964118284736, "cuisines": [""], "address": {"city": "Los Angeles", "state": "CA", "postal_code": "90005", "street": "2707 West 8th Street", "formatted": "2707 West 8th Street Los Angeles, CA 90005"}, "geo": {"lat": 34.057964, "lon": -118.284737}, "menus": [], "last_updated": "2020-12-29T06:46:09.510Z"}, {"restaurant_name": "Man Soo Korean Bar-B-Q", "restaurant_phone": "(877) 585-1085", "restaurant_website": "http:///ca/los-angeles/719576-man-soo-korean-bar-b-q/", "hours": "", "price_range": "", "price_range_num": 0, "restaurant_id": 34057968118303990, "cuisines": [""], "address": {"city": "Los Angeles", "state": "CA", "postal_code": "90005", "street": "3429 West 8th Street", "formatted": "3429 West 8th Street Los Angeles, CA 90005"}, "geo": {"lat": 34.057968, "lon": -118.303993}, "menus": [], "last_updated": "2020-12-29T06:46:09.684Z"}, {"restaurant_name": "I Love Boba", "restaurant_phone": "(213) 632-0126", "restaurant_website": "http:///ca/los-angeles/719565-i-love-boba/", "hours": "", "price_range": "", "price_range_num": 0, "restaurant_id": 34057358118307680, "cuisines": [""], "address": {"city": "Los Angeles", "state": "CA", "postal_code": "90005", "street": "3512 West 8th Street", "formatted": "3512 West 8th Street Los Angeles, CA 90005"}, "geo": {"lat": 34.057358, "lon": -118.307678}, "menus": [], "last_updated": "2020-12-29T06:46:09.689Z"}, {"restaurant_name": "Haemaru Sullungtang", "restaurant_phone": "(213) 315-5085", "restaurant_website": "http:///ca/los-angeles/586946-haemaru-sullungtang/", "hours": "", "price_range": "", "price_range_num": 0, "restaurant_id": 34057480118306388, "cuisines": [""], "address": {"city": "Los Angeles", "state": "CA", "postal_code": "90005", "street": "3498 W 8th St", "formatted": "3498 W 8th St Los Angeles, CA 90005"}, "geo": {"lat": 34.05748, "lon": -118.306389}, "menus": [], "last_updated": "2020-12-28T19:25:14.095Z"}, {"restaurant_name": "Mr. Boba", "restaurant_phone": "(213) 739-9950", "restaurant_website": "http:///ca/los-angeles/584897-mr-boba/", "hours": "", "price_range": "", "price_range_num": 0, "restaurant_id": 34059486118308524, "cuisines": [""], "address": {"city": "Los Angeles", "state": "CA", "postal_code": "90005", "street": "700 S Western Ave Ste 102", "formatted": "700 S Western Ave Ste 102 Los Angeles, CA 90005"}, "geo": {"lat": 34.059486, "lon": -118.308525}, "menus": [], "last_updated": "2020-12-28T19:25:14.010Z"}, {"restaurant_name": "Mandarin House", "restaurant_phone": "(213) 386-8976", "restaurant_website": "", "hours": "Mon-Sat: 11am-10pm Sun: 11am-9pm", "price_range": "$", "price_range_num": 1, "restaurant_id": 34057434118293884, "cuisines": ["Chinese"], "address": {"city": "Los Angeles", "state": "CA", "postal_code": "90005", "street": "3074 W 8th St", "formatted": "3074 W 8th St Los Angeles, CA 90005"}, "geo": {"lat": 34.057434, "lon": -118.293884}, "menus": [], "last_updated": "2020-12-29T06:50:30.207Z"}, {"restaurant_name": "VIP Chinese", "restaurant_phone": "(213) 389-8532", "restaurant_website": "", "hours": "Sun-Thu, Sat: 11am-9pm Fri: 11am-9:30pm", "price_range": "$$", "price_range_num": 2, "restaurant_id": 34059401118309080, "cuisines": ["Chinese"], "address": {"city": "Los Angeles", "state": "CA", "postal_code": "90005", "street": "705-12 S Western Ave", "formatted": "705-12 S Western Ave Los Angeles, CA 90005"}, "geo": {"lat": 34.059401, "lon": -118.30908}, "menus": [], "last_updated": "2020-12-29T06:50:30.327Z"}, {"restaurant_name": "You & Me", "restaurant_phone": "(213) 388-1717", "restaurant_website": "", "hours": "Daily: 10am-11pm", "price_range": "$", "price_range_num": 1, "restaurant_id": 34059663118309090, "cuisines": ["Korean"], "address": {"city": "Los Angeles", "state": "CA", "postal_code": "90005", "street": "701 S Western Ave", "formatted": "701 S Western Ave Los Angeles, CA 90005"}, "geo": {"lat": 34.059663, "lon": -118.309086}, "menus": [], "last_updated": "2020-12-29T06:50:30.561Z"}, {"restaurant_name": "Coffee Time", "restaurant_phone": "(213) 487-7333", "restaurant_website": "", "hours": "Mon-Sat: 10am-10pm Sun: 11am-10pm", "price_range": "$", "price_range_num": 1, "restaurant_id": 34057116118309110, "cuisines": ["Coffee & Tea", "Korean", "Teahouses"], "address": {"city": "Los Angeles", "state": "CA", "postal_code": "90005", "street": "851 S Western Ave", "formatted": "851 S Western Ave Los Angeles, CA 90005"}, "geo": {"lat": 34.057116, "lon": -118.309114}, "menus": [], "last_updated": "2020-12-29T06:49:39.245Z"}, {"restaurant_name": "Brew You", "restaurant_phone": "(213) 382-0305", "restaurant_website": "", "hours": "Mon-Sat: 9am-10pm Sun: 10am-9pm", "price_range": "$", "price_range_num": 1, "restaurant_id": 34056989118308692, "cuisines": ["Coffee & Tea", "Korean", "Sushi"], "address": {"city": "Los Angeles", "state": "CA", "postal_code": "90005", "street": "808 S Western Ave", "formatted": "808 S Western Ave Los Angeles, CA 90005"}, "geo": {"lat": 34.056989, "lon": -118.308692}, "menus": [], "last_updated": "2020-12-29T06:49:39.249Z"}, {"restaurant_name": "Soot Bull Jeep", "restaurant_phone": "(213) 387-3865", "restaurant_website": "", "hours": "Daily: 11am-11pm", "price_range": "$$$$", "price_range_num": 4, "restaurant_id": 34057605118295820, "cuisines": ["Barbecue", "Korean", "Noodles"], "address": {"city": "Los Angeles", "state": "CA", "postal_code": "90005", "street": "3136 W 8th St", "formatted": "3136 W 8th St Los Angeles, CA 90005"}, "geo": {"lat": 34.057605, "lon": -118.29582}, "menus": [], "last_updated": "2020-12-29T06:49:39.594Z"}], "numResults": 25}