{"totalResults": 285, "page": 1, "total_pages": 12, "more_pages": true, "data": [{"restaurant_name": "Raffallo's Pizza", "restaurant_phone": "(323) 851-5950", "restaurant_website": "", "hours": "", "price_range": "$$$", "price_range_num": 3, "restaurant_id": 34098029118349372, "cuisines": ["Italian", "Pizza"], "address": {"city": "Los Angeles", "state": "CA", "postal_code": "90046", "street": "7311 W Sunset Blvd", "formatted": "7311 W Sunset Blvd Los Angeles, CA 90046"}, "geo": {"lat": 34.098029, "lon": -118.349372}, "menus": [], "last_updated": "2020-12-29T06:50:33.081Z"}, {"restaurant_name": "Bangin' Basil", "restaurant_phone": "(323) 654-7952", "restaurant_website": "", "hours": "Daily: 11am-11pm", "price_range": "$$", "price_range_num": 2, "restaurant_id": 34090705118369868, "cuisines": ["Barbecue", "Thai"], "address": {"city": "Los Angeles", "state": "CA", "postal_code": "90046", "street": "8281 Santa Monica Blvd", "formatted": "8281 Santa Monica Blvd Los Angeles, CA 90046"}, "geo": {"lat": 34.090705, "lon": -118.369868}, "menus": [], "last_updated": "2020-12-29T06:50:34.876Z"}, {"restaurant_name": "Big Mama's & Papa's Pizzeria", "restaurant_phone": "(323) 851-8111", "restaurant_website": "", "hours": "Sun-Thu: 11am-10pm Fri-Sat: 11am-11pm", "price_range": "$$$", "price_range_num": 3, "restaurant_id": 34098310118350264, "cuisines": ["Pizza"], "address": {"city": "Los Angeles", "state": "CA", "postal_code": "90046", "street": "7353 W Sunset Blvd", "formatted": "7353 W Sunset Blvd Los Angeles, CA 90046"}, "geo": {"lat": 34.09831, "lon": -118.350263}, "menus": [], "last_updated": "2020-12-29T06:50:35.079Z"}, {"restaurant_name": "Bossa Nova", "restaurant_phone": "(323) 436-7999", "restaurant_website": "", "hours": "Daily: 11am-4am ", "price_range": "$$$", "price_range_num": 3, "restaurant_id": 34097980118346560, "cuisines": ["Brazilian", "Pizza", "South American"], "address": {"city": "Los Angeles", "state": "CA", "postal_code": "90046", "street": "7181 W Sunset Blvd", "formatted": "7181 W Sunset Blvd Los Angeles, CA 90046"}, "geo": {"lat": 34.09798, "lon": -118.346561}, "menus": [], "last_updated": "2020-12-29T06:50:35.144Z"}, {"restaurant_name": "L.O.V.E", "restaurant_phone": "(323) 688-2065", "restaurant_website": "http:///ca/west-hollywood/835519-love/", "hours": "", "price_range": "", "price_range_num": 0, "restaurant_id": 34091129118367860, "cuisines": [""], "address": {"city": "West Hollywood", "state": "CA", "postal_code": "90046", "street": "8205 Santa Monica Blvd", "formatted": "8205 Santa Monica Blvd West Hollywood, CA 90046"}, "geo": {"lat": 34.091129, "lon": -118.367859}, "menus": [], "last_updated": "2021-01-05T07:26:11.997Z"}, {"restaurant_name": "Miss Melbourne Coffee LA", "restaurant_phone": "(310) 871-0653", "restaurant_website": "http:///ca/west-hollywood/818108-miss-melbourne-coffee-la/", "hours": "", "price_range": "", "price_range_num": 0, "restaurant_id": 34090458118367164, "cuisines": [""], "address": {"city": "West Hollywood", "state": "CA", "postal_code": "90046", "street": "1051 Havenhurst Drive", "formatted": "1051 Havenhurst Drive West Hollywood, CA 90046"}, "geo": {"lat": 34.090458, "lon": -118.367165}, "menus": [], "last_updated": "2021-01-05T07:26:12.082Z"}, {"restaurant_name": "The Naughty Pig", "restaurant_phone": "(323) 450-9478", "restaurant_website": "http:///ca/west-hollywood/791012-the-naughty-pig/", "hours": "", "price_range": "", "price_range_num": 0, "restaurant_id": 34096767118369452, "cuisines": [""], "address": {"city": "West Hollywood", "state": "CA", "postal_code": "90046", "street": "8264 Sunset Boulevard", "formatted": "8264 Sunset Boulevard West Hollywood, CA 90046"}, "geo": {"lat": 34.096767, "lon": -118.369453}, "menus": [], "last_updated": "2021-01-05T07:26:12.108Z"}, {"restaurant_name": "Nakamura Ramen House", "restaurant_phone": "(323) 745-0533", "restaurant_website": "http:///ca/west-hollywood/790200-nakamura-ramen-house/", "hours": "", "price_range": "", "price_range_num": 0, "restaurant_id": 34091122118369450, "cuisines": [""], "address": {"city": "West Hollywood", "state": "CA", "postal_code": "90046", "street": "8267 Santa Monica Boulevard", "formatted": "8267 Santa Monica Boulevard West Hollywood, CA 90046"}, "geo": {"lat": 34.091122, "lon": -118.369446}, "menus": [], "last_updated": "2021-01-05T07:26:12.158Z"}, {"restaurant_name": "Tacos Tu Madre", "restaurant_phone": "(323) 351-3234", "restaurant_website": "http:///ca/west-hollywood/735898-tacos-tu-madre/", "hours": "", "price_range": "", "price_range_num": 0, "restaurant_id": 34091267118363160, "cuisines": [""], "address": {"city": "West Hollywood", "state": "CA", "postal_code": "90046", "street": "1111 N Hayworth Ave", "formatted": "1111 N Hayworth Ave West Hollywood, CA 90046"}, "geo": {"lat": 34.091267, "lon": -118.363159}, "menus": [], "last_updated": "2021-01-05T07:26:12.191Z"}, {"restaurant_name": "Crazy Rock'n Sushi", "restaurant_phone": "(323) 882-8247", "restaurant_website": "http:///ca/west-hollywood/790435-crazy-rockn-sushi/", "hours": "", "price_range": "", "price_range_num": 0, "restaurant_id": 34090515118344976, "cuisines": [""], "address": {"city": "West Hollywood", "state": "CA", "postal_code": "90046", "street": "158 Santa Monica Boulevard", "formatted": "158 Santa Monica Boulevard West Hollywood, CA 90046"}, "geo": {"lat": 34.090515, "lon": -118.344978}, "menus": [], "last_updated": "2021-01-05T07:26:12.211Z"}, {"restaurant_name": "China 1", "restaurant_phone": "(323) 656-2215", "restaurant_website": "http:///ca/west-hollywood/780216-china-1/", "hours": "", "price_range": "", "price_range_num": 0, "restaurant_id": 34090477118370140, "cuisines": [""], "address": {"city": "West Hollywood", "state": "CA", "postal_code": "90046", "street": "8290 Santa Monica Boulevard", "formatted": "8290 Santa Monica Boulevard West Hollywood, CA 90046"}, "geo": {"lat": 34.090477, "lon": -118.37014}, "menus": [], "last_updated": "2021-01-05T07:26:12.298Z"}, {"restaurant_name": "Madison & Park Coffee", "restaurant_phone": "(323) 378-6770", "restaurant_website": "http:///ca/west-hollywood/718152-madison-park-coffee/", "hours": "", "price_range": "", "price_range_num": 0, "restaurant_id": 34090458118352904, "cuisines": [""], "address": {"city": "West Hollywood", "state": "CA", "postal_code": "90046", "street": "7494 Santa Monica Boulevard", "formatted": "7494 Santa Monica Boulevard West Hollywood, CA 90046"}, "geo": {"lat": 34.090458, "lon": -118.352905}, "menus": [], "last_updated": "2021-01-05T07:26:12.492Z"}, {"restaurant_name": "Delilah", "restaurant_phone": "(323) 745-0600", "restaurant_website": "http:///ca/west-hollywood/717789-delilah/", "hours": "", "price_range": "", "price_range_num": 0, "restaurant_id": 34091091118363590, "cuisines": [""], "address": {"city": "West Hollywood", "state": "CA", "postal_code": "90046", "street": "7969 Santa Monica Boulevard", "formatted": "7969 Santa Monica Boulevard West Hollywood, CA 90046"}, "geo": {"lat": 34.091091, "lon": -118.363594}, "menus": [], "last_updated": "2021-01-05T07:26:12.496Z"}, {"restaurant_name": "Cafe If", "restaurant_phone": "(323) 656-8553", "restaurant_website": "http:///ca/west-hollywood/717868-cafe-if/", "hours": "", "price_range": "", "price_range_num": 0, "restaurant_id": 34094276118363548, "cuisines": [""], "address": {"city": "West Hollywood", "state": "CA", "postal_code": "90046", "street": "7962 Fountain Avenue", "formatted": "7962 Fountain Avenue West Hollywood, CA 90046"}, "geo": {"lat": 34.094276, "lon": -118.363548}, "menus": [], "last_updated": "2021-01-05T07:26:12.500Z"}, {"restaurant_name": "Good Burger", "restaurant_phone": "(323) 850-2355", "restaurant_website": "http:///ca/west-hollywood/717748-good-burger/", "hours": "", "price_range": "", "price_range_num": 0, "restaurant_id": 34090153118345810, "cuisines": [""], "address": {"city": "West Hollywood", "state": "CA", "postal_code": "90046", "street": "7100 Santa Monica Boulevard", "formatted": "7100 Santa Monica Boulevard West Hollywood, CA 90046"}, "geo": {"lat": 34.090153, "lon": -118.34581}, "menus": [], "last_updated": "2021-01-05T07:26:12.538Z"}, {"restaurant_name": "Norah", "restaurant_phone": "(323) 450-4211", "restaurant_website": "http:///ca/west-hollywood/718170-norah/", "hours": "", "price_range": "", "price_range_num": 0, "restaurant_id": 34090927118369776, "cuisines": [""], "address": {"city": "West Hollywood", "state": "CA", "postal_code": "90046", "street": "8279 Santa Monica Boulevard", "formatted": "8279 Santa Monica Boulevard West Hollywood, CA 90046"}, "geo": {"lat": 34.090927, "lon": -118.369774}, "menus": [], "last_updated": "2021-01-05T07:26:12.544Z"}, {"restaurant_name": "Coffee Coffee", "restaurant_phone": "(323) 952-6590", "restaurant_website": "http:///ca/west-hollywood/717700-coffee-coffee/", "hours": "", "price_range": "", "price_range_num": 0, "restaurant_id": 34089924118361136, "cuisines": [""], "address": {"city": "West Hollywood", "state": "CA", "postal_code": "90046", "street": "1040 N Fairfax Ave", "formatted": "1040 N Fairfax Ave West Hollywood, CA 90046"}, "geo": {"lat": 34.089924, "lon": -118.361137}, "menus": [], "last_updated": "2021-01-05T07:26:12.549Z"}, {"restaurant_name": "Conservatory", "restaurant_phone": "(323) 654-0020", "restaurant_website": "http:///ca/west-hollywood/717714-conservatory/", "hours": "", "price_range": "", "price_range_num": 0, "restaurant_id": 34090874118370040, "cuisines": [""], "address": {"city": "West Hollywood", "state": "CA", "postal_code": "90046", "street": "8289 Santa Monica Boulevard", "formatted": "8289 Santa Monica Boulevard West Hollywood, CA 90046"}, "geo": {"lat": 34.090874, "lon": -118.370041}, "menus": [], "last_updated": "2021-01-05T07:26:12.567Z"}, {"restaurant_name": "Pura Vita", "restaurant_phone": "(323) 688-2303", "restaurant_website": "http:///ca/west-hollywood/717772-pura-vita/", "hours": "", "price_range": "", "price_range_num": 0, "restaurant_id": 34090599118369570, "cuisines": [""], "address": {"city": "West Hollywood", "state": "CA", "postal_code": "90046", "street": "8274 Santa Monica Boulevard", "formatted": "8274 Santa Monica Boulevard West Hollywood, CA 90046"}, "geo": {"lat": 34.090599, "lon": -118.369568}, "menus": [], "last_updated": "2021-01-05T07:26:12.595Z"}, {"restaurant_name": "The Ice Cream Shop / Shell Gas Station", "restaurant_phone": "(323) 455-6707", "restaurant_website": "http:///ca/los-angeles/663201-the-ice-cream-shop/", "hours": "", "price_range": "", "price_range_num": 0, "restaurant_id": 34090522118365130, "cuisines": [""], "address": {"city": "West Hollywood", "state": "CA", "postal_code": "90046", "street": "8020 Santa Monica Blvd", "formatted": "8020 Santa Monica Blvd West Hollywood, CA 90046"}, "geo": {"lat": 34.090522, "lon": -118.365127}, "menus": [], "last_updated": "2021-01-05T07:26:12.611Z"}, {"restaurant_name": "RetroFit Cafe", "restaurant_phone": "(323) 266-9814", "restaurant_website": "http:///ca/west-hollywood/587291-retrofit-cafe/", "hours": "", "price_range": "", "price_range_num": 0, "restaurant_id": 34090641118355760, "cuisines": [""], "address": {"city": "West Hollywood", "state": "CA", "postal_code": "90046", "street": "7614 Santa Monica Blvd", "formatted": "7614 Santa Monica Blvd West Hollywood, CA 90046"}, "geo": {"lat": 34.090641, "lon": -118.355759}, "menus": [], "last_updated": "2021-01-05T07:26:12.755Z"}, {"restaurant_name": "Electric Owl", "restaurant_phone": "(323) 545-6565", "restaurant_website": "http:///ca/west-hollywood/632756-electric-owl/", "hours": "", "price_range": "", "price_range_num": 0, "restaurant_id": 34097652118353070, "cuisines": [""], "address": {"city": "West Hollywood", "state": "CA", "postal_code": "90046", "street": "1451 N Gardner St", "formatted": "1451 N Gardner St West Hollywood, CA 90046"}, "geo": {"lat": 34.097652, "lon": -118.353073}, "menus": [], "last_updated": "2021-01-05T07:26:12.771Z"}, {"restaurant_name": "Tasty Donuts and Cafe", "restaurant_phone": "(323) 650-1325", "restaurant_website": "http:///ca/west-hollywood/573965-tasty-donuts-and-cafe/", "hours": "", "price_range": "", "price_range_num": 0, "restaurant_id": 34090756118367668, "cuisines": [""], "address": {"city": "West Hollywood", "state": "CA", "postal_code": "90046", "street": "8205 Santa Monica Blvd Ste 8", "formatted": "8205 Santa Monica Blvd Ste 8 West Hollywood, CA 90046"}, "geo": {"lat": 34.090756, "lon": -118.367668}, "menus": [], "last_updated": "2021-01-05T07:26:12.838Z"}, {"restaurant_name": "Tikifish WeHo", "restaurant_phone": "(323) 672-8546", "restaurant_website": "http:///ca/west-hollywood/555008-tikifish-weho/", "hours": "", "price_range": "", "price_range_num": 0, "restaurant_id": 34090740118349404, "cuisines": [""], "address": {"city": "West Hollywood", "state": "CA", "postal_code": "90046", "street": "7318 Santa Monica Blvd STE 10", "formatted": "7318 Santa Monica Blvd STE 10 West Hollywood, CA 90046"}, "geo": {"lat": 34.09074, "lon": -118.349403}, "menus": [], "last_updated": "2021-01-05T07:26:12.848Z"}, {"restaurant_name": "Harlowe", "restaurant_phone": "(323) 876-5839", "restaurant_website": "", "hours": "Daily: 5pm-2am", "price_range": "$$", "price_range_num": 2, "restaurant_id": 34091019118349520, "cuisines": ["Bar Food", "Cocktails"], "address": {"city": "West Hollywood", "state": "CA", "postal_code": "90046", "street": "7321 Santa Monica Blvd", "formatted": "7321 Santa Monica Blvd West Hollywood, CA 90046"}, "geo": {"lat": 34.091019, "lon": -118.349522}, "menus": [], "last_updated": "2021-01-05T07:26:13.361Z"}], "numResults": 25}