{"totalResults": 201, "page": 1, "total_pages": 9, "more_pages": true, "data": [{"restaurant_name": "Tossed", "restaurant_phone": "(213) 612-4322", "restaurant_website": "http://www.tossed.com", "hours": "Mon-Fri: 8am-8pm Sat-Sun: 11am-5pm", "price_range": "$$", "price_range_num": 2, "restaurant_id": 34048670118257536, "cuisines": ["Crepes", "Salads", "Sandwiches"], "address": {"city": "Beverly Hills", "state": "CA", "postal_code": "90017", "street": "700 Wilshire Blvd", "formatted": "700 Wilshire Blvd Beverly Hills, CA 90017"}, "geo": {"lat": 34.04867, "lon": -118.257536}, "menus": [], "last_updated": "2021-01-05T08:34:41.559Z"}, {"restaurant_name": "Loose Leaf", "restaurant_phone": "(213) 622-1616", "restaurant_website": "", "hours": "Mon-Fri: 10:30am-9pm", "price_range": "$$", "price_range_num": 2, "restaurant_id": 34049366118256150, "cuisines": ["Salads", "Sandwiches"], "address": {"city": "Los Angeles", "state": "CA", "postal_code": "90017", "street": "630 W 6th St", "formatted": "630 W 6th St Los Angeles, CA 90017"}, "geo": {"lat": 34.049366, "lon": -118.25615}, "menus": [], "last_updated": "2020-12-29T06:50:34.694Z"}, {"restaurant_name": "Big Mama's and Papa's Pizzeria - DTLA", "restaurant_phone": "(213) 627-5556", "restaurant_website": "", "hours": "Sun-Thu: 11am-10pm Fri-Sat: 11am-11pm", "price_range": "$$$", "price_range_num": 3, "restaurant_id": 34049023118258590, "cuisines": ["Pizza"], "address": {"city": "Los Angeles", "state": "CA", "postal_code": "90017", "street": "657 S Flower St", "formatted": "657 S Flower St Los Angeles, CA 90017"}, "geo": {"lat": 34.049023, "lon": -118.258591}, "menus": [], "last_updated": "2020-12-29T06:50:34.720Z"}, {"restaurant_name": "Yorkshire Grill", "restaurant_phone": "(213) 623-3362", "restaurant_website": "", "hours": "Mon-Fri: 6am-4pm", "price_range": "$$", "price_range_num": 2, "restaurant_id": 34048985118255584, "cuisines": ["Diner", "Sandwiches"], "address": {"city": "Los Angeles", "state": "CA", "postal_code": "90017", "street": "610 W 6th St", "formatted": "610 W 6th St Los Angeles, CA 90017"}, "geo": {"lat": 34.048985, "lon": -118.255582}, "menus": [], "last_updated": "2020-12-29T06:50:34.732Z"}, {"restaurant_name": "Noda Sushi", "restaurant_phone": "(213) 622-0222", "restaurant_website": "", "hours": "", "price_range": "$", "price_range_num": 1, "restaurant_id": 34048237118256452, "cuisines": ["Asian", "Japanese", "Sushi"], "address": {"city": "Los Angeles", "state": "CA", "postal_code": "90017", "street": "818 Wilshire Blvd Ste C", "formatted": "818 Wilshire Blvd Ste C Los Angeles, CA 90017"}, "geo": {"lat": 34.048237, "lon": -118.256452}, "menus": [], "last_updated": "2020-12-29T06:50:33.033Z"}, {"restaurant_name": "Cafe WG", "restaurant_phone": "(877) 585-1085", "restaurant_website": "http:///ca/los-angeles/755924-cafe-wg/", "hours": "", "price_range": "", "price_range_num": 0, "restaurant_id": 34050102118260420, "cuisines": [""], "address": {"city": "Los Angeles", "state": "CA", "postal_code": "90017", "street": "900 Wilshire Blvd ste 130", "formatted": "900 Wilshire Blvd ste 130 Los Angeles, CA 90017"}, "geo": {"lat": 34.050102, "lon": -118.260421}, "menus": [], "last_updated": "2020-12-29T06:46:06.528Z"}, {"restaurant_name": "Little Sister", "restaurant_phone": "(213) 628-3146", "restaurant_website": "http:///ca/los-angeles/722640-little-sister/", "hours": "", "price_range": "", "price_range_num": 0, "restaurant_id": 34047321118256056, "cuisines": [""], "address": {"city": "Los Angeles", "state": "CA", "postal_code": "90017", "street": "523 West 7th Street", "formatted": "523 West 7th Street Los Angeles, CA 90017"}, "geo": {"lat": 34.047321, "lon": -118.256058}, "menus": [], "last_updated": "2020-12-29T06:46:08.075Z"}, {"restaurant_name": "Salata", "restaurant_phone": "(213) 891-9001", "restaurant_website": "https://www.salata.com/?y_source=1_MTI2NTA5MjYtNzA4LWxvY2F0aW9uLndlYnNpdGU%3D", "hours": "", "price_range": "", "price_range_num": 0, "restaurant_id": 34049100118260500, "cuisines": [""], "address": {"city": "Los Angeles", "state": "CA", "postal_code": "90017", "street": "735 S. Figueroa St", "formatted": "735 S. Figueroa St Los Angeles, CA 90017"}, "geo": {"lat": 34.0491, "lon": -118.2605}, "menus": [], "last_updated": "2020-12-28T19:25:11.526Z"}, {"restaurant_name": "Ebaes on Wilshire", "restaurant_phone": "(213) 250-0088", "restaurant_website": "http:///ca/los-angeles/570522-ebaes-on-wilshire/", "hours": "", "price_range": "", "price_range_num": 0, "restaurant_id": 34052780118263664, "cuisines": [""], "address": {"city": "Los Angeles", "state": "CA", "postal_code": "90017", "street": "1111 Wilshire Blvd Ste 104", "formatted": "1111 Wilshire Blvd Ste 104 Los Angeles, CA 90017"}, "geo": {"lat": 34.05278, "lon": -118.263664}, "menus": [], "last_updated": "2020-12-28T19:25:11.685Z"}, {"restaurant_name": "Toastea", "restaurant_phone": "(213) 628-3766", "restaurant_website": "http:///ca/los-angeles/571887-toastea/", "hours": "", "price_range": "", "price_range_num": 0, "restaurant_id": 34047348118257600, "cuisines": [""], "address": {"city": "Los Angeles", "state": "CA", "postal_code": "90017", "street": "600 W 7th St Ste 120", "formatted": "600 W 7th St Ste 120 Los Angeles, CA 90017"}, "geo": {"lat": 34.047348, "lon": -118.257599}, "menus": [], "last_updated": "2020-12-28T19:25:11.940Z"}, {"restaurant_name": "Burgerim", "restaurant_phone": "(213) 628-3253", "restaurant_website": "http:///ca/los-angeles/578199-burgerim/", "hours": "", "price_range": "", "price_range_num": 0, "restaurant_id": 34047600118256820, "cuisines": [""], "address": {"city": "Los Angeles", "state": "CA", "postal_code": "90017", "street": "605 W 7th St", "formatted": "605 W 7th St Los Angeles, CA 90017"}, "geo": {"lat": 34.0476, "lon": -118.256821}, "menus": [], "last_updated": "2020-12-28T19:25:12.968Z"}, {"restaurant_name": "Cilantro Fresh Mexican Grill", "restaurant_phone": "(213) 265-7007", "restaurant_website": "http:///ca/los-angeles/574166-cilantro-fresh-mexican-grill/", "hours": "", "price_range": "", "price_range_num": 0, "restaurant_id": 34047333118261276, "cuisines": [""], "address": {"city": "Los Angeles", "state": "CA", "postal_code": "90017", "street": "816 S Figueroa St", "formatted": "816 S Figueroa St Los Angeles, CA 90017"}, "geo": {"lat": 34.047333, "lon": -118.261276}, "menus": [], "last_updated": "2020-12-28T19:25:12.399Z"}, {"restaurant_name": "Fundamental", "restaurant_phone": "(213) 935-8180", "restaurant_website": "http:///ca/los-angeles/579766-fundamental/", "hours": "", "price_range": "", "price_range_num": 0, "restaurant_id": 34046417118257056, "cuisines": [""], "address": {"city": "Los Angeles", "state": "CA", "postal_code": "90017", "street": "750 S Grand Ave Ste 30", "formatted": "750 S Grand Ave Ste 30 Los Angeles, CA 90017"}, "geo": {"lat": 34.046417, "lon": -118.257057}, "menus": [], "last_updated": "2020-12-28T19:25:13.287Z"}, {"restaurant_name": "The Urban Oven", "restaurant_phone": "(213) 223-5980", "restaurant_website": "http:///ca/los-angeles/580439-the-urban-oven/", "hours": "", "price_range": "", "price_range_num": 0, "restaurant_id": 34048203118258948, "cuisines": [""], "address": {"city": "Los Angeles", "state": "CA", "postal_code": "90017", "street": "700 S Flower St", "formatted": "700 S Flower St Los Angeles, CA 90017"}, "geo": {"lat": 34.048203, "lon": -118.258949}, "menus": [], "last_updated": "2020-12-28T19:25:13.294Z"}, {"restaurant_name": "Shopbite", "restaurant_phone": "(866) 279-5948", "restaurant_website": "http:///ca/los-angeles/585909-shopbite/", "hours": "", "price_range": "", "price_range_num": 0, "restaurant_id": 34047810118258910, "cuisines": [""], "address": {"city": "Los Angeles", "state": "CA", "postal_code": "90017", "street": "750 W 7th St Ste S310", "formatted": "750 W 7th St Ste S310 Los Angeles, CA 90017"}, "geo": {"lat": 34.04781, "lon": -118.258911}, "menus": [], "last_updated": "2020-12-28T19:25:13.881Z"}, {"restaurant_name": "Limericks Tavern", "restaurant_phone": "(213) 537-0554", "restaurant_website": "http:///ca/los-angeles/589260-limericks-tavern/", "hours": "", "price_range": "", "price_range_num": 0, "restaurant_id": 34049740118258020, "cuisines": [""], "address": {"city": "Los Angeles", "state": "CA", "postal_code": "90017", "street": "615 S Flower St", "formatted": "615 S Flower St Los Angeles, CA 90017"}, "geo": {"lat": 34.04974, "lon": -118.258019}, "menus": [], "last_updated": "2020-12-28T19:25:14.411Z"}, {"restaurant_name": "The Grand Cafe", "restaurant_phone": "(213) 622-0474", "restaurant_website": "", "hours": "Mon-Fri: 7am-3:30pm", "price_range": "$$", "price_range_num": 2, "restaurant_id": 34049456118253890, "cuisines": ["Coffee & Tea"], "address": {"city": "Los Angeles", "state": "CA", "postal_code": "90017", "street": "624 S Grand Ave", "formatted": "624 S Grand Ave Los Angeles, CA 90017"}, "geo": {"lat": 34.049456, "lon": -118.253888}, "menus": [], "last_updated": "2020-12-29T06:50:09.020Z"}, {"restaurant_name": "Flame Broiler", "restaurant_phone": "(213) 622-8828", "restaurant_website": "", "hours": "Mon-Sat: 11am-8pm", "price_range": "$", "price_range_num": 1, "restaurant_id": 34049114118258804, "cuisines": ["Chicken", "Korean"], "address": {"city": "Los Angeles", "state": "CA", "postal_code": "90017", "street": "659 Flower St", "formatted": "659 Flower St Los Angeles, CA 90017"}, "geo": {"lat": 34.049114, "lon": -118.258804}, "menus": [], "last_updated": "2020-12-29T06:50:09.343Z"}, {"restaurant_name": "Checker Cab Pizza", "restaurant_phone": "(213) 688-9651", "restaurant_website": "", "hours": "", "price_range": "$$$", "price_range_num": 3, "restaurant_id": 34048037118258468, "cuisines": ["Italian", "Pasta", "Pizza"], "address": {"city": "Los Angeles", "state": "CA", "postal_code": "90017", "street": "750 W 7th St", "formatted": "750 W 7th St Los Angeles, CA 90017"}, "geo": {"lat": 34.048037, "lon": -118.258467}, "menus": [], "last_updated": "2020-12-29T06:50:09.512Z"}, {"restaurant_name": "Gourmet Wines Cafe", "restaurant_phone": "(213) 489-2666", "restaurant_website": "", "hours": "Daily: 11am-9pm", "price_range": "$$$$$", "price_range_num": 5, "restaurant_id": 34048238118256936, "cuisines": ["Alcohol", "American (New)", "Pizza"], "address": {"city": "Los Angeles", "state": "CA", "postal_code": "90017", "street": "626 Wilshire Blvd", "formatted": "626 Wilshire Blvd Los Angeles, CA 90017"}, "geo": {"lat": 34.048238, "lon": -118.256937}, "menus": [], "last_updated": "2020-12-29T06:50:29.590Z"}, {"restaurant_name": "Rene Cafe", "restaurant_phone": "(213) 689-9898", "restaurant_website": "", "hours": "Mon-Fri: 11am-9pm Sat: 11am-7pm", "price_range": "$$", "price_range_num": 2, "restaurant_id": 34051220118264784, "cuisines": ["Chinese", "Thai"], "address": {"city": "Los Angeles", "state": "CA", "postal_code": "90017", "street": "1123 W 7th St", "formatted": "1123 W 7th St Los Angeles, CA 90017"}, "geo": {"lat": 34.05122, "lon": -118.264786}, "menus": [], "last_updated": "2020-12-29T06:50:29.649Z"}, {"restaurant_name": "Count Potato", "restaurant_phone": "(213) 250-8466", "restaurant_website": "http://www.countpotato.com", "hours": "Mon-Fri: 7am-4pm Sat: 7am-2pm", "price_range": "$", "price_range_num": 1, "restaurant_id": 34054362118262544, "cuisines": ["American", "Central American", "Mexican"], "address": {"city": "Los Angeles", "state": "CA", "postal_code": "90017", "street": "1125 W 6th St", "formatted": "1125 W 6th St Los Angeles, CA 90017"}, "geo": {"lat": 34.054362, "lon": -118.262544}, "menus": [], "last_updated": "2020-12-29T06:50:29.949Z"}, {"restaurant_name": "Kachi Deli Cafe & Grill", "restaurant_phone": "(213) 482-4898", "restaurant_website": "http://www.kachidelicafe.com", "hours": "Mon-Fri: 7am-4pm", "price_range": "$", "price_range_num": 1, "restaurant_id": 34052563118262720, "cuisines": ["Coffee & Tea", "Sandwiches", "Smoothies & Juices"], "address": {"city": "Los Angeles", "state": "CA", "postal_code": "90017", "street": "1055 Wilshire Blvd", "formatted": "1055 Wilshire Blvd Los Angeles, CA 90017"}, "geo": {"lat": 34.052563, "lon": -118.262718}, "menus": [], "last_updated": "2020-12-29T06:50:30.085Z"}, {"restaurant_name": "Tierra Cafe", "restaurant_phone": "(213) 629-1402", "restaurant_website": "", "hours": "", "price_range": "$", "price_range_num": 1, "restaurant_id": 34049661118258840, "cuisines": ["Breakfast", "Salads", "Sandwiches", "Vegan", "Vegetarian"], "address": {"city": "LOS ANGELES", "state": "CA", "postal_code": "90017", "street": "818 Wilshire Blvd", "formatted": "818 Wilshire Blvd LOS ANGELES, CA 90017"}, "geo": {"lat": 34.049661, "lon": -118.258842}, "menus": [], "last_updated": "2020-12-29T06:50:30.579Z"}, {"restaurant_name": "Ocho Mexican Grill", "restaurant_phone": "(888) 988-6246", "restaurant_website": "http://www.eatocho.com", "hours": "Mon-Thu: 10:30am-8:30pm Fri: 10:30am-4pm Sat: 11am-4:30pm", "price_range": "$$", "price_range_num": 2, "restaurant_id": 34048955118256144, "cuisines": ["Mexican"], "address": {"city": "Los Angeles", "state": "CA", "postal_code": "90017", "street": "630 W Sixth St", "formatted": "630 W Sixth St Los Angeles, CA 90017"}, "geo": {"lat": 34.048955, "lon": -118.256144}, "menus": [], "last_updated": "2020-12-29T06:50:31.016Z"}], "numResults": 25}