{"totalResults": 53, "page": 1, "total_pages": 3, "more_pages": true, "data": [{"restaurant_name": "Domino's Pizza", "restaurant_phone": "(323) 758-5500", "restaurant_website": "http://www.dominos.com", "hours": "", "price_range": "", "price_range_num": 0, "restaurant_id": 33959900118290000, "cuisines": ["American", "Pizza", "Wings"], "address": {"city": "Los Angeles", "state": "CA", "postal_code": "90044", "street": "950 W Manchester Ave", "formatted": "950 W Manchester Ave Los Angeles, CA 90044"}, "geo": {"lat": 33.9599, "lon": -118.29}, "menus": [], "last_updated": "2020-12-29T06:46:06.750Z"}, {"restaurant_name": "Jack in the Box", "restaurant_phone": "(323) 834-0199", "restaurant_website": "http:///ca/los-angeles/569939-jack-in-the-box/", "hours": "", "price_range": "", "price_range_num": 0, "restaurant_id": 33988857118291870, "cuisines": [""], "address": {"city": "Los Angeles", "state": "CA", "postal_code": "90044", "street": "1000 W Slauson Ave", "formatted": "1000 W Slauson Ave Los Angeles, CA 90044"}, "geo": {"lat": 33.988857, "lon": -118.29187}, "menus": [], "last_updated": "2020-12-28T19:25:11.674Z"}, {"restaurant_name": "Church's Chicken", "restaurant_phone": "(323) 758-0553", "restaurant_website": "http:///ca/los-angeles/573868-churchs-chicken/", "hours": "", "price_range": "", "price_range_num": 0, "restaurant_id": 33974415118292150, "cuisines": [""], "address": {"city": "Los Angeles", "state": "CA", "postal_code": "90044", "street": "7205 S Vermont", "formatted": "7205 S Vermont Los Angeles, CA 90044"}, "geo": {"lat": 33.974415, "lon": -118.292152}, "menus": [], "last_updated": "2020-12-28T19:25:12.232Z"}, {"restaurant_name": "FUEGO GRILL BURGERS", "restaurant_phone": "(323) 531-2314", "restaurant_website": "http:///ca/los-angeles/579039-fuego-grill-burgers/", "hours": "", "price_range": "", "price_range_num": 0, "restaurant_id": 33985508118291944, "cuisines": [""], "address": {"city": "Los Angeles", "state": "CA", "postal_code": "90044", "street": "6001 S Vermont Ave Ste 4", "formatted": "6001 S Vermont Ave Ste 4 Los Angeles, CA 90044"}, "geo": {"lat": 33.985508, "lon": -118.291946}, "menus": [], "last_updated": "2020-12-28T19:25:13.103Z"}, {"restaurant_name": "Tacos El Unico", "restaurant_phone": "(323) 242-7447", "restaurant_website": "", "hours": "Sun-Thu: 8am-11pm Fri-Sat: 8am-1am", "price_range": "$", "price_range_num": 1, "restaurant_id": 33945201118299990, "cuisines": ["Mexican"], "address": {"city": "Los Angeles", "state": "CA", "postal_code": "90044", "street": "10006 S Normandie Ave", "formatted": "10006 S Normandie Ave Los Angeles, CA 90044"}, "geo": {"lat": 33.945201, "lon": -118.29999}, "menus": [], "last_updated": "2020-12-29T06:50:02.727Z"}, {"restaurant_name": "McDonald's", "restaurant_phone": "", "restaurant_website": "http://www.mcdonalds.com", "hours": "", "price_range": "", "price_range_num": 0, "restaurant_id": 33988573118289628, "cuisines": ["American", "Burgers"], "address": {"city": "LOS ANGELES", "state": "CA", "postal_code": "90044", "street": "988 W Slauson Ave", "formatted": "988 W Slauson Ave LOS ANGELES, CA 90044"}, "geo": {"lat": 33.988573, "lon": -118.289628}, "menus": [], "last_updated": "2020-12-29T06:51:31.151Z"}, {"restaurant_name": "McDonald's", "restaurant_phone": "", "restaurant_website": "http://www.mcdonalds.com", "hours": "", "price_range": "", "price_range_num": 0, "restaurant_id": 33974890118283068, "cuisines": ["American", "Burgers"], "address": {"city": "LOS ANGELES", "state": "CA", "postal_code": "90044", "street": "505 W Florence Ave", "formatted": "505 W Florence Ave LOS ANGELES, CA 90044"}, "geo": {"lat": 33.97489, "lon": -118.283069}, "menus": [], "last_updated": "2020-12-29T06:51:31.388Z"}, {"restaurant_name": "McDonald's", "restaurant_phone": "", "restaurant_website": "http://www.mcdonalds.com", "hours": "", "price_range": "", "price_range_num": 0, "restaurant_id": 33931265118282936, "cuisines": ["American", "Burgers"], "address": {"city": "LOS ANGELES", "state": "CA", "postal_code": "90044", "street": "501 W Imperial Hwy", "formatted": "501 W Imperial Hwy LOS ANGELES, CA 90044"}, "geo": {"lat": 33.931265, "lon": -118.282938}, "menus": [], "last_updated": "2020-12-29T06:51:31.415Z"}, {"restaurant_name": "Taco Bell", "restaurant_phone": "(323) 759-1891", "restaurant_website": "http://www.tacobell.com", "hours": "", "price_range": "", "price_range_num": 0, "restaurant_id": 33989464118291790, "cuisines": ["Mexican"], "address": {"city": "Los Angeles", "state": "CA", "postal_code": "90044", "street": "5801 S Vermont Ave", "formatted": "5801 S Vermont Ave Los Angeles, CA 90044"}, "geo": {"lat": 33.989464, "lon": -118.291794}, "menus": [], "last_updated": "2020-12-29T06:51:32.106Z"}, {"restaurant_name": "KFC", "restaurant_phone": "(323) 758-3544", "restaurant_website": "http://www.kfc.com", "hours": "", "price_range": "", "price_range_num": 0, "restaurant_id": 33959709118295464, "cuisines": ["American", "Chicken"], "address": {"city": "Los Angeles", "state": "CA", "postal_code": "90044", "street": "1148 W Manchester Ave", "formatted": "1148 W Manchester Ave Los Angeles, CA 90044"}, "geo": {"lat": 33.959709, "lon": -118.295464}, "menus": [], "last_updated": "2020-12-29T06:51:32.795Z"}, {"restaurant_name": "Jack in the Box", "restaurant_phone": "(323) 751-5074", "restaurant_website": "", "hours": "", "price_range": "", "price_range_num": 0, "restaurant_id": 33960270118287350, "cuisines": ["American", "Burgers"], "address": {"city": "Los Angeles", "state": "CA", "postal_code": "90044", "street": "805 W Manchester Ave", "formatted": "805 W Manchester Ave Los Angeles, CA 90044"}, "geo": {"lat": 33.96027, "lon": -118.287354}, "menus": [], "last_updated": "2020-12-29T06:51:33.362Z"}, {"restaurant_name": "El Pollo Loco", "restaurant_phone": "(323) 757-8229", "restaurant_website": "http://www.elpolloloco.com", "hours": "", "price_range": "", "price_range_num": 0, "restaurant_id": 33930978118294216, "cuisines": ["Chicken", "Mexican"], "address": {"city": "LOS ANGELES", "state": "CA", "postal_code": "90044", "street": "1090 W Imperial Hwy", "formatted": "1090 W Imperial Hwy LOS ANGELES, CA 90044"}, "geo": {"lat": 33.930978, "lon": -118.294217}, "menus": [], "last_updated": "2020-12-29T06:51:34.730Z"}, {"restaurant_name": "Quiznos Sub", "restaurant_phone": "(323) 753-5228", "restaurant_website": "http://www.quiznos.com/", "hours": "", "price_range": "", "price_range_num": 0, "restaurant_id": 33988719118293580, "cuisines": ["American", "Sandwiches", "Wraps"], "address": {"city": "LOS ANGELES", "state": "CA", "postal_code": "90044", "street": "1100 W Slauson Ave", "formatted": "1100 W Slauson Ave LOS ANGELES, CA 90044"}, "geo": {"lat": 33.988719, "lon": -118.29358}, "menus": [], "last_updated": "2020-12-29T06:51:35.843Z"}, {"restaurant_name": "Winchell's Doughnut House", "restaurant_phone": "(323) 789-6753", "restaurant_website": "", "hours": "", "price_range": "", "price_range_num": 0, "restaurant_id": 33974628118290176, "cuisines": ["American", "Bakery & Pastries", "Smoothies & Juices"], "address": {"city": "LOS ANGELES", "state": "CA", "postal_code": "90044", "street": "928 W Florence Ave", "formatted": "928 W Florence Ave LOS ANGELES, CA 90044"}, "geo": {"lat": 33.974628, "lon": -118.290176}, "menus": [], "last_updated": "2020-12-29T06:50:38.903Z"}, {"restaurant_name": "Jayis Ice Cream", "restaurant_phone": "(323) 443-4651", "restaurant_website": "http:///ca/los-angeles/705418-jayis-ice-cream/", "hours": "", "price_range": "", "price_range_num": 0, "restaurant_id": 33974354118294036, "cuisines": [""], "address": {"city": "Los Angeles", "state": "CA", "postal_code": "90044", "street": "1100 West Florence Avenue", "formatted": "1100 West Florence Avenue Los Angeles, CA 90044"}, "geo": {"lat": 33.974354, "lon": -118.294037}, "menus": [], "last_updated": "2020-12-29T06:46:32.250Z"}, {"restaurant_name": "Lucky Ducks Bar & Grill", "restaurant_phone": "(714) 944-1875", "restaurant_website": "http:///ca/los-angeles/705394-lucky-ducks-bar-grill/", "hours": "", "price_range": "", "price_range_num": 0, "restaurant_id": 33970146118291284, "cuisines": [""], "address": {"city": "Los Angeles", "state": "CA", "postal_code": "90044", "street": "7616 South Vermont Avenue", "formatted": "7616 South Vermont Avenue Los Angeles, CA 90044"}, "geo": {"lat": 33.970146, "lon": -118.291283}, "menus": [], "last_updated": "2020-12-29T06:46:32.290Z"}, {"restaurant_name": "Paseo San Miguel", "restaurant_phone": "(323) 920-6291", "restaurant_website": "http:///ca/los-angeles/705148-paseo-san-miguel/", "hours": "", "price_range": "", "price_range_num": 0, "restaurant_id": 33984764118291790, "cuisines": [""], "address": {"city": "Los Angeles", "state": "CA", "postal_code": "90044", "street": "6055 South Vermont Avenue", "formatted": "6055 South Vermont Avenue Los Angeles, CA 90044"}, "geo": {"lat": 33.984764, "lon": -118.291794}, "menus": [], "last_updated": "2020-12-29T06:46:32.407Z"}, {"restaurant_name": "La Casa Honduras", "restaurant_phone": "(323) 777-1117", "restaurant_website": "http:///ca/los-angeles/704925-la-casa-honduras/", "hours": "", "price_range": "", "price_range_num": 0, "restaurant_id": 33953610118292120, "cuisines": [""], "address": {"city": "Los Angeles", "state": "CA", "postal_code": "90044", "street": "9131 South Vermont Avenue", "formatted": "9131 South Vermont Avenue Los Angeles, CA 90044"}, "geo": {"lat": 33.95361, "lon": -118.292122}, "menus": [], "last_updated": "2020-12-29T06:46:32.444Z"}, {"restaurant_name": "Saucin It Up Fried Chicken", "restaurant_phone": "(209) 918-9227", "restaurant_website": "http:///ca/los-angeles/689298-saucin-it-up-fried-chicken/", "hours": "", "price_range": "", "price_range_num": 0, "restaurant_id": 33948780118289196, "cuisines": [""], "address": {"city": "Los Angeles", "state": "CA", "postal_code": "90044", "street": "764 W Colden Ave.", "formatted": "764 W Colden Ave. Los Angeles, CA 90044"}, "geo": {"lat": 33.94878, "lon": -118.289195}, "menus": [], "last_updated": "2020-12-29T06:46:33.021Z"}, {"restaurant_name": "Brix Pizza", "restaurant_phone": "(323) 750-2749", "restaurant_website": "http:///ca/los-angeles/709016-brix-pizza/", "hours": "", "price_range": "", "price_range_num": 0, "restaurant_id": 33974331118286360, "cuisines": [""], "address": {"city": "Los Angeles", "state": "CA", "postal_code": "90044", "street": "708 West Florence Avenue", "formatted": "708 West Florence Avenue Los Angeles, CA 90044"}, "geo": {"lat": 33.974331, "lon": -118.286362}, "menus": [], "last_updated": "2020-12-29T06:46:30.509Z"}, {"restaurant_name": "Adu Burger", "restaurant_phone": "(323) 751-2220", "restaurant_website": "http:///ca/los-angeles/708881-adu-burger/", "hours": "", "price_range": "", "price_range_num": 0, "restaurant_id": 33966065118291464, "cuisines": [""], "address": {"city": "Los Angeles", "state": "CA", "postal_code": "90044", "street": "8020 South Vermont Avenue", "formatted": "8020 South Vermont Avenue Los Angeles, CA 90044"}, "geo": {"lat": 33.966065, "lon": -118.291466}, "menus": [], "last_updated": "2020-12-29T06:46:30.571Z"}, {"restaurant_name": "Uncledaddy Bbq", "restaurant_phone": "(323) 305-1013", "restaurant_website": "http:///ca/los-angeles/708932-uncledaddy-bbq/", "hours": "", "price_range": "", "price_range_num": 0, "restaurant_id": 33946709118292150, "cuisines": [""], "address": {"city": "Los Angeles", "state": "CA", "postal_code": "90044", "street": "9801 South Vermont Avenue", "formatted": "9801 South Vermont Avenue Los Angeles, CA 90044"}, "geo": {"lat": 33.946709, "lon": -118.292152}, "menus": [], "last_updated": "2020-12-29T06:46:30.578Z"}, {"restaurant_name": "Etna's Fish Market", "restaurant_phone": "(323) 755-3070", "restaurant_website": "http:///ca/los-angeles/708947-etnas-fish-market/", "hours": "", "price_range": "", "price_range_num": 0, "restaurant_id": 33933121118292276, "cuisines": [""], "address": {"city": "Los Angeles", "state": "CA", "postal_code": "90044", "street": "11175 South Vermont Avenue", "formatted": "11175 South Vermont Avenue Los Angeles, CA 90044"}, "geo": {"lat": 33.933121, "lon": -118.292275}, "menus": [], "last_updated": "2020-12-29T06:46:30.581Z"}, {"restaurant_name": "Toms Jr Burgers Express", "restaurant_phone": "(323) 752-6143", "restaurant_website": "http:///ca/los-angeles/708950-toms-jr-burgers-express/", "hours": "", "price_range": "", "price_range_num": 0, "restaurant_id": 33974415118286890, "cuisines": [""], "address": {"city": "Los Angeles", "state": "CA", "postal_code": "90044", "street": "722 West Florence Avenue", "formatted": "722 West Florence Avenue Los Angeles, CA 90044"}, "geo": {"lat": 33.974415, "lon": -118.286888}, "menus": [], "last_updated": "2020-12-29T06:46:30.598Z"}, {"restaurant_name": "Gueno's Shukos El Chino", "restaurant_phone": "(818) 445-6831", "restaurant_website": "http:///ca/los-angeles/708785-guenos-shukos-el-chino/", "hours": "", "price_range": "", "price_range_num": 0, "restaurant_id": 33963463118287324, "cuisines": [""], "address": {"city": "Los Angeles", "state": "CA", "postal_code": "90044", "street": "8301 South Hoover Street", "formatted": "8301 South Hoover Street Los Angeles, CA 90044"}, "geo": {"lat": 33.963463, "lon": -118.287323}, "menus": [], "last_updated": "2020-12-29T06:46:30.608Z"}], "numResults": 25}