{"totalResults": 204, "page": 1, "total_pages": 9, "more_pages": true, "data": [{"restaurant_name": "Super Grill", "restaurant_phone": "(213) 624-5644", "restaurant_website": "", "hours": "Mon-Sat: 10am-6pm", "price_range": "$$", "price_range_num": 2, "restaurant_id": 34045632118253012, "cuisines": ["Mediterranean", "Sandwiches"], "address": {"city": "Los Angeles", "state": "CA", "postal_code": "90014", "street": "639 S Broadway Ste 105", "formatted": "639 S Broadway Ste 105 Los Angeles, CA 90014"}, "geo": {"lat": 34.045632, "lon": -118.253011}, "menus": [], "last_updated": "2020-12-29T06:50:33.982Z"}, {"restaurant_name": "Bruno Cafe", "restaurant_phone": "(213) 624-9909", "restaurant_website": "", "hours": "Daily: 7am-5pm", "price_range": "$", "price_range_num": 1, "restaurant_id": 34048237118254532, "cuisines": ["Coffee & Tea", "Middle Eastern", "Sandwiches"], "address": {"city": "Los Angeles", "state": "CA", "postal_code": "90014", "street": "502 W 6th St", "formatted": "502 W 6th St Los Angeles, CA 90014"}, "geo": {"lat": 34.048237, "lon": -118.254533}, "menus": [], "last_updated": "2020-12-29T06:50:32.722Z"}, {"restaurant_name": "Night Toast", "restaurant_phone": "(213) 488-9944", "restaurant_website": "", "hours": "Mon-Sat: 9am-10pm Sun: 9am-3pm", "price_range": "$", "price_range_num": 1, "restaurant_id": 34044765118252184, "cuisines": ["American", "Breakfast", "Sandwiches"], "address": {"city": "Los Angeles", "state": "CA", "postal_code": "90014", "street": "653 S Spring St", "formatted": "653 S Spring St Los Angeles, CA 90014"}, "geo": {"lat": 34.044765, "lon": -118.252185}, "menus": [], "last_updated": "2020-12-29T06:50:32.794Z"}, {"restaurant_name": "Sultan Chicken", "restaurant_phone": "(213) 236-0605", "restaurant_website": "", "hours": "Mon-Sat: 8am-5pm ", "price_range": "$", "price_range_num": 1, "restaurant_id": 34046884118252348, "cuisines": ["Barbecue", "Breakfast", "Chicken", "Middle Eastern"], "address": {"city": "Los Angeles", "state": "CA", "postal_code": "90014", "street": "311 W 6th St", "formatted": "311 W 6th St Los Angeles, CA 90014"}, "geo": {"lat": 34.046884, "lon": -118.252348}, "menus": [], "last_updated": "2020-12-29T06:50:34.673Z"}, {"restaurant_name": "Soi 7", "restaurant_phone": "(213) 537-0333", "restaurant_website": "", "hours": "Daily: 11am-10pm ", "price_range": "$$", "price_range_num": 2, "restaurant_id": 34046703118256264, "cuisines": ["Asian Fusion", "Thai"], "address": {"city": "Los Angeles", "state": "CA", "postal_code": "90014", "street": "518 W 7th St", "formatted": "518 W 7th St Los Angeles, CA 90014"}, "geo": {"lat": 34.046703, "lon": -118.256264}, "menus": [], "last_updated": "2020-12-29T06:50:33.572Z"}, {"restaurant_name": "Mediterranean City Grill", "restaurant_phone": "(213) 489-9555", "restaurant_website": "", "hours": "Mon-Sat: 11am-11pm Sun: 12pm-9pm", "price_range": "$", "price_range_num": 1, "restaurant_id": 34045682118251190, "cuisines": ["Healthy", "Mediterranean", "Middle Eastern", "Sandwiches", "Vegetarian", "Wraps"], "address": {"city": "Los Angeles", "state": "CA", "postal_code": "90014", "street": "609 S Spring St", "formatted": "609 S Spring St Los Angeles, CA 90014"}, "geo": {"lat": 34.045682, "lon": -118.251194}, "menus": [], "last_updated": "2020-12-29T06:50:33.590Z"}, {"restaurant_name": "Mima's Mediterranean & Homemade Food", "restaurant_phone": "(213) 628-3638", "restaurant_website": "http:///ca/los-angeles/759305-mimas-mediterranean-homemade-food/", "hours": "", "price_range": "", "price_range_num": 0, "restaurant_id": 34046669118253416, "cuisines": [""], "address": {"city": "Los Angeles", "state": "CA", "postal_code": "90014", "street": "628 Saint Vincent Court", "formatted": "628 Saint Vincent Court Los Angeles, CA 90014"}, "geo": {"lat": 34.046669, "lon": -118.253418}, "menus": [], "last_updated": "2020-12-29T06:46:06.407Z"}, {"restaurant_name": "Billy Cafe", "restaurant_phone": "(213) 622-7000", "restaurant_website": "http:///ca/los-angeles/722814-billy-cafe/", "hours": "", "price_range": "", "price_range_num": 0, "restaurant_id": 34047237118253556, "cuisines": [""], "address": {"city": "Los Angeles", "state": "CA", "postal_code": "90014", "street": "607 South Hill Street", "formatted": "607 South Hill Street Los Angeles, CA 90014"}, "geo": {"lat": 34.047237, "lon": -118.253555}, "menus": [], "last_updated": "2020-12-29T06:46:07.321Z"}, {"restaurant_name": "Shibumi", "restaurant_phone": "(323) 484-8915", "restaurant_website": "http:///ca/los-angeles/722728-shibumi/", "hours": "", "price_range": "", "price_range_num": 0, "restaurant_id": 34044285118256290, "cuisines": [""], "address": {"city": "Los Angeles", "state": "CA", "postal_code": "90014", "street": "815 South Hill Street", "formatted": "815 South Hill Street Los Angeles, CA 90014"}, "geo": {"lat": 34.044285, "lon": -118.256287}, "menus": [], "last_updated": "2020-12-29T06:46:07.554Z"}, {"restaurant_name": "Alan's Jugos", "restaurant_phone": "(323) 805-1046", "restaurant_website": "http:///ca/los-angeles/722713-alans-jugos/", "hours": "", "price_range": "", "price_range_num": 0, "restaurant_id": 34043633118250604, "cuisines": [""], "address": {"city": "Los Angeles", "state": "CA", "postal_code": "90014", "street": "119 East 7th Street", "formatted": "119 East 7th Street Los Angeles, CA 90014"}, "geo": {"lat": 34.043633, "lon": -118.250603}, "menus": [], "last_updated": "2020-12-29T06:46:07.655Z"}, {"restaurant_name": "Gothic Bar", "restaurant_phone": "(213) 627-1673", "restaurant_website": "http:///ca/los-angeles/722694-gothic-bar/", "hours": "", "price_range": "", "price_range_num": 0, "restaurant_id": 34045448118253036, "cuisines": [""], "address": {"city": "Los Angeles", "state": "CA", "postal_code": "90014", "street": "648 South Broadway", "formatted": "648 South Broadway Los Angeles, CA 90014"}, "geo": {"lat": 34.045448, "lon": -118.253037}, "menus": [], "last_updated": "2020-12-29T06:46:07.691Z"}, {"restaurant_name": "Q Sushi", "restaurant_phone": "(213) 225-6285", "restaurant_website": "http:///ca/los-angeles/722685-q-sushi/", "hours": "", "price_range": "", "price_range_num": 0, "restaurant_id": 34047257118256172, "cuisines": [""], "address": {"city": "Los Angeles", "state": "CA", "postal_code": "90014", "street": "521 West 7th Street", "formatted": "521 West 7th Street Los Angeles, CA 90014"}, "geo": {"lat": 34.047257, "lon": -118.256172}, "menus": [], "last_updated": "2020-12-29T06:46:07.702Z"}, {"restaurant_name": "Korner Cafe", "restaurant_phone": "(877) 585-1085", "restaurant_website": "http:///ca/los-angeles/722684-korner-cafe/", "hours": "", "price_range": "", "price_range_num": 0, "restaurant_id": 34042427118248850, "cuisines": [""], "address": {"city": "Los Angeles", "state": "CA", "postal_code": "90014", "street": "303 East 7th Street", "formatted": "303 East 7th Street Los Angeles, CA 90014"}, "geo": {"lat": 34.042427, "lon": -118.248848}, "menus": [], "last_updated": "2020-12-29T06:46:07.706Z"}, {"restaurant_name": "Elena's Kitchen", "restaurant_phone": "(213) 984-8479", "restaurant_website": "http:///ca/los-angeles/722644-elenas-kitchen/", "hours": "", "price_range": "", "price_range_num": 0, "restaurant_id": 34044052118251024, "cuisines": [""], "address": {"city": "Los Angeles", "state": "CA", "postal_code": "90014", "street": "654 South Main Street", "formatted": "654 South Main Street Los Angeles, CA 90014"}, "geo": {"lat": 34.044052, "lon": -118.251022}, "menus": [], "last_updated": "2020-12-29T06:46:07.969Z"}, {"restaurant_name": "Stumptown Coffee Roasters", "restaurant_phone": "(877) 585-1085", "restaurant_website": "http:///ca/los-angeles/722579-stumptown-coffee-roasters/", "hours": "", "price_range": "", "price_range_num": 0, "restaurant_id": 34041965118252708, "cuisines": [""], "address": {"city": "Los Angeles", "state": "CA", "postal_code": "90014", "street": "120 E 8th St", "formatted": "120 E 8th St Los Angeles, CA 90014"}, "geo": {"lat": 34.041965, "lon": -118.252708}, "menus": [], "last_updated": "2020-12-29T06:46:08.209Z"}, {"restaurant_name": "V", "restaurant_phone": "(510) 858-6581", "restaurant_website": "http:///ca/los-angeles/722534-v/", "hours": "", "price_range": "", "price_range_num": 0, "restaurant_id": 34047028118255936, "cuisines": [""], "address": {"city": "Los Angeles", "state": "CA", "postal_code": "90014", "street": "515 W 7th St", "formatted": "515 W 7th St Los Angeles, CA 90014"}, "geo": {"lat": 34.047028, "lon": -118.255936}, "menus": [], "last_updated": "2020-12-29T06:46:08.371Z"}, {"restaurant_name": "House of Pizza", "restaurant_phone": "(877) 585-1085", "restaurant_website": "http:///ca/los-angeles/722499-house-of-pizza/", "hours": "", "price_range": "", "price_range_num": 0, "restaurant_id": 34045670118253708, "cuisines": [""], "address": {"city": "Los Angeles", "state": "CA", "postal_code": "90014", "street": "311 West 7th Street", "formatted": "311 West 7th Street Los Angeles, CA 90014"}, "geo": {"lat": 34.04567, "lon": -118.253708}, "menus": [], "last_updated": "2020-12-29T06:46:08.462Z"}, {"restaurant_name": "Tacos Mexico", "restaurant_phone": "(877) 585-1085", "restaurant_website": "http:///ca/los-angeles/719687-tacos-mexico/", "hours": "", "price_range": "", "price_range_num": 0, "restaurant_id": 34045368118253944, "cuisines": [""], "address": {"city": "Los Angeles", "state": "CA", "postal_code": "90014", "street": "312 West 7th Street", "formatted": "312 West 7th Street Los Angeles, CA 90014"}, "geo": {"lat": 34.045368, "lon": -118.253944}, "menus": [], "last_updated": "2020-12-29T06:46:09.183Z"}, {"restaurant_name": "The Eight Bar", "restaurant_phone": "(213) 873-4745", "restaurant_website": "http:///ca/los-angeles/719593-the-eight-bar/", "hours": "", "price_range": "", "price_range_num": 0, "restaurant_id": 34045692118257230, "cuisines": [""], "address": {"city": "Los Angeles", "state": "CA", "postal_code": "90014", "street": "788 South Grand Avenue", "formatted": "788 South Grand Avenue Los Angeles, CA 90014"}, "geo": {"lat": 34.045692, "lon": -118.257233}, "menus": [], "last_updated": "2020-12-29T06:46:09.596Z"}, {"restaurant_name": "Drunk Dog Cafe", "restaurant_phone": "(213) 761-7640", "restaurant_website": "http:///ca/los-angeles/780029-drunk-dog-cafe/", "hours": "", "price_range": "", "price_range_num": 0, "restaurant_id": 34047722118254104, "cuisines": [""], "address": {"city": "Los Angeles", "state": "CA", "postal_code": "90014", "street": "606 South Olive Street", "formatted": "606 South Olive Street Los Angeles, CA 90014"}, "geo": {"lat": 34.047722, "lon": -118.254105}, "menus": [], "last_updated": "2020-12-28T19:27:17.470Z"}, {"restaurant_name": "Tocaya Organica", "restaurant_phone": "(213) 262-1805", "restaurant_website": "http://tocayaorganica.com", "hours": "", "price_range": "", "price_range_num": 0, "restaurant_id": 34045000118257300, "cuisines": [""], "address": {"city": "Los Angeles", "state": "CA", "postal_code": "90014", "street": "801 S. Olive St", "formatted": "801 S. Olive St Los Angeles, CA 90014"}, "geo": {"lat": 34.045, "lon": -118.2573}, "menus": [], "last_updated": "2020-12-28T19:25:11.446Z"}, {"restaurant_name": "Veggie Grill", "restaurant_phone": "(213) 915-4500", "restaurant_website": "https://www.veggiegrill.com/", "hours": "", "price_range": "", "price_range_num": 0, "restaurant_id": 34048700118254700, "cuisines": [""], "address": {"city": "Los Angeles", "state": "CA", "postal_code": "90014", "street": "523 West 6th Street", "formatted": "523 West 6th Street Los Angeles, CA 90014"}, "geo": {"lat": 34.0487, "lon": -118.2547}, "menus": [], "last_updated": "2020-12-28T19:25:11.460Z"}, {"restaurant_name": "Gizmo's Cereal Bar", "restaurant_phone": "(213) 372-5595", "restaurant_website": "http:///ca/los-angeles/572990-gizmos-cereal-bar/", "hours": "", "price_range": "", "price_range_num": 0, "restaurant_id": 34046330118251244, "cuisines": [""], "address": {"city": "Los Angeles", "state": "CA", "postal_code": "90014", "street": "215 W 6th St Ste 109", "formatted": "215 W 6th St Ste 109 Los Angeles, CA 90014"}, "geo": {"lat": 34.04633, "lon": -118.251244}, "menus": [], "last_updated": "2020-12-28T19:25:12.046Z"}, {"restaurant_name": "No Ghost Bears", "restaurant_phone": "(213) 372-5190", "restaurant_website": "http:///ca/los-angeles/586703-no-ghost-bears/", "hours": "", "price_range": "", "price_range_num": 0, "restaurant_id": 34041386118251280, "cuisines": [""], "address": {"city": "Los Angeles", "state": "CA", "postal_code": "90014", "street": "305 E 8th St #3", "formatted": "305 E 8th St #3 Los Angeles, CA 90014"}, "geo": {"lat": 34.041386, "lon": -118.251282}, "menus": [], "last_updated": "2020-12-28T19:25:14.087Z"}, {"restaurant_name": "La Tropezienne Bakery DTLA", "restaurant_phone": "(213) 988-7282", "restaurant_website": "http:///ca/los-angeles/587586-la-tropezienne-bakery-dtla/", "hours": "", "price_range": "", "price_range_num": 0, "restaurant_id": 34042954118253096, "cuisines": [""], "address": {"city": "Los Angeles", "state": "CA", "postal_code": "90014", "street": "757 S Main St", "formatted": "757 S Main St Los Angeles, CA 90014"}, "geo": {"lat": 34.042954, "lon": -118.253098}, "menus": [], "last_updated": "2020-12-28T19:25:14.228Z"}], "numResults": 25}