{"totalResults": 94, "page": 1, "total_pages": 4, "more_pages": true, "data": [{"restaurant_name": "Medall\u00f3n", "restaurant_phone": "(424) 346-2468", "restaurant_website": "http:///ca/los-angeles/755364-medallon/", "hours": "", "price_range": "", "price_range_num": 0, "restaurant_id": 34025303118357316, "cuisines": [""], "address": {"city": "Los Angeles", "state": "CA", "postal_code": "90016", "street": "5162 W Jefferson Blvd", "formatted": "5162 W Jefferson Blvd Los Angeles, CA 90016"}, "geo": {"lat": 34.025303, "lon": -118.357315}, "menus": [], "last_updated": "2020-12-29T06:46:06.594Z"}, {"restaurant_name": "Domino's Pizza", "restaurant_phone": "(323) 737-7700", "restaurant_website": "http://www.dominos.com", "hours": "", "price_range": "", "price_range_num": 0, "restaurant_id": 34022785118335110, "cuisines": ["American", "Pizza", "Wings"], "address": {"city": "Los Angeles", "state": "CA", "postal_code": "90016", "street": "3631 Crenshaw Blvd", "formatted": "3631 Crenshaw Blvd Los Angeles, CA 90016"}, "geo": {"lat": 34.022785, "lon": -118.335114}, "menus": [], "last_updated": "2020-12-29T06:46:06.869Z"}, {"restaurant_name": "La Isla Del Sabor", "restaurant_phone": "(323) 525-1291", "restaurant_website": "http:///ca/los-angeles/573841-la-isla-del-sabor/", "hours": "", "price_range": "", "price_range_num": 0, "restaurant_id": 34031818118355964, "cuisines": [""], "address": {"city": "Los Angeles", "state": "CA", "postal_code": "90016", "street": "5212 W Adams Blvd", "formatted": "5212 W Adams Blvd Los Angeles, CA 90016"}, "geo": {"lat": 34.031818, "lon": -118.355965}, "menus": [], "last_updated": "2020-12-28T19:25:12.342Z"}, {"restaurant_name": "Melachia's Savory Meals", "restaurant_phone": "(323) 294-1484", "restaurant_website": "", "hours": "Mon-Fri: 11am-8pm Sat: 12pm-8pm", "price_range": "$$", "price_range_num": 2, "restaurant_id": 34019019118355584, "cuisines": ["Barbecue", "Soul Food"], "address": {"city": "Los Angeles", "state": "CA", "postal_code": "90016", "street": "3745 S La Brea Ave", "formatted": "3745 S La Brea Ave Los Angeles, CA 90016"}, "geo": {"lat": 34.019019, "lon": -118.355586}, "menus": [], "last_updated": "2020-12-29T06:50:29.916Z"}, {"restaurant_name": "Numero Uno", "restaurant_phone": "(323) 296-1543", "restaurant_website": "", "hours": "", "price_range": "$$", "price_range_num": 2, "restaurant_id": 34021511118371600, "cuisines": ["Pizza"], "address": {"city": "Los Angeles", "state": "CA", "postal_code": "90016", "street": "5770 Rodeo Rd", "formatted": "5770 Rodeo Rd Los Angeles, CA 90016"}, "geo": {"lat": 34.021511, "lon": -118.3716}, "menus": [], "last_updated": "2020-12-29T06:50:32.007Z"}, {"restaurant_name": "Vees Cafe", "restaurant_phone": "(323) 931-8337", "restaurant_website": "http://www.veescafe.net", "hours": "Mon-Fri: 7am-8pm Sat-Sun: 7am-7pm", "price_range": "$$", "price_range_num": 2, "restaurant_id": 34032492118360864, "cuisines": ["Coffee & Tea", "Sandwiches", "Smoothies & Juices"], "address": {"city": "Los Angeles", "state": "CA", "postal_code": "90016", "street": "5418 W Adams Blvd", "formatted": "5418 W Adams Blvd Los Angeles, CA 90016"}, "geo": {"lat": 34.032492, "lon": -118.360864}, "menus": [], "last_updated": "2020-12-29T06:50:33.021Z"}, {"restaurant_name": "Starbucks Coffee", "restaurant_phone": "(323) 292-7911", "restaurant_website": "http://www.starbucks.com", "hours": "", "price_range": "", "price_range_num": 0, "restaurant_id": 34019230118334890, "cuisines": ["American", "Coffee & Tea"], "address": {"city": "LOS ANGELES", "state": "CA", "postal_code": "90016", "street": "3722 Crenshaw Blvd", "formatted": "3722 Crenshaw Blvd LOS ANGELES, CA 90016"}, "geo": {"lat": 34.01923, "lon": -118.33489}, "menus": [], "last_updated": "2020-12-29T06:51:37.251Z"}, {"restaurant_name": "Taurus Flavors", "restaurant_phone": "(323) 937-4252", "restaurant_website": "", "hours": "Mon-Fri: 10am-6:30pm Sat: 11am-5pm", "price_range": "$", "price_range_num": 1, "restaurant_id": 34038475118348840, "cuisines": ["Sandwiches"], "address": {"city": "Los Angeles", "state": "CA", "postal_code": "90016", "street": "5012 W 21st St", "formatted": "5012 W 21st St Los Angeles, CA 90016"}, "geo": {"lat": 34.038475, "lon": -118.348841}, "menus": [], "last_updated": "2020-12-29T06:49:38.847Z"}, {"restaurant_name": "Cafe Club Fais DO-DO", "restaurant_phone": "(323) 954-8080", "restaurant_website": "", "hours": "Daily: 8pm-2am ", "price_range": "$$", "price_range_num": 2, "restaurant_id": 34032789118357068, "cuisines": ["Cajun & Creole"], "address": {"city": "Los Angeles", "state": "CA", "postal_code": "90016", "street": "5257 W Adams Blvd", "formatted": "5257 W Adams Blvd Los Angeles, CA 90016"}, "geo": {"lat": 34.032789, "lon": -118.357068}, "menus": [], "last_updated": "2020-12-29T06:50:02.731Z"}, {"restaurant_name": "McDonald's", "restaurant_phone": "", "restaurant_website": "http://www.mcdonalds.com", "hours": "", "price_range": "", "price_range_num": 0, "restaurant_id": 34021475118355616, "cuisines": ["American", "Burgers"], "address": {"city": "LOS ANGELES", "state": "CA", "postal_code": "90016", "street": "3602 S La Brea Ave", "formatted": "3602 S La Brea Ave LOS ANGELES, CA 90016"}, "geo": {"lat": 34.021475, "lon": -118.355617}, "menus": [], "last_updated": "2020-12-29T06:51:31.535Z"}, {"restaurant_name": "McDonald's", "restaurant_phone": "", "restaurant_website": "http://www.mcdonalds.com", "hours": "", "price_range": "", "price_range_num": 0, "restaurant_id": 34023924118372770, "cuisines": ["American", "Burgers"], "address": {"city": "LOS ANGELES", "state": "CA", "postal_code": "90016", "street": "3501 S La Cienega Blvd", "formatted": "3501 S La Cienega Blvd LOS ANGELES, CA 90016"}, "geo": {"lat": 34.023924, "lon": -118.37277}, "menus": [], "last_updated": "2020-12-29T06:51:31.584Z"}, {"restaurant_name": "McDonald's", "restaurant_phone": "", "restaurant_website": "http://www.mcdonalds.com", "hours": "", "price_range": "", "price_range_num": 0, "restaurant_id": 34030025118334690, "cuisines": ["American", "Burgers"], "address": {"city": "LOS ANGELES", "state": "CA", "postal_code": "90016", "street": "2838 Crenshaw Blvd", "formatted": "2838 Crenshaw Blvd LOS ANGELES, CA 90016"}, "geo": {"lat": 34.030025, "lon": -118.334688}, "menus": [], "last_updated": "2020-12-29T06:51:31.661Z"}, {"restaurant_name": "Taco Bell", "restaurant_phone": "(323) 954-9747", "restaurant_website": "http://www.tacobell.com", "hours": "", "price_range": "", "price_range_num": 0, "restaurant_id": 34022579118371972, "cuisines": ["Mexican"], "address": {"city": "LOS ANGELES", "state": "CA", "postal_code": "90016", "street": "3562 S La Cienega Blvd", "formatted": "3562 S La Cienega Blvd LOS ANGELES, CA 90016"}, "geo": {"lat": 34.022579, "lon": -118.371972}, "menus": [], "last_updated": "2020-12-29T06:51:32.160Z"}, {"restaurant_name": "Jack in the Box", "restaurant_phone": "(323) 737-0452", "restaurant_website": "", "hours": "", "price_range": "", "price_range_num": 0, "restaurant_id": 34039550118330904, "cuisines": ["American", "Burgers"], "address": {"city": "Los Angeles", "state": "CA", "postal_code": "90016", "street": "1906 Crenshaw Blvd", "formatted": "1906 Crenshaw Blvd Los Angeles, CA 90016"}, "geo": {"lat": 34.03955, "lon": -118.330906}, "menus": [], "last_updated": "2020-12-29T06:51:33.198Z"}, {"restaurant_name": "Jack in the Box", "restaurant_phone": "(323) 525-0868", "restaurant_website": "", "hours": "", "price_range": "", "price_range_num": 0, "restaurant_id": 34025735118355200, "cuisines": ["American", "Burgers"], "address": {"city": "Los Angeles", "state": "CA", "postal_code": "90016", "street": "5101 W Jefferson Blvd", "formatted": "5101 W Jefferson Blvd Los Angeles, CA 90016"}, "geo": {"lat": 34.025735, "lon": -118.355199}, "menus": [], "last_updated": "2020-12-29T06:51:33.433Z"}, {"restaurant_name": "Popeyes Chicken & Biscuits", "restaurant_phone": "(323) 734-7340", "restaurant_website": "http://www.popeyes.com", "hours": "", "price_range": "", "price_range_num": 0, "restaurant_id": 34025683118354440, "cuisines": ["American", "Wings"], "address": {"city": "LOS ANGELES", "state": "CA", "postal_code": "90016", "street": "3050 S La Brea Ave", "formatted": "3050 S La Brea Ave LOS ANGELES, CA 90016"}, "geo": {"lat": 34.025683, "lon": -118.35444}, "menus": [], "last_updated": "2020-12-29T06:51:33.672Z"}, {"restaurant_name": "Burger King", "restaurant_phone": "(213) 737-2622", "restaurant_website": "", "hours": "", "price_range": "", "price_range_num": 0, "restaurant_id": 34026550118334704, "cuisines": ["American", "Burgers"], "address": {"city": "Los Angeles", "state": "CA", "postal_code": "90016", "street": "3036 Crenshaw Blvd", "formatted": "3036 Crenshaw Blvd Los Angeles, CA 90016"}, "geo": {"lat": 34.02655, "lon": -118.334702}, "menus": [], "last_updated": "2020-12-29T06:51:34.187Z"}, {"restaurant_name": "El Pollo Loco", "restaurant_phone": "(323) 734-3373", "restaurant_website": "http://www.elpolloloco.com", "hours": "", "price_range": "", "price_range_num": 0, "restaurant_id": 34030972118335450, "cuisines": ["Chicken", "Mexican"], "address": {"city": "Los Angeles", "state": "CA", "postal_code": "90016", "street": "2801 Crenshaw Blvd", "formatted": "2801 Crenshaw Blvd Los Angeles, CA 90016"}, "geo": {"lat": 34.030972, "lon": -118.335449}, "menus": [], "last_updated": "2020-12-29T06:51:34.951Z"}, {"restaurant_name": "Wienerschnitzel", "restaurant_phone": "(323) 296-3299", "restaurant_website": "", "hours": "", "price_range": "", "price_range_num": 0, "restaurant_id": 34017448118335530, "cuisines": ["Burgers", "Hot Dogs"], "address": {"city": "Los Angeles", "state": "CA", "postal_code": "90016", "street": "3789 Crenshaw Blvd", "formatted": "3789 Crenshaw Blvd Los Angeles, CA 90016"}, "geo": {"lat": 34.017448, "lon": -118.335528}, "menus": [], "last_updated": "2020-12-29T06:51:35.021Z"}, {"restaurant_name": "Del Taco", "restaurant_phone": "(323) 296-1674", "restaurant_website": "http://www.deltaco.com", "hours": "", "price_range": "", "price_range_num": 0, "restaurant_id": 34021809118355280, "cuisines": ["American", "Mexican", "Tex-Mex"], "address": {"city": "Los Angeles", "state": "CA", "postal_code": "90016", "street": "3540 S La Brea Ave", "formatted": "3540 S La Brea Ave Los Angeles, CA 90016"}, "geo": {"lat": 34.021809, "lon": -118.355278}, "menus": [], "last_updated": "2020-12-29T06:51:35.048Z"}, {"restaurant_name": "Quiznos Sub", "restaurant_phone": "(323) 294-5038", "restaurant_website": "http://www.quiznos.com/", "hours": "", "price_range": "", "price_range_num": 0, "restaurant_id": 34019130118334890, "cuisines": ["American", "Sandwiches", "Wraps"], "address": {"city": "LOS ANGELES", "state": "CA", "postal_code": "90016", "street": "3728 Crenshaw Blvd", "formatted": "3728 Crenshaw Blvd LOS ANGELES, CA 90016"}, "geo": {"lat": 34.01913, "lon": -118.334886}, "menus": [], "last_updated": "2020-12-29T06:51:35.734Z"}, {"restaurant_name": "The Coffee Beanery", "restaurant_phone": "(323) 791-2256", "restaurant_website": "", "hours": "", "price_range": "", "price_range_num": 0, "restaurant_id": 34019195118355590, "cuisines": ["American", "Coffee & Tea", "Diner"], "address": {"city": "LOS ANGELES", "state": "CA", "postal_code": "90016", "street": "3745 S La Brea Ave", "formatted": "3745 S La Brea Ave LOS ANGELES, CA 90016"}, "geo": {"lat": 34.019195, "lon": -118.35559}, "menus": [], "last_updated": "2020-12-29T06:51:35.902Z"}, {"restaurant_name": "Yoshinoya", "restaurant_phone": "(323) 766-9220", "restaurant_website": "", "hours": "", "price_range": "", "price_range_num": 0, "restaurant_id": 34029697118334624, "cuisines": ["Japanese"], "address": {"city": "Los Angeles", "state": "CA", "postal_code": "90016", "street": "2850 Crenshaw Boulevard", "formatted": "2850 Crenshaw Boulevard Los Angeles, CA 90016"}, "geo": {"lat": 34.029697, "lon": -118.334625}, "menus": [], "last_updated": "2020-12-29T06:50:38.949Z"}, {"restaurant_name": "Chef Marilyn's", "restaurant_phone": "(323) 737-8101", "restaurant_website": "", "hours": "Daily: 10:30am-10pm", "price_range": "$", "price_range_num": 1, "restaurant_id": 34032187118335056, "cuisines": ["Soul Food"], "address": {"city": "Los Angeles", "state": "CA", "postal_code": "90016", "street": "2638 Crenshaw Blvd", "formatted": "2638 Crenshaw Blvd Los Angeles, CA 90016"}, "geo": {"lat": 34.032187, "lon": -118.335054}, "menus": [], "last_updated": "2020-12-29T06:50:02.512Z"}, {"restaurant_name": "El Nido", "restaurant_phone": "(323) 939-6506", "restaurant_website": "", "hours": "", "price_range": "$$", "price_range_num": 2, "restaurant_id": 34038065118348572, "cuisines": ["Caribbean", "Latin American"], "address": {"city": "Los Angeles", "state": "CA", "postal_code": "90016", "street": "2112 S La Brea Ave", "formatted": "2112 S La Brea Ave Los Angeles, CA 90016"}, "geo": {"lat": 34.038065, "lon": -118.348573}, "menus": [], "last_updated": "2020-12-29T06:50:02.525Z"}], "numResults": 25}