{"totalResults": 214, "page": 1, "total_pages": 9, "more_pages": true, "data": [{"restaurant_name": "Melody Bar & Grill", "restaurant_phone": "(310) 670-1994", "restaurant_website": "", "hours": "Daily: 10am-2am", "price_range": "$$", "price_range_num": 2, "restaurant_id": 33953724118395980, "cuisines": ["American", "Bar Food", "Sandwiches"], "address": {"city": "Los Angeles", "state": "CA", "postal_code": "90045", "street": "9132 S Sepulveda Blvd", "formatted": "9132 S Sepulveda Blvd Los Angeles, CA 90045"}, "geo": {"lat": 33.953724, "lon": -118.395981}, "menus": [], "last_updated": "2020-12-29T06:50:32.329Z"}, {"restaurant_name": "LAX Cafe", "restaurant_phone": "(310) 642-6999", "restaurant_website": "", "hours": "", "price_range": "$", "price_range_num": 1, "restaurant_id": 33945312118371040, "cuisines": ["American", "Breakfast", "Chicken", "Greek", "Healthy", "Italian", "Mexican", "Pasta", "Pizza", "Salads"], "address": {"city": "Los Angeles", "state": "CA", "postal_code": "90045", "street": "5250 W Century Blvd Ste 100", "formatted": "5250 W Century Blvd Ste 100 Los Angeles, CA 90045"}, "geo": {"lat": 33.945312, "lon": -118.371038}, "menus": [], "last_updated": "2020-12-29T06:50:32.876Z"}, {"restaurant_name": "San Sai Japanese Grill", "restaurant_phone": "(310) 649-5000", "restaurant_website": "", "hours": "Mon-Sat: 11:30am-8:30pm Sun: 12pm-8:30pm", "price_range": "$$", "price_range_num": 2, "restaurant_id": 33959636118419224, "cuisines": ["Japanese", "Sushi"], "address": {"city": "Los Angeles", "state": "CA", "postal_code": "90045", "street": "8601 Lincoln Blvd", "formatted": "8601 Lincoln Blvd Los Angeles, CA 90045"}, "geo": {"lat": 33.959636, "lon": -118.419224}, "menus": [], "last_updated": "2020-12-29T06:50:33.069Z"}, {"restaurant_name": "Chalet Edeweiss", "restaurant_phone": "(310) 645-8740", "restaurant_website": "http://www.chaletedelweiss.us", "hours": "Daily: 11am-11pm", "price_range": "$$", "price_range_num": 2, "restaurant_id": 33958443118396010, "cuisines": ["German", "Italian"], "address": {"city": "Los Angeles", "state": "CA", "postal_code": "90045", "street": "8740 Sepulveda Blvd", "formatted": "8740 Sepulveda Blvd Los Angeles, CA 90045"}, "geo": {"lat": 33.958443, "lon": -118.39601}, "menus": [], "last_updated": "2020-12-29T06:50:33.379Z"}, {"restaurant_name": "The Good Pizza", "restaurant_phone": "(310) 215-1883", "restaurant_website": "", "hours": "Mon-Thu: 7am-9pm Fri: 7am-10pm Sat: 8am-10pm Sun: 8am-9pm", "price_range": "$", "price_range_num": 1, "restaurant_id": 33968887118406320, "cuisines": ["Italian", "Pizza"], "address": {"city": "Los Angeles", "state": "CA", "postal_code": "90045", "street": "7929 Emerson Ave", "formatted": "7929 Emerson Ave Los Angeles, CA 90045"}, "geo": {"lat": 33.968887, "lon": -118.406319}, "menus": [], "last_updated": "2020-12-29T06:50:33.637Z"}, {"restaurant_name": "Panera Bread", "restaurant_phone": "(310) 641-9200", "restaurant_website": "https://locations.panerabread.com/ca/westchester/8647-south-sepulveda-blvd.html?utm_medium=display-ad&utm_source=paid-digital&utm_campaign=yext&utm_content=local-search", "hours": "Mon-Fri: 6:30am-9pm Sat: 7am-9pm Sun: 7am-8pm", "price_range": "", "price_range_num": 0, "restaurant_id": 33958500118396600, "cuisines": ["Bakery & Pastries", "Coffee & Tea", "Salads", "Sandwiches"], "address": {"city": "Westchester", "state": "CA", "postal_code": "90045", "street": "8647 South Sepulveda Blvd.", "formatted": "8647 South Sepulveda Blvd. Westchester, CA 90045"}, "geo": {"lat": 33.9585, "lon": -118.3966}, "menus": [], "last_updated": "2020-12-29T05:51:08.104Z"}, {"restaurant_name": "Wacky Wok (Sepulveda Blvd)", "restaurant_phone": "(310) 670-0071", "restaurant_website": "", "hours": "", "price_range": "$$", "price_range_num": 2, "restaurant_id": 33955690118396290, "cuisines": ["Asian", "Chinese", "Healthy", "Lunch Specials", "Noodles", "Salads", "Seafood", "Soups"], "address": {"city": "Westchester", "state": "CA", "postal_code": "90045", "street": "8919 S Sepulveda Blvd", "formatted": "8919 S Sepulveda Blvd Westchester, CA 90045"}, "geo": {"lat": 33.95569, "lon": -118.396286}, "menus": [], "last_updated": "2021-01-05T07:26:10.547Z"}, {"restaurant_name": "Thai Talay", "restaurant_phone": "(310) 670-3055", "restaurant_website": "", "hours": "Sun-Thu: 11am-10pm Fri-Sat: 11am-10:30pm", "price_range": "$$", "price_range_num": 2, "restaurant_id": 33961154118420536, "cuisines": ["Asian", "Noodles", "Thai"], "address": {"city": "Westchester", "state": "CA", "postal_code": "90045", "street": "8411 Lincoln Blvd", "formatted": "8411 Lincoln Blvd Westchester, CA 90045"}, "geo": {"lat": 33.961154, "lon": -118.420536}, "menus": [], "last_updated": "2021-01-05T07:26:10.564Z"}, {"restaurant_name": "Chicago For Ribs", "restaurant_phone": "(310) 670-7427", "restaurant_website": "", "hours": "Mon-Thu: 11am-9pm Fri-Sun: 11am-10pm", "price_range": "$$", "price_range_num": 2, "restaurant_id": 33962170118421630, "cuisines": ["Barbecue", "Chicken"], "address": {"city": "Westchester", "state": "CA", "postal_code": "90045", "street": "8311 Lincoln Blvd", "formatted": "8311 Lincoln Blvd Westchester, CA 90045"}, "geo": {"lat": 33.96217, "lon": -118.421631}, "menus": [], "last_updated": "2021-01-05T07:26:10.624Z"}, {"restaurant_name": "Truxton's", "restaurant_phone": "(310) 417-8789", "restaurant_website": "http://www.truxtonsamericanbistro.com", "hours": "Sun-Thu: 11am-10pm Fri-Sat: 9am-10pm", "price_range": "$$", "price_range_num": 2, "restaurant_id": 33959387118393796, "cuisines": ["American", "Bistro", "Vegetarian"], "address": {"city": "Westchester", "state": "CA", "postal_code": "90045", "street": "8611 Truxton Ave", "formatted": "8611 Truxton Ave Westchester, CA 90045"}, "geo": {"lat": 33.959387, "lon": -118.393796}, "menus": [], "last_updated": "2021-01-05T07:26:10.673Z"}, {"restaurant_name": "Panera Bread", "restaurant_phone": "(310) 641-9200", "restaurant_website": "https://locations.panerabread.com/ca/westchester/8647-south-sepulveda-blvd.html?utm_medium=display-ad&utm_source=paid-digital&utm_campaign=yext&utm_content=local-search", "hours": "Mon-Fri: 6:30am-9pm Sat: 7am-9pm Sun: 7am-8pm", "price_range": "", "price_range_num": 0, "restaurant_id": 33958538118396660, "cuisines": ["Bakery & Pastries", "Coffee & Tea", "Salads", "Sandwiches"], "address": {"city": "Los Angeles", "state": "CA", "postal_code": "90045", "street": "8647 S Sepulveda Blvd", "formatted": "8647 S Sepulveda Blvd Los Angeles, CA 90045"}, "geo": {"lat": 33.958538, "lon": -118.39666}, "menus": [], "last_updated": "2021-01-05T07:26:10.739Z"}, {"restaurant_name": "Domino's Pizza", "restaurant_phone": "(310) 216-6886", "restaurant_website": "http://www.dominos.com", "hours": "", "price_range": "", "price_range_num": 0, "restaurant_id": 33962246118421200, "cuisines": ["American", "Pizza", "Wings"], "address": {"city": "Westchester", "state": "CA", "postal_code": "90045", "street": "8320 Lincoln Blvd", "formatted": "8320 Lincoln Blvd Westchester, CA 90045"}, "geo": {"lat": 33.962246, "lon": -118.4212}, "menus": [], "last_updated": "2021-01-05T07:26:10.279Z"}, {"restaurant_name": "Alejo's Presto Italian Restaurant", "restaurant_phone": "(310) 670-0799", "restaurant_website": "http://www.alejosrestaurant.com/", "hours": "", "price_range": "$$$", "price_range_num": 3, "restaurant_id": 33961528118420640, "cuisines": ["American", "Calzones", "Italian", "Pasta", "Pizza", "Seafood"], "address": {"city": "WESTCHESTER", "state": "CA", "postal_code": "90045", "street": "8434 Lincoln Blvd", "formatted": "8434 Lincoln Blvd WESTCHESTER, CA 90045"}, "geo": {"lat": 33.961528, "lon": -118.420641}, "menus": [], "last_updated": "2021-01-05T07:26:10.288Z"}, {"restaurant_name": "TGI Fridays", "restaurant_phone": "(310) 337-1143", "restaurant_website": "http://www.tgifridays.com", "hours": "Mon: 11am-11pm Tue-Sun: 11am-12am", "price_range": "", "price_range_num": 0, "restaurant_id": 33977913118371600, "cuisines": ["American"], "address": {"city": "Los Angeles", "state": "CA", "postal_code": "90045", "street": "6721 La Tijera Blvd", "formatted": "6721 La Tijera Blvd Los Angeles, CA 90045"}, "geo": {"lat": 33.977913, "lon": -118.371599}, "menus": [], "last_updated": "2020-12-29T06:46:06.654Z"}, {"restaurant_name": "Brasserie", "restaurant_phone": "(310) 642-4815", "restaurant_website": "http:///ca/los-angeles/723689-brasserie/", "hours": "", "price_range": "", "price_range_num": 0, "restaurant_id": 33946613118390664, "cuisines": [""], "address": {"city": "Los Angeles", "state": "CA", "postal_code": "90045", "street": "6101 West Century Boulevard", "formatted": "6101 West Century Boulevard Los Angeles, CA 90045"}, "geo": {"lat": 33.946613, "lon": -118.390663}, "menus": [], "last_updated": "2020-12-29T06:46:07.050Z"}, {"restaurant_name": "CoCo Fresh Tea & Juice", "restaurant_phone": "(424) 750-9502", "restaurant_website": "http:///ca/los-angeles/722805-coco-fresh-tea-juice/", "hours": "", "price_range": "", "price_range_num": 0, "restaurant_id": 33961868118420800, "cuisines": [""], "address": {"city": "Los Angeles", "state": "CA", "postal_code": "90045", "street": "8336 Lincoln Blvd", "formatted": "8336 Lincoln Blvd Los Angeles, CA 90045"}, "geo": {"lat": 33.961868, "lon": -118.420799}, "menus": [], "last_updated": "2020-12-29T06:46:07.289Z"}, {"restaurant_name": "Corner Cafe", "restaurant_phone": "(310) 410-9202", "restaurant_website": "http:///ca/los-angeles/722768-corner-cafe/", "hours": "", "price_range": "", "price_range_num": 0, "restaurant_id": 33977188118392480, "cuisines": [""], "address": {"city": "Los Angeles", "state": "CA", "postal_code": "90045", "street": "6100 Center Drive", "formatted": "6100 Center Drive Los Angeles, CA 90045"}, "geo": {"lat": 33.977188, "lon": -118.392479}, "menus": [], "last_updated": "2020-12-29T06:46:07.481Z"}, {"restaurant_name": "elizeBean Cuisine", "restaurant_phone": "(714) 312-8501", "restaurant_website": "http:///ca/los-angeles/722705-elizebean-cuisine/", "hours": "", "price_range": "", "price_range_num": 0, "restaurant_id": 33970863118370460, "cuisines": [""], "address": {"city": "Los Angeles", "state": "CA", "postal_code": "90045", "street": "7157 South La Cienega Boulevard", "formatted": "7157 South La Cienega Boulevard Los Angeles, CA 90045"}, "geo": {"lat": 33.970863, "lon": -118.370461}, "menus": [], "last_updated": "2020-12-29T06:46:07.669Z"}, {"restaurant_name": "Mariscos El Guero Taco Truck & Seafood", "restaurant_phone": "(323) 333-4740", "restaurant_website": "http:///ca/los-angeles/722584-mariscos-el-guero-taco-truck-seafood/", "hours": "", "price_range": "", "price_range_num": 0, "restaurant_id": 33959763118389724, "cuisines": [""], "address": {"city": "Los Angeles", "state": "CA", "postal_code": "90045", "street": "6000 West Manchester Avenue", "formatted": "6000 West Manchester Avenue Los Angeles, CA 90045"}, "geo": {"lat": 33.959763, "lon": -118.389725}, "menus": [], "last_updated": "2020-12-29T06:46:08.263Z"}, {"restaurant_name": "Loyola Pizza", "restaurant_phone": "(310) 641-8666", "restaurant_website": "http:///ca/los-angeles/719736-loyola-pizza/", "hours": "", "price_range": "", "price_range_num": 0, "restaurant_id": 33961720118419910, "cuisines": [""], "address": {"city": "Los Angeles", "state": "CA", "postal_code": "90045", "street": "8412 Lincoln Boulevard", "formatted": "8412 Lincoln Boulevard Los Angeles, CA 90045"}, "geo": {"lat": 33.96172, "lon": -118.419914}, "menus": [], "last_updated": "2020-12-29T06:46:08.912Z"}, {"restaurant_name": "Starbucks", "restaurant_phone": "(310) 649-1526", "restaurant_website": "http:///ca/los-angeles/719660-starbucks/", "hours": "", "price_range": "", "price_range_num": 0, "restaurant_id": 33958214118418640, "cuisines": [""], "address": {"city": "Los Angeles", "state": "CA", "postal_code": "90045", "street": "8701 Lincoln Boulevard", "formatted": "8701 Lincoln Boulevard Los Angeles, CA 90045"}, "geo": {"lat": 33.958214, "lon": -118.41864}, "menus": [], "last_updated": "2020-12-29T06:46:09.481Z"}, {"restaurant_name": "The Flame Broiler", "restaurant_phone": "(310) 338-1072", "restaurant_website": "http:///ca/los-angeles/719567-the-flame-broiler/", "hours": "", "price_range": "", "price_range_num": 0, "restaurant_id": 33978016118373664, "cuisines": [""], "address": {"city": "Los Angeles", "state": "CA", "postal_code": "90045", "street": "5383 West Centinela Avenue", "formatted": "5383 West Centinela Avenue Los Angeles, CA 90045"}, "geo": {"lat": 33.978016, "lon": -118.373665}, "menus": [], "last_updated": "2020-12-29T06:46:09.656Z"}, {"restaurant_name": "Starbucks", "restaurant_phone": "(310) 338-5369", "restaurant_website": "http:///ca/los-angeles/719606-starbucks/", "hours": "", "price_range": "", "price_range_num": 0, "restaurant_id": 33970768118419236, "cuisines": [""], "address": {"city": "Los Angeles", "state": "CA", "postal_code": "90045", "street": "1 Loyola Marymount University Drive", "formatted": "1 Loyola Marymount University Drive Los Angeles, CA 90045"}, "geo": {"lat": 33.970768, "lon": -118.419235}, "menus": [], "last_updated": "2020-12-29T06:46:09.715Z"}, {"restaurant_name": "Asian Street Eats by Chef Hung", "restaurant_phone": "(323) 451-1004", "restaurant_website": "https://asianstreeteats.com/?y_source=1_MTQwMjA4NjgtNzA4LWxvY2F0aW9uLndlYnNpdGU%3D", "hours": "", "price_range": "", "price_range_num": 0, "restaurant_id": 33943100118409200, "cuisines": [""], "address": {"city": "Los Angeles", "state": "CA", "postal_code": "90045", "street": "380 World Way", "formatted": "380 World Way Los Angeles, CA 90045"}, "geo": {"lat": 33.9431, "lon": -118.4092}, "menus": [], "last_updated": "2020-12-28T19:25:11.433Z"}, {"restaurant_name": "Chuck E. Cheese", "restaurant_phone": "(310) 641-6899", "restaurant_website": "http:///ca/los-angeles/571877-chuck-e-cheese/", "hours": "", "price_range": "", "price_range_num": 0, "restaurant_id": 33976502118373520, "cuisines": [""], "address": {"city": "Los Angeles", "state": "CA", "postal_code": "90045", "street": "6901 La Tijera Blvd", "formatted": "6901 La Tijera Blvd Los Angeles, CA 90045"}, "geo": {"lat": 33.976502, "lon": -118.37352}, "menus": [], "last_updated": "2020-12-28T19:25:11.916Z"}], "numResults": 25}