{"totalResults": 63, "page": 1, "total_pages": 3, "more_pages": true, "data": [{"restaurant_name": "Domino's Pizza", "restaurant_phone": "(323) 587-0300", "restaurant_website": "http://www.dominos.com", "hours": "", "price_range": "", "price_range_num": 0, "restaurant_id": 33974680118236350, "cuisines": ["American", "Pizza", "Wings"], "address": {"city": "Los Angeles", "state": "CA", "postal_code": "90001", "street": "2025 E Florence Ave", "formatted": "2025 E Florence Ave Los Angeles, CA 90001"}, "geo": {"lat": 33.97468, "lon": -118.236351}, "menus": [], "last_updated": "2020-12-29T06:46:06.959Z"}, {"restaurant_name": "Church's Chicken", "restaurant_phone": "(323) 582-8408", "restaurant_website": "http:///ca/los-angeles/573871-churchs-chicken/", "hours": "", "price_range": "", "price_range_num": 0, "restaurant_id": 33959831118256800, "cuisines": [""], "address": {"city": "Los Angeles", "state": "CA", "postal_code": "90001", "street": "1030 E Manchester Ave", "formatted": "1030 E Manchester Ave Los Angeles, CA 90001"}, "geo": {"lat": 33.959831, "lon": -118.256798}, "menus": [], "last_updated": "2020-12-28T19:25:12.258Z"}, {"restaurant_name": "The Yum Yum Chicken", "restaurant_phone": "(213) 892-8400", "restaurant_website": "", "hours": "Mon-Sat: 11am-4:30pm", "price_range": "$", "price_range_num": 1, "restaurant_id": 34056899118238404, "cuisines": ["American", "Chicken", "Healthy", "Low Carb", "Low Fat", "Salads"], "address": {"city": "Los Angeles", "state": "CA", "postal_code": "90001", "street": "934 S Los Angeles St #9", "formatted": "934 S Los Angeles St #9 Los Angeles, CA 90001"}, "geo": {"lat": 34.056899, "lon": -118.238404}, "menus": [], "last_updated": "2020-12-29T06:50:08.998Z"}, {"restaurant_name": "La Pizza Loca", "restaurant_phone": "(323) 589-9150", "restaurant_website": "http://www.lapizzaloca.com/", "hours": "", "price_range": "$", "price_range_num": 1, "restaurant_id": 33974929118254490, "cuisines": ["Pizza", "Wings"], "address": {"city": "LOS ANGELES", "state": "CA", "postal_code": "90001", "street": "1155 E Florence Ave", "formatted": "1155 E Florence Ave LOS ANGELES, CA 90001"}, "geo": {"lat": 33.974929, "lon": -118.254486}, "menus": [], "last_updated": "2020-12-29T06:50:30.705Z"}, {"restaurant_name": "Starbucks", "restaurant_phone": "(323) 585-1928", "restaurant_website": "http://www.starbucks.com", "hours": "", "price_range": "", "price_range_num": 0, "restaurant_id": 33982376118248870, "cuisines": ["American", "Coffee & Tea"], "address": {"city": "Los Angeles", "state": "CA", "postal_code": "90001", "street": "1437 East Gage Avenue", "formatted": "1437 East Gage Avenue Los Angeles, CA 90001"}, "geo": {"lat": 33.982376, "lon": -118.248871}, "menus": [], "last_updated": "2020-12-29T06:51:37.167Z"}, {"restaurant_name": "New Town Buffet", "restaurant_phone": "(818) 238-9398", "restaurant_website": "", "hours": "", "price_range": "$$", "price_range_num": 2, "restaurant_id": 33982112118247530, "cuisines": ["Chinese"], "address": {"city": "Los Angeles", "state": "CA", "postal_code": "90001", "street": "1419 E Gage Ave", "formatted": "1419 E Gage Ave Los Angeles, CA 90001"}, "geo": {"lat": 33.982112, "lon": -118.247527}, "menus": [], "last_updated": "2020-12-29T06:50:02.663Z"}, {"restaurant_name": "KFC", "restaurant_phone": "(323) 585-1284", "restaurant_website": "http://www.kfc.com", "hours": "", "price_range": "", "price_range_num": 0, "restaurant_id": 33960537118256704, "cuisines": ["American", "Chicken"], "address": {"city": "Los Angeles", "state": "CA", "postal_code": "90001", "street": "8515 S Central Ave", "formatted": "8515 S Central Ave Los Angeles, CA 90001"}, "geo": {"lat": 33.960537, "lon": -118.256706}, "menus": [], "last_updated": "2020-12-29T06:51:32.822Z"}, {"restaurant_name": "Jack in the Box", "restaurant_phone": "(323) 588-5711", "restaurant_website": "", "hours": "", "price_range": "", "price_range_num": 0, "restaurant_id": 33975170118250310, "cuisines": ["American", "Burgers"], "address": {"city": "Los Angeles", "state": "CA", "postal_code": "90001", "street": "1355 E Florence Ave", "formatted": "1355 E Florence Ave Los Angeles, CA 90001"}, "geo": {"lat": 33.97517, "lon": -118.250313}, "menus": [], "last_updated": "2020-12-29T06:51:33.309Z"}, {"restaurant_name": "Burger King", "restaurant_phone": "(323) 583-2338", "restaurant_website": "", "hours": "", "price_range": "", "price_range_num": 0, "restaurant_id": 33974972118235170, "cuisines": ["American", "Burgers"], "address": {"city": "Los Angeles", "state": "CA", "postal_code": "90001", "street": "2051 E Florence Ave", "formatted": "2051 E Florence Ave Los Angeles, CA 90001"}, "geo": {"lat": 33.974972, "lon": -118.235168}, "menus": [], "last_updated": "2020-12-29T06:51:34.289Z"}, {"restaurant_name": "Burger King", "restaurant_phone": "(323) 588-5988", "restaurant_website": "", "hours": "", "price_range": "", "price_range_num": 0, "restaurant_id": 33960114118253692, "cuisines": ["American", "Burgers"], "address": {"city": "Los Angeles", "state": "CA", "postal_code": "90001", "street": "1202 Firestone Blvd", "formatted": "1202 Firestone Blvd Los Angeles, CA 90001"}, "geo": {"lat": 33.960114, "lon": -118.253693}, "menus": [], "last_updated": "2020-12-29T06:51:34.486Z"}, {"restaurant_name": "Quiznos Sub", "restaurant_phone": "(323) 585-3322", "restaurant_website": "http://www.quiznos.com/", "hours": "", "price_range": "", "price_range_num": 0, "restaurant_id": 33982180118249904, "cuisines": ["American", "Sandwiches", "Wraps"], "address": {"city": "LOS ANGELES", "state": "CA", "postal_code": "90001", "street": "1401 E Gage Ave", "formatted": "1401 E Gage Ave LOS ANGELES, CA 90001"}, "geo": {"lat": 33.98218, "lon": -118.249904}, "menus": [], "last_updated": "2020-12-29T06:51:35.826Z"}, {"restaurant_name": "Restaurant Mi Pueblo", "restaurant_phone": "(323) 583-9091", "restaurant_website": "http:///ca/los-angeles/705456-restaurant-mi-pueblo/", "hours": "", "price_range": "", "price_range_num": 0, "restaurant_id": 33974991118250624, "cuisines": [""], "address": {"city": "Los Angeles", "state": "CA", "postal_code": "90001", "street": "1341 East Florence Avenue", "formatted": "1341 East Florence Avenue Los Angeles, CA 90001"}, "geo": {"lat": 33.974991, "lon": -118.250626}, "menus": [], "last_updated": "2020-12-29T06:46:32.336Z"}, {"restaurant_name": "Pronto Pizza", "restaurant_phone": "(323) 451-3964", "restaurant_website": "http:///ca/los-angeles/705008-pronto-pizza/", "hours": "", "price_range": "", "price_range_num": 0, "restaurant_id": 33959782118264564, "cuisines": [""], "address": {"city": "Los Angeles", "state": "CA", "postal_code": "90001", "street": "608 E Manchester Ave", "formatted": "608 E Manchester Ave Los Angeles, CA 90001"}, "geo": {"lat": 33.959782, "lon": -118.264565}, "menus": [], "last_updated": "2020-12-29T06:46:32.344Z"}, {"restaurant_name": "La Mexicana Meat Market", "restaurant_phone": "(323) 583-4577", "restaurant_website": "http:///ca/los-angeles/705031-la-mexicana-meat-market/", "hours": "", "price_range": "", "price_range_num": 0, "restaurant_id": 33959904118241028, "cuisines": [""], "address": {"city": "Los Angeles", "state": "CA", "postal_code": "90001", "street": "1778 Firestone Boulevard", "formatted": "1778 Firestone Boulevard Los Angeles, CA 90001"}, "geo": {"lat": 33.959904, "lon": -118.241028}, "menus": [], "last_updated": "2020-12-29T06:46:32.370Z"}, {"restaurant_name": "Pupuseria Las Champas", "restaurant_phone": "(323) 585-2078", "restaurant_website": "http:///ca/los-angeles/704942-pupuseria-las-champas/", "hours": "", "price_range": "", "price_range_num": 0, "restaurant_id": 33972210118247476, "cuisines": [""], "address": {"city": "Los Angeles", "state": "CA", "postal_code": "90001", "street": "7508 Compton Avenue", "formatted": "7508 Compton Avenue Los Angeles, CA 90001"}, "geo": {"lat": 33.97221, "lon": -118.247475}, "menus": [], "last_updated": "2020-12-29T06:46:32.450Z"}, {"restaurant_name": "Menchies Frozen Yogurt Gage Village", "restaurant_phone": "(323) 277-9247", "restaurant_website": "http:///ca/los-angeles/669167-menchies-frozen-yogurt-gage-village/", "hours": "", "price_range": "", "price_range_num": 0, "restaurant_id": 33982868118249950, "cuisines": [""], "address": {"city": "Los Angeles", "state": "CA", "postal_code": "90001", "street": "1415 E Gage Ave STE C", "formatted": "1415 E Gage Ave STE C Los Angeles, CA 90001"}, "geo": {"lat": 33.982868, "lon": -118.249954}, "menus": [], "last_updated": "2020-12-29T06:46:33.213Z"}, {"restaurant_name": "Andy?s Pizzeria", "restaurant_phone": "(323) 537-2240", "restaurant_website": "http:///ca/los-angeles/601448-andys-pizzeria/", "hours": "", "price_range": "", "price_range_num": 0, "restaurant_id": 33979034118256180, "cuisines": [""], "address": {"city": "Los Angeles", "state": "CA", "postal_code": "90001", "street": "6700 S Central Ave", "formatted": "6700 S Central Ave Los Angeles, CA 90001"}, "geo": {"lat": 33.979034, "lon": -118.25618}, "menus": [], "last_updated": "2020-12-29T06:46:55.313Z"}, {"restaurant_name": "Smokin' Telle's BBQ and Grill", "restaurant_phone": "(323) 996-5182", "restaurant_website": "http:///ca/los-angeles/600484-smokin-telles-bbq-and-grill/", "hours": "", "price_range": "$$", "price_range_num": 2, "restaurant_id": 33961207118256210, "cuisines": [""], "address": {"city": "Los Angeles", "state": "CA", "postal_code": "90001", "street": "8472 S Central Ave", "formatted": "8472 S Central Ave Los Angeles, CA 90001"}, "geo": {"lat": 33.961207, "lon": -118.256206}, "menus": [], "last_updated": "2020-12-29T06:46:55.383Z"}, {"restaurant_name": "Playa Azul Tortilleria", "restaurant_phone": "(323) 588-9222", "restaurant_website": "http:///ca/los-angeles/719313-playa-azul-tortilleria/", "hours": "", "price_range": "", "price_range_num": 0, "restaurant_id": 33967598118238800, "cuisines": [""], "address": {"city": "Los Angeles", "state": "CA", "postal_code": "90001", "street": "1901 Nadeau Street", "formatted": "1901 Nadeau Street Los Angeles, CA 90001"}, "geo": {"lat": 33.967598, "lon": -118.2388}, "menus": [], "last_updated": "2020-12-29T06:46:10.793Z"}, {"restaurant_name": "Grilled Fraiche Manchester", "restaurant_phone": "(323) 744-2100", "restaurant_website": "http:///ca/los-angeles/625683-grilled-fraiche-manchester/", "hours": "", "price_range": "", "price_range_num": 0, "restaurant_id": 33960472118258896, "cuisines": [""], "address": {"city": "Los Angeles", "state": "CA", "postal_code": "90001", "street": "853 E Manchester Ave", "formatted": "853 E Manchester Ave Los Angeles, CA 90001"}, "geo": {"lat": 33.960472, "lon": -118.258896}, "menus": [], "last_updated": "2020-12-29T06:46:53.620Z"}, {"restaurant_name": "King Polo II", "restaurant_phone": "(323) 763-2898", "restaurant_website": "http:///ca/los-angeles/654700-king-polo-ii/", "hours": "", "price_range": "", "price_range_num": 0, "restaurant_id": 33975269118248136, "cuisines": [""], "address": {"city": "Los Angeles", "state": "CA", "postal_code": "90001", "street": "1457 E Florence Ave", "formatted": "1457 E Florence Ave Los Angeles, CA 90001"}, "geo": {"lat": 33.975269, "lon": -118.248138}, "menus": [], "last_updated": "2020-12-29T06:46:33.574Z"}, {"restaurant_name": "Mariscos Manzanillo", "restaurant_phone": "(323) 585-3747", "restaurant_website": "http:///ca/los-angeles/709023-mariscos-manzanillo/", "hours": "", "price_range": "", "price_range_num": 0, "restaurant_id": 33967243118233956, "cuisines": [""], "address": {"city": "Los Angeles", "state": "CA", "postal_code": "90001", "street": "2124 Nadeau Street", "formatted": "2124 Nadeau Street Los Angeles, CA 90001"}, "geo": {"lat": 33.967243, "lon": -118.233955}, "menus": [], "last_updated": "2020-12-29T06:46:30.477Z"}, {"restaurant_name": "Birrieria Tlaquepaque", "restaurant_phone": "(323) 581-0800", "restaurant_website": "http:///ca/los-angeles/708999-birrieria-tlaquepaque/", "hours": "", "price_range": "", "price_range_num": 0, "restaurant_id": 33974529118241860, "cuisines": [""], "address": {"city": "Los Angeles", "state": "CA", "postal_code": "90001", "street": "1734 East Florence Avenue", "formatted": "1734 East Florence Avenue Los Angeles, CA 90001"}, "geo": {"lat": 33.974529, "lon": -118.241859}, "menus": [], "last_updated": "2020-12-29T06:46:30.523Z"}, {"restaurant_name": "El Primo Chuy", "restaurant_phone": "(323) 387-1967", "restaurant_website": "http:///ca/los-angeles/708697-el-primo-chuy/", "hours": "", "price_range": "", "price_range_num": 0, "restaurant_id": 33968834118256750, "cuisines": [""], "address": {"city": "Los Angeles", "state": "CA", "postal_code": "90001", "street": "7715 South Central Avenue", "formatted": "7715 South Central Avenue Los Angeles, CA 90001"}, "geo": {"lat": 33.968834, "lon": -118.256752}, "menus": [], "last_updated": "2020-12-29T06:46:30.632Z"}, {"restaurant_name": "El Papayote Grill", "restaurant_phone": "(323) 484-9997", "restaurant_website": "http:///ca/los-angeles/596018-el-papayote-grill/", "hours": "", "price_range": "", "price_range_num": 0, "restaurant_id": 33960247118244730, "cuisines": [""], "address": {"city": "Los Angeles", "state": "CA", "postal_code": "90001", "street": "1645 Firestone Blvd", "formatted": "1645 Firestone Blvd Los Angeles, CA 90001"}, "geo": {"lat": 33.960247, "lon": -118.244728}, "menus": [], "last_updated": "2020-12-29T06:46:56.267Z"}], "numResults": 25}