{"totalResults": 92, "page": 1, "total_pages": 4, "more_pages": true, "data": [{"restaurant_name": "George's Greek Grill (445 S Figueroa)", "restaurant_phone": "(213) 627-2334", "restaurant_website": "", "hours": "Mon-Fri: 10am-3pm", "price_range": "$$$$$", "price_range_num": 5, "restaurant_id": 34052380118257030, "cuisines": ["Greek"], "address": {"city": "Los Angeles", "state": "CA", "postal_code": "90071", "street": "445 S Figueroa St Ste 102", "formatted": "445 S Figueroa St Ste 102 Los Angeles, CA 90071"}, "geo": {"lat": 34.05238, "lon": -118.25703}, "menus": [], "last_updated": "2020-12-29T06:50:34.752Z"}, {"restaurant_name": "Specialty's Cafe & Bakery", "restaurant_phone": "(877) 502-2837", "restaurant_website": "http:///ca/los-angeles/722721-specialtys-cafe-bakery/", "hours": "", "price_range": "", "price_range_num": 0, "restaurant_id": 34051552118253504, "cuisines": [""], "address": {"city": "Los Angeles", "state": "CA", "postal_code": "90071", "street": "400 South Hope Street", "formatted": "400 South Hope Street Los Angeles, CA 90071"}, "geo": {"lat": 34.051552, "lon": -118.253502}, "menus": [], "last_updated": "2020-12-29T06:46:07.794Z"}, {"restaurant_name": "My 5 Angels", "restaurant_phone": "(323) 214-5132", "restaurant_website": "http:///ca/los-angeles/722552-my-5-angels/", "hours": "", "price_range": "", "price_range_num": 0, "restaurant_id": 34051498118253504, "cuisines": [""], "address": {"city": "Los Angeles", "state": "CA", "postal_code": "90071", "street": "400 South Grand Avenue", "formatted": "400 South Grand Avenue Los Angeles, CA 90071"}, "geo": {"lat": 34.051498, "lon": -118.253502}, "menus": [], "last_updated": "2020-12-29T06:46:08.339Z"}, {"restaurant_name": "Gallery Bar", "restaurant_phone": "(213) 624-1011", "restaurant_website": "http:///ca/los-angeles/722549-gallery-bar/", "hours": "", "price_range": "", "price_range_num": 0, "restaurant_id": 34049770118254188, "cuisines": [""], "address": {"city": "Los Angeles", "state": "CA", "postal_code": "90071", "street": "506 South Grand Avenue", "formatted": "506 South Grand Avenue Los Angeles, CA 90071"}, "geo": {"lat": 34.04977, "lon": -118.254189}, "menus": [], "last_updated": "2020-12-29T06:46:08.355Z"}, {"restaurant_name": "Pizzabilities", "restaurant_phone": "(877) 585-1085", "restaurant_website": "http:///ca/los-angeles/719639-pizzabilities/", "hours": "", "price_range": "", "price_range_num": 0, "restaurant_id": 34053719118255004, "cuisines": [""], "address": {"city": "Los Angeles", "state": "CA", "postal_code": "90071", "street": "350 South Figueroa Street", "formatted": "350 South Figueroa Street Los Angeles, CA 90071"}, "geo": {"lat": 34.053719, "lon": -118.255005}, "menus": [], "last_updated": "2020-12-29T06:46:09.309Z"}, {"restaurant_name": "Trimana", "restaurant_phone": "(213) 680-2261", "restaurant_website": "http:///ca/los-angeles/999221-trimana/", "hours": "", "price_range": "", "price_range_num": 0, "restaurant_id": 34053749118253090, "cuisines": [""], "address": {"city": "Los Angeles", "state": "CA", "postal_code": "90071", "street": "333 South Hope Street", "formatted": "333 South Hope Street Los Angeles, CA 90071"}, "geo": {"lat": 34.053749, "lon": -118.25309}, "menus": [], "last_updated": "2021-01-05T08:01:27.874Z"}, {"restaurant_name": "La Salsa", "restaurant_phone": "(877) 585-1085", "restaurant_website": "http:///ca/los-angeles/997158-la-salsa/", "hours": "", "price_range": "", "price_range_num": 0, "restaurant_id": 34053616118256868, "cuisines": [""], "address": {"city": "Los Angeles", "state": "CA", "postal_code": "90071", "street": "445 South Figueroa Street", "formatted": "445 South Figueroa Street Los Angeles, CA 90071"}, "geo": {"lat": 34.053616, "lon": -118.256867}, "menus": [], "last_updated": "2021-01-05T08:01:28.088Z"}, {"restaurant_name": "Frullati Cafe", "restaurant_phone": "(213) 488-0299", "restaurant_website": "", "hours": "", "price_range": "", "price_range_num": 0, "restaurant_id": 34051520118256156, "cuisines": ["American", "American (New)", "Bakery & Pastries", "Sandwiches", "Wraps"], "address": {"city": "LOS ANGELES", "state": "CA", "postal_code": "90071", "street": "505 S Flower St", "formatted": "505 S Flower St LOS ANGELES, CA 90071"}, "geo": {"lat": 34.05152, "lon": -118.256156}, "menus": [], "last_updated": "2021-01-05T08:01:28.265Z"}, {"restaurant_name": "Skid Row Coffee", "restaurant_phone": "(310) 464-7018", "restaurant_website": "http:///ca/los-angeles/838580-skid-row-coffee/", "hours": "", "price_range": "", "price_range_num": 0, "restaurant_id": 34050495118255652, "cuisines": [""], "address": {"city": "Los Angeles", "state": "CA", "postal_code": "90071", "street": "630 W 5th St", "formatted": "630 W 5th St Los Angeles, CA 90071"}, "geo": {"lat": 34.050495, "lon": -118.255653}, "menus": [], "last_updated": "2021-01-05T08:01:30.218Z"}, {"restaurant_name": "Trimana Express", "restaurant_phone": "(213) 269-3611", "restaurant_website": "http:///ca/los-angeles/832445-trimana-express/", "hours": "", "price_range": "", "price_range_num": 0, "restaurant_id": 34051109118254430, "cuisines": [""], "address": {"city": "Los Angeles", "state": "CA", "postal_code": "90071", "street": "633 West 5th Street", "formatted": "633 West 5th Street Los Angeles, CA 90071"}, "geo": {"lat": 34.051109, "lon": -118.254433}, "menus": [], "last_updated": "2021-01-05T08:01:31.307Z"}, {"restaurant_name": "Smeraldi's Restaurant", "restaurant_phone": "(213) 624-1011", "restaurant_website": "http://www.thebiltmore.com", "hours": "", "price_range": "", "price_range_num": 0, "restaurant_id": 34049309118253748, "cuisines": ["American"], "address": {"city": "Los Angeles", "state": "CA", "postal_code": "90071", "street": "505 S Grand Ave", "formatted": "505 S Grand Ave Los Angeles, CA 90071"}, "geo": {"lat": 34.049309, "lon": -118.253747}, "menus": [], "last_updated": "2020-12-29T04:37:59.662Z"}, {"restaurant_name": "Drago Centro", "restaurant_phone": "(213) 228-8998", "restaurant_website": "http://www.dragocentro.com/", "hours": "Mon-Fri: 11:30am-2:30pm+5pm-10pm Sat: 5pm-10pm Sun: 5pm-10pm", "price_range": "$", "price_range_num": 1, "restaurant_id": 34050861118257530, "cuisines": ["Italian"], "address": {"city": "Los Angeles", "state": "CA", "postal_code": "90071", "street": "525 Flower St", "formatted": "525 Flower St Los Angeles, CA 90071"}, "geo": {"lat": 34.050861, "lon": -118.25753}, "menus": [], "last_updated": "2021-01-05T08:08:26.934Z"}, {"restaurant_name": "City Club", "restaurant_phone": "(213) 620-9662", "restaurant_website": "http://www.icityclub.com", "hours": "", "price_range": "$", "price_range_num": 1, "restaurant_id": 34052679118251564, "cuisines": [""], "address": {"city": "Los Angeles", "state": "CA", "postal_code": "90071", "street": "333 S. Grand Avenue, 54th Floor", "formatted": "333 S. Grand Avenue, 54th Floor Los Angeles, CA 90071"}, "geo": {"lat": 34.052679, "lon": -118.251565}, "menus": [], "last_updated": "2021-01-05T08:08:27.053Z"}, {"restaurant_name": "Chaya Downtown", "restaurant_phone": "(213) 236-9577", "restaurant_website": "http://www.thechaya.com", "hours": "Mon-Fri: 11am-2:30pm+5:30pm-10pm Sat: 5:30pm-10pm ", "price_range": "$", "price_range_num": 1, "restaurant_id": 34050903118257536, "cuisines": ["Cocktails", "French", "Japanese", "Sushi"], "address": {"city": "Los Angeles", "state": "CA", "postal_code": "90071", "street": "525 South Flower Street", "formatted": "525 South Flower Street Los Angeles, CA 90071"}, "geo": {"lat": 34.050903, "lon": -118.257538}, "menus": [], "last_updated": "2021-01-05T08:08:27.285Z"}, {"restaurant_name": "Blue Cow", "restaurant_phone": "(213) 621-2249", "restaurant_website": "http://www.bluecowkitchen.com/", "hours": "Mon-Sat: 11:30am-2:30pm+4:30pm-10pm", "price_range": "$", "price_range_num": 1, "restaurant_id": 34051686118251444, "cuisines": ["American (New)", "Local/Organic", "Vegetarian"], "address": {"city": "Los Angeles", "state": "CA", "postal_code": "90071", "street": "350 S Grand Ave", "formatted": "350 S Grand Ave Los Angeles, CA 90071"}, "geo": {"lat": 34.051686, "lon": -118.251443}, "menus": [], "last_updated": "2021-01-05T08:08:27.297Z"}, {"restaurant_name": "Bonaventure Brewing Co.", "restaurant_phone": "(213) 236-0802", "restaurant_website": "http://www.bonaventurebrewing.com/", "hours": "Mon-Fri: 11am-1am Sat: 5pm-1am", "price_range": "$", "price_range_num": 1, "restaurant_id": 34052254118256224, "cuisines": ["American"], "address": {"city": "Los Angeles", "state": "CA", "postal_code": "90071", "street": "404 S Figueroa St Ste 418 A", "formatted": "404 S Figueroa St Ste 418 A Los Angeles, CA 90071"}, "geo": {"lat": 34.052254, "lon": -118.256226}, "menus": [], "last_updated": "2021-01-05T08:08:27.330Z"}, {"restaurant_name": "Plaza Grill", "restaurant_phone": "(213) 624-6801", "restaurant_website": "", "hours": "", "price_range": "$", "price_range_num": 1, "restaurant_id": 34051455118256388, "cuisines": [""], "address": {"city": "Los Angeles", "state": "CA", "postal_code": "90071", "street": "505 S Flower St #B43", "formatted": "505 S Flower St #B43 Los Angeles, CA 90071"}, "geo": {"lat": 34.051455, "lon": -118.256388}, "menus": [], "last_updated": "2021-01-05T08:08:27.776Z"}, {"restaurant_name": "Johnnie's NY Pizzeria", "restaurant_phone": "(213) 613-9972", "restaurant_website": "http://www.johnniesnypizza.com/index.html", "hours": "Mon-Fri: 10:30am-4pm", "price_range": "$", "price_range_num": 1, "restaurant_id": 34051440118251000, "cuisines": ["Pizza"], "address": {"city": "Los Angeles", "state": "CA", "postal_code": "90071", "street": "350 S Grand Ave", "formatted": "350 S Grand Ave Los Angeles, CA 90071"}, "geo": {"lat": 34.05144, "lon": -118.251}, "menus": [], "last_updated": "2021-01-05T08:08:28.835Z"}, {"restaurant_name": "Togo's Sandwiches", "restaurant_phone": "(213) 622-2900", "restaurant_website": "http://order.togos.com/Menu.aspx?StoreNum=335013", "hours": "", "price_range": "$", "price_range_num": 1, "restaurant_id": 34051647118256004, "cuisines": [""], "address": {"city": "Los Angeles", "state": "CA", "postal_code": "90071", "street": "505 South flower Street, B420", "formatted": "505 South flower Street, B420 Los Angeles, CA 90071"}, "geo": {"lat": 34.051647, "lon": -118.256004}, "menus": [], "last_updated": "2021-01-05T08:08:29.714Z"}, {"restaurant_name": "Trimana", "restaurant_phone": "(213) 680-2261", "restaurant_website": "", "hours": "Mon-Fri: 7am-4pm", "price_range": "$$", "price_range_num": 2, "restaurant_id": 34053492118252910, "cuisines": ["Coffee & Tea", "Deli Food", "Salads", "Sandwiches", "Smoothies & Juices"], "address": {"city": "Los Angeles", "state": "CA", "postal_code": "90071", "street": "333 S Hope St", "formatted": "333 S Hope St Los Angeles, CA 90071"}, "geo": {"lat": 34.053492, "lon": -118.252913}, "menus": [], "last_updated": "2021-01-05T08:08:29.804Z"}, {"restaurant_name": "Trimana", "restaurant_phone": "(213) 624-3575", "restaurant_website": "http://www.trimana.com", "hours": "Mon-Fri: 7am-4pm", "price_range": "$", "price_range_num": 1, "restaurant_id": 34052131118257976, "cuisines": ["Coffee & Tea", "Deli Food", "Salads", "Sandwiches", "Smoothies & Juices"], "address": {"city": "Los Angeles", "state": "CA", "postal_code": "90071", "street": "515 S Figueroa St", "formatted": "515 S Figueroa St Los Angeles, CA 90071"}, "geo": {"lat": 34.052131, "lon": -118.257976}, "menus": [], "last_updated": "2021-01-05T08:08:29.853Z"}, {"restaurant_name": "California Crisp", "restaurant_phone": "(213) 622-6749", "restaurant_website": "", "hours": "", "price_range": "$", "price_range_num": 1, "restaurant_id": 34052352118254148, "cuisines": ["American", "Sandwiches"], "address": {"city": "Los Angeles", "state": "CA", "postal_code": "90071", "street": "401 S Hope St", "formatted": "401 S Hope St Los Angeles, CA 90071"}, "geo": {"lat": 34.052352, "lon": -118.254148}, "menus": [], "last_updated": "2021-01-05T08:08:30.016Z"}, {"restaurant_name": "Mixt Greens", "restaurant_phone": "(213) 290-2572", "restaurant_website": "", "hours": "Mon-Fri: 10:30am-3pm", "price_range": "$$", "price_range_num": 2, "restaurant_id": 34051442118251000, "cuisines": ["Salads", "Sandwiches"], "address": {"city": "Los Angeles", "state": "CA", "postal_code": "90071", "street": "350 S Grand Ave", "formatted": "350 S Grand Ave Los Angeles, CA 90071"}, "geo": {"lat": 34.051442, "lon": -118.250998}, "menus": [], "last_updated": "2021-01-05T08:08:30.142Z"}, {"restaurant_name": "Taipan", "restaurant_phone": "(213) 626-6688", "restaurant_website": "", "hours": "Lunch Mon-Fri: 11am-3pm Dinner Mon-Fri: 4:30pm-9:15pm", "price_range": "$$", "price_range_num": 2, "restaurant_id": 34053127118252656, "cuisines": ["Chinese"], "address": {"city": "Los Angeles", "state": "CA", "postal_code": "90071", "street": "330 S Hope St", "formatted": "330 S Hope St Los Angeles, CA 90071"}, "geo": {"lat": 34.053127, "lon": -118.252655}, "menus": [], "last_updated": "2021-01-05T08:08:30.424Z"}, {"restaurant_name": "Lakeview Bistro", "restaurant_phone": "(213) 624-1000", "restaurant_website": "", "hours": "", "price_range": "$$$$", "price_range_num": 4, "restaurant_id": 34054363118256264, "cuisines": ["American (New)"], "address": {"city": "Los Angeles", "state": "CA", "postal_code": "90071", "street": "404 South Figueroa Street", "formatted": "404 South Figueroa Street Los Angeles, CA 90071"}, "geo": {"lat": 34.054363, "lon": -118.256264}, "menus": [], "last_updated": "2021-01-05T08:07:42.140Z"}], "numResults": 25}