{"totalResults": 305, "page": 1, "total_pages": 13, "more_pages": true, "data": [{"restaurant_name": "Foo Chow Restaurant", "restaurant_phone": "(213) 485-1294", "restaurant_website": "", "hours": "Tue-Sun: 11am-10:30pm ", "price_range": "$$", "price_range_num": 2, "restaurant_id": 34065863118238200, "cuisines": [""], "address": {"city": "Chinatown", "state": "CA", "postal_code": "90012", "street": "949 N Hill St", "formatted": "949 N Hill St Chinatown, CA 90012"}, "geo": {"lat": 34.065863, "lon": -118.2382}, "menus": [], "last_updated": "2021-01-05T08:32:43.117Z"}, {"restaurant_name": "Johnny Rockets", "restaurant_phone": "(213) 687-8206", "restaurant_website": "", "hours": "Mon-Thu: 11am-11pm Fri-Sat: 11am-12am Sun: 11am-10pm", "price_range": "$$", "price_range_num": 2, "restaurant_id": 34048290118239548, "cuisines": ["Burgers", "Diner", "Hot Dogs"], "address": {"city": "Los Angeles", "state": "CA", "postal_code": "90012", "street": "131 S Central Ave", "formatted": "131 S Central Ave Los Angeles, CA 90012"}, "geo": {"lat": 34.04829, "lon": -118.239548}, "menus": [], "last_updated": "2020-12-29T06:50:33.008Z"}, {"restaurant_name": "Crepes De Paris", "restaurant_phone": "(213) 972-9099", "restaurant_website": "http:///ca/los-angeles/761441-crepes-de-paris/", "hours": "", "price_range": "", "price_range_num": 0, "restaurant_id": 34057438118252868, "cuisines": [""], "address": {"city": "Los Angeles", "state": "CA", "postal_code": "90012", "street": "123 South Figueroa Street", "formatted": "123 South Figueroa Street Los Angeles, CA 90012"}, "geo": {"lat": 34.057438, "lon": -118.252869}, "menus": [], "last_updated": "2020-12-29T06:46:06.360Z"}, {"restaurant_name": "Courtyard Cafe", "restaurant_phone": "(213) 346-9745", "restaurant_website": "http:///ca/los-angeles/722830-courtyard-cafe/", "hours": "", "price_range": "", "price_range_num": 0, "restaurant_id": 34056175118254068, "cuisines": [""], "address": {"city": "Los Angeles", "state": "CA", "postal_code": "90012", "street": "241 South Figueroa Street", "formatted": "241 South Figueroa Street Los Angeles, CA 90012"}, "geo": {"lat": 34.056175, "lon": -118.254067}, "menus": [], "last_updated": "2020-12-29T06:46:07.201Z"}, {"restaurant_name": "Intiraymi", "restaurant_phone": "(213) 617-0573", "restaurant_website": "http:///ca/los-angeles/722831-intiraymi/", "hours": "", "price_range": "", "price_range_num": 0, "restaurant_id": 34058495118238984, "cuisines": [""], "address": {"city": "Los Angeles", "state": "CA", "postal_code": "90012", "street": "633 North Spring Street", "formatted": "633 North Spring Street Los Angeles, CA 90012"}, "geo": {"lat": 34.058495, "lon": -118.238983}, "menus": [], "last_updated": "2020-12-29T06:46:07.231Z"}, {"restaurant_name": "Ramen Maruya", "restaurant_phone": "(213) 613-9988", "restaurant_website": "http:///ca/los-angeles/722781-ramen-maruya/", "hours": "", "price_range": "", "price_range_num": 0, "restaurant_id": 34048874118239610, "cuisines": [""], "address": {"city": "Los Angeles", "state": "CA", "postal_code": "90012", "street": "104 Japanese Village Plaza Mall", "formatted": "104 Japanese Village Plaza Mall Los Angeles, CA 90012"}, "geo": {"lat": 34.048874, "lon": -118.239609}, "menus": [], "last_updated": "2020-12-29T06:46:07.453Z"}, {"restaurant_name": "Milk+T (2nd St)", "restaurant_phone": "(323) 884-1164", "restaurant_website": "http:///ca/los-angeles/722791-milkt/", "hours": "", "price_range": "", "price_range_num": 0, "restaurant_id": 34049019118241508, "cuisines": [""], "address": {"city": "Los Angeles", "state": "CA", "postal_code": "90012", "street": "310 E 2nd St", "formatted": "310 E 2nd St Los Angeles, CA 90012"}, "geo": {"lat": 34.049019, "lon": -118.241508}, "menus": [], "last_updated": "2020-12-29T06:46:07.460Z"}, {"restaurant_name": "Mae Ting's Coconut Cakes", "restaurant_phone": "(818) 522-8647", "restaurant_website": "http:///ca/los-angeles/722732-mae-tings-coconut-cakes/", "hours": "", "price_range": "", "price_range_num": 0, "restaurant_id": 34063149118232744, "cuisines": [""], "address": {"city": "Los Angeles", "state": "CA", "postal_code": "90012", "street": "1100 North Main Street", "formatted": "1100 North Main Street Los Angeles, CA 90012"}, "geo": {"lat": 34.063149, "lon": -118.232742}, "menus": [], "last_updated": "2020-12-29T06:46:07.549Z"}, {"restaurant_name": "Hachioji Craft Ramen", "restaurant_phone": "(213) 265-7799", "restaurant_website": "http:///ca/los-angeles/722706-hachioji-craft-ramen/", "hours": "", "price_range": "", "price_range_num": 0, "restaurant_id": 34050236118240416, "cuisines": [""], "address": {"city": "Los Angeles", "state": "CA", "postal_code": "90012", "street": "313 East 1st Street", "formatted": "313 East 1st Street Los Angeles, CA 90012"}, "geo": {"lat": 34.050236, "lon": -118.240418}, "menus": [], "last_updated": "2020-12-29T06:46:07.598Z"}, {"restaurant_name": "Grand Star Bistro", "restaurant_phone": "(213) 626-2285", "restaurant_website": "http:///ca/los-angeles/722710-grand-star-bistro/", "hours": "", "price_range": "", "price_range_num": 0, "restaurant_id": 34065052118237564, "cuisines": [""], "address": {"city": "Los Angeles", "state": "CA", "postal_code": "90012", "street": "943 Sun Mun Way", "formatted": "943 Sun Mun Way Los Angeles, CA 90012"}, "geo": {"lat": 34.065052, "lon": -118.237564}, "menus": [], "last_updated": "2020-12-29T06:46:07.607Z"}, {"restaurant_name": "Oriel Chinatown", "restaurant_phone": "(213) 253-9419", "restaurant_website": "http:///ca/los-angeles/722686-oriel-chinatown/", "hours": "", "price_range": "", "price_range_num": 0, "restaurant_id": 34062683118236344, "cuisines": [""], "address": {"city": "Los Angeles", "state": "CA", "postal_code": "90012", "street": "1135 North Alameda Street", "formatted": "1135 North Alameda Street Los Angeles, CA 90012"}, "geo": {"lat": 34.062683, "lon": -118.236343}, "menus": [], "last_updated": "2020-12-29T06:46:07.711Z"}, {"restaurant_name": "Hakata Ikkousha", "restaurant_phone": "(213) 221-7920", "restaurant_website": "http:///ca/los-angeles/722672-hakata-ikkousha/", "hours": "", "price_range": "", "price_range_num": 0, "restaurant_id": 34047886118239852, "cuisines": [""], "address": {"city": "Los Angeles", "state": "CA", "postal_code": "90012", "street": "366 E 2nd St", "formatted": "366 E 2nd St Los Angeles, CA 90012"}, "geo": {"lat": 34.047886, "lon": -118.239853}, "menus": [], "last_updated": "2020-12-29T06:46:07.852Z"}, {"restaurant_name": "Tacos El Kochi Loko", "restaurant_phone": "(562) 446-5057", "restaurant_website": "http:///ca/los-angeles/722657-tacos-el-kochi-loko/", "hours": "", "price_range": "", "price_range_num": 0, "restaurant_id": 34051907118244530, "cuisines": [""], "address": {"city": "Los Angeles", "state": "CA", "postal_code": "90012", "street": "100 West 1st Street", "formatted": "100 West 1st Street Los Angeles, CA 90012"}, "geo": {"lat": 34.051907, "lon": -118.24453}, "menus": [], "last_updated": "2020-12-29T06:46:07.860Z"}, {"restaurant_name": "Ho Ho Fu BBQ Dimsum", "restaurant_phone": "(213) 680-3608", "restaurant_website": "http:///ca/los-angeles/722630-ho-ho-fu-bbq-dimsum/", "hours": "", "price_range": "", "price_range_num": 0, "restaurant_id": 34060448118240130, "cuisines": [""], "address": {"city": "Los Angeles", "state": "CA", "postal_code": "90012", "street": "420 Ord Street", "formatted": "420 Ord Street Los Angeles, CA 90012"}, "geo": {"lat": 34.060448, "lon": -118.240128}, "menus": [], "last_updated": "2020-12-29T06:46:08.019Z"}, {"restaurant_name": "Starbucks", "restaurant_phone": "(213) 680-7825", "restaurant_website": "http:///ca/los-angeles/722624-starbucks/", "hours": "", "price_range": "", "price_range_num": 0, "restaurant_id": 34059734118239884, "cuisines": [""], "address": {"city": "Los Angeles", "state": "CA", "postal_code": "90012", "street": "639 North Broadway", "formatted": "639 North Broadway Los Angeles, CA 90012"}, "geo": {"lat": 34.059734, "lon": -118.239883}, "menus": [], "last_updated": "2020-12-29T06:46:08.179Z"}, {"restaurant_name": "Hong Kong BBQ", "restaurant_phone": "(213) 687-7238", "restaurant_website": "http:///ca/los-angeles/722581-hong-kong-bbq/", "hours": "", "price_range": "", "price_range_num": 0, "restaurant_id": 34062584118238456, "cuisines": [""], "address": {"city": "Los Angeles", "state": "CA", "postal_code": "90012", "street": "803 North Broadway", "formatted": "803 North Broadway Los Angeles, CA 90012"}, "geo": {"lat": 34.062584, "lon": -118.238457}, "menus": [], "last_updated": "2020-12-29T06:46:08.203Z"}, {"restaurant_name": "Quickly ChinaTown", "restaurant_phone": "(213) 625-4338", "restaurant_website": "http:///ca/los-angeles/722586-quickly-chinatown/", "hours": "", "price_range": "", "price_range_num": 0, "restaurant_id": 34061710118239640, "cuisines": [""], "address": {"city": "Los Angeles", "state": "CA", "postal_code": "90012", "street": "750 North Hill Street", "formatted": "750 North Hill Street Los Angeles, CA 90012"}, "geo": {"lat": 34.06171, "lon": -118.239639}, "menus": [], "last_updated": "2020-12-29T06:46:08.272Z"}, {"restaurant_name": "Izakaya Gazen", "restaurant_phone": "(213) 613-1415", "restaurant_website": "http:///ca/los-angeles/722540-izakaya-gazen/", "hours": "", "price_range": "", "price_range_num": 0, "restaurant_id": 34049072118239380, "cuisines": [""], "address": {"city": "Los Angeles", "state": "CA", "postal_code": "90012", "street": "362 East 1st Street", "formatted": "362 East 1st Street Los Angeles, CA 90012"}, "geo": {"lat": 34.049072, "lon": -118.23938}, "menus": [], "last_updated": "2020-12-29T06:46:08.410Z"}, {"restaurant_name": "Lien Hoa Deli & Seafood Market", "restaurant_phone": "(213) 625-5001", "restaurant_website": "http:///ca/los-angeles/722502-lien-hoa-deli-seafood-market/", "hours": "", "price_range": "", "price_range_num": 0, "restaurant_id": 34061012118239548, "cuisines": [""], "address": {"city": "Los Angeles", "state": "CA", "postal_code": "90012", "street": "721 North Broadway", "formatted": "721 North Broadway Los Angeles, CA 90012"}, "geo": {"lat": 34.061012, "lon": -118.239548}, "menus": [], "last_updated": "2020-12-29T06:46:08.438Z"}, {"restaurant_name": "Majordomo", "restaurant_phone": "(323) 545-4880", "restaurant_website": "http:///ca/los-angeles/722458-majordomo/", "hours": "", "price_range": "", "price_range_num": 0, "restaurant_id": 34069084118226160, "cuisines": [""], "address": {"city": "Los Angeles", "state": "CA", "postal_code": "90012", "street": "1725 Naud Street", "formatted": "1725 Naud Street Los Angeles, CA 90012"}, "geo": {"lat": 34.069084, "lon": -118.226158}, "menus": [], "last_updated": "2020-12-29T06:46:08.633Z"}, {"restaurant_name": "Sbarro", "restaurant_phone": "(213) 437-0707", "restaurant_website": "https://sbarro.com/locations/CA/LOS-ANGELES/La-City-Mall?utm_source=Yext&utm_medium=yext_directories&utm_campaign=MainWebsiteLink", "hours": "", "price_range": "", "price_range_num": 0, "restaurant_id": 34052600118242000, "cuisines": ["American", "Pizza"], "address": {"city": "Los Angeles", "state": "CA", "postal_code": "90012", "street": "201 North Los Angeles Street", "formatted": "201 North Los Angeles Street Los Angeles, CA 90012"}, "geo": {"lat": 34.0526, "lon": -118.242}, "menus": [], "last_updated": "2020-12-29T06:46:08.721Z"}, {"restaurant_name": "SPLA Coffee", "restaurant_phone": "(213) 282-7098", "restaurant_website": "http:///ca/los-angeles/719778-spla/", "hours": "", "price_range": "", "price_range_num": 0, "restaurant_id": 34063782118245410, "cuisines": [""], "address": {"city": "Los Angeles", "state": "CA", "postal_code": "90012", "street": "714 N Figueroa St", "formatted": "714 N Figueroa St Los Angeles, CA 90012"}, "geo": {"lat": 34.063782, "lon": -118.245407}, "menus": [], "last_updated": "2020-12-29T06:46:08.808Z"}, {"restaurant_name": "Tea Master Matcha Cafe & Green Tea Shop", "restaurant_phone": "(213) 680-1006", "restaurant_website": "http:///ca/los-angeles/719728-tea-master-matcha-cafe-green-tea-shop/", "hours": "", "price_range": "", "price_range_num": 0, "restaurant_id": 34047085118238600, "cuisines": [""], "address": {"city": "Los Angeles", "state": "CA", "postal_code": "90012", "street": "450 East 2nd Street", "formatted": "450 East 2nd Street Los Angeles, CA 90012"}, "geo": {"lat": 34.047085, "lon": -118.238602}, "menus": [], "last_updated": "2020-12-29T06:46:08.953Z"}, {"restaurant_name": "Upstage Burger", "restaurant_phone": "(213) 972-8000", "restaurant_website": "http:///ca/los-angeles/719715-upstage-burger/", "hours": "", "price_range": "", "price_range_num": 0, "restaurant_id": 34056297118248736, "cuisines": [""], "address": {"city": "Los Angeles", "state": "CA", "postal_code": "90012", "street": "135 North Grand Avenue", "formatted": "135 North Grand Avenue Los Angeles, CA 90012"}, "geo": {"lat": 34.056297, "lon": -118.248734}, "menus": [], "last_updated": "2020-12-29T06:46:08.980Z"}, {"restaurant_name": "Korea BBQ House", "restaurant_phone": "(213) 680-1826", "restaurant_website": "http:///ca/los-angeles/719717-korea-bbq-house/", "hours": "", "price_range": "", "price_range_num": 0, "restaurant_id": 34049999118242500, "cuisines": [""], "address": {"city": "Los Angeles", "state": "CA", "postal_code": "90012", "street": "123 Astronaut Ellison S Onizuka St #302", "formatted": "123 Astronaut Ellison S Onizuka St #302 Los Angeles, CA 90012"}, "geo": {"lat": 34.049999, "lon": -118.2425}, "menus": [], "last_updated": "2020-12-29T06:46:08.990Z"}], "numResults": 25}