{"totalResults": 196, "page": 1, "total_pages": 8, "more_pages": true, "data": [{"restaurant_name": "Salad Farm Figueroa", "restaurant_phone": "(213) 748-3111", "restaurant_website": "", "hours": "Sat-Sun: 11am-9pm Mon-Fri: 10am-9pm", "price_range": "$$", "price_range_num": 2, "restaurant_id": 34031274118273810, "cuisines": ["Healthy", "Salads", "Sandwiches"], "address": {"city": "Los Angeles", "state": "CA", "postal_code": "90007", "street": "2210 S Figueroa St", "formatted": "2210 S Figueroa St Los Angeles, CA 90007"}, "geo": {"lat": 34.031274, "lon": -118.273808}, "menus": [], "last_updated": "2020-12-29T06:50:32.992Z"}, {"restaurant_name": "Cosmic Al's Pizza", "restaurant_phone": "(213) 536-5584", "restaurant_website": "http:///ca/los-angeles/762253-cosmic-als-pizza/", "hours": "", "price_range": "", "price_range_num": 0, "restaurant_id": 34024837118284136, "cuisines": [""], "address": {"city": "Los Angeles", "state": "CA", "postal_code": "90007", "street": "3201 S Hoover St", "formatted": "3201 S Hoover St Los Angeles, CA 90007"}, "geo": {"lat": 34.024837, "lon": -118.284134}, "menus": [], "last_updated": "2020-12-29T06:46:06.279Z"}, {"restaurant_name": "RK Deli N Cater", "restaurant_phone": "(323) 734-3117", "restaurant_website": "http:///ca/los-angeles/763292-rk-deli-n-cater/", "hours": "", "price_range": "", "price_range_num": 0, "restaurant_id": 34034161118291344, "cuisines": [""], "address": {"city": "Los Angeles", "state": "CA", "postal_code": "90007", "street": "2406 S Vermont Ave", "formatted": "2406 S Vermont Ave Los Angeles, CA 90007"}, "geo": {"lat": 34.034161, "lon": -118.291344}, "menus": [], "last_updated": "2020-12-29T06:46:06.303Z"}, {"restaurant_name": "Domino's Pizza", "restaurant_phone": "(213) 746-9999", "restaurant_website": "http://www.dominos.com", "hours": "", "price_range": "", "price_range_num": 0, "restaurant_id": 34026100118277000, "cuisines": ["American", "Pizza", "Wings"], "address": {"city": "Los Angeles", "state": "CA", "postal_code": "90007", "street": "2803 S Figueroa St", "formatted": "2803 S Figueroa St Los Angeles, CA 90007"}, "geo": {"lat": 34.0261, "lon": -118.277}, "menus": [], "last_updated": "2020-12-29T06:46:06.853Z"}, {"restaurant_name": "Rosso Oro's Pizzeria", "restaurant_phone": "(213) 743-2077", "restaurant_website": "http:///ca/los-angeles/780092-rosso-oros-pizzeria/", "hours": "", "price_range": "", "price_range_num": 0, "restaurant_id": 34019627118281080, "cuisines": [""], "address": {"city": "Los Angeles", "state": "CA", "postal_code": "90007", "street": "3522 South Figueroa Street", "formatted": "3522 South Figueroa Street Los Angeles, CA 90007"}, "geo": {"lat": 34.019627, "lon": -118.281082}, "menus": [], "last_updated": "2020-12-28T19:27:17.534Z"}, {"restaurant_name": "Northern Cafe", "restaurant_phone": "(213) 741-9050", "restaurant_website": "http:///ca/los-angeles/572619-northern-cafe/", "hours": "", "price_range": "", "price_range_num": 0, "restaurant_id": 34025509118277350, "cuisines": [""], "address": {"city": "Los Angeles", "state": "CA", "postal_code": "90007", "street": "2904 S Figueroa St", "formatted": "2904 S Figueroa St Los Angeles, CA 90007"}, "geo": {"lat": 34.025509, "lon": -118.277351}, "menus": [], "last_updated": "2020-12-28T19:25:12.071Z"}, {"restaurant_name": "Basil", "restaurant_phone": "(323) 801-3110", "restaurant_website": "http:///ca/los-angeles/577073-basil/", "hours": "", "price_range": "", "price_range_num": 0, "restaurant_id": 34034226118272668, "cuisines": [""], "address": {"city": "Los Angeles", "state": "CA", "postal_code": "90007", "street": "1901 S Figueroa St", "formatted": "1901 S Figueroa St Los Angeles, CA 90007"}, "geo": {"lat": 34.034226, "lon": -118.272667}, "menus": [], "last_updated": "2020-12-28T19:25:12.729Z"}, {"restaurant_name": "Aloha Deli Market", "restaurant_phone": "(323) 734-3117", "restaurant_website": "http:///ca/los-angeles/577908-aloha-deli-market/", "hours": "", "price_range": "", "price_range_num": 0, "restaurant_id": 34034206118291330, "cuisines": [""], "address": {"city": "Los Angeles", "state": "CA", "postal_code": "90007", "street": "2404 S Vermont Ave", "formatted": "2404 S Vermont Ave Los Angeles, CA 90007"}, "geo": {"lat": 34.034206, "lon": -118.291328}, "menus": [], "last_updated": "2020-12-28T19:25:13.028Z"}, {"restaurant_name": "Pirolo's Panino", "restaurant_phone": "(844) 407-4992", "restaurant_website": "http:///ca/los-angeles/573549-pirolos-panino/", "hours": "", "price_range": "", "price_range_num": 0, "restaurant_id": 34039688118298804, "cuisines": [""], "address": {"city": "Los Angeles", "state": "CA", "postal_code": "90007", "street": "1842 Washington Blvd", "formatted": "1842 Washington Blvd Los Angeles, CA 90007"}, "geo": {"lat": 34.039688, "lon": -118.298805}, "menus": [], "last_updated": "2020-12-28T19:25:12.220Z"}, {"restaurant_name": "Hong Kong Express Chinese Food", "restaurant_phone": "(213) 277-1388", "restaurant_website": "http:///ca/los-angeles/576973-hong-kong-express-chinese-food/", "hours": "", "price_range": "", "price_range_num": 0, "restaurant_id": 34031235118291550, "cuisines": [""], "address": {"city": "Los Angeles", "state": "CA", "postal_code": "90007", "street": "2604 S Vermont Ave Ste 105D", "formatted": "2604 S Vermont Ave Ste 105D Los Angeles, CA 90007"}, "geo": {"lat": 34.031235, "lon": -118.29155}, "menus": [], "last_updated": "2020-12-28T19:25:12.819Z"}, {"restaurant_name": "Thai Corner Food Express", "restaurant_phone": "(213) 748-8006", "restaurant_website": "", "hours": "Mon-Fri: 10:30am-10:30pm Sat: 11am-10pm Sun: 11am-9:30pm", "price_range": "$$", "price_range_num": 2, "restaurant_id": 34017179118278350, "cuisines": ["Thai"], "address": {"city": "Los Angeles", "state": "CA", "postal_code": "90007", "street": "3665 S Grand Ave Ste C4", "formatted": "3665 S Grand Ave Ste C4 Los Angeles, CA 90007"}, "geo": {"lat": 34.017179, "lon": -118.278351}, "menus": [], "last_updated": "2020-12-29T06:50:29.787Z"}, {"restaurant_name": "Caveman Kitchen", "restaurant_phone": "(323) 737-3717", "restaurant_website": "http://www.eatcaveman.com", "hours": "Mon-Fri: 11am-10pm Sat-Sun: 11am-9pm", "price_range": "$$", "price_range_num": 2, "restaurant_id": 34036004118291750, "cuisines": ["Burgers", "Chicken", "Latin American"], "address": {"city": "Los Angeles", "state": "CA", "postal_code": "90007", "street": "2215 S Vermont Ave", "formatted": "2215 S Vermont Ave Los Angeles, CA 90007"}, "geo": {"lat": 34.036004, "lon": -118.291753}, "menus": [], "last_updated": "2020-12-29T06:50:30.153Z"}, {"restaurant_name": "Five Guys", "restaurant_phone": "(213) 749-7710", "restaurant_website": "http://www.fiveguys.com", "hours": "Daily: 11am-10pm", "price_range": "$", "price_range_num": 1, "restaurant_id": 34026852118275810, "cuisines": ["Burgers", "Hot Dogs"], "address": {"city": "Los Angeles", "state": "CA", "postal_code": "90007", "street": "530 W 27th St Ste 101", "formatted": "530 W 27th St Ste 101 Los Angeles, CA 90007"}, "geo": {"lat": 34.026852, "lon": -118.27581}, "menus": [], "last_updated": "2020-12-29T06:50:31.635Z"}, {"restaurant_name": "Chanos", "restaurant_phone": "(213) 748-0397", "restaurant_website": "", "hours": "Daily: 6am-1am", "price_range": "$", "price_range_num": 1, "restaurant_id": 34014114118282520, "cuisines": ["Mexican", "Vegetarian"], "address": {"city": "Los Angeles", "state": "CA", "postal_code": "90007", "street": "3850 S Figueroa St", "formatted": "3850 S Figueroa St Los Angeles, CA 90007"}, "geo": {"lat": 34.014114, "lon": -118.282519}, "menus": [], "last_updated": "2020-12-29T06:50:31.842Z"}, {"restaurant_name": "Pizza Rustica", "restaurant_phone": "(213) 746-7499", "restaurant_website": "", "hours": "Daily: 10:30am-11pm", "price_range": "$$", "price_range_num": 2, "restaurant_id": 34016397118282750, "cuisines": ["Italian", "Pizza"], "address": {"city": "Los Angeles", "state": "CA", "postal_code": "90007", "street": "3782 S Figueroa St", "formatted": "3782 S Figueroa St Los Angeles, CA 90007"}, "geo": {"lat": 34.016397, "lon": -118.282752}, "menus": [], "last_updated": "2020-12-29T06:50:32.531Z"}, {"restaurant_name": "Starbucks Coffee", "restaurant_phone": "(213) 747-8927", "restaurant_website": "http://www.starbucks.com", "hours": "", "price_range": "", "price_range_num": 0, "restaurant_id": 34025578118283960, "cuisines": ["American", "Coffee & Tea"], "address": {"city": "LOS ANGELES", "state": "CA", "postal_code": "90007", "street": "3303 S Hoover St", "formatted": "3303 S Hoover St LOS ANGELES, CA 90007"}, "geo": {"lat": 34.025578, "lon": -118.283961}, "menus": [], "last_updated": "2020-12-29T06:51:37.057Z"}, {"restaurant_name": "Chipotle", "restaurant_phone": "(213) 765-9068", "restaurant_website": "http://www.chipotle.com", "hours": "Daily: 10:30am-10pm", "price_range": "", "price_range_num": 0, "restaurant_id": 34016994118282490, "cuisines": ["Mexican"], "address": {"city": "Los Angeles", "state": "CA", "postal_code": "90007", "street": "3748 S Figueroa St", "formatted": "3748 S Figueroa St Los Angeles, CA 90007"}, "geo": {"lat": 34.016994, "lon": -118.282486}, "menus": [], "last_updated": "2020-12-29T06:51:30.767Z"}, {"restaurant_name": "McDonald's", "restaurant_phone": "", "restaurant_website": "http://www.mcdonalds.com", "hours": "", "price_range": "", "price_range_num": 0, "restaurant_id": 34040037118284644, "cuisines": ["American", "Burgers"], "address": {"city": "LOS ANGELES", "state": "CA", "postal_code": "90007", "street": "1311 W Washington Blvd", "formatted": "1311 W Washington Blvd LOS ANGELES, CA 90007"}, "geo": {"lat": 34.040037, "lon": -118.284643}, "menus": [], "last_updated": "2020-12-29T06:51:31.856Z"}, {"restaurant_name": "Taco Bell", "restaurant_phone": "(323) 737-4717", "restaurant_website": "http://www.tacobell.com", "hours": "", "price_range": "", "price_range_num": 0, "restaurant_id": 34022179118291830, "cuisines": ["Mexican"], "address": {"city": "Los Angeles", "state": "CA", "postal_code": "90007", "street": "3629 S Vermont Ave", "formatted": "3629 S Vermont Ave Los Angeles, CA 90007"}, "geo": {"lat": 34.022179, "lon": -118.291832}, "menus": [], "last_updated": "2020-12-29T06:51:32.624Z"}, {"restaurant_name": "KFC", "restaurant_phone": "(213) 748-5632", "restaurant_website": "http://www.kfc.com", "hours": "", "price_range": "", "price_range_num": 0, "restaurant_id": 34026043118278100, "cuisines": ["American", "Chicken"], "address": {"city": "Los Angeles", "state": "CA", "postal_code": "90007", "street": "2809 S Figueroa St", "formatted": "2809 S Figueroa St Los Angeles, CA 90007"}, "geo": {"lat": 34.026043, "lon": -118.278099}, "menus": [], "last_updated": "2020-12-29T06:51:32.979Z"}, {"restaurant_name": "Cold Stone Creamery", "restaurant_phone": "(213) 747-2744", "restaurant_website": "http://www.coldstonecreamery.com/", "hours": "Sun-Thu: 11pm-10pm Fri-Sat: 11pm-11pm", "price_range": "", "price_range_num": 0, "restaurant_id": 34017415118282710, "cuisines": ["Desserts"], "address": {"city": "Los Angeles", "state": "CA", "postal_code": "90007", "street": "3730 S Figueroa St", "formatted": "3730 S Figueroa St Los Angeles, CA 90007"}, "geo": {"lat": 34.017415, "lon": -118.282713}, "menus": [], "last_updated": "2020-12-29T06:51:33.058Z"}, {"restaurant_name": "Jack in the Box", "restaurant_phone": "(213) 745-5530", "restaurant_website": "", "hours": "", "price_range": "", "price_range_num": 0, "restaurant_id": 34025644118277636, "cuisines": ["American", "Burgers"], "address": {"city": "Los Angeles", "state": "CA", "postal_code": "90007", "street": "2921 S Figueroa St", "formatted": "2921 S Figueroa St Los Angeles, CA 90007"}, "geo": {"lat": 34.025644, "lon": -118.277636}, "menus": [], "last_updated": "2020-12-29T06:51:33.135Z"}, {"restaurant_name": "Jack in the Box", "restaurant_phone": "(323) 735-7124", "restaurant_website": "", "hours": "", "price_range": "", "price_range_num": 0, "restaurant_id": 34033405118291880, "cuisines": ["American", "Burgers"], "address": {"city": "Los Angeles", "state": "CA", "postal_code": "90007", "street": "2511 S Vermont Ave", "formatted": "2511 S Vermont Ave Los Angeles, CA 90007"}, "geo": {"lat": 34.033405, "lon": -118.291878}, "menus": [], "last_updated": "2020-12-29T06:51:33.163Z"}, {"restaurant_name": "Papa John's", "restaurant_phone": "(213) 743-5999", "restaurant_website": "http://www.papajohns.com", "hours": "", "price_range": "$", "price_range_num": 1, "restaurant_id": 34035172118283684, "cuisines": ["American", "Pizza"], "address": {"city": "Los Angeles", "state": "CA", "postal_code": "90007", "street": "2222 S HOOVER ST", "formatted": "2222 S HOOVER ST Los Angeles, CA 90007"}, "geo": {"lat": 34.035172, "lon": -118.283684}, "menus": [], "last_updated": "2020-12-29T06:51:33.550Z"}, {"restaurant_name": "Popeyes", "restaurant_phone": "(213) 745-8820", "restaurant_website": "http://www.popeyes.com", "hours": "", "price_range": "", "price_range_num": 0, "restaurant_id": 34028214118275664, "cuisines": ["American", "Wings"], "address": {"city": "Los Angeles", "state": "CA", "postal_code": "90007", "street": "2532 s Figueroa st", "formatted": "2532 s Figueroa st Los Angeles, CA 90007"}, "geo": {"lat": 34.028214, "lon": -118.275665}, "menus": [], "last_updated": "2020-12-29T06:51:33.772Z"}], "numResults": 25}