{"totalResults": 159, "page": 1, "total_pages": 7, "more_pages": true, "data": [{"restaurant_name": "Chicken on Fire", "restaurant_phone": "(310) 652-3310", "restaurant_website": "", "hours": "Mon-Fri: 11am-9:30pm Sat: 11am-9pm ", "price_range": "$", "price_range_num": 1, "restaurant_id": 34059080118376550, "cuisines": ["Chicken", "Chinese", "Thai"], "address": {"city": "Los Angeles", "state": "CA", "postal_code": "90035", "street": "8500 W Olympic Blvd Ste B", "formatted": "8500 W Olympic Blvd Ste B Los Angeles, CA 90035"}, "geo": {"lat": 34.05908, "lon": -118.376553}, "menus": [], "last_updated": "2020-12-29T06:50:34.046Z"}, {"restaurant_name": "Factor's Famous Deli", "restaurant_phone": "(310) 278-9175", "restaurant_website": "", "hours": "Sun-Thu: 7am-9pm Fri-Sat: 7am-10pm", "price_range": "$$$", "price_range_num": 3, "restaurant_id": 34054998118394590, "cuisines": ["Deli Food", "Sandwiches"], "address": {"city": "Los Angeles", "state": "CA", "postal_code": "90035", "street": "9420 W Pico Blvd", "formatted": "9420 W Pico Blvd Los Angeles, CA 90035"}, "geo": {"lat": 34.054998, "lon": -118.39459}, "menus": [], "last_updated": "2020-12-29T06:50:32.630Z"}, {"restaurant_name": "Circa NY", "restaurant_phone": "(310) 659-0464", "restaurant_website": "", "hours": "Daily: 7am-6pm", "price_range": "$$", "price_range_num": 2, "restaurant_id": 34053851118379076, "cuisines": ["Deli Food", "Kosher", "Sandwiches"], "address": {"city": "Los Angeles", "state": "CA", "postal_code": "90035", "street": "8622 W Pico Blvd", "formatted": "8622 W Pico Blvd Los Angeles, CA 90035"}, "geo": {"lat": 34.053851, "lon": -118.379076}, "menus": [], "last_updated": "2020-12-29T06:50:32.867Z"}, {"restaurant_name": "Schwartz Bakery & Cafe", "restaurant_phone": "(310) 659-0464", "restaurant_website": "", "hours": "", "price_range": "$$", "price_range_num": 2, "restaurant_id": 34053646118379180, "cuisines": ["Breakfast", "Deli Food", "Sandwiches"], "address": {"city": "Los Angeles", "state": "CA", "postal_code": "90035", "street": "8622 W Pico Blvd", "formatted": "8622 W Pico Blvd Los Angeles, CA 90035"}, "geo": {"lat": 34.053646, "lon": -118.379181}, "menus": [], "last_updated": "2020-12-29T06:50:33.050Z"}, {"restaurant_name": "Bodhi Vegetarian & Vegan Kitchen", "restaurant_phone": "(310) 248-2777", "restaurant_website": "", "hours": "Sun-Thu: 11am-10pm Fri: 11am-4pm", "price_range": "$$", "price_range_num": 2, "restaurant_id": 34055280118392824, "cuisines": ["Thai", "Vegan", "Vegetarian"], "address": {"city": "Los Angeles", "state": "CA", "postal_code": "90035", "street": "9303 W Pico Blvd", "formatted": "9303 W Pico Blvd Los Angeles, CA 90035"}, "geo": {"lat": 34.05528, "lon": -118.392826}, "menus": [], "last_updated": "2020-12-29T06:50:33.616Z"}, {"restaurant_name": "Psy On Pico", "restaurant_phone": "(424) 432-1333", "restaurant_website": "http:///ca/los-angeles/777852-psy-on-pico/", "hours": "", "price_range": "", "price_range_num": 0, "restaurant_id": 34055527118394270, "cuisines": [""], "address": {"city": "Los Angeles", "state": "CA", "postal_code": "90035", "street": "9407 W Pico Blvd", "formatted": "9407 W Pico Blvd Los Angeles, CA 90035"}, "geo": {"lat": 34.055527, "lon": -118.394272}, "menus": [], "last_updated": "2020-12-29T06:46:06.118Z"}, {"restaurant_name": "Green Table Cafe", "restaurant_phone": "(323) 424-4129", "restaurant_website": "http:///ca/los-angeles/571392-green-table-cafe/", "hours": "", "price_range": "", "price_range_num": 0, "restaurant_id": 34052048118371030, "cuisines": [""], "address": {"city": "Los Angeles", "state": "CA", "postal_code": "90035", "street": "5998 W Pico Blvd", "formatted": "5998 W Pico Blvd Los Angeles, CA 90035"}, "geo": {"lat": 34.052048, "lon": -118.371033}, "menus": [], "last_updated": "2020-12-28T19:25:11.821Z"}, {"restaurant_name": "Shanghai Diamond Garden", "restaurant_phone": "(310) 553-0998", "restaurant_website": "", "hours": "Mon-Thu: 11am-9:30pm Fri: 11am-2pm Sun: 1:30pm-9:30pm", "price_range": "$$$", "price_range_num": 3, "restaurant_id": 34055558118394044, "cuisines": ["Chinese", "Kosher", "Sushi"], "address": {"city": "Los Angeles", "state": "CA", "postal_code": "90035", "street": "9401 W Pico Blvd", "formatted": "9401 W Pico Blvd Los Angeles, CA 90035"}, "geo": {"lat": 34.055558, "lon": -118.394045}, "menus": [], "last_updated": "2020-12-29T06:50:08.821Z"}, {"restaurant_name": "Bocca Steakhouse", "restaurant_phone": "(310) 888-8874", "restaurant_website": "", "hours": "", "price_range": "$$$", "price_range_num": 3, "restaurant_id": 34054672118382416, "cuisines": ["Healthy", "Kosher", "Pasta", "Salads", "Sandwiches", "Seafood", "Wraps"], "address": {"city": "Los Angeles", "state": "CA", "postal_code": "90035", "street": "8731 W Pico", "formatted": "8731 W Pico Los Angeles, CA 90035"}, "geo": {"lat": 34.054672, "lon": -118.382414}, "menus": [], "last_updated": "2020-12-29T06:50:09.216Z"}, {"restaurant_name": "Label's Table Deli", "restaurant_phone": "(310) 276-0388", "restaurant_website": "", "hours": "Sun-Mon: 8am-3pm Tue-Fri: 8am-6pm Sat: 8am-5pm", "price_range": "$", "price_range_num": 1, "restaurant_id": 34055088118392650, "cuisines": ["Deli Food", "Salads", "Sandwiches"], "address": {"city": "Los Angeles", "state": "CA", "postal_code": "90035", "street": "9226 W Pico Blvd", "formatted": "9226 W Pico Blvd Los Angeles, CA 90035"}, "geo": {"lat": 34.055088, "lon": -118.392647}, "menus": [], "last_updated": "2020-12-29T06:50:09.506Z"}, {"restaurant_name": "Shiloh's Restaurant", "restaurant_phone": "(310) 858-1652", "restaurant_website": "", "hours": "Sun-Thu: 11:30am-10:30pm Fri: 11:30am-2pm Sat: 7:30pm-11pm", "price_range": "$$$$", "price_range_num": 4, "restaurant_id": 34055439118386904, "cuisines": ["Kosher", "Steak"], "address": {"city": "Los Angeles", "state": "CA", "postal_code": "90035", "street": "8939 W Pico Blvd", "formatted": "8939 W Pico Blvd Los Angeles, CA 90035"}, "geo": {"lat": 34.055439, "lon": -118.386904}, "menus": [], "last_updated": "2020-12-29T06:50:09.516Z"}, {"restaurant_name": "Vien Cafe", "restaurant_phone": "(323) 651-2888", "restaurant_website": "", "hours": "Sun-Thu: 11:30am-10pm Fri-Sat: 11:30am-11pm", "price_range": "$$", "price_range_num": 2, "restaurant_id": 34052888118374524, "cuisines": ["Vegetarian", "Vietnamese"], "address": {"city": "Los Angeles", "state": "CA", "postal_code": "90035", "street": "6118 W Pico Blvd", "formatted": "6118 W Pico Blvd Los Angeles, CA 90035"}, "geo": {"lat": 34.052888, "lon": -118.374524}, "menus": [], "last_updated": "2020-12-29T06:50:09.710Z"}, {"restaurant_name": "Basil & Berry", "restaurant_phone": "(310) 271-1100", "restaurant_website": "", "hours": "Mon-Thu: 11am-12am Fri: 10am-2:30pm Sat: 7:30pm-2am Sun: 11am-11:30pm", "price_range": "$$$$", "price_range_num": 4, "restaurant_id": 34055157118387070, "cuisines": ["American", "Kosher", "Pizza"], "address": {"city": "Los Angeles", "state": "CA", "postal_code": "90035", "street": "8946 W Pico Blvd", "formatted": "8946 W Pico Blvd Los Angeles, CA 90035"}, "geo": {"lat": 34.055157, "lon": -118.387071}, "menus": [], "last_updated": "2020-12-29T06:50:29.578Z"}, {"restaurant_name": "Schnitzly", "restaurant_phone": "(424) 249-3565", "restaurant_website": "http://www.Schnitzly.com", "hours": "Sun-Wed: 11am-1am Thu: 11am-2am Sat: 8:30pm-3am", "price_range": "$$", "price_range_num": 2, "restaurant_id": 34055016118392508, "cuisines": ["Kosher", "Sandwiches"], "address": {"city": "Los Angeles", "state": "CA", "postal_code": "90035", "street": "9216 W Pico Blvd", "formatted": "9216 W Pico Blvd Los Angeles, CA 90035"}, "geo": {"lat": 34.055016, "lon": -118.392509}, "menus": [], "last_updated": "2020-12-29T06:50:30.095Z"}, {"restaurant_name": "Chick 'N Chow", "restaurant_phone": "(310) 274-5595", "restaurant_website": "", "hours": "Sun-Thu: 11:30am-9pm Fri: 10am-3pm", "price_range": "$$", "price_range_num": 2, "restaurant_id": 34055614118393010, "cuisines": ["Chicken", "Chinese"], "address": {"city": "Los Angeles", "state": "CA", "postal_code": "90035", "street": "9301 W Pico Blvd", "formatted": "9301 W Pico Blvd Los Angeles, CA 90035"}, "geo": {"lat": 34.055614, "lon": -118.39301}, "menus": [], "last_updated": "2020-12-29T06:50:30.358Z"}, {"restaurant_name": "Mo Mo Sushi", "restaurant_phone": "(310) 652-1724", "restaurant_website": "http://www.momosushila.blogspot.com/", "hours": "Mon-Sat: 11am-9:45pm Sun: 4pm-8:45pm", "price_range": "$", "price_range_num": 1, "restaurant_id": 34059078118376650, "cuisines": ["Japanese", "Sushi"], "address": {"city": "Los Angeles", "state": "CA", "postal_code": "90035", "street": "8500 W Olympic Blvd Ste E", "formatted": "8500 W Olympic Blvd Ste E Los Angeles, CA 90035"}, "geo": {"lat": 34.059078, "lon": -118.376648}, "menus": [], "last_updated": "2020-12-29T06:50:30.773Z"}, {"restaurant_name": "Jeff's Gourmet", "restaurant_phone": "(310) 858-8590", "restaurant_website": "http://www.jeffsgourmet.com", "hours": "Sun-Thu: 11am-11pm ", "price_range": "$$$", "price_range_num": 3, "restaurant_id": 34055140118386764, "cuisines": ["Burgers", "Deli Food", "Hot Dogs", "Kosher", "Sandwiches"], "address": {"city": "Los Angeles", "state": "CA", "postal_code": "90035", "street": "8930 W Pico Blvd", "formatted": "8930 W Pico Blvd Los Angeles, CA 90035"}, "geo": {"lat": 34.05514, "lon": -118.386763}, "menus": [], "last_updated": "2020-12-29T06:50:30.947Z"}, {"restaurant_name": "Hollywood Pies", "restaurant_phone": "(323) 337-3212", "restaurant_website": "http://www.hollywoodpies.com", "hours": "Tue-Thu: 4pm-9:30pm Fri-Sat: 4pm-10pm Sun: 4pm-8:30pm", "price_range": "$", "price_range_num": 1, "restaurant_id": 34052792118374520, "cuisines": ["Pizza"], "address": {"city": "Los Angeles", "state": "CA", "postal_code": "90035", "street": "6116 1/2 W Pico Blvd", "formatted": "6116 1/2 W Pico Blvd Los Angeles, CA 90035"}, "geo": {"lat": 34.052792, "lon": -118.374519}, "menus": [], "last_updated": "2020-12-29T06:50:31.080Z"}, {"restaurant_name": "Fu's Palace", "restaurant_phone": "(310) 271-7887", "restaurant_website": "", "hours": "Sun-Thu: 11:30am-10pm Fri-Sat: 11:30am-11pm", "price_range": "$$", "price_range_num": 2, "restaurant_id": 34054897118382812, "cuisines": ["Chinese"], "address": {"city": "Los Angeles", "state": "CA", "postal_code": "90035", "street": "8751 W Pico Blvd", "formatted": "8751 W Pico Blvd Los Angeles, CA 90035"}, "geo": {"lat": 34.054897, "lon": -118.382813}, "menus": [], "last_updated": "2020-12-29T06:50:31.129Z"}, {"restaurant_name": "Natalee Thai - Beverly Hills", "restaurant_phone": "(310) 855-9380", "restaurant_website": "http://www.nataleethai.com/", "hours": "Sun-Thu: 11:30am-10pm Fri-Sat:11:30am-10:30pm ", "price_range": "$$", "price_range_num": 2, "restaurant_id": 34059694118383268, "cuisines": ["Thai"], "address": {"city": "Los Angeles", "state": "CA", "postal_code": "90035", "street": "998 S Robertson Blvd", "formatted": "998 S Robertson Blvd Los Angeles, CA 90035"}, "geo": {"lat": 34.059694, "lon": -118.383268}, "menus": [], "last_updated": "2020-12-29T06:50:31.298Z"}, {"restaurant_name": "L.A. Burger Bar", "restaurant_phone": "(310) 933-4430", "restaurant_website": "", "hours": "Mon-Wed: 11am-1am Thu: 11am-3am Sat: 8pm-3am Sun: 11am-11pm", "price_range": "$$", "price_range_num": 2, "restaurant_id": 34053812118377850, "cuisines": ["Burgers", "Hot Dogs", "Kosher"], "address": {"city": "Los Angeles", "state": "CA", "postal_code": "90035", "street": "8581 W Pico Blvd", "formatted": "8581 W Pico Blvd Los Angeles, CA 90035"}, "geo": {"lat": 34.053812, "lon": -118.377846}, "menus": [], "last_updated": "2020-12-29T06:50:32.057Z"}, {"restaurant_name": "Bibi's Bakery & Cafe", "restaurant_phone": "(310) 246-1788", "restaurant_website": "", "hours": "Mon-Thu: 7am-12am Fri: 7am-4pm Sat: 9:30pm-3am Sun: 8am-12am", "price_range": "$", "price_range_num": 1, "restaurant_id": 34055165118386696, "cuisines": ["Bakery & Pastries", "Middle Eastern", "Pizza"], "address": {"city": "Los Angeles", "state": "CA", "postal_code": "90035", "street": "8928 W Pico Blvd", "formatted": "8928 W Pico Blvd Los Angeles, CA 90035"}, "geo": {"lat": 34.055165, "lon": -118.386697}, "menus": [], "last_updated": "2020-12-29T06:50:32.062Z"}, {"restaurant_name": "Delice Bakery", "restaurant_phone": "(310) 289-6556", "restaurant_website": "", "hours": "Mon-Tue: 7am-6:30pm Wed-Thu: 7am-7pm Fri: 6am-3pm Sun: 7am-6pm", "price_range": "$$", "price_range_num": 2, "restaurant_id": 34053894118377944, "cuisines": ["Bakery & Pastries", "Coffee & Tea", "Crepes", "Desserts", "French", "Kosher"], "address": {"city": "Los Angeles", "state": "CA", "postal_code": "90035", "street": "8583 W Pico Blvd", "formatted": "8583 W Pico Blvd Los Angeles, CA 90035"}, "geo": {"lat": 34.053894, "lon": -118.377945}, "menus": [], "last_updated": "2020-12-29T06:50:32.067Z"}, {"restaurant_name": "Mexikosher", "restaurant_phone": "(310) 271-0900", "restaurant_website": "", "hours": "Sun-Wed: 11am-11pm Thu: 11am-12am Fri: 11am-2pm", "price_range": "$", "price_range_num": 1, "restaurant_id": 34054628118384610, "cuisines": ["Kosher", "Mexican", "Southwestern"], "address": {"city": "Los Angeles", "state": "CA", "postal_code": "90035", "street": "8832 W Pico Blvd", "formatted": "8832 W Pico Blvd Los Angeles, CA 90035"}, "geo": {"lat": 34.054628, "lon": -118.384606}, "menus": [], "last_updated": "2020-12-29T06:50:32.070Z"}, {"restaurant_name": "Nana Restaurant Cafe", "restaurant_phone": "(310) 407-0404", "restaurant_website": "", "hours": "Sun-Thu: 10am-10pm Sat: Sunset-11pm", "price_range": "$$", "price_range_num": 2, "restaurant_id": 34051911118384292, "cuisines": ["American", "Breakfast", "Healthy", "Kosher", "Pizza", "Salads", "Sandwiches", "Seafood"], "address": {"city": "Los Angeles", "state": "CA", "postal_code": "90035", "street": "1509 S Robertson Blvd", "formatted": "1509 S Robertson Blvd Los Angeles, CA 90035"}, "geo": {"lat": 34.051911, "lon": -118.384293}, "menus": [], "last_updated": "2020-12-29T06:50:32.083Z"}], "numResults": 25}