{"totalResults": 187, "page": 1, "total_pages": 8, "more_pages": true, "data": [{"restaurant_name": "Olga's Catering", "restaurant_phone": "(323) 301-6600", "restaurant_website": "http:///ca/los-angeles/722759-olgas-catering/", "hours": "", "price_range": "", "price_range_num": 0, "restaurant_id": 34047710118244110, "cuisines": [""], "address": {"city": "Los Angeles", "state": "CA", "postal_code": "90013", "street": "309 Wall Street", "formatted": "309 Wall Street Los Angeles, CA 90013"}, "geo": {"lat": 34.04771, "lon": -118.24411}, "menus": [], "last_updated": "2020-12-29T06:46:07.457Z"}, {"restaurant_name": "Bavel", "restaurant_phone": "(213) 232-4966", "restaurant_website": "http:///ca/los-angeles/722744-bavel/", "hours": "", "price_range": "", "price_range_num": 0, "restaurant_id": 34041424118232696, "cuisines": [""], "address": {"city": "Los Angeles", "state": "CA", "postal_code": "90013", "street": "500 Mateo Street", "formatted": "500 Mateo Street Los Angeles, CA 90013"}, "geo": {"lat": 34.041424, "lon": -118.232697}, "menus": [], "last_updated": "2020-12-29T06:46:07.498Z"}, {"restaurant_name": "The Red Chickz", "restaurant_phone": "(213) 294-3005", "restaurant_website": "http:///ca/los-angeles/722703-the-red-chickz/", "hours": "", "price_range": "", "price_range_num": 0, "restaurant_id": 34046146118250990, "cuisines": [""], "address": {"city": "Los Angeles", "state": "CA", "postal_code": "90013", "street": "557 South Spring Street", "formatted": "557 South Spring Street Los Angeles, CA 90013"}, "geo": {"lat": 34.046146, "lon": -118.250992}, "menus": [], "last_updated": "2020-12-29T06:46:07.640Z"}, {"restaurant_name": "Teabella", "restaurant_phone": "(626) 787-4070", "restaurant_website": "http:///ca/los-angeles/722656-teabella/", "hours": "", "price_range": "", "price_range_num": 0, "restaurant_id": 34048229118251304, "cuisines": [""], "address": {"city": "Los Angeles", "state": "CA", "postal_code": "90013", "street": "312 West 5th Street", "formatted": "312 West 5th Street Los Angeles, CA 90013"}, "geo": {"lat": 34.048229, "lon": -118.251305}, "menus": [], "last_updated": "2020-12-29T06:46:07.856Z"}, {"restaurant_name": "LA Gourmet Bakery", "restaurant_phone": "(213) 623-4244", "restaurant_website": "http:///ca/los-angeles/722655-la-gourmet-bakery/", "hours": "", "price_range": "", "price_range_num": 0, "restaurant_id": 34046871118251580, "cuisines": [""], "address": {"city": "Los Angeles", "state": "CA", "postal_code": "90013", "street": "548 South Broadway", "formatted": "548 South Broadway Los Angeles, CA 90013"}, "geo": {"lat": 34.046871, "lon": -118.251579}, "menus": [], "last_updated": "2020-12-29T06:46:07.923Z"}, {"restaurant_name": "Baffo", "restaurant_phone": "(323) 702-8005", "restaurant_website": "http:///ca/los-angeles/722626-baffo/", "hours": "", "price_range": "", "price_range_num": 0, "restaurant_id": 34044437118235076, "cuisines": [""], "address": {"city": "Los Angeles", "state": "CA", "postal_code": "90013", "street": "836 Traction Avenue", "formatted": "836 Traction Avenue Los Angeles, CA 90013"}, "geo": {"lat": 34.044437, "lon": -118.235077}, "menus": [], "last_updated": "2020-12-29T06:46:08.007Z"}, {"restaurant_name": "Chingon Catering", "restaurant_phone": "(818) 371-4006", "restaurant_website": "http:///ca/los-angeles/722618-chingon-catering/", "hours": "", "price_range": "", "price_range_num": 0, "restaurant_id": 34045807118237770, "cuisines": [""], "address": {"city": "Los Angeles", "state": "CA", "postal_code": "90013", "street": "701 East 3rd Street", "formatted": "701 East 3rd Street Los Angeles, CA 90013"}, "geo": {"lat": 34.045807, "lon": -118.23777}, "menus": [], "last_updated": "2020-12-29T06:46:08.013Z"}, {"restaurant_name": "Salt & Straw", "restaurant_phone": "(213) 988-7070", "restaurant_website": "http:///ca/los-angeles/722636-salt-straw/", "hours": "", "price_range": "", "price_range_num": 0, "restaurant_id": 34046005118235456, "cuisines": [""], "address": {"city": "Los Angeles", "state": "CA", "postal_code": "90013", "street": "829 East 3rd Street", "formatted": "829 East 3rd Street Los Angeles, CA 90013"}, "geo": {"lat": 34.046005, "lon": -118.235458}, "menus": [], "last_updated": "2020-12-29T06:46:08.044Z"}, {"restaurant_name": "Antojitos Puebla", "restaurant_phone": "(213) 623-7003", "restaurant_website": "http:///ca/los-angeles/722603-antojitos-puebla/", "hours": "", "price_range": "", "price_range_num": 0, "restaurant_id": 34046749118247240, "cuisines": [""], "address": {"city": "Los Angeles", "state": "CA", "postal_code": "90013", "street": "435 South Los Angeles Street", "formatted": "435 South Los Angeles Street Los Angeles, CA 90013"}, "geo": {"lat": 34.046749, "lon": -118.247238}, "menus": [], "last_updated": "2020-12-29T06:46:08.155Z"}, {"restaurant_name": "Blue Flame Cafe", "restaurant_phone": "(213) 244-2055", "restaurant_website": "http:///ca/los-angeles/722469-blue-flame-cafe/", "hours": "", "price_range": "", "price_range_num": 0, "restaurant_id": 34050095118253170, "cuisines": [""], "address": {"city": "Los Angeles", "state": "CA", "postal_code": "90013", "street": "555 West 5th Street", "formatted": "555 West 5th Street Los Angeles, CA 90013"}, "geo": {"lat": 34.050095, "lon": -118.253166}, "menus": [], "last_updated": "2020-12-29T06:46:08.547Z"}, {"restaurant_name": "Mrs Fish", "restaurant_phone": "(213) 873-4444", "restaurant_website": "http:///ca/los-angeles/722481-mrs-fish/", "hours": "", "price_range": "", "price_range_num": 0, "restaurant_id": 34048973118251360, "cuisines": [""], "address": {"city": "Los Angeles", "state": "CA", "postal_code": "90013", "street": "448 South Hill Street", "formatted": "448 South Hill Street Los Angeles, CA 90013"}, "geo": {"lat": 34.048973, "lon": -118.251358}, "menus": [], "last_updated": "2020-12-29T06:46:08.555Z"}, {"restaurant_name": "Side Walk Cafe", "restaurant_phone": "(877) 585-1085", "restaurant_website": "http:///ca/los-angeles/722474-side-walk-cafe/", "hours": "", "price_range": "", "price_range_num": 0, "restaurant_id": 34042790118243616, "cuisines": [""], "address": {"city": "Los Angeles", "state": "CA", "postal_code": "90013", "street": "537 Crocker Street", "formatted": "537 Crocker Street Los Angeles, CA 90013"}, "geo": {"lat": 34.04279, "lon": -118.243614}, "menus": [], "last_updated": "2020-12-29T06:46:08.688Z"}, {"restaurant_name": "Coronados Mexican Restaurant & Bar", "restaurant_phone": "(213) 935-8259", "restaurant_website": "http:///ca/los-angeles/719735-coronados-mexican-restaurant-bar/", "hours": "", "price_range": "", "price_range_num": 0, "restaurant_id": 34047566118250130, "cuisines": [""], "address": {"city": "Los Angeles", "state": "CA", "postal_code": "90013", "street": "212 West 5th Street", "formatted": "212 West 5th Street Los Angeles, CA 90013"}, "geo": {"lat": 34.047566, "lon": -118.25013}, "menus": [], "last_updated": "2020-12-29T06:46:08.916Z"}, {"restaurant_name": "Here & Now", "restaurant_phone": "(213) 262-9291", "restaurant_website": "http:///ca/los-angeles/719631-here-now/", "hours": "", "price_range": "", "price_range_num": 0, "restaurant_id": 34045837118232308, "cuisines": [""], "address": {"city": "Los Angeles", "state": "CA", "postal_code": "90013", "street": "300 S Santa Fe Ave", "formatted": "300 S Santa Fe Ave Los Angeles, CA 90013"}, "geo": {"lat": 34.045837, "lon": -118.232307}, "menus": [], "last_updated": "2020-12-29T06:46:09.360Z"}, {"restaurant_name": "MADE by DWC Cafe & Gift Boutique", "restaurant_phone": "(877) 585-1085", "restaurant_website": "http:///ca/los-angeles/719622-made-by-dwc-cafe-gift-boutique/", "hours": "", "price_range": "", "price_range_num": 0, "restaurant_id": 34044575118243270, "cuisines": [""], "address": {"city": "Los Angeles", "state": "CA", "postal_code": "90013", "street": "438 San Pedro Street", "formatted": "438 San Pedro Street Los Angeles, CA 90013"}, "geo": {"lat": 34.044575, "lon": -118.243271}, "menus": [], "last_updated": "2020-12-29T06:46:09.494Z"}, {"restaurant_name": "E Stretto", "restaurant_phone": "(877) 585-1085", "restaurant_website": "http:///ca/los-angeles/719598-e-stretto/", "hours": "", "price_range": "", "price_range_num": 0, "restaurant_id": 34049973118249396, "cuisines": [""], "address": {"city": "Los Angeles", "state": "CA", "postal_code": "90013", "street": "351 South Broadway", "formatted": "351 South Broadway Los Angeles, CA 90013"}, "geo": {"lat": 34.049973, "lon": -118.249397}, "menus": [], "last_updated": "2020-12-29T06:46:09.593Z"}, {"restaurant_name": "Gamez DTLA", "restaurant_phone": "(877) 585-1085", "restaurant_website": "http:///ca/los-angeles/719581-gamez-dtla/", "hours": "", "price_range": "", "price_range_num": 0, "restaurant_id": 34047005118249510, "cuisines": [""], "address": {"city": "Los Angeles", "state": "CA", "postal_code": "90013", "street": "500 South Spring Street", "formatted": "500 South Spring Street Los Angeles, CA 90013"}, "geo": {"lat": 34.047005, "lon": -118.249512}, "menus": [], "last_updated": "2020-12-29T06:46:09.666Z"}, {"restaurant_name": "Manuela", "restaurant_phone": "(323) 849-0480", "restaurant_website": "http:///ca/los-angeles/719573-manuela/", "hours": "", "price_range": "", "price_range_num": 0, "restaurant_id": 34046166118234856, "cuisines": [""], "address": {"city": "Los Angeles", "state": "CA", "postal_code": "90013", "street": "907 East 3rd Street", "formatted": "907 East 3rd Street Los Angeles, CA 90013"}, "geo": {"lat": 34.046166, "lon": -118.234856}, "menus": [], "last_updated": "2020-12-29T06:46:09.676Z"}, {"restaurant_name": "Loqui", "restaurant_phone": "(213) 265-7558", "restaurant_website": "http:///ca/los-angeles/780148-loqui/", "hours": "", "price_range": "", "price_range_num": 0, "restaurant_id": 34045685118235630, "cuisines": [""], "address": {"city": "Los Angeles", "state": "CA", "postal_code": "90013", "street": "818 East 3rd Street", "formatted": "818 East 3rd Street Los Angeles, CA 90013"}, "geo": {"lat": 34.045685, "lon": -118.235634}, "menus": [], "last_updated": "2020-12-28T19:27:17.560Z"}, {"restaurant_name": "Art & Fish", "restaurant_phone": "(213) 235-2116", "restaurant_website": "http:///ca/los-angeles/573412-art-fish/", "hours": "", "price_range": "", "price_range_num": 0, "restaurant_id": 34039761118232468, "cuisines": [""], "address": {"city": "Los Angeles", "state": "CA", "postal_code": "90013", "street": "564 Mateo St", "formatted": "564 Mateo St Los Angeles, CA 90013"}, "geo": {"lat": 34.039761, "lon": -118.232468}, "menus": [], "last_updated": "2020-12-28T19:25:12.125Z"}, {"restaurant_name": "Calavera Burrito Company", "restaurant_phone": "(213) 628-3094", "restaurant_website": "http:///ca/los-angeles/574070-calavera-burrito-company/", "hours": "", "price_range": "", "price_range_num": 0, "restaurant_id": 34046631118250724, "cuisines": [""], "address": {"city": "Los Angeles", "state": "CA", "postal_code": "90013", "street": "541 S Spring St", "formatted": "541 S Spring St Los Angeles, CA 90013"}, "geo": {"lat": 34.046631, "lon": -118.250725}, "menus": [], "last_updated": "2020-12-28T19:25:12.364Z"}, {"restaurant_name": "Lupetti Pizzeria", "restaurant_phone": "(213) 415-1938", "restaurant_website": "http:///ca/los-angeles/578302-lupetti-pizzeria/", "hours": "", "price_range": "", "price_range_num": 0, "restaurant_id": 34044914118237360, "cuisines": [""], "address": {"city": "Los Angeles", "state": "CA", "postal_code": "90013", "street": "710 E 4th Pl", "formatted": "710 E 4th Pl Los Angeles, CA 90013"}, "geo": {"lat": 34.044914, "lon": -118.237358}, "menus": [], "last_updated": "2020-12-28T19:25:12.964Z"}, {"restaurant_name": "Kohii Coffee Co", "restaurant_phone": "(213) 214-4538", "restaurant_website": "http:///ca/los-angeles/584351-kohii-coffee-co/", "hours": "", "price_range": "", "price_range_num": 0, "restaurant_id": 34046604118242012, "cuisines": [""], "address": {"city": "Los Angeles", "state": "CA", "postal_code": "90013", "street": "420 E 3rd St Ste 107", "formatted": "420 E 3rd St Ste 107 Los Angeles, CA 90013"}, "geo": {"lat": 34.046604, "lon": -118.242012}, "menus": [], "last_updated": "2020-12-28T19:25:13.712Z"}, {"restaurant_name": "Vito's Pizza DTLA", "restaurant_phone": "(213) 816-1700", "restaurant_website": "http:///ca/los-angeles/586607-vitos-pizza-dtla/", "hours": "", "price_range": "", "price_range_num": 0, "restaurant_id": 34048534118248024, "cuisines": [""], "address": {"city": "Los Angeles", "state": "CA", "postal_code": "90013", "street": "124 W 4th St", "formatted": "124 W 4th St Los Angeles, CA 90013"}, "geo": {"lat": 34.048534, "lon": -118.248024}, "menus": [], "last_updated": "2020-12-28T19:25:14.083Z"}, {"restaurant_name": "Nola's", "restaurant_phone": "", "restaurant_website": "", "hours": "Lunch Mon-Sat: 10am-2:30pm Dinner Mon-Sun: 5pm-10:30pm Brunch Sun: 11am-3pm", "price_range": "$$", "price_range_num": 2, "restaurant_id": 34045623118236760, "cuisines": ["Cajun & Creole", "Soul Food"], "address": {"city": "Los Angeles", "state": "CA", "postal_code": "90013", "street": "734 E 3rd St", "formatted": "734 E 3rd St Los Angeles, CA 90013"}, "geo": {"lat": 34.045623, "lon": -118.236759}, "menus": [], "last_updated": "2020-12-29T06:50:08.959Z"}], "numResults": 25}