{"totalResults": 254, "page": 1, "total_pages": 11, "more_pages": true, "data": [{"restaurant_name": "The Alley Dog", "restaurant_phone": "(213) 745-5042", "restaurant_website": "http://www.TheAlleyDogLA.com", "hours": "Mon-Fri: 8am-5pm Sat-Sun: 8am-6pm", "price_range": "$", "price_range_num": 1, "restaurant_id": 34035976118256708, "cuisines": ["Hot Dogs", "Mexican"], "address": {"city": "Los Angeles", "state": "CA", "postal_code": "90015", "street": "317 E 12th St", "formatted": "317 E 12th St Los Angeles, CA 90015"}, "geo": {"lat": 34.035976, "lon": -118.256708}, "menus": [], "last_updated": "2020-12-29T06:50:32.277Z"}, {"restaurant_name": "Greenwich Village Pizzeria", "restaurant_phone": "(213) 749-3920", "restaurant_website": "", "hours": "Daily: 10am-8pm ", "price_range": "$$", "price_range_num": 2, "restaurant_id": 34028705118259780, "cuisines": ["Pizza"], "address": {"city": "Los Angeles", "state": "CA", "postal_code": "90015", "street": "512 E Washington Blvd", "formatted": "512 E Washington Blvd Los Angeles, CA 90015"}, "geo": {"lat": 34.028705, "lon": -118.259781}, "menus": [], "last_updated": "2020-12-29T06:50:33.076Z"}, {"restaurant_name": "Nayeb Kabab", "restaurant_phone": "(213) 746-4800", "restaurant_website": "http:///ca/los-angeles/755929-nayeb-kabab/", "hours": "", "price_range": "", "price_range_num": 0, "restaurant_id": 34035473118259332, "cuisines": [""], "address": {"city": "Los Angeles", "state": "CA", "postal_code": "90015", "street": "1300 South Los Angeles Street", "formatted": "1300 South Los Angeles Street Los Angeles, CA 90015"}, "geo": {"lat": 34.035473, "lon": -118.259331}, "menus": [], "last_updated": "2020-12-29T06:46:06.474Z"}, {"restaurant_name": "Michoacana Pedir de Boca", "restaurant_phone": "(818) 746-6399", "restaurant_website": "http:///ca/los-angeles/744406-michoacana-pedir-de-boca/", "hours": "", "price_range": "", "price_range_num": 0, "restaurant_id": 34035324118256180, "cuisines": [""], "address": {"city": "Los Angeles", "state": "CA", "postal_code": "90015", "street": "1200 Maple Ave", "formatted": "1200 Maple Ave Los Angeles, CA 90015"}, "geo": {"lat": 34.035324, "lon": -118.25618}, "menus": [], "last_updated": "2020-12-29T06:46:06.687Z"}, {"restaurant_name": "Subway", "restaurant_phone": "(213) 746-1300", "restaurant_website": "https://restaurants.subway.com/united-states/ca/los-angeles/155-w-washington-blvd?utm_source=yext-other&utm_medium=local&utm_term=acq&utm_content=30045&utm_campaign=evergreen-2020&y_source=1_MTQ5MTUyM", "hours": "", "price_range": "", "price_range_num": 0, "restaurant_id": 34032200118266300, "cuisines": [""], "address": {"city": "Los Angeles", "state": "CA", "postal_code": "90015", "street": "155 W Washington Blvd", "formatted": "155 W Washington Blvd Los Angeles, CA 90015"}, "geo": {"lat": 34.0322, "lon": -118.2663}, "menus": [], "last_updated": "2020-12-29T06:46:07.186Z"}, {"restaurant_name": "Master Burger", "restaurant_phone": "(213) 536-5039", "restaurant_website": "http:///ca/los-angeles/571132-master-burger/", "hours": "", "price_range": "", "price_range_num": 0, "restaurant_id": 34040825118257920, "cuisines": [""], "address": {"city": "Los Angeles", "state": "CA", "postal_code": "90015", "street": "1001 S Broadway", "formatted": "1001 S Broadway Los Angeles, CA 90015"}, "geo": {"lat": 34.040825, "lon": -118.257919}, "menus": [], "last_updated": "2020-12-28T19:25:11.844Z"}, {"restaurant_name": "DAMA", "restaurant_phone": "(213) 741-0612", "restaurant_website": "http:///ca/los-angeles/584968-dama/", "hours": "", "price_range": "", "price_range_num": 0, "restaurant_id": 34035248118253020, "cuisines": [""], "address": {"city": "Los Angeles", "state": "CA", "postal_code": "90015", "street": "612 E 11th St", "formatted": "612 E 11th St Los Angeles, CA 90015"}, "geo": {"lat": 34.035248, "lon": -118.253021}, "menus": [], "last_updated": "2020-12-28T19:25:13.962Z"}, {"restaurant_name": "First Draft Taproom & Kitchen", "restaurant_phone": "(213) 536-5267", "restaurant_website": "http:///ca/los-angeles/586945-first-draft-taproom-kitchen/", "hours": "", "price_range": "", "price_range_num": 0, "restaurant_id": 34038498118262756, "cuisines": [""], "address": {"city": "Los Angeles", "state": "CA", "postal_code": "90015", "street": "1230 S Olive St", "formatted": "1230 S Olive St Los Angeles, CA 90015"}, "geo": {"lat": 34.038498, "lon": -118.262756}, "menus": [], "last_updated": "2020-12-28T19:25:14.075Z"}, {"restaurant_name": "Dune", "restaurant_phone": "(213) 628-3586", "restaurant_website": "http:///ca/los-angeles/588467-dune/", "hours": "", "price_range": "", "price_range_num": 0, "restaurant_id": 34040909118257056, "cuisines": [""], "address": {"city": "Los Angeles", "state": "CA", "postal_code": "90015", "street": "199 W Olympic Blvd", "formatted": "199 W Olympic Blvd Los Angeles, CA 90015"}, "geo": {"lat": 34.040909, "lon": -118.257057}, "menus": [], "last_updated": "2020-12-28T19:25:14.251Z"}, {"restaurant_name": "Superfine Pizza", "restaurant_phone": "(323) 698-5677", "restaurant_website": "http:///ca/los-angeles/588622-superfine-pizza/", "hours": "", "price_range": "", "price_range_num": 0, "restaurant_id": 34035297118252548, "cuisines": [""], "address": {"city": "Los Angeles", "state": "CA", "postal_code": "90015", "street": "1101 S San Pedro St", "formatted": "1101 S San Pedro St Los Angeles, CA 90015"}, "geo": {"lat": 34.035297, "lon": -118.252548}, "menus": [], "last_updated": "2020-12-28T19:25:14.274Z"}, {"restaurant_name": "Mex Peru Gipsy", "restaurant_phone": "(213) 748-1773", "restaurant_website": "http:///ca/los-angeles/572943-mex-peru-gipsy/", "hours": "", "price_range": "", "price_range_num": 0, "restaurant_id": 34035191118255920, "cuisines": [""], "address": {"city": "Los Angeles", "state": "CA", "postal_code": "90015", "street": "414 E 12th St", "formatted": "414 E 12th St Los Angeles, CA 90015"}, "geo": {"lat": 34.035191, "lon": -118.25592}, "menus": [], "last_updated": "2020-12-28T19:25:12.060Z"}, {"restaurant_name": "Rosa Mexicano LA Live", "restaurant_phone": "(213) 746-0001", "restaurant_website": "", "hours": "Lunch Daily: 11:30am-4pm Dinner Sun-Wed: 4pm-10pm Thu-Sat: 4pm-11pm ", "price_range": "$", "price_range_num": 1, "restaurant_id": 34044941118263980, "cuisines": ["Mexican"], "address": {"city": "Los Angeles", "state": "CA", "postal_code": "90015", "street": "800 W Olympic Blvd", "formatted": "800 W Olympic Blvd Los Angeles, CA 90015"}, "geo": {"lat": 34.044941, "lon": -118.263981}, "menus": [], "last_updated": "2020-12-29T06:50:08.864Z"}, {"restaurant_name": "Flying Sticks", "restaurant_phone": "(213) 892-8400", "restaurant_website": "", "hours": "Mon-Sat: 11am-4:30pm", "price_range": "$$", "price_range_num": 2, "restaurant_id": 34039953118255080, "cuisines": ["Middle Eastern"], "address": {"city": "Los Angeles", "state": "CA", "postal_code": "90015", "street": "934 S Los Angeles St Ste 8", "formatted": "934 S Los Angeles St Ste 8 Los Angeles, CA 90015"}, "geo": {"lat": 34.039953, "lon": -118.255078}, "menus": [], "last_updated": "2020-12-29T06:50:09.025Z"}, {"restaurant_name": "Yakimaki", "restaurant_phone": "(213) 746-5185", "restaurant_website": "", "hours": "Sun-Fri: 8:30am-3:30pm Sat: 8:30am-2:30pm", "price_range": "$$", "price_range_num": 2, "restaurant_id": 34034509118255736, "cuisines": ["Japanese", "Sushi"], "address": {"city": "Los Angeles", "state": "CA", "postal_code": "90015", "street": "1217 Wall St", "formatted": "1217 Wall St Los Angeles, CA 90015"}, "geo": {"lat": 34.034509, "lon": -118.255734}, "menus": [], "last_updated": "2020-12-29T06:50:09.063Z"}, {"restaurant_name": "Santee Falafel", "restaurant_phone": "(213) 892-8400", "restaurant_website": "", "hours": "Mon-Sat: 11am-4:30pm", "price_range": "$", "price_range_num": 1, "restaurant_id": 34034397118259250, "cuisines": ["Middle Eastern"], "address": {"city": "Los Angeles", "state": "CA", "postal_code": "90015", "street": "1335 S Santee St", "formatted": "1335 S Santee St Los Angeles, CA 90015"}, "geo": {"lat": 34.034397, "lon": -118.259247}, "menus": [], "last_updated": "2020-12-29T06:50:09.072Z"}, {"restaurant_name": "Good Grill Express", "restaurant_phone": "(213) 749-2345", "restaurant_website": "", "hours": "Mon-Sat: 8:30am-4:15pm", "price_range": "$$", "price_range_num": 2, "restaurant_id": 34038940118255676, "cuisines": ["Mexican"], "address": {"city": "Los Angeles", "state": "CA", "postal_code": "90015", "street": "210 E Olympic Blvd", "formatted": "210 E Olympic Blvd Los Angeles, CA 90015"}, "geo": {"lat": 34.03894, "lon": -118.255676}, "menus": [], "last_updated": "2020-12-29T06:50:09.159Z"}, {"restaurant_name": "Quiznos2631", "restaurant_phone": "(213) 622-6560", "restaurant_website": "http://www.quiznos.com", "hours": "", "price_range": "$", "price_range_num": 1, "restaurant_id": 34045811118260604, "cuisines": ["American", "Salads", "Sandwiches", "Subs", "Wraps"], "address": {"city": " Los Angeles", "state": "CA", "postal_code": "90015", "street": " 645 W 9th St #107", "formatted": " 645 W 9th St #107  Los Angeles, CA 90015"}, "geo": {"lat": 34.045811, "lon": -118.260605}, "menus": [], "last_updated": "2020-12-29T06:50:09.332Z"}, {"restaurant_name": "Amante Pizza & Pasta", "restaurant_phone": "(213) 488-4999", "restaurant_website": "", "hours": "", "price_range": "$$$$", "price_range_num": 4, "restaurant_id": 34040588118255388, "cuisines": ["Italian", "Late Night", "Pasta", "Pizza", "Sandwiches", "Subs"], "address": {"city": "Los Angeles", "state": "CA", "postal_code": "90015", "street": "110 E 9th St", "formatted": "110 E 9th St Los Angeles, CA 90015"}, "geo": {"lat": 34.040588, "lon": -118.255388}, "menus": [], "last_updated": "2020-12-29T06:50:09.548Z"}, {"restaurant_name": "Shayan Express", "restaurant_phone": "(213) 623-7000", "restaurant_website": "", "hours": "Mon-Sat: 9am-5pm Sun: 11am-5pm", "price_range": "$$", "price_range_num": 2, "restaurant_id": 34037979118253120, "cuisines": ["Mediterranean", "Middle Eastern"], "address": {"city": "Los Angeles", "state": "CA", "postal_code": "90015", "street": "945 S Wall St Ste 6", "formatted": "945 S Wall St Ste 6 Los Angeles, CA 90015"}, "geo": {"lat": 34.037979, "lon": -118.25312}, "menus": [], "last_updated": "2020-12-29T06:50:09.554Z"}, {"restaurant_name": "Shekarchi", "restaurant_phone": "(213) 892-8535", "restaurant_website": "http://www.shekarchirestaurant.com/", "hours": "Mon-Fri: 11am-3:15pm ", "price_range": "$$", "price_range_num": 2, "restaurant_id": 34042680118257428, "cuisines": ["Middle Eastern"], "address": {"city": "Los Angeles", "state": "CA", "postal_code": "90015", "street": "914 S Hill St", "formatted": "914 S Hill St Los Angeles, CA 90015"}, "geo": {"lat": 34.04268, "lon": -118.257429}, "menus": [], "last_updated": "2020-12-29T06:50:30.175Z"}, {"restaurant_name": "Two Boots", "restaurant_phone": "(213) 623-2100", "restaurant_website": "http://www.twoboots.com", "hours": "Mon-Tue: 11am-10pm Wed: 11am-12am Thu-Fri: 11am-2:30am Sat: 12pm-2:30am Sun: 12pm-12am", "price_range": "$$$$", "price_range_num": 4, "restaurant_id": 34043225118255184, "cuisines": ["Pizza"], "address": {"city": "Los Angeles", "state": "CA", "postal_code": "90015", "street": "828 S Broadway Ave", "formatted": "828 S Broadway Ave Los Angeles, CA 90015"}, "geo": {"lat": 34.043225, "lon": -118.255183}, "menus": [], "last_updated": "2020-12-29T06:50:30.533Z"}, {"restaurant_name": "9th Street Pizza", "restaurant_phone": "(213) 627-7798", "restaurant_website": "http://www.9thstreetpizza.com/", "hours": "Daily: 10am-10pm", "price_range": "$$", "price_range_num": 2, "restaurant_id": 34040218118253356, "cuisines": ["Pizza", "Sandwiches"], "address": {"city": "Los Angeles", "state": "CA", "postal_code": "90015", "street": "231 E 9th St", "formatted": "231 E 9th St Los Angeles, CA 90015"}, "geo": {"lat": 34.040218, "lon": -118.253357}, "menus": [], "last_updated": "2020-12-29T06:50:30.668Z"}, {"restaurant_name": "Gram And Papa's", "restaurant_phone": "(213) 624-7272", "restaurant_website": "http://www.gramandpapas.com", "hours": "Mon-Fri: 8am-3pm", "price_range": "$", "price_range_num": 1, "restaurant_id": 34040300118253450, "cuisines": ["American", "Breakfast", "Salads", "Sandwiches"], "address": {"city": "LOS ANGELES", "state": "CA", "postal_code": "90015", "street": "227 E 9th St", "formatted": "227 E 9th St LOS ANGELES, CA 90015"}, "geo": {"lat": 34.0403, "lon": -118.253447}, "menus": [], "last_updated": "2020-12-29T06:50:30.908Z"}, {"restaurant_name": "Woodspoon", "restaurant_phone": "(213) 629-1765", "restaurant_website": "http://www.woodspoonla.com", "hours": "Lunch Mon-Fri: 11am-3pm Sat: 12pm-3pm Dinner Tue-Fri: 6pm-9pm Sat: 6pm-10pm", "price_range": "$", "price_range_num": 1, "restaurant_id": 34041893118255156, "cuisines": ["Brazilian", "South American"], "address": {"city": "Los Angeles", "state": "CA", "postal_code": "90015", "street": "107 W 9th St", "formatted": "107 W 9th St Los Angeles, CA 90015"}, "geo": {"lat": 34.041893, "lon": -118.255157}, "menus": [], "last_updated": "2020-12-29T06:50:31.518Z"}, {"restaurant_name": "California Kabob Kitchen", "restaurant_phone": "(213) 747-9500", "restaurant_website": "", "hours": "Mon-Sat: 11am-3pm", "price_range": "$$", "price_range_num": 2, "restaurant_id": 34039855118259164, "cuisines": ["Middle Eastern"], "address": {"city": "Los Angeles", "state": "CA", "postal_code": "90015", "street": "141 W 11th St", "formatted": "141 W 11th St Los Angeles, CA 90015"}, "geo": {"lat": 34.039855, "lon": -118.259165}, "menus": [], "last_updated": "2020-12-29T06:50:31.763Z"}], "numResults": 25}