{"totalResults": 54, "page": 1, "total_pages": 3, "more_pages": true, "data": [{"restaurant_name": "Tasty China Bowl", "restaurant_phone": "(323) 296-1658", "restaurant_website": "", "hours": "Daily: 11am-9:30pm", "price_range": "$$", "price_range_num": 2, "restaurant_id": 34010576118335096, "cuisines": ["Chinese"], "address": {"city": "Los Angeles", "state": "CA", "postal_code": "90008", "street": "4134 Crenshaw Blvd", "formatted": "4134 Crenshaw Blvd Los Angeles, CA 90008"}, "geo": {"lat": 34.010576, "lon": -118.335098}, "menus": [], "last_updated": "2020-12-29T06:50:32.783Z"}, {"restaurant_name": "Adassa's Cafe", "restaurant_phone": "(323) 295-7275", "restaurant_website": "http:///ca/los-angeles/722722-adassas-cafe/", "hours": "", "price_range": "", "price_range_num": 0, "restaurant_id": 34005810118331810, "cuisines": [""], "address": {"city": "Los Angeles", "state": "CA", "postal_code": "90008", "street": "4305 Degnan Boulevard", "formatted": "4305 Degnan Boulevard Los Angeles, CA 90008"}, "geo": {"lat": 34.00581, "lon": -118.33181}, "menus": [], "last_updated": "2020-12-29T06:46:07.587Z"}, {"restaurant_name": "Sbarro", "restaurant_phone": "(323) 294-5870", "restaurant_website": "http://www.sbarro.com", "hours": "", "price_range": "", "price_range_num": 0, "restaurant_id": 34011624118336770, "cuisines": ["American", "Pizza"], "address": {"city": "LOS ANGELES", "state": "CA", "postal_code": "90008", "street": "3650 W Martin Luther King Jr Blvd", "formatted": "3650 W Martin Luther King Jr Blvd LOS ANGELES, CA 90008"}, "geo": {"lat": 34.011624, "lon": -118.33677}, "menus": [], "last_updated": "2020-12-29T06:46:08.730Z"}, {"restaurant_name": "The Kickin' Crab", "restaurant_phone": "(877) 585-1085", "restaurant_website": "http:///ca/los-angeles/719627-the-kickin-crab/", "hours": "", "price_range": "", "price_range_num": 0, "restaurant_id": 34009861118339044, "cuisines": [""], "address": {"city": "Los Angeles", "state": "CA", "postal_code": "90008", "street": "3767 Santa Rosalia Drive", "formatted": "3767 Santa Rosalia Drive Los Angeles, CA 90008"}, "geo": {"lat": 34.009861, "lon": -118.339043}, "menus": [], "last_updated": "2020-12-29T06:46:09.425Z"}, {"restaurant_name": "Tak's Coffee Shop", "restaurant_phone": "(323) 295-0195", "restaurant_website": "http:///ca/los-angeles/571930-taks-coffee-shop/", "hours": "", "price_range": "", "price_range_num": 0, "restaurant_id": 34015312118334456, "cuisines": [""], "address": {"city": "Los Angeles", "state": "CA", "postal_code": "90008", "street": "3870 Crenshaw Blvd Ste 101", "formatted": "3870 Crenshaw Blvd Ste 101 Los Angeles, CA 90008"}, "geo": {"lat": 34.015312, "lon": -118.334457}, "menus": [], "last_updated": "2020-12-28T19:25:11.978Z"}, {"restaurant_name": "Krispy Kreme", "restaurant_phone": "(323) 291-4133", "restaurant_website": "http://www.krispykreme.com", "hours": "", "price_range": "", "price_range_num": 0, "restaurant_id": 34011240118334616, "cuisines": ["American", "Bakery & Pastries"], "address": {"city": "Los Angeles", "state": "CA", "postal_code": "90008", "street": "4034 Crenshaw Blvd", "formatted": "4034 Crenshaw Blvd Los Angeles, CA 90008"}, "geo": {"lat": 34.01124, "lon": -118.334618}, "menus": [], "last_updated": "2020-12-29T06:51:36.196Z"}, {"restaurant_name": "Starbucks Coffee", "restaurant_phone": "(323) 293-2742", "restaurant_website": "http://www.starbucks.com", "hours": "", "price_range": "", "price_range_num": 0, "restaurant_id": 34003897118332190, "cuisines": ["American", "Coffee & Tea"], "address": {"city": "LOS ANGELES", "state": "CA", "postal_code": "90008", "street": "4371 Crenshaw Blvd", "formatted": "4371 Crenshaw Blvd LOS ANGELES, CA 90008"}, "geo": {"lat": 34.003897, "lon": -118.332193}, "menus": [], "last_updated": "2020-12-29T06:51:37.107Z"}, {"restaurant_name": "Kim's Restaurant", "restaurant_phone": "(323) 294-6677", "restaurant_website": "", "hours": "Mon-Sat: 11am-9pm Sun: 11am-8pm", "price_range": "$", "price_range_num": 1, "restaurant_id": 34015809118334404, "cuisines": ["Asian Fusion", "Chinese", "Korean"], "address": {"city": "Los Angeles", "state": "CA", "postal_code": "90008", "street": "3860 Crenshaw Blvd", "formatted": "3860 Crenshaw Blvd Los Angeles, CA 90008"}, "geo": {"lat": 34.015809, "lon": -118.334404}, "menus": [], "last_updated": "2020-12-29T06:50:02.781Z"}, {"restaurant_name": "Hot Dog on a Stick", "restaurant_phone": "", "restaurant_website": "http://WWW.HOTDOGONASTICK.COM", "hours": "", "price_range": "", "price_range_num": 0, "restaurant_id": 34010175118336810, "cuisines": ["American"], "address": {"city": "LOS ANGELES", "state": "CA", "postal_code": "90008", "street": "3650 W Martin Luther King Jr Blvd", "formatted": "3650 W Martin Luther King Jr Blvd LOS ANGELES, CA 90008"}, "geo": {"lat": 34.010175, "lon": -118.336809}, "menus": [], "last_updated": "2020-12-29T06:51:30.384Z"}, {"restaurant_name": "McDonald's", "restaurant_phone": "", "restaurant_website": "http://www.mcdonalds.com", "hours": "", "price_range": "", "price_range_num": 0, "restaurant_id": 34005788118334064, "cuisines": ["American", "Burgers"], "address": {"city": "LOS ANGELES", "state": "CA", "postal_code": "90008", "street": "4292 Crenshaw Blvd", "formatted": "4292 Crenshaw Blvd LOS ANGELES, CA 90008"}, "geo": {"lat": 34.005788, "lon": -118.334065}, "menus": [], "last_updated": "2020-12-29T06:51:31.494Z"}, {"restaurant_name": "Taco Bell", "restaurant_phone": "(213) 291-0148", "restaurant_website": "http://www.tacobell.com", "hours": "", "price_range": "", "price_range_num": 0, "restaurant_id": 34011054118338960, "cuisines": ["Mexican"], "address": {"city": "LOS ANGELES", "state": "CA", "postal_code": "90008", "street": "4050 Marlton Ave", "formatted": "4050 Marlton Ave LOS ANGELES, CA 90008"}, "geo": {"lat": 34.011054, "lon": -118.338962}, "menus": [], "last_updated": "2020-12-29T06:51:32.218Z"}, {"restaurant_name": "Jack in the Box", "restaurant_phone": "(323) 293-0034", "restaurant_website": "", "hours": "", "price_range": "", "price_range_num": 0, "restaurant_id": 34008046118335084, "cuisines": ["American", "Burgers"], "address": {"city": "Los Angeles", "state": "CA", "postal_code": "90008", "street": "4210 Crenshaw Blvd", "formatted": "4210 Crenshaw Blvd Los Angeles, CA 90008"}, "geo": {"lat": 34.008046, "lon": -118.335085}, "menus": [], "last_updated": "2020-12-29T06:51:33.652Z"}, {"restaurant_name": "El Pollo Loco", "restaurant_phone": "(323) 295-8122", "restaurant_website": "http://www.elpolloloco.com", "hours": "", "price_range": "", "price_range_num": 0, "restaurant_id": 34003427118331210, "cuisines": ["Chicken", "Mexican"], "address": {"city": "LOS ANGELES", "state": "CA", "postal_code": "90008", "street": "3350 W Vernon Ave", "formatted": "3350 W Vernon Ave LOS ANGELES, CA 90008"}, "geo": {"lat": 34.003427, "lon": -118.331208}, "menus": [], "last_updated": "2020-12-29T06:51:34.916Z"}, {"restaurant_name": "Subway", "restaurant_phone": "(323) 294-3300", "restaurant_website": "http://www.subway.com", "hours": "", "price_range": "", "price_range_num": 0, "restaurant_id": 34005622118333944, "cuisines": ["Sandwiches"], "address": {"city": "LOS ANGELES", "state": "CA", "postal_code": "90008", "street": "4297 Crenshaw Blvd", "formatted": "4297 Crenshaw Blvd LOS ANGELES, CA 90008"}, "geo": {"lat": 34.005622, "lon": -118.333946}, "menus": [], "last_updated": "2020-12-29T06:51:35.249Z"}, {"restaurant_name": "Phillip's Bar-B-Q", "restaurant_phone": "(323) 292-7613", "restaurant_website": "", "hours": "Mon-Wed: 11am-8pm Thu: 11am-10pm Fri-Sat: 11am-11pm", "price_range": "", "price_range_num": 0, "restaurant_id": 34005306118330076, "cuisines": ["Barbecue", "Soul Food"], "address": {"city": "Los Angeles", "state": "CA", "postal_code": "90008", "street": "4307 S Leimert Blvd", "formatted": "4307 S Leimert Blvd Los Angeles, CA 90008"}, "geo": {"lat": 34.005306, "lon": -118.330076}, "menus": [], "last_updated": "2020-12-29T06:50:36.855Z"}, {"restaurant_name": "Baskin-Robbins", "restaurant_phone": "(323) 299-4014", "restaurant_website": "https://www.baskinrobbins.com?utm_source=Yext&utm_medium=organic&utm_campaign=Yext", "hours": "", "price_range": "", "price_range_num": 0, "restaurant_id": 34008400118336200, "cuisines": ["American", "Ice Cream"], "address": {"city": "Los Angeles", "state": "CA", "postal_code": "90008", "street": "4066 S Victoria Ave", "formatted": "4066 S Victoria Ave Los Angeles, CA 90008"}, "geo": {"lat": 34.0084, "lon": -118.3362}, "menus": [], "last_updated": "2020-12-29T06:50:38.454Z"}, {"restaurant_name": "Harun Coffee", "restaurant_phone": "(323) 815-9944", "restaurant_website": "http:///ca/los-angeles/621281-harun-coffee/", "hours": "", "price_range": "", "price_range_num": 0, "restaurant_id": 34004871118331308, "cuisines": [""], "address": {"city": "Los Angeles", "state": "CA", "postal_code": "90008", "street": "4336 Degnan Blvd", "formatted": "4336 Degnan Blvd Los Angeles, CA 90008"}, "geo": {"lat": 34.004871, "lon": -118.331307}, "menus": [], "last_updated": "2020-12-29T06:46:54.275Z"}, {"restaurant_name": "Melissa's Catering", "restaurant_phone": "(323) 421-6185", "restaurant_website": "http:///ca/los-angeles/719424-melissas-catering/", "hours": "", "price_range": "", "price_range_num": 0, "restaurant_id": 34007160118334724, "cuisines": [""], "address": {"city": "Los Angeles", "state": "CA", "postal_code": "90008", "street": "4236 Crenshaw Boulevard", "formatted": "4236 Crenshaw Boulevard Los Angeles, CA 90008"}, "geo": {"lat": 34.00716, "lon": -118.334724}, "menus": [], "last_updated": "2020-12-29T06:46:10.291Z"}, {"restaurant_name": "Hot and Cool Cafe", "restaurant_phone": "(323) 903-6449", "restaurant_website": "http:///ca/los-angeles/719274-hot-and-cool-cafe/", "hours": "", "price_range": "", "price_range_num": 0, "restaurant_id": 34005096118331656, "cuisines": [""], "address": {"city": "Los Angeles", "state": "CA", "postal_code": "90008", "street": "4331 Degnan Boulevard", "formatted": "4331 Degnan Boulevard Los Angeles, CA 90008"}, "geo": {"lat": 34.005096, "lon": -118.331657}, "menus": [], "last_updated": "2020-12-29T06:46:10.930Z"}, {"restaurant_name": "L.A Style Pizza", "restaurant_phone": "(323) 743-0011", "restaurant_website": "http:///ca/los-angeles/622506-la-style-pizza/", "hours": "", "price_range": "", "price_range_num": 0, "restaurant_id": 34011002118319596, "cuisines": [""], "address": {"city": "Los Angeles", "state": "CA", "postal_code": "90008", "street": "2401 W Martin Luther King Jr Blvd", "formatted": "2401 W Martin Luther King Jr Blvd Los Angeles, CA 90008"}, "geo": {"lat": 34.011002, "lon": -118.319595}, "menus": [], "last_updated": "2020-12-29T06:46:54.259Z"}, {"restaurant_name": "Fisherman's Island", "restaurant_phone": "(323) 596-3127", "restaurant_website": "http:///ca/los-angeles/628989-fishermans-island/", "hours": "", "price_range": "", "price_range_num": 0, "restaurant_id": 34003792118332544, "cuisines": [""], "address": {"city": "Los Angeles", "state": "CA", "postal_code": "90008", "street": "4371 Crenshaw Blvd", "formatted": "4371 Crenshaw Blvd Los Angeles, CA 90008"}, "geo": {"lat": 34.003792, "lon": -118.332542}, "menus": [], "last_updated": "2020-12-29T06:46:34.769Z"}, {"restaurant_name": "Orleans & York Deli", "restaurant_phone": "(323) 903-6650", "restaurant_website": "http:///ca/los-angeles/592401-orleans-york-deli/", "hours": "", "price_range": "", "price_range_num": 0, "restaurant_id": 34015236118334670, "cuisines": [""], "address": {"city": "Los Angeles", "state": "CA", "postal_code": "90008", "street": "3868 Crenshaw Blvd", "formatted": "3868 Crenshaw Blvd Los Angeles, CA 90008"}, "geo": {"lat": 34.015236, "lon": -118.334671}, "menus": [], "last_updated": "2020-12-29T06:46:56.735Z"}, {"restaurant_name": "Surf City Squeeze", "restaurant_phone": "(877) 585-1085", "restaurant_website": "http:///ca/los-angeles/997296-surf-city-squeeze/", "hours": "", "price_range": "", "price_range_num": 0, "restaurant_id": 34011009118336470, "cuisines": [""], "address": {"city": "Los Angeles", "state": "CA", "postal_code": "90008", "street": "3650 West Martin Luther King Junior Boulevard", "formatted": "3650 West Martin Luther King Junior Boulevard Los Angeles, CA 90008"}, "geo": {"lat": 34.011009, "lon": -118.336472}, "menus": [], "last_updated": "2021-01-05T08:01:28.011Z"}, {"restaurant_name": "Wingstop", "restaurant_phone": "(323) 296-9464", "restaurant_website": "http://order.wingstop.com/menu/wingstop-279-LOS-ANGELES-CA-90008", "hours": "", "price_range": "", "price_range_num": 0, "restaurant_id": 34016834118335344, "cuisines": ["Chicken", "Wings"], "address": {"city": "Los Angeles", "state": "CA", "postal_code": "90008", "street": "3825 Crenshaw Blvd", "formatted": "3825 Crenshaw Blvd Los Angeles, CA 90008"}, "geo": {"lat": 34.016834, "lon": -118.335346}, "menus": [], "last_updated": "2021-01-05T08:01:28.300Z"}, {"restaurant_name": "Chipotle", "restaurant_phone": "(323) 347-2108", "restaurant_website": "http:///ca/los-angeles/836780-chipotle/", "hours": "", "price_range": "", "price_range_num": 0, "restaurant_id": 34013630118337020, "cuisines": [""], "address": {"city": "Los Angeles", "state": "CA", "postal_code": "90008", "street": "3939 Crenshaw Blvd", "formatted": "3939 Crenshaw Blvd Los Angeles, CA 90008"}, "geo": {"lat": 34.01363, "lon": -118.337021}, "menus": [], "last_updated": "2021-01-05T08:01:30.548Z"}], "numResults": 25}