{"totalResults": 432, "page": 1, "total_pages": 18, "more_pages": true, "data": [{"restaurant_name": "Miceli's Italian", "restaurant_phone": "(323) 466-3438", "restaurant_website": "", "hours": "Daily: 11:30am-12am", "price_range": "$$$$", "price_range_num": 4, "restaurant_id": 34101269118336068, "cuisines": ["Italian", "Pizza"], "address": {"city": "Los Angeles", "state": "CA", "postal_code": "90028", "street": "1646 N Las Palmas Ave", "formatted": "1646 N Las Palmas Ave Los Angeles, CA 90028"}, "geo": {"lat": 34.101269, "lon": -118.336067}, "menus": [], "last_updated": "2020-12-29T06:50:32.665Z"}, {"restaurant_name": "Raffallo's Pizzeria", "restaurant_phone": "(323) 851-4022", "restaurant_website": "", "hours": "Sun-Fri: 11:30am-11pm Sat: 11:30am-12am", "price_range": "$$", "price_range_num": 2, "restaurant_id": 34101228118345096, "cuisines": ["Pizza"], "address": {"city": "Los Angeles", "state": "CA", "postal_code": "90028", "street": "1657 N La Brea Ave", "formatted": "1657 N La Brea Ave Los Angeles, CA 90028"}, "geo": {"lat": 34.101228, "lon": -118.345098}, "menus": [], "last_updated": "2020-12-29T06:50:34.862Z"}, {"restaurant_name": "Ponchik Factory", "restaurant_phone": "(323) 467-3840", "restaurant_website": "", "hours": "Mon-Thu: 7:30am-4:30pm Fri: 7:30am-4pm", "price_range": "$$", "price_range_num": 2, "restaurant_id": 34098192118333330, "cuisines": ["American"], "address": {"city": "Los Angeles", "state": "CA", "postal_code": "90028", "street": "6601 W Sunset Blvd", "formatted": "6601 W Sunset Blvd Los Angeles, CA 90028"}, "geo": {"lat": 34.098192, "lon": -118.333326}, "menus": [], "last_updated": "2020-12-29T06:50:34.886Z"}, {"restaurant_name": "Le Mandarette", "restaurant_phone": "(323) 878-0333", "restaurant_website": "", "hours": "Mon-Fri: 11am-10pm Sat-Sun: 12pm-10pm", "price_range": "$$", "price_range_num": 2, "restaurant_id": 34101165118345076, "cuisines": ["Chinese"], "address": {"city": "Los Angeles", "state": "CA", "postal_code": "90028", "street": "1651 3/4 N La Brea Ave", "formatted": "1651 3/4 N La Brea Ave Los Angeles, CA 90028"}, "geo": {"lat": 34.101165, "lon": -118.345077}, "menus": [], "last_updated": "2020-12-29T06:50:35.015Z"}, {"restaurant_name": "Hong Kong Express", "restaurant_phone": "(323) 871-8888", "restaurant_website": "", "hours": "Daily: 10am-8pm", "price_range": "$$", "price_range_num": 2, "restaurant_id": 34098005118338190, "cuisines": ["Chinese"], "address": {"city": "Los Angeles", "state": "CA", "postal_code": "90028", "street": "6767 W Sunset Blvd", "formatted": "6767 W Sunset Blvd Los Angeles, CA 90028"}, "geo": {"lat": 34.098005, "lon": -118.338191}, "menus": [], "last_updated": "2020-12-29T06:50:33.646Z"}, {"restaurant_name": "Caffe Primo", "restaurant_phone": "(323) 467-7630", "restaurant_website": "", "hours": "", "price_range": "", "price_range_num": 0, "restaurant_id": 34097824118328440, "cuisines": [""], "address": {"city": "W Hollywood", "state": "CA", "postal_code": "90028", "street": "6374 W Sunset Blvd", "formatted": "6374 W Sunset Blvd W Hollywood, CA 90028"}, "geo": {"lat": 34.097824, "lon": -118.328441}, "menus": [], "last_updated": "2021-01-05T07:26:44.942Z"}, {"restaurant_name": "WEHO Thai Noodle & Rice", "restaurant_phone": "(323) 464-2989", "restaurant_website": "", "hours": "Daily: 11am-10:30pm", "price_range": "$$", "price_range_num": 2, "restaurant_id": 34097964118343550, "cuisines": ["Thai"], "address": {"city": "West Hollywood", "state": "CA", "postal_code": "90028", "street": "7075 W Sunset Blvd", "formatted": "7075 W Sunset Blvd West Hollywood, CA 90028"}, "geo": {"lat": 34.097964, "lon": -118.343553}, "menus": [], "last_updated": "2021-01-05T07:26:14.399Z"}, {"restaurant_name": "Thai Foon", "restaurant_phone": "(323) 464-2989", "restaurant_website": "", "hours": "Sun-Thu: 11am-10:30pm Fri-Sat: 11am-11pm", "price_range": "$$", "price_range_num": 2, "restaurant_id": 34097977118343690, "cuisines": ["Asian", "Lunch Specials", "Thai"], "address": {"city": "West Hollywood", "state": "CA", "postal_code": "90028", "street": "7075 W Sunset Blvd", "formatted": "7075 W Sunset Blvd West Hollywood, CA 90028"}, "geo": {"lat": 34.097977, "lon": -118.343686}, "menus": [], "last_updated": "2021-01-05T07:26:14.472Z"}, {"restaurant_name": "Vivoli Cafe", "restaurant_phone": "(323) 656-5050", "restaurant_website": "http://www.vivolicafe.com", "hours": "Mon: 10am-12am Tue-Fri: 10am-3:30am Sat-Sun: 9am-3:30am", "price_range": "$", "price_range_num": 1, "restaurant_id": 34097992118364416, "cuisines": ["Italian"], "address": {"city": "West Hollywood", "state": "CA", "postal_code": "90028", "street": "7994 Sunset Blvd", "formatted": "7994 Sunset Blvd West Hollywood, CA 90028"}, "geo": {"lat": 34.097992, "lon": -118.364417}, "menus": [], "last_updated": "2021-01-05T07:26:15.963Z"}, {"restaurant_name": "Gelato-go Hollywood", "restaurant_phone": "(323) 463-1200", "restaurant_website": "http:///ca/los-angeles/762299-gelato-go-hollywood/", "hours": "", "price_range": "", "price_range_num": 0, "restaurant_id": 34101864118312624, "cuisines": [""], "address": {"city": "Los Angeles", "state": "CA", "postal_code": "90028", "street": "5633 Hollywood Blvd", "formatted": "5633 Hollywood Blvd Los Angeles, CA 90028"}, "geo": {"lat": 34.101864, "lon": -118.312622}, "menus": [], "last_updated": "2020-12-29T06:46:06.261Z"}, {"restaurant_name": "Wetzel's Pretzels", "restaurant_phone": "(323) 464-1999", "restaurant_website": "http:///ca/los-angeles/779912-wetzels-pretzels/", "hours": "", "price_range": "", "price_range_num": 0, "restaurant_id": 34101051118340950, "cuisines": [""], "address": {"city": "Los Angeles", "state": "CA", "postal_code": "90028", "street": "6922 Hollywood Boulevard", "formatted": "6922 Hollywood Boulevard Los Angeles, CA 90028"}, "geo": {"lat": 34.101051, "lon": -118.34095}, "menus": [], "last_updated": "2020-12-28T19:27:17.354Z"}, {"restaurant_name": "Maxim Chinese Food", "restaurant_phone": "(323) 469-9982", "restaurant_website": "http:///ca/los-angeles/567757-maxim-chinese-food/", "hours": "", "price_range": "", "price_range_num": 0, "restaurant_id": 34101849118322184, "cuisines": [""], "address": {"city": "Los Angeles", "state": "CA", "postal_code": "90028", "street": "6051 Hollywood Blvd", "formatted": "6051 Hollywood Blvd Los Angeles, CA 90028"}, "geo": {"lat": 34.101849, "lon": -118.322182}, "menus": [], "last_updated": "2020-12-28T19:25:11.430Z"}, {"restaurant_name": "OG Wingz", "restaurant_phone": "(323) 498-5576", "restaurant_website": "http:///ca/los-angeles/567758-og-wingz/", "hours": "", "price_range": "", "price_range_num": 0, "restaurant_id": 34101337118327980, "cuisines": [""], "address": {"city": "Los Angeles", "state": "CA", "postal_code": "90028", "street": "6340 Hollywood Blvd", "formatted": "6340 Hollywood Blvd Los Angeles, CA 90028"}, "geo": {"lat": 34.101337, "lon": -118.32798}, "menus": [], "last_updated": "2020-12-28T19:25:11.466Z"}, {"restaurant_name": "The Pie Hole", "restaurant_phone": "(323) 963-5174", "restaurant_website": "http:///ca/los-angeles/576375-the-pie-hole/", "hours": "", "price_range": "", "price_range_num": 0, "restaurant_id": 34101490118327130, "cuisines": [""], "address": {"city": "Los Angeles", "state": "CA", "postal_code": "90028", "street": "6314 Hollywood Blvd", "formatted": "6314 Hollywood Blvd Los Angeles, CA 90028"}, "geo": {"lat": 34.10149, "lon": -118.327126}, "menus": [], "last_updated": "2020-12-28T19:25:12.757Z"}, {"restaurant_name": "Kai Ramen At Josephs Cafe", "restaurant_phone": "(323) 462-4165", "restaurant_website": "http:///ca/los-angeles/573505-kai-ramen-at-josephs-cafe/", "hours": "", "price_range": "", "price_range_num": 0, "restaurant_id": 34103722118328416, "cuisines": [""], "address": {"city": "Los Angeles", "state": "CA", "postal_code": "90028", "street": "1777 Ivar Ave", "formatted": "1777 Ivar Ave Los Angeles, CA 90028"}, "geo": {"lat": 34.103722, "lon": -118.328415}, "menus": [], "last_updated": "2020-12-28T19:25:12.196Z"}, {"restaurant_name": "Banh Oui", "restaurant_phone": "(323) 645-7944", "restaurant_website": "http:///ca/los-angeles/574710-banh-oui/", "hours": "", "price_range": "", "price_range_num": 0, "restaurant_id": 34099472118329210, "cuisines": [""], "address": {"city": "Los Angeles", "state": "CA", "postal_code": "90028", "street": "1552 N Cahuenga Blvd", "formatted": "1552 N Cahuenga Blvd Los Angeles, CA 90028"}, "geo": {"lat": 34.099472, "lon": -118.329208}, "menus": [], "last_updated": "2020-12-28T19:25:12.503Z"}, {"restaurant_name": "St. Felix Hollywood", "restaurant_phone": "(323) 469-5001", "restaurant_website": "http:///ca/los-angeles/579110-st-felix-hollywood/", "hours": "", "price_range": "", "price_range_num": 0, "restaurant_id": 34100010118329336, "cuisines": [""], "address": {"city": "Los Angeles", "state": "CA", "postal_code": "90028", "street": "1602 N Cahuenga Blvd", "formatted": "1602 N Cahuenga Blvd Los Angeles, CA 90028"}, "geo": {"lat": 34.10001, "lon": -118.329338}, "menus": [], "last_updated": "2020-12-28T19:25:13.189Z"}, {"restaurant_name": "Tao Hollywood", "restaurant_phone": "(323) 593-7888", "restaurant_website": "http:///ca/los-angeles/587205-tao-hollywood/", "hours": "", "price_range": "", "price_range_num": 0, "restaurant_id": 34100136118330410, "cuisines": [""], "address": {"city": "Los Angeles", "state": "CA", "postal_code": "90028", "street": "6421 Selma Ave", "formatted": "6421 Selma Ave Los Angeles, CA 90028"}, "geo": {"lat": 34.100136, "lon": -118.330406}, "menus": [], "last_updated": "2020-12-28T19:25:14.215Z"}, {"restaurant_name": "Chez Salim Chicken & Rice", "restaurant_phone": "(925) 350-2006", "restaurant_website": "http:///ca/los-angeles/588000-chez-salim-chicken-rice/", "hours": "", "price_range": "", "price_range_num": 0, "restaurant_id": 34100380118326056, "cuisines": [""], "address": {"city": "Los Angeles", "state": "CA", "postal_code": "90028", "street": "1600 Vine St", "formatted": "1600 Vine St Los Angeles, CA 90028"}, "geo": {"lat": 34.10038, "lon": -118.326057}, "menus": [], "last_updated": "2020-12-28T19:25:14.222Z"}, {"restaurant_name": "Lucky's Tavern", "restaurant_phone": "(323) 465-8259", "restaurant_website": "", "hours": "Sun-Thu: 11:30am-10pm Fri-Sat: 11:30am-11pm ", "price_range": "$$", "price_range_num": 2, "restaurant_id": 34101595118333910, "cuisines": ["American", "Bar Food", "Pizza"], "address": {"city": "Los Angeles", "state": "CA", "postal_code": "90028", "street": "6613 Hollywood Blvd", "formatted": "6613 Hollywood Blvd Los Angeles, CA 90028"}, "geo": {"lat": 34.101595, "lon": -118.333911}, "menus": [], "last_updated": "2020-12-29T06:50:09.087Z"}, {"restaurant_name": "Volcano Wok", "restaurant_phone": "(323) 468-9196", "restaurant_website": "", "hours": "Daily: 11am-10pm", "price_range": "$$", "price_range_num": 2, "restaurant_id": 34097662118343110, "cuisines": ["Chinese", "Sushi"], "address": {"city": "Los Angeles", "state": "CA", "postal_code": "90028", "street": "7040 W Sunset Blvd", "formatted": "7040 W Sunset Blvd Los Angeles, CA 90028"}, "geo": {"lat": 34.097662, "lon": -118.343112}, "menus": [], "last_updated": "2020-12-29T06:50:09.225Z"}, {"restaurant_name": "It's Pho Viet & Thai", "restaurant_phone": "(323) 380-7998", "restaurant_website": "", "hours": "Mon-Sat: 11am-1:30am Sun: 11am-12am", "price_range": "$$", "price_range_num": 2, "restaurant_id": 34104442118330116, "cuisines": ["Noodles", "Vietnamese"], "address": {"city": "Los Angeles", "state": "CA", "postal_code": "90028", "street": "1821 N Cahuenga St", "formatted": "1821 N Cahuenga St Los Angeles, CA 90028"}, "geo": {"lat": 34.104442, "lon": -118.330117}, "menus": [], "last_updated": "2020-12-29T06:50:09.293Z"}, {"restaurant_name": "Calle Tacos", "restaurant_phone": "(323) 465-9100", "restaurant_website": "", "hours": "Mon, Thu-Sat: 11am-4am Tue-Wed, Sun: 11am-2am ", "price_range": "$", "price_range_num": 1, "restaurant_id": 34101341118331450, "cuisines": ["Mexican"], "address": {"city": "Los Angeles", "state": "CA", "postal_code": "90028", "street": "6508 Hollywood Blvd", "formatted": "6508 Hollywood Blvd Los Angeles, CA 90028"}, "geo": {"lat": 34.101341, "lon": -118.33145}, "menus": [], "last_updated": "2020-12-29T06:50:09.429Z"}, {"restaurant_name": "Pizza Al Forno", "restaurant_phone": "(323) 962-8008", "restaurant_website": "", "hours": "Mon-Thu: 11am-12am Fri-Sat: 11am-3am Sun: 11am-11pm", "price_range": "$$$$$", "price_range_num": 5, "restaurant_id": 34101795118332390, "cuisines": ["Italian", "Pizza"], "address": {"city": "Los Angeles", "state": "CA", "postal_code": "90028", "street": "6541 Hollywood Blvd", "formatted": "6541 Hollywood Blvd Los Angeles, CA 90028"}, "geo": {"lat": 34.101795, "lon": -118.332393}, "menus": [], "last_updated": "2020-12-29T06:50:29.814Z"}, {"restaurant_name": "El Greco Cafe (Sunset Blvd)", "restaurant_phone": "(323) 662-3431", "restaurant_website": "", "hours": "", "price_range": "$$", "price_range_num": 2, "restaurant_id": 34098097118338450, "cuisines": ["Burgers", "Desserts", "Greek", "Healthy", "Low Carb", "Low Fat", "Lunch Specials", "Pasta", "Pizza", "Salads", "Soups"], "address": {"city": "Los Angeles", "state": "CA", "postal_code": "90028", "street": "6767 W Sunset Blvd", "formatted": "6767 W Sunset Blvd Los Angeles, CA 90028"}, "geo": {"lat": 34.098097, "lon": -118.33845}, "menus": [], "last_updated": "2020-12-29T06:50:29.825Z"}], "numResults": 25}