{"totalResults": 122, "page": 1, "total_pages": 5, "more_pages": true, "data": [{"restaurant_name": "Mama Lion", "restaurant_phone": "(877) 585-1085", "restaurant_website": "http:///ca/los-angeles/756512-mama-lion/", "hours": "", "price_range": "", "price_range_num": 0, "restaurant_id": 34063362118309340, "cuisines": [""], "address": {"city": "Los Angeles", "state": "CA", "postal_code": "90010", "street": "601 South Western Avenue", "formatted": "601 South Western Avenue Los Angeles, CA 90010"}, "geo": {"lat": 34.063362, "lon": -118.309341}, "menus": [], "last_updated": "2020-12-29T06:46:06.469Z"}, {"restaurant_name": "Subway", "restaurant_phone": "(213) 388-4300", "restaurant_website": "https://restaurants.subway.com/united-states/ca/los-angeles/3183-wilshire-blvd?utm_source=yext-other&utm_medium=local&utm_term=acq&utm_content=52104&utm_campaign=evergreen-2020&y_source=1_MTQ5MDExMjUt", "hours": "", "price_range": "", "price_range_num": 0, "restaurant_id": 34062100118290800, "cuisines": [""], "address": {"city": "Los Angeles", "state": "CA", "postal_code": "90010", "street": "3183 Wilshire Blvd", "formatted": "3183 Wilshire Blvd Los Angeles, CA 90010"}, "geo": {"lat": 34.0621, "lon": -118.2908}, "menus": [], "last_updated": "2020-12-29T06:46:07.160Z"}, {"restaurant_name": "Star Night", "restaurant_phone": "(213) 251-0099", "restaurant_website": "http:///ca/los-angeles/722693-star-night/", "hours": "", "price_range": "", "price_range_num": 0, "restaurant_id": 34061935118310836, "cuisines": [""], "address": {"city": "Los Angeles", "state": "CA", "postal_code": "90010", "street": "3855 Wilshire Boulevard", "formatted": "3855 Wilshire Boulevard Los Angeles, CA 90010"}, "geo": {"lat": 34.061935, "lon": -118.310837}, "menus": [], "last_updated": "2020-12-29T06:46:07.720Z"}, {"restaurant_name": "Cafe Ace", "restaurant_phone": "(213) 383-8410", "restaurant_website": "http:///ca/los-angeles/722689-cafe-ace/", "hours": "", "price_range": "", "price_range_num": 0, "restaurant_id": 34062252118293130, "cuisines": [""], "address": {"city": "Los Angeles", "state": "CA", "postal_code": "90010", "street": "3255 Wilshire Boulevard", "formatted": "3255 Wilshire Boulevard Los Angeles, CA 90010"}, "geo": {"lat": 34.062252, "lon": -118.293129}, "menus": [], "last_updated": "2020-12-29T06:46:07.747Z"}, {"restaurant_name": "Mocha City", "restaurant_phone": "(323) 939-6425", "restaurant_website": "http:///ca/los-angeles/722637-mocha-city/", "hours": "", "price_range": "", "price_range_num": 0, "restaurant_id": 34062244118320856, "cuisines": [""], "address": {"city": "Los Angeles", "state": "CA", "postal_code": "90010", "street": "4221 Wilshire Boulevard", "formatted": "4221 Wilshire Boulevard Los Angeles, CA 90010"}, "geo": {"lat": 34.062244, "lon": -118.320854}, "menus": [], "last_updated": "2020-12-29T06:46:08.068Z"}, {"restaurant_name": "Choiganei Restaurant", "restaurant_phone": "(213) 382-8988", "restaurant_website": "http:///ca/los-angeles/722564-choiganei-restaurant/", "hours": "", "price_range": "", "price_range_num": 0, "restaurant_id": 34061466118311812, "cuisines": [""], "address": {"city": "Los Angeles", "state": "CA", "postal_code": "90010", "street": "3914 Wilshire Boulevard", "formatted": "3914 Wilshire Boulevard Los Angeles, CA 90010"}, "geo": {"lat": 34.061466, "lon": -118.311813}, "menus": [], "last_updated": "2020-12-29T06:46:08.199Z"}, {"restaurant_name": "DwitGolMok", "restaurant_phone": "(213) 382-8432", "restaurant_website": "http:///ca/los-angeles/722483-dwitgolmok/", "hours": "", "price_range": "", "price_range_num": 0, "restaurant_id": 34061974118293616, "cuisines": [""], "address": {"city": "Los Angeles", "state": "CA", "postal_code": "90010", "street": "3275 Wilshire Boulevard", "formatted": "3275 Wilshire Boulevard Los Angeles, CA 90010"}, "geo": {"lat": 34.061974, "lon": -118.293617}, "menus": [], "last_updated": "2020-12-29T06:46:08.569Z"}, {"restaurant_name": "Bistro On The Boulevard", "restaurant_phone": "(213) 380-9707", "restaurant_website": "http:///ca/los-angeles/573456-bistro-on-the-boulevard/", "hours": "", "price_range": "", "price_range_num": 0, "restaurant_id": 34061745118299628, "cuisines": [""], "address": {"city": "Los Angeles", "state": "CA", "postal_code": "90010", "street": "3424 Wilshire Blvd", "formatted": "3424 Wilshire Blvd Los Angeles, CA 90010"}, "geo": {"lat": 34.061745, "lon": -118.299629}, "menus": [], "last_updated": "2020-12-28T19:25:12.217Z"}, {"restaurant_name": "The K-Town Kitchen", "restaurant_phone": "(213) 384-5464", "restaurant_website": "http:///ca/los-angeles/573648-the-k-town-kitchen/", "hours": "", "price_range": "", "price_range_num": 0, "restaurant_id": 34062016118309364, "cuisines": [""], "address": {"city": "Los Angeles", "state": "CA", "postal_code": "90010", "street": "3807 Wilshire Blvd Ste 120", "formatted": "3807 Wilshire Blvd Ste 120 Los Angeles, CA 90010"}, "geo": {"lat": 34.062016, "lon": -118.309364}, "menus": [], "last_updated": "2020-12-28T19:25:12.252Z"}, {"restaurant_name": "JJ2 Bakery", "restaurant_phone": "(213) 351-0088", "restaurant_website": "http:///ca/los-angeles/576205-jj2-bakery/", "hours": "", "price_range": "", "price_range_num": 0, "restaurant_id": 34062389118290880, "cuisines": [""], "address": {"city": "Los Angeles", "state": "CA", "postal_code": "90010", "street": "3183 Wilshire Blvd Ste 185", "formatted": "3183 Wilshire Blvd Ste 185 Los Angeles, CA 90010"}, "geo": {"lat": 34.062389, "lon": -118.290878}, "menus": [], "last_updated": "2020-12-28T19:25:12.952Z"}, {"restaurant_name": "Wasabi Japanese Noodle House", "restaurant_phone": "(213) 341-0999", "restaurant_website": "", "hours": "Daily: 10am-10pm", "price_range": "$", "price_range_num": 1, "restaurant_id": 34061428118299376, "cuisines": ["Japanese", "Noodles"], "address": {"city": "Los Angeles", "state": "CA", "postal_code": "90010", "street": "3444 Wilshire Blvd", "formatted": "3444 Wilshire Blvd Los Angeles, CA 90010"}, "geo": {"lat": 34.061428, "lon": -118.299375}, "menus": [], "last_updated": "2020-12-29T06:50:30.798Z"}, {"restaurant_name": "Samurai Sam's", "restaurant_phone": "(213) 385-3100", "restaurant_website": "", "hours": "", "price_range": "$", "price_range_num": 1, "restaurant_id": 34061957118290910, "cuisines": ["Asian", "Japanese"], "address": {"city": "Los Angeles", "state": "CA", "postal_code": "90010", "street": "3183 Wilshire Blvd", "formatted": "3183 Wilshire Blvd Los Angeles, CA 90010"}, "geo": {"lat": 34.061957, "lon": -118.290911}, "menus": [], "last_updated": "2020-12-29T06:50:33.476Z"}, {"restaurant_name": "Starbucks Coffee", "restaurant_phone": "(213) 383-5370", "restaurant_website": "http://www.starbucks.com", "hours": "", "price_range": "", "price_range_num": 0, "restaurant_id": 34060730118306144, "cuisines": ["American", "Coffee & Tea"], "address": {"city": "LOS ANGELES", "state": "CA", "postal_code": "90010", "street": "3680 Wilshire Blvd", "formatted": "3680 Wilshire Blvd LOS ANGELES, CA 90010"}, "geo": {"lat": 34.06073, "lon": -118.306143}, "menus": [], "last_updated": "2020-12-29T06:51:36.258Z"}, {"restaurant_name": "Young Dong", "restaurant_phone": "(213) 386-3729", "restaurant_website": "", "hours": "Daily: 7am-11:30pm", "price_range": "$$", "price_range_num": 2, "restaurant_id": 34061536118310180, "cuisines": ["Korean"], "address": {"city": "Los Angeles", "state": "CA", "postal_code": "90010", "street": "3828 Wilshire Blvd", "formatted": "3828 Wilshire Blvd Los Angeles, CA 90010"}, "geo": {"lat": 34.061536, "lon": -118.31018}, "menus": [], "last_updated": "2020-12-29T06:49:38.609Z"}, {"restaurant_name": "Opus Restaurant", "restaurant_phone": "(213) 738-1600", "restaurant_website": "http://www.opusrestaurant.net/", "hours": "Dinner Mon-Sat: 6pm-10:30pm Lounge Mon-Sat: 5pm-11:30pm", "price_range": "", "price_range_num": 0, "restaurant_id": 34061695118308204, "cuisines": ["American", "Californian", "Seafood"], "address": {"city": "LOS ANGELES", "state": "CA", "postal_code": "90010", "street": "3760 Wilshire Blvd", "formatted": "3760 Wilshire Blvd LOS ANGELES, CA 90010"}, "geo": {"lat": 34.061695, "lon": -118.308204}, "menus": [], "last_updated": "2020-12-29T06:51:30.668Z"}, {"restaurant_name": "McDonald's", "restaurant_phone": "", "restaurant_website": "http://www.mcdonalds.com", "hours": "", "price_range": "", "price_range_num": 0, "restaurant_id": 34061762118299068, "cuisines": ["American", "Burgers"], "address": {"city": "LOS ANGELES", "state": "CA", "postal_code": "90010", "street": "3454 Wilshire Blvd", "formatted": "3454 Wilshire Blvd LOS ANGELES, CA 90010"}, "geo": {"lat": 34.061762, "lon": -118.299069}, "menus": [], "last_updated": "2020-12-29T06:51:31.594Z"}, {"restaurant_name": "Numero Uno Pizza", "restaurant_phone": "(213) 386-6884", "restaurant_website": "", "hours": "", "price_range": "$$$", "price_range_num": 3, "restaurant_id": 34061622118298440, "cuisines": ["Pizza"], "address": {"city": "Los Angeles", "state": "CA", "postal_code": "90010", "street": "3432 Wilshire Blvd", "formatted": "3432 Wilshire Blvd Los Angeles, CA 90010"}, "geo": {"lat": 34.061622, "lon": -118.298441}, "menus": [], "last_updated": "2020-12-29T06:51:33.083Z"}, {"restaurant_name": "Togo's Sandwiches", "restaurant_phone": "(213) 383-2711", "restaurant_website": "http://order.togos.com/Menu.aspx?StoreNum=332112", "hours": "Daily: 9:30am-8pm", "price_range": "", "price_range_num": 0, "restaurant_id": 34061729118299796, "cuisines": ["Sandwiches"], "address": {"city": "Los Angeles", "state": "CA", "postal_code": "90010", "street": "3462 Wilshire Blvd", "formatted": "3462 Wilshire Blvd Los Angeles, CA 90010"}, "geo": {"lat": 34.061729, "lon": -118.299795}, "menus": [], "last_updated": "2020-12-29T06:51:35.033Z"}, {"restaurant_name": "Quiznos Sub", "restaurant_phone": "(213) 388-8825", "restaurant_website": "http://www.quiznos.com/", "hours": "", "price_range": "", "price_range_num": 0, "restaurant_id": 34062337118297516, "cuisines": ["American", "Sandwiches", "Wraps"], "address": {"city": "LOS ANGELES", "state": "CA", "postal_code": "90010", "street": "3377 Wilshire Blvd", "formatted": "3377 Wilshire Blvd LOS ANGELES, CA 90010"}, "geo": {"lat": 34.062337, "lon": -118.297515}, "menus": [], "last_updated": "2020-12-29T06:51:35.781Z"}, {"restaurant_name": "La Defence", "restaurant_phone": "(213) 384-9500", "restaurant_website": "http://LaDefencerestaurant.com", "hours": "Daily: 5pm-2am", "price_range": "", "price_range_num": 0, "restaurant_id": 34062435118306900, "cuisines": ["Asian Fusion", "Japanese", "Korean"], "address": {"city": "Los Angeles", "state": "CA", "postal_code": "90010", "street": "3701 Wilshire Blvd", "formatted": "3701 Wilshire Blvd Los Angeles, CA 90010"}, "geo": {"lat": 34.062435, "lon": -118.306901}, "menus": [], "last_updated": "2020-12-29T06:50:37.744Z"}, {"restaurant_name": "SoNaMu Korean BBQ Grill House", "restaurant_phone": "(213) 380-3600", "restaurant_website": "http://www.sonamukoreanbbqhouse.com", "hours": "Lunch: Mon-Sun 11:00am - 5:00pm Dinner: Mon-Sat 5:00pm - 11:00pm, Sun 5:00pm-10:00pm", "price_range": "", "price_range_num": 0, "restaurant_id": 34060664118303630, "cuisines": ["Korean"], "address": {"city": "LOS ANGELES", "state": "CA", "postal_code": "90010", "street": "3600 Wilshire Blvd", "formatted": "3600 Wilshire Blvd LOS ANGELES, CA 90010"}, "geo": {"lat": 34.060664, "lon": -118.303633}, "menus": [], "last_updated": "2020-12-29T06:50:37.861Z"}, {"restaurant_name": "Holy Roly Ice Cream", "restaurant_phone": "(323) 739-8828", "restaurant_website": "http:///ca/los-angeles/651015-holy-roly-ice-cream/", "hours": "", "price_range": "", "price_range_num": 0, "restaurant_id": 34063194118297196, "cuisines": [""], "address": {"city": "Los Angeles", "state": "CA", "postal_code": "90010", "street": "3450 W 6th St", "formatted": "3450 W 6th St Los Angeles, CA 90010"}, "geo": {"lat": 34.063194, "lon": -118.297197}, "menus": [], "last_updated": "2020-12-29T06:46:33.639Z"}, {"restaurant_name": "Starbucks", "restaurant_phone": "(213) 382-3351", "restaurant_website": "http:///ca/los-angeles/719433-starbucks/", "hours": "", "price_range": "", "price_range_num": 0, "restaurant_id": 34061451118299624, "cuisines": [""], "address": {"city": "Los Angeles", "state": "CA", "postal_code": "90010", "street": "3450 Wilshire Boulevard", "formatted": "3450 Wilshire Boulevard Los Angeles, CA 90010"}, "geo": {"lat": 34.061451, "lon": -118.299622}, "menus": [], "last_updated": "2020-12-29T06:46:10.415Z"}, {"restaurant_name": "All In Bowl", "restaurant_phone": "(213) 388-8838", "restaurant_website": "http:///ca/los-angeles/719350-all-in-bowl/", "hours": "", "price_range": "", "price_range_num": 0, "restaurant_id": 34061329118299972, "cuisines": [""], "address": {"city": "Los Angeles", "state": "CA", "postal_code": "90010", "street": "3458 Wilshire Boulevard", "formatted": "3458 Wilshire Boulevard Los Angeles, CA 90010"}, "geo": {"lat": 34.061329, "lon": -118.299973}, "menus": [], "last_updated": "2020-12-29T06:46:10.690Z"}, {"restaurant_name": "Sushi Ippo", "restaurant_phone": "(213) 381-0110", "restaurant_website": "http:///ca/los-angeles/719328-sushi-ippo/", "hours": "", "price_range": "", "price_range_num": 0, "restaurant_id": 34061512118309310, "cuisines": [""], "address": {"city": "Los Angeles", "state": "CA", "postal_code": "90010", "street": "3800 Wilshire Boulevard", "formatted": "3800 Wilshire Boulevard Los Angeles, CA 90010"}, "geo": {"lat": 34.061512, "lon": -118.309311}, "menus": [], "last_updated": "2020-12-29T06:46:10.844Z"}], "numResults": 25}