{"totalResults": 249, "page": 1, "total_pages": 10, "more_pages": true, "data": [{"restaurant_name": "Louise's Trattoria (Los Feliz)", "restaurant_phone": "(323) 667-0777", "restaurant_website": "", "hours": "Sun-Thurs: 11am-10pm Fri-Sat: 11am-11pm", "price_range": "$$$", "price_range_num": 3, "restaurant_id": 34111399118287750, "cuisines": ["Italian", "Pasta", "Pizza", "Sandwiches"], "address": {"city": "Los Angeles", "state": "CA", "postal_code": "90027", "street": "4500 Los Feliz Blvd", "formatted": "4500 Los Feliz Blvd Los Angeles, CA 90027"}, "geo": {"lat": 34.111399, "lon": -118.28775}, "menus": [], "last_updated": "2020-12-29T06:50:34.060Z"}, {"restaurant_name": "Thai on Hillhurst (Formerly Known As: Simply Tha", "restaurant_phone": "(323) 665-6958", "restaurant_website": "", "hours": "Lunch Mon-Fri: 11:30am-3:30pm Dinner Sun-Thu: 5pm-10pm Fri-Sat: 5pm-11pm ", "price_range": "$$", "price_range_num": 2, "restaurant_id": 34104673118287176, "cuisines": ["Thai"], "address": {"city": "Los Angeles", "state": "CA", "postal_code": "90027", "street": "1850 Hillhurst Ave", "formatted": "1850 Hillhurst Ave Los Angeles, CA 90027"}, "geo": {"lat": 34.104673, "lon": -118.287178}, "menus": [], "last_updated": "2020-12-29T06:50:34.347Z"}, {"restaurant_name": "Big Mama's & Papa's Pizzeria (Hollywood)", "restaurant_phone": "(323) 661-1122", "restaurant_website": "", "hours": "Sun-Thu: 11am-10pm Fri-Sat: 11am-11pm", "price_range": "$$$$", "price_range_num": 4, "restaurant_id": 34102255118299628, "cuisines": ["Pizza"], "address": {"city": "Los Angeles", "state": "CA", "postal_code": "90027", "street": "5051 Hollywood Blvd", "formatted": "5051 Hollywood Blvd Los Angeles, CA 90027"}, "geo": {"lat": 34.102255, "lon": -118.299627}, "menus": [], "last_updated": "2020-12-29T06:50:34.430Z"}, {"restaurant_name": "Amwaj Mediterranean Cuisine", "restaurant_phone": "(323) 522-3309", "restaurant_website": "", "hours": "", "price_range": "$$", "price_range_num": 2, "restaurant_id": 34102502118287604, "cuisines": ["American", "Breakfast", "Healthy", "Italian", "Mediterranean", "Pasta", "Salads", "Sandwiches", "Vegetarian"], "address": {"city": "Los Angeles", "state": "CA", "postal_code": "90027", "street": "1725 Hillhurst Ave ", "formatted": "1725 Hillhurst Ave  Los Angeles, CA 90027"}, "geo": {"lat": 34.102502, "lon": -118.287605}, "menus": [], "last_updated": "2020-12-29T06:50:32.808Z"}, {"restaurant_name": "Red Corner Asia", "restaurant_phone": "(323) 466-6722", "restaurant_website": "", "hours": "Daily: 11am-11pm", "price_range": "$$", "price_range_num": 2, "restaurant_id": 34101770118305330, "cuisines": ["Asian Fusion", "Thai"], "address": {"city": "Los Angeles", "state": "CA", "postal_code": "90027", "street": "5267 Hollywood Blvd", "formatted": "5267 Hollywood Blvd Los Angeles, CA 90027"}, "geo": {"lat": 34.10177, "lon": -118.305327}, "menus": [], "last_updated": "2020-12-29T06:50:34.844Z"}, {"restaurant_name": "Bamboo House", "restaurant_phone": "(323) 668-2437", "restaurant_website": "", "hours": "Sun-Thu: 11am-10pm Fri-Sat: 11am-11am", "price_range": "$$", "price_range_num": 2, "restaurant_id": 34101768118295504, "cuisines": ["Thai"], "address": {"city": "Los Angeles", "state": "CA", "postal_code": "90027", "street": "4852 Hollywood Blvd", "formatted": "4852 Hollywood Blvd Los Angeles, CA 90027"}, "geo": {"lat": 34.101768, "lon": -118.295506}, "menus": [], "last_updated": "2020-12-29T06:50:35.110Z"}, {"restaurant_name": "Domino's Pizza", "restaurant_phone": "(323) 662-6666", "restaurant_website": "http://www.dominos.com", "hours": "", "price_range": "", "price_range_num": 0, "restaurant_id": 34101776118299788, "cuisines": ["American", "Pizza", "Wings"], "address": {"city": "Los Angeles", "state": "CA", "postal_code": "90027", "street": "5065 Hollywood Blvd", "formatted": "5065 Hollywood Blvd Los Angeles, CA 90027"}, "geo": {"lat": 34.101776, "lon": -118.299789}, "menus": [], "last_updated": "2020-12-29T06:46:06.821Z"}, {"restaurant_name": "Ceviche Project", "restaurant_phone": "(323) 522-0724", "restaurant_website": "http:///ca/los-angeles/722776-ceviche-project/", "hours": "", "price_range": "", "price_range_num": 0, "restaurant_id": 34104969118272864, "cuisines": [""], "address": {"city": "Los Angeles", "state": "CA", "postal_code": "90027", "street": "2524 Hyperion Avenue", "formatted": "2524 Hyperion Avenue Los Angeles, CA 90027"}, "geo": {"lat": 34.104969, "lon": -118.272865}, "menus": [], "last_updated": "2020-12-29T06:46:07.409Z"}, {"restaurant_name": "The Happy Tacos", "restaurant_phone": "(323) 475-2929", "restaurant_website": "http:///ca/los-angeles/722795-the-happy-tacos/", "hours": "", "price_range": "", "price_range_num": 0, "restaurant_id": 34102436118309296, "cuisines": [""], "address": {"city": "Los Angeles", "state": "CA", "postal_code": "90027", "street": "1723 North Western Avenue", "formatted": "1723 North Western Avenue Los Angeles, CA 90027"}, "geo": {"lat": 34.102436, "lon": -118.309296}, "menus": [], "last_updated": "2020-12-29T06:46:07.423Z"}, {"restaurant_name": "Levon's Quality Food", "restaurant_phone": "(818) 335-6803", "restaurant_website": "http:///ca/los-angeles/722484-levons-quality-food/", "hours": "", "price_range": "", "price_range_num": 0, "restaurant_id": 34097755118293290, "cuisines": [""], "address": {"city": "Los Angeles", "state": "CA", "postal_code": "90027", "street": "4760 Sunset Boulevard", "formatted": "4760 Sunset Boulevard Los Angeles, CA 90027"}, "geo": {"lat": 34.097755, "lon": -118.293289}, "menus": [], "last_updated": "2020-12-29T06:46:08.584Z"}, {"restaurant_name": "Amphai Northern Thai Food", "restaurant_phone": "(323) 474-7212", "restaurant_website": "http:///ca/los-angeles/722466-northern-thai-food/", "hours": "", "price_range": "", "price_range_num": 0, "restaurant_id": 34098583118306060, "cuisines": [""], "address": {"city": "Los Angeles", "state": "CA", "postal_code": "90027", "street": "5301 Sunset Blvd", "formatted": "5301 Sunset Blvd Los Angeles, CA 90027"}, "geo": {"lat": 34.098583, "lon": -118.306061}, "menus": [], "last_updated": "2020-12-29T06:46:08.594Z"}, {"restaurant_name": "Studio Plaza Cafe", "restaurant_phone": "(818) 972-8984", "restaurant_website": "http:///ca/los-angeles/720829-studio-plaza-cafe/", "hours": "", "price_range": "", "price_range_num": 0, "restaurant_id": 34115955118270960, "cuisines": [""], "address": {"city": "Los Angeles", "state": "CA", "postal_code": "90027", "street": "3400 Riverside Drive", "formatted": "3400 Riverside Drive Los Angeles, CA 90027"}, "geo": {"lat": 34.115955, "lon": -118.270958}, "menus": [], "last_updated": "2020-12-29T06:46:08.758Z"}, {"restaurant_name": "Blue Bottle", "restaurant_phone": "(510) 653-3394", "restaurant_website": "http:///ca/los-angeles/719749-blue-bottle/", "hours": "", "price_range": "", "price_range_num": 0, "restaurant_id": 34109524118287176, "cuisines": [""], "address": {"city": "Los Angeles", "state": "CA", "postal_code": "90027", "street": "2066 Hillhurst Avenue", "formatted": "2066 Hillhurst Avenue Los Angeles, CA 90027"}, "geo": {"lat": 34.109524, "lon": -118.287178}, "menus": [], "last_updated": "2020-12-29T06:46:08.841Z"}, {"restaurant_name": "Kismet", "restaurant_phone": "(323) 409-0404", "restaurant_website": "http:///ca/los-angeles/719738-kismet/", "hours": "", "price_range": "", "price_range_num": 0, "restaurant_id": 34100178118290732, "cuisines": [""], "address": {"city": "Los Angeles", "state": "CA", "postal_code": "90027", "street": "4648 Hollywood Boulevard", "formatted": "4648 Hollywood Boulevard Los Angeles, CA 90027"}, "geo": {"lat": 34.100178, "lon": -118.290733}, "menus": [], "last_updated": "2020-12-29T06:46:08.904Z"}, {"restaurant_name": "Pho VT Vietnamese and Thai Kitchen", "restaurant_phone": "(323) 486-7767", "restaurant_website": "http:///ca/los-angeles/719739-pho-vt/", "hours": "", "price_range": "", "price_range_num": 0, "restaurant_id": 34105732118287164, "cuisines": [""], "address": {"city": "Los Angeles", "state": "CA", "postal_code": "90027", "street": "1906 Hillhurst Ave", "formatted": "1906 Hillhurst Ave Los Angeles, CA 90027"}, "geo": {"lat": 34.105732, "lon": -118.287163}, "menus": [], "last_updated": "2020-12-29T06:46:08.925Z"}, {"restaurant_name": "Go Get Em Tiger", "restaurant_phone": "(323) 543-4438", "restaurant_website": "http:///ca/los-angeles/719714-go-get-em-tiger/", "hours": "", "price_range": "", "price_range_num": 0, "restaurant_id": 34099937118290268, "cuisines": [""], "address": {"city": "Los Angeles", "state": "CA", "postal_code": "90027", "street": "4630 Hollywood Boulevard", "formatted": "4630 Hollywood Boulevard Los Angeles, CA 90027"}, "geo": {"lat": 34.099937, "lon": -118.290268}, "menus": [], "last_updated": "2020-12-29T06:46:08.977Z"}, {"restaurant_name": "Thai Original BBQ Restaurant", "restaurant_phone": "(323) 962-2004", "restaurant_website": "http:///ca/los-angeles/719727-thai-original-bbq-restaurant/", "hours": "", "price_range": "", "price_range_num": 0, "restaurant_id": 34101505118306624, "cuisines": [""], "address": {"city": "Los Angeles", "state": "CA", "postal_code": "90027", "street": "5324 Hollywood Boulevard", "formatted": "5324 Hollywood Boulevard Los Angeles, CA 90027"}, "geo": {"lat": 34.101505, "lon": -118.306625}, "menus": [], "last_updated": "2020-12-29T06:46:09.039Z"}, {"restaurant_name": "Angry Birdz", "restaurant_phone": "(323) 928-2825", "restaurant_website": "http:///ca/los-angeles/719710-angry-birdz/", "hours": "", "price_range": "", "price_range_num": 0, "restaurant_id": 34102219118299844, "cuisines": [""], "address": {"city": "Los Angeles", "state": "CA", "postal_code": "90027", "street": "5065 Hollywood Boulevard", "formatted": "5065 Hollywood Boulevard Los Angeles, CA 90027"}, "geo": {"lat": 34.102219, "lon": -118.299843}, "menus": [], "last_updated": "2020-12-29T06:46:09.041Z"}, {"restaurant_name": "La Pergoletta", "restaurant_phone": "(323) 664-8259", "restaurant_website": "http:///ca/los-angeles/719682-la-pergoletta/", "hours": "", "price_range": "", "price_range_num": 0, "restaurant_id": 34103790118286920, "cuisines": [""], "address": {"city": "Los Angeles", "state": "CA", "postal_code": "90027", "street": "1802 Hillhurst Ave", "formatted": "1802 Hillhurst Ave Los Angeles, CA 90027"}, "geo": {"lat": 34.10379, "lon": -118.286919}, "menus": [], "last_updated": "2020-12-29T06:46:09.167Z"}, {"restaurant_name": "Starbucks Coffee Co", "restaurant_phone": "(323) 828-9251", "restaurant_website": "http:///ca/los-angeles/719652-starbucks-coffee-co/", "hours": "", "price_range": "", "price_range_num": 0, "restaurant_id": 34107655118273116, "cuisines": [""], "address": {"city": "Los Angeles", "state": "CA", "postal_code": "90027", "street": "2720 Griffith Park Boulevard", "formatted": "2720 Griffith Park Boulevard Los Angeles, CA 90027"}, "geo": {"lat": 34.107655, "lon": -118.273117}, "menus": [], "last_updated": "2020-12-29T06:46:09.543Z"}, {"restaurant_name": "Ricky's Fish Tacos", "restaurant_phone": "(877) 585-1085", "restaurant_website": "http:///ca/los-angeles/719556-rickys-fish-tacos/", "hours": "", "price_range": "", "price_range_num": 0, "restaurant_id": 34113941118268610, "cuisines": [""], "address": {"city": "Los Angeles", "state": "CA", "postal_code": "90027", "street": "3201 Riverside Drive", "formatted": "3201 Riverside Drive Los Angeles, CA 90027"}, "geo": {"lat": 34.113941, "lon": -118.268608}, "menus": [], "last_updated": "2020-12-29T06:46:09.724Z"}, {"restaurant_name": "Ricky's Fish Tacos", "restaurant_phone": "(323) 395-6233", "restaurant_website": "http:///ca/los-angeles/780047-rickys-fish-tacos/", "hours": "", "price_range": "", "price_range_num": 0, "restaurant_id": 34112682118267364, "cuisines": [""], "address": {"city": "Los Angeles", "state": "CA", "postal_code": "90027", "street": "3061 Riverside Drive", "formatted": "3061 Riverside Drive Los Angeles, CA 90027"}, "geo": {"lat": 34.112682, "lon": -118.267365}, "menus": [], "last_updated": "2020-12-28T19:27:17.480Z"}, {"restaurant_name": "Le Gout Bakery", "restaurant_phone": "(323) 661-1116", "restaurant_website": "http:///ca/los-angeles/580104-le-gout-bakery/", "hours": "", "price_range": "", "price_range_num": 0, "restaurant_id": 34101963118297410, "cuisines": [""], "address": {"city": "Los Angeles", "state": "CA", "postal_code": "90027", "street": "4945 Hollywood Blvd", "formatted": "4945 Hollywood Blvd Los Angeles, CA 90027"}, "geo": {"lat": 34.101963, "lon": -118.297409}, "menus": [], "last_updated": "2020-12-28T19:25:13.226Z"}, {"restaurant_name": "Farfalla Vinoteca e Birreria", "restaurant_phone": "(323) 661-8070", "restaurant_website": "http:///ca/los-angeles/586581-farfalla-vinoteca-e-birreria/", "hours": "", "price_range": "", "price_range_num": 0, "restaurant_id": 34107349118287184, "cuisines": [""], "address": {"city": "Los Angeles", "state": "CA", "postal_code": "90027", "street": "1968 Hillhurst Ave", "formatted": "1968 Hillhurst Ave Los Angeles, CA 90027"}, "geo": {"lat": 34.107349, "lon": -118.287186}, "menus": [], "last_updated": "2020-12-28T19:25:14.025Z"}, {"restaurant_name": "Gastronomico", "restaurant_phone": "", "restaurant_website": "", "hours": "Lunch Tue-Fri: 11am-4pm Dinner Tue-Thu: 6pm-9pm Fri: 6pm-10pm Sat: 11am-10pm", "price_range": "$", "price_range_num": 1, "restaurant_id": 34103654118287396, "cuisines": ["Sandwiches"], "address": {"city": "Los Angeles", "state": "CA", "postal_code": "90027", "street": "1802 Hillhurst Ave", "formatted": "1802 Hillhurst Ave Los Angeles, CA 90027"}, "geo": {"lat": 34.103654, "lon": -118.287396}, "menus": [], "last_updated": "2020-12-29T06:50:09.033Z"}], "numResults": 25}