{"totalResults": 225, "page": 1, "total_pages": 10, "more_pages": true, "data": [{"restaurant_name": "Sandbag's", "restaurant_phone": "(310) 208-1133", "restaurant_website": "", "hours": "Mon-Fri: 10am-7pm Sat: 11am-4pm", "price_range": "$", "price_range_num": 1, "restaurant_id": 34060043118444910, "cuisines": ["Sandwiches"], "address": {"city": "Los Angeles", "state": "CA", "postal_code": "90024", "street": "900 Hilgard Ave", "formatted": "900 Hilgard Ave Los Angeles, CA 90024"}, "geo": {"lat": 34.060043, "lon": -118.444911}, "menus": [], "last_updated": "2020-12-29T06:50:34.759Z"}, {"restaurant_name": "Star Bean Cafe and Deli", "restaurant_phone": "(310) 209-1007", "restaurant_website": "", "hours": "Mon-Fri: 8am-5pm", "price_range": "$", "price_range_num": 1, "restaurant_id": 34057868118444964, "cuisines": ["Coffee & Tea", "Deli Food", "Sandwiches"], "address": {"city": "Los Angeles", "state": "CA", "postal_code": "90024", "street": "10940 Wilshire Blvd", "formatted": "10940 Wilshire Blvd Los Angeles, CA 90024"}, "geo": {"lat": 34.057868, "lon": -118.444964}, "menus": [], "last_updated": "2020-12-29T06:50:33.243Z"}, {"restaurant_name": "La Bruschetta", "restaurant_phone": "(310) 477-1052", "restaurant_website": "", "hours": "Lunch Mon-Fri: 12pm-2pm Dinner Mon-Thu: 6pm-10pm Fri-Sat: 5:30pm-10:30pm Sun: 5:30pm-10pm ", "price_range": "$$$", "price_range_num": 3, "restaurant_id": 34052559118439404, "cuisines": ["Italian"], "address": {"city": "Los Angeles", "state": "CA", "postal_code": "90024", "street": "1621 Westwood Blvd", "formatted": "1621 Westwood Blvd Los Angeles, CA 90024"}, "geo": {"lat": 34.052559, "lon": -118.439403}, "menus": [], "last_updated": "2020-12-29T06:50:33.267Z"}, {"restaurant_name": "Novel Cafe", "restaurant_phone": "(310) 208-6410", "restaurant_website": "", "hours": "Mon-Thu: 8am-11:30pm Fri-Sun: 8am-11pm", "price_range": "$$", "price_range_num": 2, "restaurant_id": 34059604118446350, "cuisines": ["Californian", "Coffee & Tea"], "address": {"city": "Los Angeles", "state": "CA", "postal_code": "90024", "street": "1101 Gayley Ave", "formatted": "1101 Gayley Ave Los Angeles, CA 90024"}, "geo": {"lat": 34.059604, "lon": -118.446352}, "menus": [], "last_updated": "2020-12-29T06:50:33.354Z"}, {"restaurant_name": "800 Degrees Woodfired Kitchen Westwood", "restaurant_phone": "(310) 443-1911", "restaurant_website": "http://800degrees.com", "hours": "Daily: 11am-2am", "price_range": "$", "price_range_num": 1, "restaurant_id": 34059880118444364, "cuisines": ["Pizza"], "address": {"city": "Westwood", "state": "CA", "postal_code": "90024", "street": "10889 Lindbrook Drive", "formatted": "10889 Lindbrook Drive Westwood, CA 90024"}, "geo": {"lat": 34.05988, "lon": -118.444365}, "menus": [], "last_updated": "2021-01-05T07:26:05.828Z"}, {"restaurant_name": "SanSai Japanese Grill", "restaurant_phone": "(310) 443-0610", "restaurant_website": "http://www.sansaijapanesegrill.com", "hours": "Mon-Thu: 11am-9:30pm Fri-Sat: 11am-10pm Sun: 11am-9pm", "price_range": "$", "price_range_num": 1, "restaurant_id": 34059843118443850, "cuisines": ["Japanese", "Sushi"], "address": {"city": "Westwood", "state": "CA", "postal_code": "90024", "street": "10904 Lindbrook Dr", "formatted": "10904 Lindbrook Dr Westwood, CA 90024"}, "geo": {"lat": 34.059843, "lon": -118.443846}, "menus": [], "last_updated": "2021-01-05T07:26:05.836Z"}, {"restaurant_name": "D'Amore's Pizza", "restaurant_phone": "(310) 209-1212", "restaurant_website": "http://www.damoresfamouspizza.com", "hours": "Sun-Thu: 11am-10pm Fri-Sat: 11am-11pm", "price_range": "$$$$$", "price_range_num": 5, "restaurant_id": 34060016118444868, "cuisines": ["Italian", "Pizza"], "address": {"city": "Westwood", "state": "CA", "postal_code": "90024", "street": "1136 Westwood Blvd", "formatted": "1136 Westwood Blvd Westwood, CA 90024"}, "geo": {"lat": 34.060016, "lon": -118.444868}, "menus": [], "last_updated": "2021-01-05T07:26:05.950Z"}, {"restaurant_name": "Yamato", "restaurant_phone": "(310) 208-0100", "restaurant_website": "", "hours": "Mon-Thu: 11:30am-2:30pm Sun-Wed: 5pm-10pm Thu-Sat: 5pm-11pm", "price_range": "$", "price_range_num": 1, "restaurant_id": 34060709118445412, "cuisines": ["Japanese", "Sushi"], "address": {"city": "Westwood", "state": "CA", "postal_code": "90024", "street": "1099 Westwood Blvd", "formatted": "1099 Westwood Blvd Westwood, CA 90024"}, "geo": {"lat": 34.060709, "lon": -118.445412}, "menus": [], "last_updated": "2021-01-05T07:26:05.963Z"}, {"restaurant_name": "Native Foods", "restaurant_phone": "(310) 209-1055", "restaurant_website": "", "hours": "Daily: 11am-10pm ", "price_range": "$$", "price_range_num": 2, "restaurant_id": 34059989118445984, "cuisines": ["Healthy", "Local/Organic", "Vegan", "Vegetarian"], "address": {"city": "Westwood Village", "state": "CA", "postal_code": "90024", "street": "1114 Gayley Ave", "formatted": "1114 Gayley Ave Westwood Village, CA 90024"}, "geo": {"lat": 34.059989, "lon": -118.445986}, "menus": [], "last_updated": "2021-01-05T07:26:05.997Z"}, {"restaurant_name": "Italian Express", "restaurant_phone": "(310) 208-5572", "restaurant_website": "http://www.italianexpressinwestwood.com", "hours": "Mon-Sat: 10am-3am Sun: 4pm-3am", "price_range": "$$", "price_range_num": 2, "restaurant_id": 34060164118442668, "cuisines": ["Italian", "Pizza"], "address": {"city": "Westwood Village", "state": "CA", "postal_code": "90024", "street": "10845 Lindbrook Dr", "formatted": "10845 Lindbrook Dr Westwood Village, CA 90024"}, "geo": {"lat": 34.060164, "lon": -118.442668}, "menus": [], "last_updated": "2021-01-05T07:26:06.014Z"}, {"restaurant_name": "Ami Sushi", "restaurant_phone": "(310) 209-1994", "restaurant_website": "http://www.amijapanese.com", "hours": "Mon, Wed: 11:30am-10:30pm Tue, Thu: 11:30am-12am Fri: 11:30am-11pm Sat: 12pm-11pm Sun: 12pm-10pm", "price_range": "$$$", "price_range_num": 3, "restaurant_id": 34061497118446610, "cuisines": ["Japanese", "Sushi"], "address": {"city": "Westwood", "state": "CA", "postal_code": "90024", "street": "1051 Broxton Ave", "formatted": "1051 Broxton Ave Westwood, CA 90024"}, "geo": {"lat": 34.061497, "lon": -118.44661}, "menus": [], "last_updated": "2021-01-05T07:26:06.032Z"}, {"restaurant_name": "Habibi Cafe", "restaurant_phone": "(310) 824-2277", "restaurant_website": "", "hours": "Fri-Sat: 11am-5am Sun-Thu: 11am-4am", "price_range": "$$", "price_range_num": 2, "restaurant_id": 34063097118447064, "cuisines": ["Middle Eastern"], "address": {"city": "Westwood", "state": "CA", "postal_code": "90024", "street": "923 Broxton Ave", "formatted": "923 Broxton Ave Westwood, CA 90024"}, "geo": {"lat": 34.063097, "lon": -118.447066}, "menus": [], "last_updated": "2021-01-05T07:26:06.221Z"}, {"restaurant_name": "Jamba UCLA", "restaurant_phone": "(310) 824-1894", "restaurant_website": "http:///ca/los-angeles/761851-jamba-ucla/", "hours": "", "price_range": "", "price_range_num": 0, "restaurant_id": 34070419118444144, "cuisines": [""], "address": {"city": "Los Angeles", "state": "CA", "postal_code": "90024", "street": "308 Westwood Plaza", "formatted": "308 Westwood Plaza Los Angeles, CA 90024"}, "geo": {"lat": 34.070419, "lon": -118.444145}, "menus": [], "last_updated": "2020-12-29T06:46:06.427Z"}, {"restaurant_name": "Domino's Pizza", "restaurant_phone": "(310) 824-5000", "restaurant_website": "http://www.dominos.com", "hours": "", "price_range": "", "price_range_num": 0, "restaurant_id": 34055800118442000, "cuisines": ["American", "Pizza", "Wings"], "address": {"city": "Los Angeles", "state": "CA", "postal_code": "90024", "street": "1371 Westwood Blvd", "formatted": "1371 Westwood Blvd Los Angeles, CA 90024"}, "geo": {"lat": 34.0558, "lon": -118.442}, "menus": [], "last_updated": "2020-12-29T06:46:06.806Z"}, {"restaurant_name": "The Tuck Room Tavern", "restaurant_phone": "(310) 307-7004", "restaurant_website": "http:///ca/los-angeles/722751-the-tuck-room-tavern/", "hours": "", "price_range": "", "price_range_num": 0, "restaurant_id": 34058998118441636, "cuisines": [""], "address": {"city": "Los Angeles", "state": "CA", "postal_code": "90024", "street": "10850 Wilshire Boulevard", "formatted": "10850 Wilshire Boulevard Los Angeles, CA 90024"}, "geo": {"lat": 34.058998, "lon": -118.441635}, "menus": [], "last_updated": "2020-12-29T06:46:07.489Z"}, {"restaurant_name": "Tocaya Organica", "restaurant_phone": "(424) 244-3770", "restaurant_website": "http:///ca/los-angeles/719752-tocaya-organica/", "hours": "", "price_range": "", "price_range_num": 0, "restaurant_id": 34059517118445656, "cuisines": [""], "address": {"city": "Los Angeles", "state": "CA", "postal_code": "90024", "street": "1140 Gayley Avenue", "formatted": "1140 Gayley Avenue Los Angeles, CA 90024"}, "geo": {"lat": 34.059517, "lon": -118.445656}, "menus": [], "last_updated": "2020-12-29T06:46:08.848Z"}, {"restaurant_name": "Northern Cafe", "restaurant_phone": "(310) 208-8834", "restaurant_website": "http:///ca/los-angeles/719730-northern-cafe/", "hours": "", "price_range": "", "price_range_num": 0, "restaurant_id": 34062492118447670, "cuisines": [""], "address": {"city": "Los Angeles", "state": "CA", "postal_code": "90024", "street": "10965 Weyburn Avenue", "formatted": "10965 Weyburn Avenue Los Angeles, CA 90024"}, "geo": {"lat": 34.062492, "lon": -118.44767}, "menus": [], "last_updated": "2020-12-29T06:46:08.952Z"}, {"restaurant_name": "Kopan Ramen", "restaurant_phone": "(424) 465-9150", "restaurant_website": "http:///ca/los-angeles/719720-kopan-ramen/", "hours": "", "price_range": "", "price_range_num": 0, "restaurant_id": 34060852118446076, "cuisines": [""], "address": {"city": "Los Angeles", "state": "CA", "postal_code": "90024", "street": "1091 Broxton Avenue", "formatted": "1091 Broxton Avenue Los Angeles, CA 90024"}, "geo": {"lat": 34.060852, "lon": -118.446075}, "menus": [], "last_updated": "2020-12-29T06:46:08.957Z"}, {"restaurant_name": "KazuNori", "restaurant_phone": "(310) 935-3974", "restaurant_website": "http:///ca/los-angeles/719713-kazunori/", "hours": "", "price_range": "", "price_range_num": 0, "restaurant_id": 34060116118446104, "cuisines": [""], "address": {"city": "Los Angeles", "state": "CA", "postal_code": "90024", "street": "1110 Gayley Avenue", "formatted": "1110 Gayley Avenue Los Angeles, CA 90024"}, "geo": {"lat": 34.060116, "lon": -118.446106}, "menus": [], "last_updated": "2020-12-29T06:46:09.000Z"}, {"restaurant_name": "Starbucks", "restaurant_phone": "(310) 893-2360", "restaurant_website": "http:///ca/los-angeles/719695-starbucks/", "hours": "", "price_range": "", "price_range_num": 0, "restaurant_id": 34062653118443940, "cuisines": [""], "address": {"city": "Los Angeles", "state": "CA", "postal_code": "90024", "street": "10861 Weyburn Avenue", "formatted": "10861 Weyburn Avenue Los Angeles, CA 90024"}, "geo": {"lat": 34.062653, "lon": -118.443939}, "menus": [], "last_updated": "2020-12-29T06:46:09.263Z"}, {"restaurant_name": "Hangry Moon's", "restaurant_phone": "(949) 285-1159", "restaurant_website": "http:///ca/los-angeles/719574-hangry-moons/", "hours": "", "price_range": "", "price_range_num": 0, "restaurant_id": 34062569118448028, "cuisines": [""], "address": {"city": "Los Angeles", "state": "CA", "postal_code": "90024", "street": "970 Gayley Avenue", "formatted": "970 Gayley Avenue Los Angeles, CA 90024"}, "geo": {"lat": 34.062569, "lon": -118.448029}, "menus": [], "last_updated": "2020-12-29T06:46:09.650Z"}, {"restaurant_name": "It's Boba Time", "restaurant_phone": "(424) 369-5227", "restaurant_website": "http:///ca/los-angeles/780069-its-boba-time/", "hours": "", "price_range": "", "price_range_num": 0, "restaurant_id": 34062454118446784, "cuisines": [""], "address": {"city": "Los Angeles", "state": "CA", "postal_code": "90024", "street": "10946 Weyburn Avenue", "formatted": "10946 Weyburn Avenue Los Angeles, CA 90024"}, "geo": {"lat": 34.062454, "lon": -118.446785}, "menus": [], "last_updated": "2020-12-28T19:27:17.519Z"}, {"restaurant_name": "The Coffee Bean & Tea Leaf", "restaurant_phone": "(310) 909-5555", "restaurant_website": "http:///ca/los-angeles/780125-the-coffee-bean-tea-leaf/", "hours": "", "price_range": "", "price_range_num": 0, "restaurant_id": 34070221118438376, "cuisines": [""], "address": {"city": "Los Angeles", "state": "CA", "postal_code": "90024", "street": "574 Hilgard Avenue", "formatted": "574 Hilgard Avenue Los Angeles, CA 90024"}, "geo": {"lat": 34.070221, "lon": -118.438377}, "menus": [], "last_updated": "2020-12-28T19:27:17.571Z"}, {"restaurant_name": "Fellow", "restaurant_phone": "(310) 208-1071", "restaurant_website": "http:///ca/los-angeles/570635-fellow/", "hours": "", "price_range": "", "price_range_num": 0, "restaurant_id": 34061180118444556, "cuisines": [""], "address": {"city": "Los Angeles", "state": "CA", "postal_code": "90024", "street": "1071 Glendon Ave", "formatted": "1071 Glendon Ave Los Angeles, CA 90024"}, "geo": {"lat": 34.06118, "lon": -118.444557}, "menus": [], "last_updated": "2020-12-28T19:25:11.889Z"}, {"restaurant_name": "Crazy Falafel", "restaurant_phone": "(310) 208-5005", "restaurant_website": "http:///ca/los-angeles/587397-crazy-falafel/", "hours": "", "price_range": "", "price_range_num": 0, "restaurant_id": 34059654118445184, "cuisines": [""], "address": {"city": "Los Angeles", "state": "CA", "postal_code": "90024", "street": "10917 Lindbrook Dr", "formatted": "10917 Lindbrook Dr Los Angeles, CA 90024"}, "geo": {"lat": 34.059654, "lon": -118.445183}, "menus": [], "last_updated": "2020-12-28T19:25:14.196Z"}], "numResults": 25}