{"totalResults": 49, "page": 1, "total_pages": 2, "more_pages": true, "data": [{"restaurant_name": "Jammrok Jerk Chicken", "restaurant_phone": "(323) 792-4122", "restaurant_website": "http:///ca/los-angeles/744442-jammrok-jerk-chicken/", "hours": "", "price_range": "", "price_range_num": 0, "restaurant_id": 34008614118335640, "cuisines": [""], "address": {"city": "Los Angeles", "state": "CA", "postal_code": "90037", "street": "3650 W. Martin Luther King Blvd", "formatted": "3650 W. Martin Luther King Blvd Los Angeles, CA 90037"}, "geo": {"lat": 34.008614, "lon": -118.33564}, "menus": [], "last_updated": "2020-12-29T06:46:06.658Z"}, {"restaurant_name": "Domino's Pizza", "restaurant_phone": "(323) 753-6888", "restaurant_website": "http://www.dominos.com", "hours": "", "price_range": "", "price_range_num": 0, "restaurant_id": 33993200118283000, "cuisines": ["American", "Pizza", "Wings"], "address": {"city": "Los Angeles", "state": "CA", "postal_code": "90037", "street": "5401 S Figueroa St", "formatted": "5401 S Figueroa St Los Angeles, CA 90037"}, "geo": {"lat": 33.9932, "lon": -118.283}, "menus": [], "last_updated": "2020-12-29T06:46:06.795Z"}, {"restaurant_name": "Luis Meat Market", "restaurant_phone": "(323) 231-7599", "restaurant_website": "http:///ca/los-angeles/722829-luis-meat-market/", "hours": "", "price_range": "", "price_range_num": 0, "restaurant_id": 34006237118291564, "cuisines": [""], "address": {"city": "Los Angeles", "state": "CA", "postal_code": "90037", "street": "4253 S Vermont Ave", "formatted": "4253 S Vermont Ave Los Angeles, CA 90037"}, "geo": {"lat": 34.006237, "lon": -118.291565}, "menus": [], "last_updated": "2020-12-29T06:46:07.251Z"}, {"restaurant_name": "Dana Cafe Boba ( S Vermont Ave)", "restaurant_phone": "(213) 909-4667", "restaurant_website": "http:///ca/los-angeles/722677-dana-cafe-boba/", "hours": "", "price_range": "", "price_range_num": 0, "restaurant_id": 34005806118291190, "cuisines": [""], "address": {"city": "Los Angeles", "state": "CA", "postal_code": "90037", "street": "4270 S Vermont Ave", "formatted": "4270 S Vermont Ave Los Angeles, CA 90037"}, "geo": {"lat": 34.005806, "lon": -118.291191}, "menus": [], "last_updated": "2020-12-29T06:46:07.762Z"}, {"restaurant_name": "El Paissa Mexican Grill", "restaurant_phone": "(323) 846-0499", "restaurant_website": "http:///ca/los-angeles/719692-el-paissa-mexican-grill/", "hours": "", "price_range": "", "price_range_num": 0, "restaurant_id": 34009239118278144, "cuisines": [""], "address": {"city": "Los Angeles", "state": "CA", "postal_code": "90037", "street": "4092 South Broadway", "formatted": "4092 South Broadway Los Angeles, CA 90037"}, "geo": {"lat": 34.009239, "lon": -118.278145}, "menus": [], "last_updated": "2020-12-29T06:46:09.076Z"}, {"restaurant_name": "Pupuseria Reynas Restaurant", "restaurant_phone": "(323) 235-5259", "restaurant_website": "http:///ca/los-angeles/719635-pupuseria-reynas-restaurant/", "hours": "", "price_range": "", "price_range_num": 0, "restaurant_id": 34005337118291564, "cuisines": [""], "address": {"city": "Los Angeles", "state": "CA", "postal_code": "90037", "street": "4300 South Vermont Avenue", "formatted": "4300 South Vermont Avenue Los Angeles, CA 90037"}, "geo": {"lat": 34.005337, "lon": -118.291565}, "menus": [], "last_updated": "2020-12-29T06:46:09.375Z"}, {"restaurant_name": "Tom's Jr 3", "restaurant_phone": "(213) 741-0997", "restaurant_website": "http:///ca/los-angeles/719601-toms-jr-3/", "hours": "", "price_range": "", "price_range_num": 0, "restaurant_id": 34011147118282760, "cuisines": [""], "address": {"city": "Los Angeles", "state": "CA", "postal_code": "90037", "street": "500 West Martin Luther King Junior Boulevard", "formatted": "500 West Martin Luther King Junior Boulevard Los Angeles, CA 90037"}, "geo": {"lat": 34.011147, "lon": -118.282761}, "menus": [], "last_updated": "2020-12-29T06:46:09.647Z"}, {"restaurant_name": "Banditos Tacos & Tequila", "restaurant_phone": "(323) 432-2474", "restaurant_website": "http:///ca/los-angeles/578652-banditos-tacos-tequila/", "hours": "", "price_range": "", "price_range_num": 0, "restaurant_id": 34010712118290136, "cuisines": [""], "address": {"city": "Los Angeles", "state": "CA", "postal_code": "90037", "street": "900 W Martin Luther King Jr Blvd", "formatted": "900 W Martin Luther King Jr Blvd Los Angeles, CA 90037"}, "geo": {"lat": 34.010712, "lon": -118.290138}, "menus": [], "last_updated": "2020-12-28T19:25:13.020Z"}, {"restaurant_name": "Church's Chicken", "restaurant_phone": "(323) 232-5374", "restaurant_website": "http:///ca/los-angeles/573902-churchs-chicken/", "hours": "", "price_range": "", "price_range_num": 0, "restaurant_id": 33993488118283104, "cuisines": [""], "address": {"city": "Los Angeles", "state": "CA", "postal_code": "90037", "street": "5325 S Figueroa St", "formatted": "5325 S Figueroa St Los Angeles, CA 90037"}, "geo": {"lat": 33.993488, "lon": -118.283104}, "menus": [], "last_updated": "2020-12-28T19:25:12.274Z"}, {"restaurant_name": "2 For 1 Pizza", "restaurant_phone": "(213) 749-4515", "restaurant_website": "", "hours": "Mon-Thurs: 11am-10pm Fri-Sat: 11am-11pm Sun: 10am-10pm", "price_range": "$", "price_range_num": 1, "restaurant_id": 34000802118278340, "cuisines": ["Pizza"], "address": {"city": "Los Angeles", "state": "CA", "postal_code": "90037", "street": "4707 S Broadway", "formatted": "4707 S Broadway Los Angeles, CA 90037"}, "geo": {"lat": 34.000802, "lon": -118.278339}, "menus": [], "last_updated": "2020-12-29T06:50:09.264Z"}, {"restaurant_name": "La Fogata", "restaurant_phone": "(323) 232-6666", "restaurant_website": "", "hours": "Mon-Sun: 10am-10pm", "price_range": "$$$", "price_range_num": 3, "restaurant_id": 34002842118291904, "cuisines": ["Italian"], "address": {"city": "Los Angeles", "state": "CA", "postal_code": "90037", "street": "4431 S Vermont Ave", "formatted": "4431 S Vermont Ave Los Angeles, CA 90037"}, "geo": {"lat": 34.002842, "lon": -118.291905}, "menus": [], "last_updated": "2020-12-29T06:50:00.800Z"}, {"restaurant_name": "McDonald's", "restaurant_phone": "", "restaurant_website": "http://www.mcdonalds.com", "hours": "", "price_range": "", "price_range_num": 0, "restaurant_id": 34015983118286200, "cuisines": ["American", "Burgers"], "address": {"city": "LOS ANGELES", "state": "CA", "postal_code": "90037", "street": "700 State Dr", "formatted": "700 State Dr LOS ANGELES, CA 90037"}, "geo": {"lat": 34.015983, "lon": -118.286202}, "menus": [], "last_updated": "2020-12-29T06:51:31.179Z"}, {"restaurant_name": "McDonald's", "restaurant_phone": "", "restaurant_website": "http://www.mcdonalds.com", "hours": "", "price_range": "", "price_range_num": 0, "restaurant_id": 34010669118282356, "cuisines": ["American", "Burgers"], "address": {"city": "LOS ANGELES", "state": "CA", "postal_code": "90037", "street": "4000 S Figueroa St", "formatted": "4000 S Figueroa St LOS ANGELES, CA 90037"}, "geo": {"lat": 34.010669, "lon": -118.282356}, "menus": [], "last_updated": "2020-12-29T06:51:31.522Z"}, {"restaurant_name": "McDonald's", "restaurant_phone": "", "restaurant_website": "http://www.mcdonalds.com", "hours": "", "price_range": "", "price_range_num": 0, "restaurant_id": 34011180118294024, "cuisines": ["American", "Burgers"], "address": {"city": "LOS ANGELES", "state": "CA", "postal_code": "90037", "street": "1071 W Martin Luther King Jr Blvd", "formatted": "1071 W Martin Luther King Jr Blvd LOS ANGELES, CA 90037"}, "geo": {"lat": 34.01118, "lon": -118.294026}, "menus": [], "last_updated": "2020-12-29T06:51:31.909Z"}, {"restaurant_name": "KFC - Kentucky Fried Chicken", "restaurant_phone": "(213) 748-0397", "restaurant_website": "http://www.kfc.com", "hours": "", "price_range": "", "price_range_num": 0, "restaurant_id": 34014196118282416, "cuisines": ["American", "Chicken"], "address": {"city": "LOS ANGELES", "state": "CA", "postal_code": "90037", "street": "3850 S Figueroa St", "formatted": "3850 S Figueroa St LOS ANGELES, CA 90037"}, "geo": {"lat": 34.014196, "lon": -118.282417}, "menus": [], "last_updated": "2020-12-29T06:51:32.684Z"}, {"restaurant_name": "KFC", "restaurant_phone": "(323) 753-1375", "restaurant_website": "http://www.kfc.com", "hours": "", "price_range": "", "price_range_num": 0, "restaurant_id": 33989853118291100, "cuisines": ["American", "Chicken"], "address": {"city": "Los Angeles", "state": "CA", "postal_code": "90037", "street": "5720 S Vermont Ave", "formatted": "5720 S Vermont Ave Los Angeles, CA 90037"}, "geo": {"lat": 33.989853, "lon": -118.2911}, "menus": [], "last_updated": "2020-12-29T06:51:32.883Z"}, {"restaurant_name": "Jack in the Box", "restaurant_phone": "(323) 235-4345", "restaurant_website": "", "hours": "", "price_range": "", "price_range_num": 0, "restaurant_id": 34004322118283012, "cuisines": ["American", "Burgers"], "address": {"city": "Los Angeles", "state": "CA", "postal_code": "90037", "street": "4353 S Figueroa St", "formatted": "4353 S Figueroa St Los Angeles, CA 90037"}, "geo": {"lat": 34.004322, "lon": -118.283012}, "menus": [], "last_updated": "2020-12-29T06:51:33.562Z"}, {"restaurant_name": "Carl's Jr.", "restaurant_phone": "(323) 766-8290", "restaurant_website": "", "hours": "", "price_range": "", "price_range_num": 0, "restaurant_id": 34010867118291644, "cuisines": ["American", "Burgers"], "address": {"city": "LOS ANGELES", "state": "CA", "postal_code": "90037", "street": "1001 W Martin Luther King Jr Blvd", "formatted": "1001 W Martin Luther King Jr Blvd LOS ANGELES, CA 90037"}, "geo": {"lat": 34.010867, "lon": -118.291644}, "menus": [], "last_updated": "2020-12-29T06:51:34.606Z"}, {"restaurant_name": "Yoshinoya", "restaurant_phone": "(323) 231-4378", "restaurant_website": "", "hours": "", "price_range": "", "price_range_num": 0, "restaurant_id": 34010210118291530, "cuisines": ["Japanese"], "address": {"city": "Los Angeles", "state": "CA", "postal_code": "90037", "street": "4000 S Vermont Ave", "formatted": "4000 S Vermont Ave Los Angeles, CA 90037"}, "geo": {"lat": 34.01021, "lon": -118.29153}, "menus": [], "last_updated": "2020-12-29T06:50:38.983Z"}, {"restaurant_name": "PERU MIX", "restaurant_phone": "(317) 985-5167", "restaurant_website": "http:///ca/los-angeles/842476-peru-mix/", "hours": "", "price_range": "", "price_range_num": 0, "restaurant_id": 34014736118278772, "cuisines": [""], "address": {"city": "Los Angeles", "state": "CA", "postal_code": "90037", "street": "358 W 38th St", "formatted": "358 W 38th St Los Angeles, CA 90037"}, "geo": {"lat": 34.014736, "lon": -118.278771}, "menus": [], "last_updated": "2020-12-29T06:44:48.759Z"}, {"restaurant_name": "Taqueros on FIG", "restaurant_phone": "(213) 205-8448", "restaurant_website": "http:///ca/los-angeles/623915-taqueros-on-fig/", "hours": "", "price_range": "", "price_range_num": 0, "restaurant_id": 34014393118282480, "cuisines": [""], "address": {"city": "Los Angeles", "state": "CA", "postal_code": "90037", "street": "3844 S Figueroa St", "formatted": "3844 S Figueroa St Los Angeles, CA 90037"}, "geo": {"lat": 34.014393, "lon": -118.282478}, "menus": [], "last_updated": "2020-12-29T06:46:53.906Z"}, {"restaurant_name": "Tacos Los Carnalillos-", "restaurant_phone": "(562) 805-9993", "restaurant_website": "http:///ca/los-angeles/719523-tacos-los-carnalillos-/", "hours": "", "price_range": "", "price_range_num": 0, "restaurant_id": 34003910118281876, "cuisines": [""], "address": {"city": "Los Angeles", "state": "CA", "postal_code": "90037", "street": "467 West Vernon Avenue", "formatted": "467 West Vernon Avenue Los Angeles, CA 90037"}, "geo": {"lat": 34.00391, "lon": -118.281876}, "menus": [], "last_updated": "2020-12-29T06:46:10.008Z"}, {"restaurant_name": "Burger Factory", "restaurant_phone": "(323) 296-2519", "restaurant_website": "http:///ca/los-angeles/719305-burger-factory/", "hours": "", "price_range": "", "price_range_num": 0, "restaurant_id": 34010651118300004, "cuisines": [""], "address": {"city": "Los Angeles", "state": "CA", "postal_code": "90037", "street": "1358 West Martin Luther King Junior Boulevard", "formatted": "1358 West Martin Luther King Junior Boulevard Los Angeles, CA 90037"}, "geo": {"lat": 34.010651, "lon": -118.300003}, "menus": [], "last_updated": "2020-12-29T06:46:10.814Z"}, {"restaurant_name": "El Sabor K-Tracho", "restaurant_phone": "(323) 233-2806", "restaurant_website": "http:///ca/los-angeles/719179-el-sabor-k-tracho/", "hours": "", "price_range": "", "price_range_num": 0, "restaurant_id": 34007336118282970, "cuisines": [""], "address": {"city": "Los Angeles", "state": "CA", "postal_code": "90037", "street": "4181 South Figueroa Street", "formatted": "4181 South Figueroa Street Los Angeles, CA 90037"}, "geo": {"lat": 34.007336, "lon": -118.282967}, "menus": [], "last_updated": "2020-12-29T06:46:11.312Z"}, {"restaurant_name": "Free Play", "restaurant_phone": "(213) 419-9481", "restaurant_website": "http:///ca/los-angeles/719171-free-play/", "hours": "", "price_range": "", "price_range_num": 0, "restaurant_id": 34013390118283196, "cuisines": [""], "address": {"city": "Los Angeles", "state": "CA", "postal_code": "90037", "street": "3939 South Figueroa Street", "formatted": "3939 South Figueroa Street Los Angeles, CA 90037"}, "geo": {"lat": 34.01339, "lon": -118.283196}, "menus": [], "last_updated": "2020-12-29T06:46:11.385Z"}], "numResults": 25}