{"totalResults": 96, "page": 1, "total_pages": 4, "more_pages": true, "data": [{"restaurant_name": "Subway", "restaurant_phone": "(323) 780-4740", "restaurant_website": "https://restaurants.subway.com/united-states/ca/boyle-heights/2800-e-first-st?utm_source=yext-other&utm_medium=local&utm_term=acq&utm_content=46347&utm_campaign=evergreen-2020&y_source=1_MTQ4OTU0OTgtN", "hours": "", "price_range": "", "price_range_num": 0, "restaurant_id": 34041300118204700, "cuisines": [""], "address": {"city": "Boyle Heights", "state": "CA", "postal_code": "90033", "street": "2800 E First St", "formatted": "2800 E First St Boyle Heights, CA 90033"}, "geo": {"lat": 34.0413, "lon": -118.2047}, "menus": [], "last_updated": "2021-01-05T08:34:26.879Z"}, {"restaurant_name": "D-Town Burger Bar 2", "restaurant_phone": "(323) 780-8232", "restaurant_website": "http:///ca/long-beach/640337-d-town-burger-bar-2/", "hours": "", "price_range": "", "price_range_num": 0, "restaurant_id": 34046867118217780, "cuisines": [""], "address": {"city": "Long Beach", "state": "CA", "postal_code": "90033", "street": "1859 E 1st St", "formatted": "1859 E 1st St Long Beach, CA 90033"}, "geo": {"lat": 34.046867, "lon": -118.21778}, "menus": [], "last_updated": "2020-12-29T06:51:55.620Z"}, {"restaurant_name": "Un Solo Sol", "restaurant_phone": "(323) 269-8680", "restaurant_website": "http://www.unsolosol.com", "hours": "Mon, Thu-Fri: 5pm-9pm Sat-Sun: 11am-9pm", "price_range": "$", "price_range_num": 1, "restaurant_id": 34047024118219170, "cuisines": ["Latin American", "Vegetarian"], "address": {"city": "Los Angeles", "state": "CA", "postal_code": "90033", "street": "1818 E 1st St", "formatted": "1818 E 1st St Los Angeles, CA 90033"}, "geo": {"lat": 34.047024, "lon": -118.21917}, "menus": [], "last_updated": "2020-12-29T06:50:35.237Z"}, {"restaurant_name": "La Luna", "restaurant_phone": "(323) 264-0579", "restaurant_website": "http:///ca/los-angeles/722821-la-luna/", "hours": "", "price_range": "", "price_range_num": 0, "restaurant_id": 34043934118209924, "cuisines": [""], "address": {"city": "Los Angeles", "state": "CA", "postal_code": "90033", "street": "2333 East 1st Street", "formatted": "2333 East 1st Street Los Angeles, CA 90033"}, "geo": {"lat": 34.043934, "lon": -118.209923}, "menus": [], "last_updated": "2020-12-29T06:46:07.257Z"}, {"restaurant_name": "Starbucks", "restaurant_phone": "(213) 328-8499", "restaurant_website": "http:///ca/los-angeles/722778-starbucks/", "hours": "", "price_range": "", "price_range_num": 0, "restaurant_id": 34055756118204484, "cuisines": [""], "address": {"city": "Los Angeles", "state": "CA", "postal_code": "90033", "street": "1106 Cornwell Street", "formatted": "1106 Cornwell Street Los Angeles, CA 90033"}, "geo": {"lat": 34.055756, "lon": -118.204483}, "menus": [], "last_updated": "2020-12-29T06:46:07.525Z"}, {"restaurant_name": "El Sarape", "restaurant_phone": "(323) 415-0765", "restaurant_website": "http:///ca/los-angeles/722733-el-sarape/", "hours": "", "price_range": "", "price_range_num": 0, "restaurant_id": 34042751118207948, "cuisines": [""], "address": {"city": "Los Angeles", "state": "CA", "postal_code": "90033", "street": "2522 East 1st Street", "formatted": "2522 East 1st Street Los Angeles, CA 90033"}, "geo": {"lat": 34.042751, "lon": -118.207947}, "menus": [], "last_updated": "2020-12-29T06:46:07.566Z"}, {"restaurant_name": "El 7 Mares Rest.", "restaurant_phone": "(323) 261-3743", "restaurant_website": "http:///ca/los-angeles/722742-el-7-mares-rest/", "hours": "", "price_range": "", "price_range_num": 0, "restaurant_id": 34044739118202636, "cuisines": [""], "address": {"city": "Los Angeles", "state": "CA", "postal_code": "90033", "street": "2747 East Cesar E Chavez Avenue", "formatted": "2747 East Cesar E Chavez Avenue Los Angeles, CA 90033"}, "geo": {"lat": 34.044739, "lon": -118.202637}, "menus": [], "last_updated": "2020-12-29T06:46:07.636Z"}, {"restaurant_name": "Tacos y Cemitas El Monchis", "restaurant_phone": "(877) 585-1085", "restaurant_website": "http:///ca/los-angeles/722652-tacos-y-cemitas-el-monchis/", "hours": "", "price_range": "", "price_range_num": 0, "restaurant_id": 34049427118212776, "cuisines": [""], "address": {"city": "Los Angeles", "state": "CA", "postal_code": "90033", "street": "2001 East Cesar E Chavez Avenue", "formatted": "2001 East Cesar E Chavez Avenue Los Angeles, CA 90033"}, "geo": {"lat": 34.049427, "lon": -118.212776}, "menus": [], "last_updated": "2020-12-29T06:46:07.863Z"}, {"restaurant_name": "Panaderia Morelos", "restaurant_phone": "(323) 696-5186", "restaurant_website": "http:///ca/los-angeles/722595-panaderia-morelos/", "hours": "", "price_range": "", "price_range_num": 0, "restaurant_id": 34046383118206504, "cuisines": [""], "address": {"city": "Los Angeles", "state": "CA", "postal_code": "90033", "street": "2439 East Cesar E Chavez Avenue", "formatted": "2439 East Cesar E Chavez Avenue Los Angeles, CA 90033"}, "geo": {"lat": 34.046383, "lon": -118.206505}, "menus": [], "last_updated": "2020-12-29T06:46:08.246Z"}, {"restaurant_name": "China Express", "restaurant_phone": "(323) 221-1688", "restaurant_website": "http:///ca/los-angeles/722560-china-express/", "hours": "", "price_range": "", "price_range_num": 0, "restaurant_id": 34058300118211790, "cuisines": [""], "address": {"city": "Los Angeles", "state": "CA", "postal_code": "90033", "street": "1800 Marengo Street", "formatted": "1800 Marengo Street Los Angeles, CA 90033"}, "geo": {"lat": 34.0583, "lon": -118.211792}, "menus": [], "last_updated": "2020-12-29T06:46:08.295Z"}, {"restaurant_name": "Tacos La Guera 3", "restaurant_phone": "(323) 441-6702", "restaurant_website": "http:///ca/los-angeles/722554-tacos-la-guera-3/", "hours": "", "price_range": "", "price_range_num": 0, "restaurant_id": 34062286118197540, "cuisines": [""], "address": {"city": "Los Angeles", "state": "CA", "postal_code": "90033", "street": "1602 North Soto Street", "formatted": "1602 North Soto Street Los Angeles, CA 90033"}, "geo": {"lat": 34.062286, "lon": -118.19754}, "menus": [], "last_updated": "2020-12-29T06:46:08.302Z"}, {"restaurant_name": "Milpa Grille-", "restaurant_phone": "(323) 269-2995", "restaurant_website": "http:///ca/los-angeles/719661-milpa-grille-/", "hours": "", "price_range": "", "price_range_num": 0, "restaurant_id": 34045410118204210, "cuisines": [""], "address": {"city": "Los Angeles", "state": "CA", "postal_code": "90033", "street": "2633 East Cesar E Chavez Avenue", "formatted": "2633 East Cesar E Chavez Avenue Los Angeles, CA 90033"}, "geo": {"lat": 34.04541, "lon": -118.204208}, "menus": [], "last_updated": "2020-12-29T06:46:09.346Z"}, {"restaurant_name": "La Chuperia", "restaurant_phone": "(323) 352-8721", "restaurant_website": "http:///ca/los-angeles/719547-la-chuperia/", "hours": "", "price_range": "", "price_range_num": 0, "restaurant_id": 34061588118213304, "cuisines": [""], "address": {"city": "Los Angeles", "state": "CA", "postal_code": "90033", "street": "1145 North Mission Road", "formatted": "1145 North Mission Road Los Angeles, CA 90033"}, "geo": {"lat": 34.061588, "lon": -118.213303}, "menus": [], "last_updated": "2020-12-29T06:46:09.725Z"}, {"restaurant_name": "Cafe 22", "restaurant_phone": "(323) 224-9072", "restaurant_website": "", "hours": "Mon-Fri: 8am-4pm", "price_range": "$$", "price_range_num": 2, "restaurant_id": 34056130118207130, "cuisines": ["Mexican", "Sandwiches", "Smoothies & Juices"], "address": {"city": "Los Angeles", "state": "CA", "postal_code": "90033", "street": "2044 Marengo St", "formatted": "2044 Marengo St Los Angeles, CA 90033"}, "geo": {"lat": 34.05613, "lon": -118.207129}, "menus": [], "last_updated": "2020-12-29T06:50:09.462Z"}, {"restaurant_name": "Mexicanos 30-30 Restaurant", "restaurant_phone": "(323) 224-9466", "restaurant_website": "", "hours": "Daily: 8am-8pm", "price_range": "$$", "price_range_num": 2, "restaurant_id": 34056286118207176, "cuisines": ["Mexican"], "address": {"city": "Los Angeles", "state": "CA", "postal_code": "90033", "street": "2042 Marengo St", "formatted": "2042 Marengo St Los Angeles, CA 90033"}, "geo": {"lat": 34.056286, "lon": -118.207176}, "menus": [], "last_updated": "2020-12-29T06:50:29.768Z"}, {"restaurant_name": "Purgatory Pizza", "restaurant_phone": "(323) 262-5310", "restaurant_website": "http://www.eatpurgatorypizza.com/", "hours": "Daily: 6pm-11pm", "price_range": "$$$$", "price_range_num": 4, "restaurant_id": 34047398118225750, "cuisines": ["Pizza"], "address": {"city": "Los Angeles", "state": "CA", "postal_code": "90033", "street": "1326 E 1st St", "formatted": "1326 E 1st St Los Angeles, CA 90033"}, "geo": {"lat": 34.047398, "lon": -118.225754}, "menus": [], "last_updated": "2020-12-29T06:50:31.035Z"}, {"restaurant_name": "Sam's Flaming Grill", "restaurant_phone": "(323) 225-5622", "restaurant_website": "", "hours": "Mon-Fri: 10am-8pm Sat-Sun: 11am-7pm", "price_range": "$$", "price_range_num": 2, "restaurant_id": 34058099118210816, "cuisines": ["Middle Eastern"], "address": {"city": "Los Angeles", "state": "CA", "postal_code": "90033", "street": "1830 Marengo St", "formatted": "1830 Marengo St Los Angeles, CA 90033"}, "geo": {"lat": 34.058099, "lon": -118.210815}, "menus": [], "last_updated": "2020-12-29T06:50:31.709Z"}, {"restaurant_name": "La Serenata ", "restaurant_phone": "(323) 265-2887", "restaurant_website": "", "hours": "Sun: 10am-2pm+5pm-10pm Mon-Thu: 11am-10pm Fri-Sat: 11am-11pm ", "price_range": "$$", "price_range_num": 2, "restaurant_id": 34046858118218404, "cuisines": ["Mexican"], "address": {"city": "Los Angeles", "state": "CA", "postal_code": "90033", "street": "1842 E 1st St", "formatted": "1842 E 1st St Los Angeles, CA 90033"}, "geo": {"lat": 34.046858, "lon": -118.218405}, "menus": [], "last_updated": "2020-12-29T06:50:31.771Z"}, {"restaurant_name": "Antojitos Carmen Restaurant", "restaurant_phone": "(323) 264-1451", "restaurant_website": "", "hours": "Mon-Thu: 8:30am-10pm Fri-Sun: 8:30am-12am", "price_range": "$", "price_range_num": 1, "restaurant_id": 34045962118206150, "cuisines": ["Breakfast", "Mexican"], "address": {"city": "Los Angeles", "state": "CA", "postal_code": "90033", "street": "2510 Cesar E Chavez Ave", "formatted": "2510 Cesar E Chavez Ave Los Angeles, CA 90033"}, "geo": {"lat": 34.045962, "lon": -118.206153}, "menus": [], "last_updated": "2020-12-29T06:50:32.574Z"}, {"restaurant_name": "Komodo Truck", "restaurant_phone": "(310) 498-7606", "restaurant_website": "", "hours": "", "price_range": "$", "price_range_num": 1, "restaurant_id": 34050186118213330, "cuisines": ["Asian Fusion", "Mexican"], "address": {"city": "Los Angeles", "state": "CA", "postal_code": "90033", "street": "Location Varies", "formatted": "Location Varies Los Angeles, CA 90033"}, "geo": {"lat": 34.050186, "lon": -118.213329}, "menus": [], "last_updated": "2020-12-29T06:49:39.336Z"}, {"restaurant_name": "Guisados", "restaurant_phone": "(323) 264-7201", "restaurant_website": "", "hours": "Mon-Sat: 10:30am-8pm Sun: 10:30am-5pm", "price_range": "$$$$$", "price_range_num": 5, "restaurant_id": 34048259118211456, "cuisines": ["Mexican", "Vegetarian"], "address": {"city": "Los Angeles", "state": "CA", "postal_code": "90033", "street": "2100 East Cesar E Chavez Ave", "formatted": "2100 East Cesar E Chavez Ave Los Angeles, CA 90033"}, "geo": {"lat": 34.048259, "lon": -118.211457}, "menus": [], "last_updated": "2020-12-29T06:49:39.374Z"}, {"restaurant_name": "King Taco", "restaurant_phone": "(323) 264-3940", "restaurant_website": "", "hours": "Mon-Thur: 8:30am-12am Fri-Sat: 8:30am-2am", "price_range": "$$$", "price_range_num": 3, "restaurant_id": 34046421118207612, "cuisines": ["Mexican"], "address": {"city": "Los Angeles", "state": "CA", "postal_code": "90033", "street": "2400 East Cesar E Chavez Avenue", "formatted": "2400 East Cesar E Chavez Avenue Los Angeles, CA 90033"}, "geo": {"lat": 34.046421, "lon": -118.207611}, "menus": [], "last_updated": "2020-12-29T06:49:59.838Z"}, {"restaurant_name": "Los Antojitos", "restaurant_phone": "(323) 264-4750", "restaurant_website": "", "hours": "Mon-Sat: 6am-5pm", "price_range": "$", "price_range_num": 1, "restaurant_id": 34044571118213030, "cuisines": ["Mexican"], "address": {"city": "Los Angeles", "state": "CA", "postal_code": "90033", "street": "2122 E 1st St", "formatted": "2122 E 1st St Los Angeles, CA 90033"}, "geo": {"lat": 34.044571, "lon": -118.213032}, "menus": [], "last_updated": "2020-12-29T06:50:00.819Z"}, {"restaurant_name": "Fried Rice Express", "restaurant_phone": "(323) 223-0783", "restaurant_website": "", "hours": "Mon-Fri: 10am-9pm Sat-Sun: 10:30am-8pm", "price_range": "$", "price_range_num": 1, "restaurant_id": 34057762118211090, "cuisines": ["Asian Fusion", "Chinese"], "address": {"city": "Los Angeles", "state": "CA", "postal_code": "90033", "street": "1828 Marengo Street", "formatted": "1828 Marengo Street Los Angeles, CA 90033"}, "geo": {"lat": 34.057762, "lon": -118.21109}, "menus": [], "last_updated": "2020-12-29T06:50:01.288Z"}, {"restaurant_name": "McDonald's", "restaurant_phone": "", "restaurant_website": "http://www.mcdonalds.com", "hours": "", "price_range": "", "price_range_num": 0, "restaurant_id": 34046317118208536, "cuisines": ["American", "Burgers"], "address": {"city": "LOS ANGELES", "state": "CA", "postal_code": "90033", "street": "245 N Soto St", "formatted": "245 N Soto St LOS ANGELES, CA 90033"}, "geo": {"lat": 34.046317, "lon": -118.208537}, "menus": [], "last_updated": "2020-12-29T06:51:31.652Z"}], "numResults": 25}