{"totalResults": 144, "page": 1, "total_pages": 6, "more_pages": true, "data": [{"restaurant_name": "Cafe Laurent", "restaurant_phone": "(310) 558-8622", "restaurant_website": "", "hours": "Tue-Sun: 7:30am-2:30pm", "price_range": "$$", "price_range_num": 2, "restaurant_id": 34011829118400864, "cuisines": ["Bistro", "Crepes", "French"], "address": {"city": "Culver City", "state": "CA", "postal_code": "90230", "street": "4243 Overland Ave", "formatted": "4243 Overland Ave Culver City, CA 90230"}, "geo": {"lat": 34.011829, "lon": -118.400864}, "menus": [], "last_updated": "2021-01-05T08:31:25.455Z"}, {"restaurant_name": "5i Pho Indochine Cuisine", "restaurant_phone": "(310) 572-6000", "restaurant_website": "http://www.indochine-cuisine.com", "hours": "Daily: 11am-3pm+5pm-2am", "price_range": "$", "price_range_num": 1, "restaurant_id": 33994933118395404, "cuisines": ["Asian Fusion", "Indonesian", "Vietnamese"], "address": {"city": "Culver City", "state": "CA", "postal_code": "90230", "street": "5407 Sepulveda Blvd", "formatted": "5407 Sepulveda Blvd Culver City, CA 90230"}, "geo": {"lat": 33.994933, "lon": -118.395403}, "menus": [], "last_updated": "2021-01-05T08:31:25.744Z"}, {"restaurant_name": "Stone Oven", "restaurant_phone": "(310) 390-5600", "restaurant_website": "", "hours": "Mon-Sat: 10am-9pm Sun: 10am-7pm", "price_range": "$$", "price_range_num": 2, "restaurant_id": 33985470118393524, "cuisines": ["Salads", "Sandwiches"], "address": {"city": "Culver City", "state": "CA", "postal_code": "90230", "street": "6000 Sepulveda Blvd Ste 3218", "formatted": "6000 Sepulveda Blvd Ste 3218 Culver City, CA 90230"}, "geo": {"lat": 33.98547, "lon": -118.393524}, "menus": [], "last_updated": "2021-01-05T08:31:25.963Z"}, {"restaurant_name": "KyoChon", "restaurant_phone": "(310) 391-2449", "restaurant_website": "http://www.kyochon.us", "hours": "", "price_range": "$", "price_range_num": 1, "restaurant_id": 33984651118395052, "cuisines": ["Asian", "Chicken", "Korean"], "address": {"city": "CULVER CITY", "state": "CA", "postal_code": "90230", "street": "6000 Sepulveda Blvd", "formatted": "6000 Sepulveda Blvd CULVER CITY, CA 90230"}, "geo": {"lat": 33.984651, "lon": -118.395051}, "menus": [], "last_updated": "2021-01-05T08:31:26.108Z"}, {"restaurant_name": "Pho Show", "restaurant_phone": "(310) 398-5200", "restaurant_website": "http://www.phoshow.net", "hours": "Lunch Mon-Sat: 11am-3pm Sun: 11am-3pm Dinner Mon-Sat: 5pm-2am Sun: 5pm-10pm", "price_range": "$$", "price_range_num": 2, "restaurant_id": 34148796118468540, "cuisines": ["Chinese", "Noodles", "Vietnamese"], "address": {"city": "Culver City", "state": "CA", "postal_code": "90230", "street": "4349 Sepulveda Blvd", "formatted": "4349 Sepulveda Blvd Culver City, CA 90230"}, "geo": {"lat": 34.148796, "lon": -118.468539}, "menus": [], "last_updated": "2021-01-05T08:31:26.131Z"}, {"restaurant_name": "Five Guys", "restaurant_phone": "(310) 391-0603", "restaurant_website": "http://www.fiveguys.com", "hours": "Daily: 11am-10pm", "price_range": "$", "price_range_num": 1, "restaurant_id": 33985432118393320, "cuisines": ["Burgers", "Hot Dogs"], "address": {"city": "Culver City", "state": "CA", "postal_code": "90230", "street": "6000 Sepulveda Blvd", "formatted": "6000 Sepulveda Blvd Culver City, CA 90230"}, "geo": {"lat": 33.985432, "lon": -118.393318}, "menus": [], "last_updated": "2021-01-05T08:31:26.137Z"}, {"restaurant_name": "Extreme Pizza", "restaurant_phone": "(310) 390-7788", "restaurant_website": "", "hours": "Daily: 11am-10pm", "price_range": "$$", "price_range_num": 2, "restaurant_id": 33985787118394936, "cuisines": ["Pizza"], "address": {"city": "Culver City", "state": "CA", "postal_code": "90230", "street": "6000 Sepulveda Blvd", "formatted": "6000 Sepulveda Blvd Culver City, CA 90230"}, "geo": {"lat": 33.985787, "lon": -118.394938}, "menus": [], "last_updated": "2021-01-05T08:31:26.176Z"}, {"restaurant_name": "Reyhan Persian Cuisine", "restaurant_phone": "(310) 390-6800", "restaurant_website": "", "hours": "Mon-Fri: 11am-9pm Sat: 4pm-9pm", "price_range": "$", "price_range_num": 1, "restaurant_id": 33985971118401332, "cuisines": ["Mediterranean", "Persian"], "address": {"city": "Culver City", "state": "CA", "postal_code": "90230", "street": "11800 Jefferson Blvd", "formatted": "11800 Jefferson Blvd Culver City, CA 90230"}, "geo": {"lat": 33.985971, "lon": -118.401332}, "menus": [], "last_updated": "2021-01-05T08:31:26.182Z"}, {"restaurant_name": "BJ's Restaurant & Brewhouse", "restaurant_phone": "(310) 574-5170", "restaurant_website": "http://www.bjsrestaurants.com/locations/ca/culver-city", "hours": "Mon-Thu: 11am-12am Fri: 11am-1am Sat: 10am-1am Sun: 10am-12am", "price_range": "$$", "price_range_num": 2, "restaurant_id": 33985230118394812, "cuisines": ["American", "Bar Food"], "address": {"city": "Culver City", "state": "CA", "postal_code": "90230", "street": "6000 Sepulveda Blvd Ste 1111", "formatted": "6000 Sepulveda Blvd Ste 1111 Culver City, CA 90230"}, "geo": {"lat": 33.98523, "lon": -118.394812}, "menus": [], "last_updated": "2021-01-05T08:31:26.313Z"}, {"restaurant_name": "Swanya Thai Cuisine", "restaurant_phone": "(310) 313-1999", "restaurant_website": "", "hours": "Daily: 11am-10pm", "price_range": "$$$", "price_range_num": 3, "restaurant_id": 34004233118408860, "cuisines": ["Seafood", "Thai"], "address": {"city": "Culver City", "state": "CA", "postal_code": "90230", "street": "4322 Sepulveda Blvd", "formatted": "4322 Sepulveda Blvd Culver City, CA 90230"}, "geo": {"lat": 34.004233, "lon": -118.408859}, "menus": [], "last_updated": "2021-01-05T08:31:26.370Z"}, {"restaurant_name": "Thai Klang Dong", "restaurant_phone": "(310) 390-7399", "restaurant_website": "http://www.thaiklangdong.com/", "hours": "Mon-Thu, Sun: 11am-10pm Fri-Sat: 11am-10:30pm", "price_range": "$$", "price_range_num": 2, "restaurant_id": 33999547118400932, "cuisines": ["Chinese", "Thai"], "address": {"city": "Culver City", "state": "CA", "postal_code": "90230", "street": "4903 Sepulveda Blvd", "formatted": "4903 Sepulveda Blvd Culver City, CA 90230"}, "geo": {"lat": 33.999547, "lon": -118.400932}, "menus": [], "last_updated": "2021-01-05T08:31:26.401Z"}, {"restaurant_name": "Wokcano", "restaurant_phone": "(310) 458-3080", "restaurant_website": "http://www.wokcanorestaurant.com", "hours": "Daily: 11am-2am", "price_range": "$$$", "price_range_num": 3, "restaurant_id": 34017055118493616, "cuisines": ["Chinese", "Japanese", "Sushi"], "address": {"city": "Culver City", "state": "CA", "postal_code": "90230", "street": "6000 Sepulveda Blvd", "formatted": "6000 Sepulveda Blvd Culver City, CA 90230"}, "geo": {"lat": 34.017055, "lon": -118.493614}, "menus": [], "last_updated": "2021-01-05T08:31:26.429Z"}, {"restaurant_name": "Vinoteque", "restaurant_phone": "(310) 482-3490", "restaurant_website": "http://www.vinotequela.com/", "hours": "Mon-Thu: 4pm-12am Fri-Sat: 4pm-1am Sun: 4pm-11pm", "price_range": "", "price_range_num": 0, "restaurant_id": 34002548118406504, "cuisines": ["French", "Spanish"], "address": {"city": "CULVER CITY", "state": "CA", "postal_code": "90230", "street": "4437 Sepulveda Blvd", "formatted": "4437 Sepulveda Blvd CULVER CITY, CA 90230"}, "geo": {"lat": 34.002548, "lon": -118.406502}, "menus": [], "last_updated": "2021-01-05T08:31:26.594Z"}, {"restaurant_name": "Mateo's Ice Cream & Fruit Bars", "restaurant_phone": "(310) 313-7625", "restaurant_website": "", "hours": "Daily: 8am-8pm", "price_range": "", "price_range_num": 0, "restaurant_id": 33999981118401708, "cuisines": ["Desserts", "Smoothies & Juices"], "address": {"city": "Culver City", "state": "CA", "postal_code": "90230", "street": "4929 Sepulveda Blvd", "formatted": "4929 Sepulveda Blvd Culver City, CA 90230"}, "geo": {"lat": 33.999981, "lon": -118.401708}, "menus": [], "last_updated": "2021-01-05T08:31:26.725Z"}, {"restaurant_name": "Winchell's Doughnut House", "restaurant_phone": "(310) 397-9714", "restaurant_website": "", "hours": "", "price_range": "", "price_range_num": 0, "restaurant_id": 33989724118396150, "cuisines": ["American", "Bakery & Pastries", "Smoothies & Juices"], "address": {"city": "CULVER CITY", "state": "CA", "postal_code": "90230", "street": "11413 Jefferson Blvd", "formatted": "11413 Jefferson Blvd CULVER CITY, CA 90230"}, "geo": {"lat": 33.989724, "lon": -118.396151}, "menus": [], "last_updated": "2021-01-05T08:31:26.805Z"}, {"restaurant_name": "Panda Express", "restaurant_phone": "(310) 390-7848", "restaurant_website": "http://www.pandaexpress.com", "hours": "", "price_range": "", "price_range_num": 0, "restaurant_id": 33985379118395144, "cuisines": ["Chinese"], "address": {"city": "Culver City", "state": "CA", "postal_code": "90230", "street": "326 Fox Hills Mall", "formatted": "326 Fox Hills Mall Culver City, CA 90230"}, "geo": {"lat": 33.985379, "lon": -118.395146}, "menus": [], "last_updated": "2021-01-05T08:31:26.808Z"}, {"restaurant_name": "Yoshinoya", "restaurant_phone": "(310) 397-4357", "restaurant_website": "", "hours": "", "price_range": "", "price_range_num": 0, "restaurant_id": 33993163118395780, "cuisines": ["Japanese"], "address": {"city": "Culver City", "state": "CA", "postal_code": "90230", "street": "5495 Sepulveda Blvd", "formatted": "5495 Sepulveda Blvd Culver City, CA 90230"}, "geo": {"lat": 33.993163, "lon": -118.39578}, "menus": [], "last_updated": "2021-01-05T08:31:26.811Z"}, {"restaurant_name": "Dragon Chinese Restaurant", "restaurant_phone": "(310) 838-9869", "restaurant_website": "http://dragon-restaurant.com", "hours": "Delivery Daily: 11am-9:45pm", "price_range": "$$", "price_range_num": 2, "restaurant_id": 34000015118394130, "cuisines": ["Chinese"], "address": {"city": "Culver City", "state": "CA", "postal_code": "90230", "street": "10814 Jefferson Blvd", "formatted": "10814 Jefferson Blvd Culver City, CA 90230"}, "geo": {"lat": 34.000015, "lon": -118.394127}, "menus": [], "last_updated": "2021-01-05T08:31:26.841Z"}, {"restaurant_name": "Taco Bell", "restaurant_phone": "(310) 397-9548", "restaurant_website": "http://www.tacobell.com", "hours": "", "price_range": "", "price_range_num": 0, "restaurant_id": 34003247118406870, "cuisines": ["Mexican"], "address": {"city": "CULVER CITY", "state": "CA", "postal_code": "90230", "street": "4416 Sepulveda Blvd", "formatted": "4416 Sepulveda Blvd CULVER CITY, CA 90230"}, "geo": {"lat": 34.003247, "lon": -118.406874}, "menus": [], "last_updated": "2021-01-05T08:31:26.908Z"}, {"restaurant_name": "Coco's Bakery", "restaurant_phone": "(310) 397-7165", "restaurant_website": "http://www.cocosbakery.com/", "hours": "", "price_range": "", "price_range_num": 0, "restaurant_id": 33996922118396090, "cuisines": ["American", "Bakery & Pastries", "Desserts"], "address": {"city": "Culver City", "state": "CA", "postal_code": "90230", "street": "5350 Sepulveda Blvd", "formatted": "5350 Sepulveda Blvd Culver City, CA 90230"}, "geo": {"lat": 33.996922, "lon": -118.396088}, "menus": [], "last_updated": "2021-01-05T08:31:26.995Z"}, {"restaurant_name": "Subway", "restaurant_phone": "(310) 397-1515", "restaurant_website": "https://restaurants.subway.com/united-states/ca/culver-city/3817-sepulveda-blvd?utm_source=yext-other&utm_medium=local&utm_term=acq&utm_content=25468&utm_campaign=evergreen-2020&y_source=1_MTQ5MTAzODg", "hours": "", "price_range": "", "price_range_num": 0, "restaurant_id": 34012200118416900, "cuisines": ["Sandwiches"], "address": {"city": "Culver City", "state": "CA", "postal_code": "90230", "street": "3817 Sepulveda Blvd", "formatted": "3817 Sepulveda Blvd Culver City, CA 90230"}, "geo": {"lat": 34.0122, "lon": -118.4169}, "menus": [], "last_updated": "2021-01-05T08:31:27.167Z"}, {"restaurant_name": "King's Kabob", "restaurant_phone": "(310) 390-1599", "restaurant_website": "http:///ca/culver-city/816367-kings-kabob/", "hours": "", "price_range": "", "price_range_num": 0, "restaurant_id": 33994949118395812, "cuisines": [""], "address": {"city": "Culver City", "state": "CA", "postal_code": "90230", "street": "5401 Sepulveda Boulevard", "formatted": "5401 Sepulveda Boulevard Culver City, CA 90230"}, "geo": {"lat": 33.994949, "lon": -118.395813}, "menus": [], "last_updated": "2021-01-05T08:31:22.755Z"}, {"restaurant_name": "George Petrellis Steakhouse", "restaurant_phone": "(310) 397-1438", "restaurant_website": "http:///ca/culver-city/790256-george-petrellis-steakhouse/", "hours": "", "price_range": "", "price_range_num": 0, "restaurant_id": 33989296118395544, "cuisines": [""], "address": {"city": "Culver City", "state": "CA", "postal_code": "90230", "street": "5615 Sepulveda Boulevard", "formatted": "5615 Sepulveda Boulevard Culver City, CA 90230"}, "geo": {"lat": 33.989296, "lon": -118.395546}, "menus": [], "last_updated": "2021-01-05T08:31:22.906Z"}, {"restaurant_name": "Domino's Pizza", "restaurant_phone": "(310) 839-0999", "restaurant_website": "http://www.dominos.com", "hours": "", "price_range": "", "price_range_num": 0, "restaurant_id": 34005035118410440, "cuisines": ["American", "Pizza", "Wings"], "address": {"city": "Culver City", "state": "CA", "postal_code": "90230", "street": "4238 Sepulveda Blvd", "formatted": "4238 Sepulveda Blvd Culver City, CA 90230"}, "geo": {"lat": 34.005035, "lon": -118.410439}, "menus": [], "last_updated": "2021-01-05T08:31:23.002Z"}, {"restaurant_name": "El Taco Toro", "restaurant_phone": "(424) 414-3255", "restaurant_website": "http:///ca/culver-city/718096-el-taco-toro/", "hours": "", "price_range": "", "price_range_num": 0, "restaurant_id": 33993832118414656, "cuisines": [""], "address": {"city": "Culver City", "state": "CA", "postal_code": "90230", "street": "4700 Inglewood Boulevard", "formatted": "4700 Inglewood Boulevard Culver City, CA 90230"}, "geo": {"lat": 33.993832, "lon": -118.414658}, "menus": [], "last_updated": "2021-01-05T08:31:23.137Z"}], "numResults": 25}