{"totalResults": 170, "page": 1, "total_pages": 7, "more_pages": true, "data": [{"restaurant_name": "Sopita Ramen", "restaurant_phone": "(323) 219-5294", "restaurant_website": "http:///ca/los-angeles/762284-sopita-ramen/", "hours": "", "price_range": "", "price_range_num": 0, "restaurant_id": 34047615118284616, "cuisines": [""], "address": {"city": "Los Angeles", "state": "CA", "postal_code": "90006", "street": "2201 W Pico Blvd", "formatted": "2201 W Pico Blvd Los Angeles, CA 90006"}, "geo": {"lat": 34.047615, "lon": -118.284615}, "menus": [], "last_updated": "2020-12-29T06:46:06.266Z"}, {"restaurant_name": "Domino's Pizza", "restaurant_phone": "(213) 748-7774", "restaurant_website": "http://www.dominos.com", "hours": "", "price_range": "", "price_range_num": 0, "restaurant_id": 34042400118284000, "cuisines": ["American", "Pizza", "Wings"], "address": {"city": "Los Angeles", "state": "CA", "postal_code": "90006", "street": "1740 S Hoover St", "formatted": "1740 S Hoover St Los Angeles, CA 90006"}, "geo": {"lat": 34.0424, "lon": -118.284}, "menus": [], "last_updated": "2020-12-29T06:46:06.858Z"}, {"restaurant_name": "Shabuya", "restaurant_phone": "(213) 318-5635", "restaurant_website": "http:///ca/los-angeles/722802-shabuya/", "hours": "", "price_range": "", "price_range_num": 0, "restaurant_id": 34051296118278200, "cuisines": [""], "address": {"city": "Los Angeles", "state": "CA", "postal_code": "90006", "street": "1925 West Olympic Boulevard", "formatted": "1925 West Olympic Boulevard Los Angeles, CA 90006"}, "geo": {"lat": 34.051296, "lon": -118.278198}, "menus": [], "last_updated": "2020-12-29T06:46:07.275Z"}, {"restaurant_name": "Ong Ga Nae Korean BBQ", "restaurant_phone": "(213) 386-9292", "restaurant_website": "http:///ca/los-angeles/722769-ong-ga-nae-korean-bbq/", "hours": "", "price_range": "", "price_range_num": 0, "restaurant_id": 34054619118291330, "cuisines": [""], "address": {"city": "Los Angeles", "state": "CA", "postal_code": "90006", "street": "936 South Vermont Avenue", "formatted": "936 South Vermont Avenue Los Angeles, CA 90006"}, "geo": {"lat": 34.054619, "lon": -118.291328}, "menus": [], "last_updated": "2020-12-29T06:46:07.440Z"}, {"restaurant_name": "J Bbq", "restaurant_phone": "(213) 381-9292", "restaurant_website": "http:///ca/los-angeles/722701-j-bbq/", "hours": "", "price_range": "", "price_range_num": 0, "restaurant_id": 34055828118291790, "cuisines": [""], "address": {"city": "Los Angeles", "state": "CA", "postal_code": "90006", "street": "901 South Vermont Avenue", "formatted": "901 South Vermont Avenue Los Angeles, CA 90006"}, "geo": {"lat": 34.055828, "lon": -118.291794}, "menus": [], "last_updated": "2020-12-29T06:46:07.651Z"}, {"restaurant_name": "Sanya", "restaurant_phone": "(213) 383-1144", "restaurant_website": "http:///ca/los-angeles/722674-sanya/", "hours": "", "price_range": "", "price_range_num": 0, "restaurant_id": 34053021118297576, "cuisines": [""], "address": {"city": "Los Angeles", "state": "CA", "postal_code": "90006", "street": "2897 West Olympic Boulevard", "formatted": "2897 West Olympic Boulevard Los Angeles, CA 90006"}, "geo": {"lat": 34.053021, "lon": -118.297577}, "menus": [], "last_updated": "2020-12-29T06:46:07.915Z"}, {"restaurant_name": "YTB Korean Bbq", "restaurant_phone": "(213) 915-0003", "restaurant_website": "http:///ca/los-angeles/722634-ytb-korean-bbq/", "hours": "", "price_range": "", "price_range_num": 0, "restaurant_id": 34052608118287468, "cuisines": [""], "address": {"city": "Los Angeles", "state": "CA", "postal_code": "90006", "street": "2585 West Olympic Boulevard", "formatted": "2585 West Olympic Boulevard Los Angeles, CA 90006"}, "geo": {"lat": 34.052608, "lon": -118.287468}, "menus": [], "last_updated": "2020-12-29T06:46:08.016Z"}, {"restaurant_name": "Expresion Oaxaquena", "restaurant_phone": "(323) 766-2922", "restaurant_website": "http:///ca/los-angeles/722625-expresion-oaxaquena/", "hours": "", "price_range": "", "price_range_num": 0, "restaurant_id": 34047005118308524, "cuisines": [""], "address": {"city": "Los Angeles", "state": "CA", "postal_code": "90006", "street": "3078 West Pico Boulevard", "formatted": "3078 West Pico Boulevard Los Angeles, CA 90006"}, "geo": {"lat": 34.047005, "lon": -118.308525}, "menus": [], "last_updated": "2020-12-29T06:46:08.050Z"}, {"restaurant_name": "Bulrocho Korean Restaurant", "restaurant_phone": "(213) 383-0080", "restaurant_website": "http:///ca/los-angeles/722588-bulrocho-korean-restaurant/", "hours": "", "price_range": "", "price_range_num": 0, "restaurant_id": 34053814118292076, "cuisines": [""], "address": {"city": "Los Angeles", "state": "CA", "postal_code": "90006", "street": "955 South Vermont Avenue", "formatted": "955 South Vermont Avenue Los Angeles, CA 90006"}, "geo": {"lat": 34.053814, "lon": -118.292076}, "menus": [], "last_updated": "2020-12-29T06:46:08.196Z"}, {"restaurant_name": "Oyabun", "restaurant_phone": "(213) 489-1710", "restaurant_website": "http:///ca/los-angeles/722538-oyabun/", "hours": "", "price_range": "", "price_range_num": 0, "restaurant_id": 34052139118302612, "cuisines": [""], "address": {"city": "Los Angeles", "state": "CA", "postal_code": "90006", "street": "3060 West Olympic Boulevard", "formatted": "3060 West Olympic Boulevard Los Angeles, CA 90006"}, "geo": {"lat": 34.052139, "lon": -118.302612}, "menus": [], "last_updated": "2020-12-29T06:46:08.392Z"}, {"restaurant_name": "Tous Les Jours", "restaurant_phone": "(213) 382-8494", "restaurant_website": "http:///ca/los-angeles/722494-tous-les-jours/", "hours": "", "price_range": "", "price_range_num": 0, "restaurant_id": 34052071118293010, "cuisines": [""], "address": {"city": "Los Angeles", "state": "CA", "postal_code": "90006", "street": "2736 West Olympic Boulevard", "formatted": "2736 West Olympic Boulevard Los Angeles, CA 90006"}, "geo": {"lat": 34.052071, "lon": -118.293007}, "menus": [], "last_updated": "2020-12-29T06:46:08.457Z"}, {"restaurant_name": "Haewoori Korean Restauant", "restaurant_phone": "(213) 382-8277", "restaurant_website": "http:///ca/los-angeles/722460-haewoori-korean-restauant/", "hours": "", "price_range": "", "price_range_num": 0, "restaurant_id": 34052357118301350, "cuisines": [""], "address": {"city": "Los Angeles", "state": "CA", "postal_code": "90006", "street": "3030 West Olympic Boulevard", "formatted": "3030 West Olympic Boulevard Los Angeles, CA 90006"}, "geo": {"lat": 34.052357, "lon": -118.301354}, "menus": [], "last_updated": "2020-12-29T06:46:08.606Z"}, {"restaurant_name": "Mi Cocinita Chapina", "restaurant_phone": "(213) 381-1768", "restaurant_website": "http:///ca/los-angeles/719674-mi-cocinita-chapina/", "hours": "", "price_range": "", "price_range_num": 0, "restaurant_id": 34043396118282584, "cuisines": [""], "address": {"city": "Los Angeles", "state": "CA", "postal_code": "90006", "street": "1325 Venice Boulevard", "formatted": "1325 Venice Boulevard Los Angeles, CA 90006"}, "geo": {"lat": 34.043396, "lon": -118.282585}, "menus": [], "last_updated": "2020-12-29T06:46:09.198Z"}, {"restaurant_name": "El Taurino", "restaurant_phone": "(877) 585-1085", "restaurant_website": "http:///ca/los-angeles/719667-el-taurino/", "hours": "", "price_range": "", "price_range_num": 0, "restaurant_id": 34051460118283896, "cuisines": [""], "address": {"city": "Los Angeles", "state": "CA", "postal_code": "90006", "street": "1104 South Hoover Street", "formatted": "1104 South Hoover Street Los Angeles, CA 90006"}, "geo": {"lat": 34.05146, "lon": -118.283897}, "menus": [], "last_updated": "2020-12-29T06:46:09.221Z"}, {"restaurant_name": "The Living Room", "restaurant_phone": "(716) 704-2253", "restaurant_website": "http:///ca/los-angeles/719605-the-living-room/", "hours": "", "price_range": "", "price_range_num": 0, "restaurant_id": 34053326118287056, "cuisines": [""], "address": {"city": "Los Angeles", "state": "CA", "postal_code": "90006", "street": "965 Magnolia Avenue", "formatted": "965 Magnolia Avenue Los Angeles, CA 90006"}, "geo": {"lat": 34.053326, "lon": -118.287056}, "menus": [], "last_updated": "2020-12-29T06:46:09.505Z"}, {"restaurant_name": "Pulgarcito Family Restaurant", "restaurant_phone": "(213) 388-6635", "restaurant_website": "http:///ca/los-angeles/578979-pulgarcito-family-restaurant/", "hours": "", "price_range": "", "price_range_num": 0, "restaurant_id": 34047108118291830, "cuisines": [""], "address": {"city": "Los Angeles", "state": "CA", "postal_code": "90006", "street": "2500 W Pico Blvd", "formatted": "2500 W Pico Blvd Los Angeles, CA 90006"}, "geo": {"lat": 34.047108, "lon": -118.291832}, "menus": [], "last_updated": "2020-12-28T19:25:13.114Z"}, {"restaurant_name": "MuMu Bakery & Cake", "restaurant_phone": "(213) 660-6776", "restaurant_website": "http:///ca/los-angeles/588378-mumu-bakery-cake/", "hours": "", "price_range": "", "price_range_num": 0, "restaurant_id": 34052898118303496, "cuisines": [""], "address": {"city": "Los Angeles", "state": "CA", "postal_code": "90006", "street": "3109 W Olympic Blvd", "formatted": "3109 W Olympic Blvd Los Angeles, CA 90006"}, "geo": {"lat": 34.052898, "lon": -118.303497}, "menus": [], "last_updated": "2020-12-28T19:25:14.254Z"}, {"restaurant_name": "Smoke Star BBQ", "restaurant_phone": "(323) 641-7777", "restaurant_website": "http://www.smokestarbbq.com", "hours": "Mon-Sat: 11am-9pm", "price_range": "$$$", "price_range_num": 3, "restaurant_id": 34047502118308652, "cuisines": ["Barbecue", "Soul Food"], "address": {"city": "Los Angeles", "state": "CA", "postal_code": "90006", "street": "3087 W Pico Blvd", "formatted": "3087 W Pico Blvd Los Angeles, CA 90006"}, "geo": {"lat": 34.047502, "lon": -118.308652}, "menus": [], "last_updated": "2020-12-29T06:50:30.227Z"}, {"restaurant_name": "La Torta Loca", "restaurant_phone": "(213) 627-2424", "restaurant_website": "", "hours": "Daily: 6am-4pm", "price_range": "$", "price_range_num": 1, "restaurant_id": 34040394118253188, "cuisines": ["Mexican"], "address": {"city": "Los Angeles", "state": "CA", "postal_code": "90006", "street": "855 Santee St", "formatted": "855 Santee St Los Angeles, CA 90006"}, "geo": {"lat": 34.040394, "lon": -118.253189}, "menus": [], "last_updated": "2020-12-29T06:50:30.641Z"}, {"restaurant_name": "Seoul Garden Restaurant", "restaurant_phone": "(213) 386-8477", "restaurant_website": "", "hours": "Daily: 11am-10pm ", "price_range": "$$$$", "price_range_num": 4, "restaurant_id": 34050861118277376, "cuisines": ["Barbecue", "Korean"], "address": {"city": "Los Angeles", "state": "CA", "postal_code": "90006", "street": "1833 W Olympic Blvd", "formatted": "1833 W Olympic Blvd Los Angeles, CA 90006"}, "geo": {"lat": 34.050861, "lon": -118.277374}, "menus": [], "last_updated": "2020-12-29T06:49:39.320Z"}, {"restaurant_name": "Road To Seoul Korean BBQ", "restaurant_phone": "(323) 731-9292", "restaurant_website": "", "hours": "Daily: 11am-11pm", "price_range": "$$$", "price_range_num": 3, "restaurant_id": 34048686118309108, "cuisines": ["Barbecue", "Korean"], "address": {"city": "Los Angeles", "state": "CA", "postal_code": "90006", "street": "1230 S Western Ave", "formatted": "1230 S Western Ave Los Angeles, CA 90006"}, "geo": {"lat": 34.048686, "lon": -118.309108}, "menus": [], "last_updated": "2020-12-29T06:49:39.457Z"}, {"restaurant_name": "El Asador Restaurant", "restaurant_phone": "(213) 387-8220", "restaurant_website": "", "hours": "Daily: 8am-9pm", "price_range": "$", "price_range_num": 1, "restaurant_id": 34042579118281360, "cuisines": ["Caribbean", "Mexican", "Seafood"], "address": {"city": "Los Angeles", "state": "CA", "postal_code": "90006", "street": "1225 Venice Blvd", "formatted": "1225 Venice Blvd Los Angeles, CA 90006"}, "geo": {"lat": 34.042579, "lon": -118.281361}, "menus": [], "last_updated": "2020-12-29T06:50:00.009Z"}, {"restaurant_name": "A-Won", "restaurant_phone": "(213) 389-6764", "restaurant_website": "", "hours": "Mon-Sat: 10am-11pm Sun: 4pm-10:30pm ", "price_range": "$$$", "price_range_num": 3, "restaurant_id": 34054914118291640, "cuisines": ["Japanese", "Sushi"], "address": {"city": "Los Angeles", "state": "CA", "postal_code": "90006", "street": "913 1/2 S Vermont Ave", "formatted": "913 1/2 S Vermont Ave Los Angeles, CA 90006"}, "geo": {"lat": 34.054914, "lon": -118.291642}, "menus": [], "last_updated": "2020-12-29T06:50:00.380Z"}, {"restaurant_name": "El Cholo -", "restaurant_phone": "(323) 734-2773", "restaurant_website": "", "hours": "Mon-Thu: 11am-10pm Fri-Sat: 11am-11pm Sun: 11am-9pm", "price_range": "$$$", "price_range_num": 3, "restaurant_id": 34050257118309230, "cuisines": ["Mexican"], "address": {"city": "Los Angeles", "state": "CA", "postal_code": "90006", "street": "1121 South Western Ave", "formatted": "1121 South Western Ave Los Angeles, CA 90006"}, "geo": {"lat": 34.050257, "lon": -118.309234}, "menus": [], "last_updated": "2020-12-29T06:50:02.914Z"}, {"restaurant_name": "McDonald's", "restaurant_phone": "", "restaurant_website": "http://www.mcdonalds.com", "hours": "", "price_range": "", "price_range_num": 0, "restaurant_id": 34051119118279224, "cuisines": ["American", "Burgers"], "address": {"city": "LOS ANGELES", "state": "CA", "postal_code": "90006", "street": "2020 W Olympic Blvd", "formatted": "2020 W Olympic Blvd LOS ANGELES, CA 90006"}, "geo": {"lat": 34.051119, "lon": -118.279223}, "menus": [], "last_updated": "2020-12-29T06:51:31.670Z"}], "numResults": 25}