{"totalResults": 61, "page": 1, "total_pages": 3, "more_pages": true, "data": [{"restaurant_name": "Mr. Pizza", "restaurant_phone": "(310) 734-7113", "restaurant_website": "", "hours": "", "price_range": "", "price_range_num": 0, "restaurant_id": 34091124118288950, "cuisines": [""], "address": {"city": "Century City", "state": "CA", "postal_code": "90067", "street": "10250 Santa Monica Blvd", "formatted": "10250 Santa Monica Blvd Century City, CA 90067"}, "geo": {"lat": 34.091124, "lon": -118.288952}, "menus": [], "last_updated": "2021-01-05T08:32:56.302Z"}, {"restaurant_name": "Bibigo - Century City", "restaurant_phone": "(310) 557-0011", "restaurant_website": "", "hours": "Mon-Sat: 11am-9pm Sun: 11am-7pm", "price_range": "$$", "price_range_num": 2, "restaurant_id": 34059610118419416, "cuisines": ["Korean"], "address": {"city": "Century City", "state": "CA", "postal_code": "90067", "street": "10250 Santa Monica Blvd.", "formatted": "10250 Santa Monica Blvd. Century City, CA 90067"}, "geo": {"lat": 34.05961, "lon": -118.419418}, "menus": [], "last_updated": "2021-01-05T08:32:56.347Z"}, {"restaurant_name": "Seiki-Shi Sushi", "restaurant_phone": "(310) 557-3080", "restaurant_website": "", "hours": "Mon-Thu: 10am-9pm Fri-Sat: 10am-10pm Sun: 10am-8pm", "price_range": "$$", "price_range_num": 2, "restaurant_id": 34059570118420508, "cuisines": ["Japanese", "Sushi"], "address": {"city": "Century City", "state": "CA", "postal_code": "90067", "street": "10250 Santa Monica Blvd", "formatted": "10250 Santa Monica Blvd Century City, CA 90067"}, "geo": {"lat": 34.05957, "lon": -118.420509}, "menus": [], "last_updated": "2021-01-05T08:32:56.403Z"}, {"restaurant_name": "Kichi Grill", "restaurant_phone": "(310) 557-3467", "restaurant_website": "", "hours": "", "price_range": "$$", "price_range_num": 2, "restaurant_id": 34060084118419844, "cuisines": ["Asian", "Japanese", "Sushi"], "address": {"city": "Century City", "state": "CA", "postal_code": "90067", "street": "10250 Santa Monica Blvd # FC3", "formatted": "10250 Santa Monica Blvd # FC3 Century City, CA 90067"}, "geo": {"lat": 34.060084, "lon": -118.419845}, "menus": [], "last_updated": "2021-01-05T08:32:56.418Z"}, {"restaurant_name": "Sen Asian Kitchen", "restaurant_phone": "(310) 277-7708", "restaurant_website": "", "hours": "Mon-Fri: 11am-8pm", "price_range": "$$", "price_range_num": 2, "restaurant_id": 34058201118414812, "cuisines": ["Asian Fusion", "Sushi"], "address": {"city": "Century City", "state": "CA", "postal_code": "90067", "street": "2000 Ave Of The Stars Ste 30", "formatted": "2000 Ave Of The Stars Ste 30 Century City, CA 90067"}, "geo": {"lat": 34.058201, "lon": -118.414812}, "menus": [], "last_updated": "2021-01-05T08:32:56.459Z"}, {"restaurant_name": "Trimana", "restaurant_phone": "(310) 557-9909", "restaurant_website": "http:///ca/los-angeles/722678-trimana/", "hours": "", "price_range": "", "price_range_num": 0, "restaurant_id": 34059383118413850, "cuisines": [""], "address": {"city": "Los Angeles", "state": "CA", "postal_code": "90067", "street": "2029 Century Park East", "formatted": "2029 Century Park East Los Angeles, CA 90067"}, "geo": {"lat": 34.059383, "lon": -118.413849}, "menus": [], "last_updated": "2020-12-29T06:46:07.732Z"}, {"restaurant_name": "One Cafe", "restaurant_phone": "(310) 553-5808", "restaurant_website": "http:///ca/los-angeles/722660-one-cafe/", "hours": "", "price_range": "", "price_range_num": 0, "restaurant_id": 34059341118411224, "cuisines": [""], "address": {"city": "Los Angeles", "state": "CA", "postal_code": "90067", "street": "2080 Century Park East", "formatted": "2080 Century Park East Los Angeles, CA 90067"}, "geo": {"lat": 34.059341, "lon": -118.411224}, "menus": [], "last_updated": "2020-12-29T06:46:07.904Z"}, {"restaurant_name": "Mari Los Angeles", "restaurant_phone": "(310) 284-6536", "restaurant_website": "http:///ca/los-angeles/722602-mari-los-angeles/", "hours": "", "price_range": "", "price_range_num": 0, "restaurant_id": 34054119118412324, "cuisines": [""], "address": {"city": "Los Angeles", "state": "CA", "postal_code": "90067", "street": "2151 Avenue of the Stars", "formatted": "2151 Avenue of the Stars Los Angeles, CA 90067"}, "geo": {"lat": 34.054119, "lon": -118.412323}, "menus": [], "last_updated": "2020-12-29T06:46:08.150Z"}, {"restaurant_name": "News Cafe", "restaurant_phone": "(310) 369-0233", "restaurant_website": "http:///ca/los-angeles/722510-news-cafe/", "hours": "", "price_range": "", "price_range_num": 0, "restaurant_id": 34051952118412576, "cuisines": [""], "address": {"city": "Los Angeles", "state": "CA", "postal_code": "90067", "street": "10201 West Pico Boulevard", "formatted": "10201 West Pico Boulevard Los Angeles, CA 90067"}, "geo": {"lat": 34.051952, "lon": -118.412575}, "menus": [], "last_updated": "2020-12-29T06:46:08.500Z"}, {"restaurant_name": "Caffe Paraggi", "restaurant_phone": "(310) 284-8555", "restaurant_website": "http://www.caffeparaggi.com", "hours": "Mon-Sat: 11am-10pm Sun: 11am-8pm", "price_range": "$$", "price_range_num": 2, "restaurant_id": 34061036118413800, "cuisines": ["Coffee & Tea", "Italian", "Sandwiches"], "address": {"city": "Los Angeles", "state": "CA", "postal_code": "90067", "street": "1888 Century Park E", "formatted": "1888 Century Park E Los Angeles, CA 90067"}, "geo": {"lat": 34.061036, "lon": -118.4138}, "menus": [], "last_updated": "2021-01-05T08:08:28.924Z"}, {"restaurant_name": "Cuvee", "restaurant_phone": "(310) 277-3303", "restaurant_website": "", "hours": "Mon-Fri: 7:30am-9pm", "price_range": "$$", "price_range_num": 2, "restaurant_id": 34058189118414620, "cuisines": ["American", "Italian"], "address": {"city": "Los Angeles", "state": "CA", "postal_code": "90067", "street": "2000 Avenue of The Stars Ste 35", "formatted": "2000 Avenue of The Stars Ste 35 Los Angeles, CA 90067"}, "geo": {"lat": 34.058189, "lon": -118.414619}, "menus": [], "last_updated": "2021-01-05T08:08:29.893Z"}, {"restaurant_name": "Century Grill", "restaurant_phone": "(310) 553-6650", "restaurant_website": "", "hours": "Daily: 11am-6pm", "price_range": "$$", "price_range_num": 2, "restaurant_id": 34059562118417720, "cuisines": ["American"], "address": {"city": "Los Angeles", "state": "CA", "postal_code": "90067", "street": "1901 Ave of the Stars", "formatted": "1901 Ave of the Stars Los Angeles, CA 90067"}, "geo": {"lat": 34.059562, "lon": -118.417719}, "menus": [], "last_updated": "2021-01-05T08:07:42.372Z"}, {"restaurant_name": "Cafe 100", "restaurant_phone": "(310) 553-6331", "restaurant_website": "http:///ca/los-angeles/789330-cafe-100/", "hours": "", "price_range": "", "price_range_num": 0, "restaurant_id": 34061546118416544, "cuisines": [""], "address": {"city": "Los Angeles", "state": "CA", "postal_code": "90067", "street": "10100 Santa Monica Boulevard", "formatted": "10100 Santa Monica Boulevard Los Angeles, CA 90067"}, "geo": {"lat": 34.061546, "lon": -118.416542}, "menus": [], "last_updated": "2021-01-05T08:02:08.233Z"}, {"restaurant_name": "Juice Served Here", "restaurant_phone": "(310) 785-3992", "restaurant_website": "", "hours": "", "price_range": "", "price_range_num": 0, "restaurant_id": 34060000118419800, "cuisines": [""], "address": {"city": "Los Angeles", "state": "CA", "postal_code": "90067", "street": "10250 Santa Monica Blvd Ste 686A", "formatted": "10250 Santa Monica Blvd Ste 686A Los Angeles, CA 90067"}, "geo": {"lat": 34.06, "lon": -118.4198}, "menus": [], "last_updated": "2021-01-05T08:06:17.321Z"}, {"restaurant_name": "NiBi Pho Bistro", "restaurant_phone": "(424) 335-0200", "restaurant_website": "", "hours": "", "price_range": "$$", "price_range_num": 2, "restaurant_id": 34000000118419800, "cuisines": [""], "address": {"city": "Los Angeles", "state": "CA", "postal_code": "90067", "street": "10250 Santa Monica Blvd #FC3", "formatted": "10250 Santa Monica Blvd #FC3 Los Angeles, CA 90067"}, "geo": {"lat": 34, "lon": -118.4198}, "menus": [], "last_updated": "2021-01-05T08:06:17.863Z"}, {"restaurant_name": "The Kitchen At Constellation", "restaurant_phone": "(424) 278-2060", "restaurant_website": "http://www.thekitchenatconstellation.com", "hours": "Mon-Thu: 7am-4pm Fri: 7am-3pm", "price_range": "$$", "price_range_num": 2, "restaurant_id": 34057079118417452, "cuisines": ["American (New)", "Sandwiches"], "address": {"city": "Los Angeles", "state": "CA", "postal_code": "90067", "street": "10250 Constellation Blvd", "formatted": "10250 Constellation Blvd Los Angeles, CA 90067"}, "geo": {"lat": 34.057079, "lon": -118.417451}, "menus": [], "last_updated": "2021-01-05T08:06:19.619Z"}, {"restaurant_name": "X Bar", "restaurant_phone": "(310) 551-3332", "restaurant_website": "http://www.centuryplaza.hyatt.com", "hours": "Mon-Fri: 4pm-2am Sat: 6pm-2am", "price_range": "$$$", "price_range_num": 3, "restaurant_id": 34057218118415624, "cuisines": ["American (New)", "Cocktails"], "address": {"city": "Los Angeles", "state": "CA", "postal_code": "90067", "street": "2025 Avenue of the Stars", "formatted": "2025 Avenue of the Stars Los Angeles, CA 90067"}, "geo": {"lat": 34.057218, "lon": -118.415626}, "menus": [], "last_updated": "2021-01-05T08:06:19.650Z"}, {"restaurant_name": "Massis Kabob", "restaurant_phone": "(310) 556-4400", "restaurant_website": "http://www.massiskabob.com", "hours": "Mon-Sat: 10am-9pm Sun: 10am-7pm", "price_range": "$", "price_range_num": 1, "restaurant_id": 34059992118420040, "cuisines": ["Middle Eastern", "Persian"], "address": {"city": "Los Angeles", "state": "CA", "postal_code": "90067", "street": "10250 Santa Monica Blvd", "formatted": "10250 Santa Monica Blvd Los Angeles, CA 90067"}, "geo": {"lat": 34.059992, "lon": -118.420038}, "menus": [], "last_updated": "2021-01-05T08:06:20.285Z"}, {"restaurant_name": "Mezza Garden", "restaurant_phone": "(310) 277-3770", "restaurant_website": "", "hours": "", "price_range": "", "price_range_num": 0, "restaurant_id": 34058399118419010, "cuisines": [""], "address": {"city": "Los Angeles", "state": "CA", "postal_code": "90067", "street": "10250 Santa Monica Blvd", "formatted": "10250 Santa Monica Blvd Los Angeles, CA 90067"}, "geo": {"lat": 34.058399, "lon": -118.419006}, "menus": [], "last_updated": "2021-01-05T08:05:42.240Z"}, {"restaurant_name": "The Cellar", "restaurant_phone": "(310) 277-1584", "restaurant_website": "", "hours": "Lunch Mon-Fri: 11am-3pm Dinner Mon-Fri: 4:30pm-9pm", "price_range": "$$", "price_range_num": 2, "restaurant_id": 34061872118414124, "cuisines": ["American", "Bar Food"], "address": {"city": "Los Angeles", "state": "CA", "postal_code": "90067", "street": "1880 Century Park E", "formatted": "1880 Century Park E Los Angeles, CA 90067"}, "geo": {"lat": 34.061872, "lon": -118.414123}, "menus": [], "last_updated": "2021-01-05T08:08:24.689Z"}, {"restaurant_name": "Seasons 52", "restaurant_phone": "(310) 277-5252", "restaurant_website": "", "hours": "Mon-Thu: 11am-10pm Fri: 11am-11pm Sat-Sun: 11am-10pm", "price_range": "$", "price_range_num": 1, "restaurant_id": 34059178118420390, "cuisines": ["American (New)"], "address": {"city": "Los Angeles", "state": "CA", "postal_code": "90067", "street": "10250 Santa Monica Blvd", "formatted": "10250 Santa Monica Blvd Los Angeles, CA 90067"}, "geo": {"lat": 34.059178, "lon": -118.420394}, "menus": [], "last_updated": "2021-01-05T08:08:26.077Z"}, {"restaurant_name": "The Edith", "restaurant_phone": "(323) 784-0464", "restaurant_website": "https://the-edith.com", "hours": "", "price_range": "", "price_range_num": 0, "restaurant_id": 34060200118419300, "cuisines": [""], "address": {"city": "Los Angeles", "state": "CA", "postal_code": "90067", "street": "10250 Santa Monica Boulevard", "formatted": "10250 Santa Monica Boulevard Los Angeles, CA 90067"}, "geo": {"lat": 34.0602, "lon": -118.4193}, "menus": [], "last_updated": "2020-12-29T06:46:33.499Z"}, {"restaurant_name": "Tosai Sushi", "restaurant_phone": "(424) 343-0440", "restaurant_website": "http:///ca/los-angeles/573982-tosai-sushi/", "hours": "", "price_range": "", "price_range_num": 0, "restaurant_id": 34057999118418010, "cuisines": [""], "address": {"city": "Los Angeles", "state": "CA", "postal_code": "90067", "street": "10250 Santa Monica Blvd Ste 25", "formatted": "10250 Santa Monica Blvd Ste 25 Los Angeles, CA 90067"}, "geo": {"lat": 34.057999, "lon": -118.418007}, "menus": [], "last_updated": "2020-12-28T19:25:12.358Z"}, {"restaurant_name": "Om Nom Organics", "restaurant_phone": "(201) 618-7809", "restaurant_website": "http:///ca/los-angeles/577694-om-nom-organics/", "hours": "", "price_range": "", "price_range_num": 0, "restaurant_id": 34057179118417510, "cuisines": [""], "address": {"city": "Los Angeles", "state": "CA", "postal_code": "90067", "street": "10250 Constellation Blvd", "formatted": "10250 Constellation Blvd Los Angeles, CA 90067"}, "geo": {"lat": 34.057179, "lon": -118.417511}, "menus": [], "last_updated": "2020-12-28T19:25:12.847Z"}, {"restaurant_name": "Edibles Coffee Shop", "restaurant_phone": "(310) 556-2790", "restaurant_website": "http:///ca/los-angeles/573967-edibles-coffee-shop/", "hours": "", "price_range": "", "price_range_num": 0, "restaurant_id": 34061138118413956, "cuisines": [""], "address": {"city": "Los Angeles", "state": "CA", "postal_code": "90067", "street": "1888 Century Park E", "formatted": "1888 Century Park E Los Angeles, CA 90067"}, "geo": {"lat": 34.061138, "lon": -118.413956}, "menus": [], "last_updated": "2020-12-28T19:25:12.377Z"}], "numResults": 25}