{"totalResults": 60, "page": 1, "total_pages": 3, "more_pages": true, "data": [{"restaurant_name": "Baja Burrito", "restaurant_phone": "(323) 728-1444", "restaurant_website": "", "hours": "Mon-Fri: 10am-3:30pm", "price_range": "$", "price_range_num": 1, "restaurant_id": 33989532118161376, "cuisines": ["Mexican"], "address": {"city": "City of Commerce", "state": "CA", "postal_code": "90040", "street": "4846 S Eastern Ave", "formatted": "4846 S Eastern Ave City of Commerce, CA 90040"}, "geo": {"lat": 33.989532, "lon": -118.161374}, "menus": [], "last_updated": "2021-01-05T08:32:24.862Z"}, {"restaurant_name": "Green Olive", "restaurant_phone": "(323) 721-7213", "restaurant_website": "http://greenoliveca.com", "hours": "Mon-Fri: 10:30am-3pm", "price_range": "$$", "price_range_num": 2, "restaurant_id": 33989534118161396, "cuisines": ["Middle Eastern"], "address": {"city": "City of Commerce", "state": "CA", "postal_code": "90040", "street": "4844 S Eastern Ave", "formatted": "4844 S Eastern Ave City of Commerce, CA 90040"}, "geo": {"lat": 33.989534, "lon": -118.161397}, "menus": [], "last_updated": "2021-01-05T08:32:24.956Z"}, {"restaurant_name": "Aoki", "restaurant_phone": "(323) 780-9802", "restaurant_website": "", "hours": "Mon-Fri: 9:30am-6:30pm Sat: 11am-4pm ", "price_range": "$$", "price_range_num": 2, "restaurant_id": 34002556118168416, "cuisines": ["Japanese", "Sushi"], "address": {"city": "City of Commerce", "state": "CA", "postal_code": "90040", "street": "2470 S Atlantic Blvd", "formatted": "2470 S Atlantic Blvd City of Commerce, CA 90040"}, "geo": {"lat": 34.002556, "lon": -118.168417}, "menus": [], "last_updated": "2021-01-05T08:32:24.966Z"}, {"restaurant_name": "El Taco Buchon", "restaurant_phone": "(323) 318-2888", "restaurant_website": "http:///ca/commerce/842911-el-taco-buchon/", "hours": "", "price_range": "", "price_range_num": 0, "restaurant_id": 34002670118167908, "cuisines": [""], "address": {"city": "Commerce", "state": "CA", "postal_code": "90040", "street": "2444 S Atlantic Blvd", "formatted": "2444 S Atlantic Blvd Commerce, CA 90040"}, "geo": {"lat": 34.00267, "lon": -118.167908}, "menus": [], "last_updated": "2021-01-05T08:32:08.063Z"}, {"restaurant_name": "Sergio's Tacos", "restaurant_phone": "(323) 261-3364", "restaurant_website": "http:///ca/commerce/806028-sergios-tacos/", "hours": "", "price_range": "", "price_range_num": 0, "restaurant_id": 34005680118163316, "cuisines": [""], "address": {"city": "Commerce", "state": "CA", "postal_code": "90040", "street": "2216 South Atlantic Boulevard", "formatted": "2216 South Atlantic Boulevard Commerce, CA 90040"}, "geo": {"lat": 34.00568, "lon": -118.163315}, "menus": [], "last_updated": "2021-01-05T08:32:08.072Z"}, {"restaurant_name": "Xris Burgers", "restaurant_phone": "(323) 264-2440", "restaurant_website": "http:///ca/commerce/790927-xris-burgers/", "hours": "", "price_range": "", "price_range_num": 0, "restaurant_id": 34002743118166228, "cuisines": [""], "address": {"city": "Commerce", "state": "CA", "postal_code": "90040", "street": "5243 East Washington Boulevard", "formatted": "5243 East Washington Boulevard Commerce, CA 90040"}, "geo": {"lat": 34.002743, "lon": -118.166229}, "menus": [], "last_updated": "2021-01-05T08:32:08.082Z"}, {"restaurant_name": "Lucky Guy's Burgers", "restaurant_phone": "(323) 264-0930", "restaurant_website": "http:///ca/commerce/818153-lucky-guys-burgers/", "hours": "", "price_range": "", "price_range_num": 0, "restaurant_id": 34005066118164064, "cuisines": [""], "address": {"city": "Commerce", "state": "CA", "postal_code": "90040", "street": "2250 South Atlantic Boulevard", "formatted": "2250 South Atlantic Boulevard Commerce, CA 90040"}, "geo": {"lat": 34.005066, "lon": -118.164063}, "menus": [], "last_updated": "2021-01-05T08:32:08.091Z"}, {"restaurant_name": "Hong Kong Chinese Food", "restaurant_phone": "(323) 267-5767", "restaurant_website": "http:///ca/commerce/832478-hong-kong-chinese-food/", "hours": "", "price_range": "", "price_range_num": 0, "restaurant_id": 34002586118167260, "cuisines": [""], "address": {"city": "Commerce", "state": "CA", "postal_code": "90040", "street": "5210 East Washington Boulevard", "formatted": "5210 East Washington Boulevard Commerce, CA 90040"}, "geo": {"lat": 34.002586, "lon": -118.167259}, "menus": [], "last_updated": "2021-01-05T08:32:08.118Z"}, {"restaurant_name": "Chickolicious", "restaurant_phone": "(323) 727-7889", "restaurant_website": "http:///ca/commerce/789667-chickolicious/", "hours": "", "price_range": "", "price_range_num": 0, "restaurant_id": 33989430118160776, "cuisines": [""], "address": {"city": "Commerce", "state": "CA", "postal_code": "90040", "street": "4846 South Eastern Avenue", "formatted": "4846 South Eastern Avenue Commerce, CA 90040"}, "geo": {"lat": 33.98943, "lon": -118.160774}, "menus": [], "last_updated": "2021-01-05T08:32:08.135Z"}, {"restaurant_name": "Tacos El Charro", "restaurant_phone": "(323) 720-1085", "restaurant_website": "http:///ca/commerce/789562-tacos-el-charro/", "hours": "", "price_range": "", "price_range_num": 0, "restaurant_id": 33997311118151630, "cuisines": [""], "address": {"city": "Commerce", "state": "CA", "postal_code": "90040", "street": "5900 East Washington Boulevard", "formatted": "5900 East Washington Boulevard Commerce, CA 90040"}, "geo": {"lat": 33.997311, "lon": -118.151634}, "menus": [], "last_updated": "2021-01-05T08:32:08.143Z"}, {"restaurant_name": "Terra Nova", "restaurant_phone": "(323) 887-8100", "restaurant_website": "http:///ca/commerce/718255-terra-nova/", "hours": "", "price_range": "", "price_range_num": 0, "restaurant_id": 34003960118150748, "cuisines": [""], "address": {"city": "Commerce", "state": "CA", "postal_code": "90040", "street": "5757 Telegraph Road", "formatted": "5757 Telegraph Road Commerce, CA 90040"}, "geo": {"lat": 34.00396, "lon": -118.150749}, "menus": [], "last_updated": "2021-01-05T08:32:08.203Z"}, {"restaurant_name": "The Coffee Bean and Tea Leaf", "restaurant_phone": "(323) 890-2904", "restaurant_website": "http:///ca/commerce/718357-the-coffee-bean-and-tea-leaf/", "hours": "", "price_range": "", "price_range_num": 0, "restaurant_id": 33995171118142650, "cuisines": [""], "address": {"city": "Commerce", "state": "CA", "postal_code": "90040", "street": "6320 East Washington Boulevard", "formatted": "6320 East Washington Boulevard Commerce, CA 90040"}, "geo": {"lat": 33.995171, "lon": -118.142647}, "menus": [], "last_updated": "2021-01-05T08:32:08.215Z"}, {"restaurant_name": "Las Champas Jl", "restaurant_phone": "(323) 318-2339", "restaurant_website": "http:///ca/commerce/718106-las-champas-jl/", "hours": "", "price_range": "", "price_range_num": 0, "restaurant_id": 34001843118168344, "cuisines": [""], "address": {"city": "Commerce", "state": "CA", "postal_code": "90040", "street": "2470 South Atlantic Boulevard", "formatted": "2470 South Atlantic Boulevard Commerce, CA 90040"}, "geo": {"lat": 34.001843, "lon": -118.168343}, "menus": [], "last_updated": "2021-01-05T08:32:08.241Z"}, {"restaurant_name": "IL Saggio Italian Restaurant", "restaurant_phone": "(323) 490-7130", "restaurant_website": "http:///ca/commerce/717973-il-saggio-italian-restaurant/", "hours": "", "price_range": "", "price_range_num": 0, "restaurant_id": 34001396118162050, "cuisines": [""], "address": {"city": "Commerce", "state": "CA", "postal_code": "90040", "street": "5427 East Washington Boulevard", "formatted": "5427 East Washington Boulevard Commerce, CA 90040"}, "geo": {"lat": 34.001396, "lon": -118.162048}, "menus": [], "last_updated": "2021-01-05T08:32:08.265Z"}, {"restaurant_name": "Pronto Cafe", "restaurant_phone": "(323) 516-6358", "restaurant_website": "http:///ca/commerce/717938-pronto-cafe/", "hours": "", "price_range": "", "price_range_num": 0, "restaurant_id": 34006340118152950, "cuisines": [""], "address": {"city": "Commerce", "state": "CA", "postal_code": "90040", "street": "100 Citadel Drive", "formatted": "100 Citadel Drive Commerce, CA 90040"}, "geo": {"lat": 34.00634, "lon": -118.152954}, "menus": [], "last_updated": "2021-01-05T08:32:08.286Z"}, {"restaurant_name": "Maguey Sports Bar & Grill", "restaurant_phone": "(323) 269-2442", "restaurant_website": "http:///ca/commerce/717936-maguey-sports-bar-grill/", "hours": "", "price_range": "", "price_range_num": 0, "restaurant_id": 34001957118165376, "cuisines": [""], "address": {"city": "Commerce", "state": "CA", "postal_code": "90040", "street": "5280 East Washington Boulevard", "formatted": "5280 East Washington Boulevard Commerce, CA 90040"}, "geo": {"lat": 34.001957, "lon": -118.165375}, "menus": [], "last_updated": "2021-01-05T08:32:08.296Z"}, {"restaurant_name": "MJ Cafe", "restaurant_phone": "(323) 724-2233", "restaurant_website": "http:///ca/commerce/717928-mj-cafe/", "hours": "", "price_range": "", "price_range_num": 0, "restaurant_id": 33997002118148024, "cuisines": [""], "address": {"city": "Commerce", "state": "CA", "postal_code": "90040", "street": "6055 East Washington Boulevard", "formatted": "6055 East Washington Boulevard Commerce, CA 90040"}, "geo": {"lat": 33.997002, "lon": -118.148026}, "menus": [], "last_updated": "2021-01-05T08:32:08.306Z"}, {"restaurant_name": "Starbucks", "restaurant_phone": "(877) 585-1085", "restaurant_website": "http:///ca/commerce/718335-starbucks/", "hours": "", "price_range": "", "price_range_num": 0, "restaurant_id": 33975372118124360, "cuisines": [""], "address": {"city": "Commerce", "state": "CA", "postal_code": "90040", "street": "7724 Telegraph Road", "formatted": "7724 Telegraph Road Commerce, CA 90040"}, "geo": {"lat": 33.975372, "lon": -118.124359}, "menus": [], "last_updated": "2021-01-05T08:32:08.330Z"}, {"restaurant_name": "Pronto Cafe Ice Cream Stand", "restaurant_phone": "(877) 585-1085", "restaurant_website": "http:///ca/commerce/717795-pronto-cafe-ice-cream-stand/", "hours": "", "price_range": "", "price_range_num": 0, "restaurant_id": 34008987118152076, "cuisines": [""], "address": {"city": "Commerce", "state": "CA", "postal_code": "90040", "street": "5600 Flotilla Street", "formatted": "5600 Flotilla Street Commerce, CA 90040"}, "geo": {"lat": 34.008987, "lon": -118.152077}, "menus": [], "last_updated": "2021-01-05T08:32:08.336Z"}, {"restaurant_name": "323 Bistro", "restaurant_phone": "(323) 721-2100", "restaurant_website": "http:///ca/commerce/717683-323-bistro/", "hours": "", "price_range": "", "price_range_num": 0, "restaurant_id": 33998192118145036, "cuisines": [""], "address": {"city": "Commerce", "state": "CA", "postal_code": "90040", "street": "6121 Telegraph Road", "formatted": "6121 Telegraph Road Commerce, CA 90040"}, "geo": {"lat": 33.998192, "lon": -118.145035}, "menus": [], "last_updated": "2021-01-05T08:32:08.340Z"}, {"restaurant_name": "Lamajoon Shish Kabob", "restaurant_phone": "(323) 727-7102", "restaurant_website": "http:///ca/commerce/717803-lamajoon-shish-kabob/", "hours": "", "price_range": "", "price_range_num": 0, "restaurant_id": 34005539118152950, "cuisines": [""], "address": {"city": "Commerce", "state": "CA", "postal_code": "90040", "street": "150 Citadel Drive", "formatted": "150 Citadel Drive Commerce, CA 90040"}, "geo": {"lat": 34.005539, "lon": -118.152954}, "menus": [], "last_updated": "2021-01-05T08:32:08.345Z"}, {"restaurant_name": "Palaha Thai Food", "restaurant_phone": "(323) 838-5442", "restaurant_website": "http:///ca/commerce/717709-palaha-thai-food/", "hours": "", "price_range": "", "price_range_num": 0, "restaurant_id": 33989567118160760, "cuisines": [""], "address": {"city": "Commerce", "state": "CA", "postal_code": "90040", "street": "4832-4844 South Eastern Avenue", "formatted": "4832-4844 South Eastern Avenue Commerce, CA 90040"}, "geo": {"lat": 33.989567, "lon": -118.160759}, "menus": [], "last_updated": "2021-01-05T08:32:08.352Z"}, {"restaurant_name": "D J Burger", "restaurant_phone": "(323) 890-1929", "restaurant_website": "http:///ca/commerce/717784-d-j-burger/", "hours": "", "price_range": "", "price_range_num": 0, "restaurant_id": 33989853118160744, "cuisines": [""], "address": {"city": "Commerce", "state": "CA", "postal_code": "90040", "street": "4830 South Eastern Avenue", "formatted": "4830 South Eastern Avenue Commerce, CA 90040"}, "geo": {"lat": 33.989853, "lon": -118.160744}, "menus": [], "last_updated": "2021-01-05T08:32:08.363Z"}, {"restaurant_name": "El Cafetalito", "restaurant_phone": "(323) 268-2837", "restaurant_website": "http:///ca/commerce/717662-el-cafetalito/", "hours": "", "price_range": "", "price_range_num": 0, "restaurant_id": 34001877118165050, "cuisines": [""], "address": {"city": "Commerce", "state": "CA", "postal_code": "90040", "street": "5300 East Washington Boulevard", "formatted": "5300 East Washington Boulevard Commerce, CA 90040"}, "geo": {"lat": 34.001877, "lon": -118.165047}, "menus": [], "last_updated": "2021-01-05T08:32:08.394Z"}, {"restaurant_name": "Gelato by Stick Station", "restaurant_phone": "(323) 246-4441", "restaurant_website": "http:///ca/commerce/602878-gelato-by-stick-station/", "hours": "", "price_range": "", "price_range_num": 0, "restaurant_id": 34000668118161520, "cuisines": [""], "address": {"city": "Commerce", "state": "CA", "postal_code": "90040", "street": "5454 E Washington Blvd", "formatted": "5454 E Washington Blvd Commerce, CA 90040"}, "geo": {"lat": 34.000668, "lon": -118.161522}, "menus": [], "last_updated": "2021-01-05T08:32:08.401Z"}], "numResults": 25}